{
  "type": "FeatureCollection",
  "features": [
    {
      "type": "Feature",
      "properties": {
        "identifier": "1-a-ros",
        "name": "Ruta 1 A ROS"
      },
      "geometry": {
        "type": "LineString",
        "coordinates": [
          [
            -103.40099000000001,
            20.606610000000003
          ],
          [
            -103.40318,
            20.60773
          ],
          [
            -103.40423000000001,
            20.607950000000002
          ],
          [
            -103.40492,
            20.608050000000002
          ],
          [
            -103.40503000000001,
            20.607930000000003
          ],
          [
            -103.40497,
            20.60771
          ],
          [
            -103.4047,
            20.60763
          ],
          [
            -103.40387000000001,
            20.607390000000002
          ],
          [
            -103.40322,
            20.607190000000003
          ],
          [
            -103.40278,
            20.607010000000002
          ],
          [
            -103.40241,
            20.606800000000003
          ],
          [
            -103.40240000000001,
            20.606810000000003
          ],
          [
            -103.40187,
            20.606520000000003
          ],
          [
            -103.40174,
            20.606430000000003
          ],
          [
            -103.40136000000001,
            20.606150000000003
          ],
          [
            -103.40056000000001,
            20.605510000000002
          ],
          [
            -103.40056000000001,
            20.605500000000003
          ],
          [
            -103.40056000000001,
            20.605500000000003
          ],
          [
            -103.40044,
            20.605400000000003
          ],
          [
            -103.39972,
            20.60473
          ],
          [
            -103.39972,
            20.60473
          ],
          [
            -103.39956000000001,
            20.6046
          ],
          [
            -103.39936,
            20.60442
          ],
          [
            -103.39900000000002,
            20.604370000000003
          ],
          [
            -103.39865,
            20.60405
          ],
          [
            -103.39777000000001,
            20.603250000000003
          ],
          [
            -103.39751000000001,
            20.603050000000003
          ],
          [
            -103.39663,
            20.602220000000003
          ],
          [
            -103.39510000000001,
            20.60084
          ],
          [
            -103.39478000000001,
            20.60056
          ],
          [
            -103.39409,
            20.59993
          ],
          [
            -103.39358000000001,
            20.59946
          ],
          [
            -103.39301,
            20.598940000000002
          ],
          [
            -103.39248,
            20.59841
          ],
          [
            -103.39214000000001,
            20.59806
          ],
          [
            -103.39214000000001,
            20.59805
          ],
          [
            -103.39183000000001,
            20.597710000000003
          ],
          [
            -103.39023,
            20.595820000000003
          ],
          [
            -103.38816000000001,
            20.59333
          ],
          [
            -103.38733,
            20.59233
          ],
          [
            -103.38681000000001,
            20.591720000000002
          ],
          [
            -103.38625,
            20.591040000000003
          ],
          [
            -103.38622000000001,
            20.591
          ],
          [
            -103.38622000000001,
            20.591
          ],
          [
            -103.38386000000001,
            20.588150000000002
          ],
          [
            -103.38386000000001,
            20.588150000000002
          ],
          [
            -103.38387,
            20.588150000000002
          ],
          [
            -103.38382000000001,
            20.58811
          ],
          [
            -103.38384,
            20.58799
          ],
          [
            -103.38389000000001,
            20.587860000000003
          ],
          [
            -103.38398000000001,
            20.587760000000003
          ],
          [
            -103.38414,
            20.587660000000003
          ],
          [
            -103.38429000000001,
            20.58754
          ],
          [
            -103.38442,
            20.58737
          ],
          [
            -103.38470000000001,
            20.586840000000002
          ],
          [
            -103.38477,
            20.58658
          ],
          [
            -103.38491,
            20.585800000000003
          ],
          [
            -103.38491,
            20.58573
          ],
          [
            -103.38488000000001,
            20.58566
          ],
          [
            -103.38505,
            20.58481
          ],
          [
            -103.38507000000001,
            20.58481
          ],
          [
            -103.38513,
            20.58452
          ],
          [
            -103.38553,
            20.583170000000003
          ],
          [
            -103.38563,
            20.58293
          ],
          [
            -103.38610000000001,
            20.58182
          ],
          [
            -103.38709000000001,
            20.58019
          ],
          [
            -103.38714,
            20.58011
          ],
          [
            -103.38789000000001,
            20.57881
          ],
          [
            -103.38831,
            20.577630000000003
          ],
          [
            -103.38847000000001,
            20.577160000000003
          ],
          [
            -103.38892000000001,
            20.575930000000003
          ],
          [
            -103.38915000000001,
            20.57553
          ],
          [
            -103.38932000000001,
            20.57522
          ],
          [
            -103.38983,
            20.57479
          ],
          [
            -103.39028,
            20.57441
          ],
          [
            -103.39065000000001,
            20.57376
          ],
          [
            -103.39120000000001,
            20.57194
          ],
          [
            -103.39125000000001,
            20.57175
          ],
          [
            -103.39150000000001,
            20.57064
          ],
          [
            -103.39149,
            20.56944
          ],
          [
            -103.39170000000001,
            20.568
          ],
          [
            -103.3919,
            20.56719
          ],
          [
            -103.39191000000001,
            20.567110000000003
          ],
          [
            -103.39236000000001,
            20.564290000000003
          ],
          [
            -103.39236000000001,
            20.56297
          ],
          [
            -103.3926,
            20.562410000000003
          ],
          [
            -103.39321000000001,
            20.56098
          ],
          [
            -103.39444,
            20.558850000000003
          ],
          [
            -103.39492000000001,
            20.558010000000003
          ],
          [
            -103.39639000000001,
            20.555400000000002
          ],
          [
            -103.39768000000001,
            20.553400000000003
          ],
          [
            -103.39872000000001,
            20.55177
          ],
          [
            -103.40022,
            20.549460000000003
          ],
          [
            -103.4004,
            20.54907
          ],
          [
            -103.40057,
            20.548710000000003
          ],
          [
            -103.40116,
            20.547320000000003
          ],
          [
            -103.40167000000001,
            20.54588
          ],
          [
            -103.40238000000001,
            20.5436
          ],
          [
            -103.40270000000001,
            20.542540000000002
          ],
          [
            -103.40308,
            20.54125
          ],
          [
            -103.40363,
            20.539800000000003
          ],
          [
            -103.4043,
            20.538040000000002
          ],
          [
            -103.40433,
            20.53797
          ],
          [
            -103.40499000000001,
            20.53584
          ],
          [
            -103.40535000000001,
            20.53479
          ],
          [
            -103.40579000000001,
            20.53346
          ],
          [
            -103.40654,
            20.53087
          ],
          [
            -103.40663,
            20.53059
          ],
          [
            -103.40734,
            20.528270000000003
          ],
          [
            -103.40734,
            20.528250000000003
          ],
          [
            -103.40846,
            20.52467
          ],
          [
            -103.40913,
            20.522550000000003
          ],
          [
            -103.40937000000001,
            20.521780000000003
          ],
          [
            -103.41033,
            20.51858
          ],
          [
            -103.41046000000001,
            20.5182
          ],
          [
            -103.41138000000001,
            20.51535
          ],
          [
            -103.41086000000001,
            20.515040000000003
          ],
          [
            -103.40973000000001,
            20.514380000000003
          ],
          [
            -103.40888000000001,
            20.513900000000003
          ],
          [
            -103.40699000000001,
            20.51283
          ],
          [
            -103.40622,
            20.512410000000003
          ],
          [
            -103.40362,
            20.510890000000003
          ],
          [
            -103.40205,
            20.51001
          ],
          [
            -103.39981,
            20.50878
          ],
          [
            -103.39924,
            20.50844
          ],
          [
            -103.39925000000001,
            20.50842
          ],
          [
            -103.39894000000001,
            20.50825
          ],
          [
            -103.39762,
            20.507530000000003
          ],
          [
            -103.39728000000001,
            20.50748
          ],
          [
            -103.39498,
            20.50769
          ],
          [
            -103.39498,
            20.50766
          ],
          [
            -103.39424000000001,
            20.50775
          ],
          [
            -103.39331000000001,
            20.507800000000003
          ],
          [
            -103.39304000000001,
            20.507630000000002
          ],
          [
            -103.39315,
            20.50731
          ],
          [
            -103.39329000000001,
            20.507060000000003
          ],
          [
            -103.39355,
            20.506760000000003
          ],
          [
            -103.39474000000001,
            20.503590000000003
          ],
          [
            -103.39636,
            20.499380000000002
          ],
          [
            -103.39681,
            20.498340000000002
          ],
          [
            -103.39760000000001,
            20.496450000000003
          ],
          [
            -103.39789,
            20.49576
          ],
          [
            -103.39816,
            20.494760000000003
          ],
          [
            -103.39841000000001,
            20.494000000000003
          ],
          [
            -103.39761000000001,
            20.49386
          ],
          [
            -103.39755000000001,
            20.49386
          ],
          [
            -103.39661000000001,
            20.49367
          ],
          [
            -103.39642,
            20.493550000000003
          ],
          [
            -103.39639000000001,
            20.493440000000003
          ],
          [
            -103.39630000000001,
            20.49322
          ],
          [
            -103.39613000000001,
            20.491670000000003
          ],
          [
            -103.39608000000001,
            20.49136
          ],
          [
            -103.39600000000002,
            20.490530000000003
          ],
          [
            -103.39600000000002,
            20.48965
          ],
          [
            -103.39599000000001,
            20.489520000000002
          ],
          [
            -103.39598000000001,
            20.48939
          ],
          [
            -103.39596,
            20.48939
          ],
          [
            -103.39550000000001,
            20.489410000000003
          ],
          [
            -103.3952,
            20.48938
          ],
          [
            -103.39450000000001,
            20.48926
          ],
          [
            -103.39388000000001,
            20.489050000000002
          ],
          [
            -103.39348000000001,
            20.488860000000003
          ],
          [
            -103.39277000000001,
            20.488390000000003
          ],
          [
            -103.39254000000001,
            20.48817
          ],
          [
            -103.39206000000001,
            20.48785
          ],
          [
            -103.39177000000001,
            20.487710000000003
          ],
          [
            -103.39104,
            20.48752
          ],
          [
            -103.39092000000001,
            20.487550000000002
          ],
          [
            -103.39089000000001,
            20.48767
          ],
          [
            -103.39097000000001,
            20.487920000000003
          ],
          [
            -103.39112000000002,
            20.48799
          ],
          [
            -103.39112000000002,
            20.48655
          ]
        ]
      }
    }
  ]
}