{
  "type": "FeatureCollection",
  "features": [
    {
      "type": "Feature",
      "properties": {
        "identifier": "110-a",
        "name": "Ruta 110 A"
      },
      "geometry": {
        "type": "LineString",
        "coordinates": [
          [
            -103.31510000000002,
            20.741570000000003
          ],
          [
            -103.31621000000001,
            20.741860000000003
          ],
          [
            -103.31764000000001,
            20.742240000000002
          ],
          [
            -103.31769000000001,
            20.74221
          ],
          [
            -103.31776,
            20.74202
          ],
          [
            -103.31818000000001,
            20.74087
          ],
          [
            -103.31818000000001,
            20.74087
          ],
          [
            -103.31865,
            20.73956
          ],
          [
            -103.31865,
            20.73956
          ],
          [
            -103.31897000000001,
            20.738670000000003
          ],
          [
            -103.31869,
            20.7386
          ],
          [
            -103.31869,
            20.738590000000002
          ],
          [
            -103.31726,
            20.738210000000002
          ],
          [
            -103.31698000000002,
            20.73814
          ],
          [
            -103.31554000000001,
            20.73776
          ],
          [
            -103.31563000000001,
            20.73751
          ],
          [
            -103.31605,
            20.73637
          ],
          [
            -103.31637,
            20.735480000000003
          ],
          [
            -103.31646,
            20.73524
          ],
          [
            -103.31646,
            20.73524
          ],
          [
            -103.31684000000001,
            20.734260000000003
          ],
          [
            -103.31685,
            20.73423
          ],
          [
            -103.31720000000001,
            20.73337
          ],
          [
            -103.31723000000001,
            20.73329
          ],
          [
            -103.31752,
            20.73253
          ],
          [
            -103.31789,
            20.73269
          ],
          [
            -103.31815,
            20.73279
          ],
          [
            -103.31828,
            20.732850000000003
          ],
          [
            -103.31915000000001,
            20.733230000000002
          ],
          [
            -103.31953000000001,
            20.73339
          ],
          [
            -103.32047000000001,
            20.733780000000003
          ],
          [
            -103.32048,
            20.733780000000003
          ],
          [
            -103.32099000000001,
            20.73401
          ],
          [
            -103.32109000000001,
            20.73403
          ],
          [
            -103.32154000000001,
            20.73403
          ],
          [
            -103.3217,
            20.73403
          ],
          [
            -103.32185000000001,
            20.73404
          ],
          [
            -103.32199000000001,
            20.73338
          ],
          [
            -103.32206000000001,
            20.733120000000003
          ],
          [
            -103.32214,
            20.73278
          ],
          [
            -103.32221000000001,
            20.732380000000003
          ],
          [
            -103.32228,
            20.731910000000003
          ],
          [
            -103.32232,
            20.731640000000002
          ],
          [
            -103.32246,
            20.730690000000003
          ],
          [
            -103.32257000000001,
            20.730690000000003
          ],
          [
            -103.32288000000001,
            20.73084
          ],
          [
            -103.32334,
            20.73102
          ],
          [
            -103.32403000000001,
            20.731170000000002
          ],
          [
            -103.32400000000001,
            20.7315
          ],
          [
            -103.32397,
            20.731830000000002
          ],
          [
            -103.32388,
            20.731820000000003
          ],
          [
            -103.32360000000001,
            20.73175
          ],
          [
            -103.32332000000001,
            20.7317
          ],
          [
            -103.32323000000001,
            20.731070000000003
          ],
          [
            -103.32324000000001,
            20.730980000000002
          ],
          [
            -103.32403000000001,
            20.731170000000002
          ],
          [
            -103.32473,
            20.731350000000003
          ],
          [
            -103.32509,
            20.73142
          ],
          [
            -103.32504000000002,
            20.732080000000003
          ],
          [
            -103.32492,
            20.73204
          ],
          [
            -103.32491,
            20.73205
          ],
          [
            -103.32602000000001,
            20.732300000000002
          ],
          [
            -103.32624000000001,
            20.73235
          ],
          [
            -103.32628000000001,
            20.73234
          ],
          [
            -103.32653,
            20.73177
          ],
          [
            -103.32664000000001,
            20.73151
          ],
          [
            -103.32698,
            20.73064
          ],
          [
            -103.32707,
            20.730400000000003
          ],
          [
            -103.32726000000001,
            20.72988
          ],
          [
            -103.32736000000001,
            20.729190000000003
          ],
          [
            -103.32738,
            20.72895
          ],
          [
            -103.32738,
            20.72895
          ],
          [
            -103.32741000000001,
            20.7282
          ],
          [
            -103.32740000000001,
            20.72792
          ],
          [
            -103.32738,
            20.727120000000003
          ],
          [
            -103.32737,
            20.727120000000003
          ],
          [
            -103.32736000000001,
            20.7267
          ],
          [
            -103.32813,
            20.72662
          ],
          [
            -103.32889000000002,
            20.726550000000003
          ],
          [
            -103.32888000000001,
            20.726560000000003
          ],
          [
            -103.32929000000001,
            20.7265
          ],
          [
            -103.32963000000001,
            20.7264
          ],
          [
            -103.32995000000001,
            20.72623
          ],
          [
            -103.33012000000001,
            20.72607
          ],
          [
            -103.33014000000001,
            20.725990000000003
          ],
          [
            -103.33015,
            20.725900000000003
          ],
          [
            -103.33015,
            20.725140000000003
          ],
          [
            -103.33014000000001,
            20.724860000000003
          ],
          [
            -103.33017000000001,
            20.72362
          ],
          [
            -103.33017000000001,
            20.72342
          ],
          [
            -103.33024,
            20.72313
          ],
          [
            -103.33037,
            20.72277
          ],
          [
            -103.32969000000001,
            20.72249
          ],
          [
            -103.32976000000001,
            20.7221
          ],
          [
            -103.32979,
            20.721760000000003
          ],
          [
            -103.33077000000002,
            20.721770000000003
          ],
          [
            -103.33075000000001,
            20.722060000000003
          ],
          [
            -103.33101,
            20.722150000000003
          ],
          [
            -103.33174000000001,
            20.722420000000003
          ],
          [
            -103.33184000000001,
            20.72246
          ],
          [
            -103.33194,
            20.7222
          ],
          [
            -103.33194,
            20.7222
          ],
          [
            -103.33204,
            20.721970000000002
          ],
          [
            -103.33206000000001,
            20.721870000000003
          ],
          [
            -103.33212,
            20.721020000000003
          ],
          [
            -103.33215000000001,
            20.720350000000003
          ],
          [
            -103.33217,
            20.720090000000003
          ],
          [
            -103.33223000000001,
            20.7192
          ],
          [
            -103.33226,
            20.718940000000003
          ],
          [
            -103.33234,
            20.717930000000003
          ],
          [
            -103.33235,
            20.717930000000003
          ],
          [
            -103.33244,
            20.716600000000003
          ],
          [
            -103.33242000000001,
            20.716440000000002
          ],
          [
            -103.33237000000001,
            20.716330000000003
          ],
          [
            -103.33226,
            20.716140000000003
          ],
          [
            -103.33216,
            20.71602
          ],
          [
            -103.33202000000001,
            20.71591
          ],
          [
            -103.33195,
            20.715850000000003
          ],
          [
            -103.33160000000001,
            20.715570000000003
          ],
          [
            -103.33151000000001,
            20.715490000000003
          ],
          [
            -103.3314,
            20.715300000000003
          ],
          [
            -103.33115000000001,
            20.714730000000003
          ],
          [
            -103.33104,
            20.714470000000002
          ],
          [
            -103.33104,
            20.714470000000002
          ],
          [
            -103.33069,
            20.713690000000003
          ],
          [
            -103.33059000000002,
            20.7133
          ],
          [
            -103.33047,
            20.712860000000003
          ],
          [
            -103.33036000000001,
            20.712570000000003
          ],
          [
            -103.33035000000001,
            20.71244
          ],
          [
            -103.33038,
            20.712300000000003
          ],
          [
            -103.33042,
            20.71223
          ],
          [
            -103.33056,
            20.712110000000003
          ],
          [
            -103.33078,
            20.712010000000003
          ],
          [
            -103.33093000000001,
            20.71195
          ],
          [
            -103.33098000000001,
            20.71186
          ],
          [
            -103.33112000000001,
            20.71095
          ],
          [
            -103.33117000000001,
            20.71068
          ],
          [
            -103.33117000000001,
            20.71068
          ],
          [
            -103.33133000000001,
            20.70973
          ],
          [
            -103.33133000000001,
            20.70973
          ],
          [
            -103.33155000000001,
            20.7084
          ],
          [
            -103.33168,
            20.707610000000003
          ],
          [
            -103.33204,
            20.705540000000003
          ],
          [
            -103.33205000000001,
            20.705530000000003
          ],
          [
            -103.33218000000001,
            20.70476
          ],
          [
            -103.33228000000001,
            20.704120000000003
          ],
          [
            -103.33232000000001,
            20.703870000000002
          ],
          [
            -103.33251000000001,
            20.702720000000003
          ],
          [
            -103.33261,
            20.70213
          ],
          [
            -103.33282000000001,
            20.70088
          ],
          [
            -103.33292,
            20.70031
          ],
          [
            -103.33312000000001,
            20.699170000000002
          ],
          [
            -103.33314000000001,
            20.698980000000002
          ],
          [
            -103.33324,
            20.69882
          ],
          [
            -103.33333,
            20.69864
          ],
          [
            -103.33346,
            20.698400000000003
          ],
          [
            -103.33391,
            20.69754
          ],
          [
            -103.33406000000001,
            20.697280000000003
          ],
          [
            -103.33428,
            20.696900000000003
          ],
          [
            -103.33461000000001,
            20.696260000000002
          ],
          [
            -103.3349,
            20.69576
          ],
          [
            -103.33491000000001,
            20.69574
          ],
          [
            -103.33491000000001,
            20.69574
          ],
          [
            -103.33505000000001,
            20.695480000000003
          ],
          [
            -103.33515000000001,
            20.69554
          ],
          [
            -103.33537000000001,
            20.695600000000002
          ],
          [
            -103.33558000000001,
            20.69563
          ],
          [
            -103.33599000000001,
            20.695600000000002
          ],
          [
            -103.3362,
            20.69557
          ],
          [
            -103.33637,
            20.695490000000003
          ],
          [
            -103.3366,
            20.69536
          ],
          [
            -103.33682,
            20.69516
          ],
          [
            -103.33718,
            20.694750000000003
          ],
          [
            -103.33752000000001,
            20.694450000000003
          ],
          [
            -103.33753000000002,
            20.69444
          ],
          [
            -103.33753000000002,
            20.694450000000003
          ],
          [
            -103.33787000000001,
            20.694190000000003
          ],
          [
            -103.33874,
            20.693720000000003
          ],
          [
            -103.33900000000001,
            20.693630000000002
          ],
          [
            -103.33954000000001,
            20.69346
          ],
          [
            -103.34066000000001,
            20.693240000000003
          ],
          [
            -103.34175,
            20.693160000000002
          ],
          [
            -103.34175,
            20.693170000000002
          ],
          [
            -103.34233,
            20.693160000000002
          ],
          [
            -103.34235000000001,
            20.6932
          ],
          [
            -103.34238,
            20.693240000000003
          ],
          [
            -103.34248000000001,
            20.6933
          ],
          [
            -103.34256,
            20.6933
          ],
          [
            -103.34263000000001,
            20.69328
          ],
          [
            -103.34268,
            20.693240000000003
          ],
          [
            -103.34272000000001,
            20.69318
          ],
          [
            -103.34273,
            20.693150000000003
          ],
          [
            -103.34273,
            20.69313
          ],
          [
            -103.34338000000001,
            20.69311
          ],
          [
            -103.34365000000001,
            20.6931
          ],
          [
            -103.34395,
            20.6931
          ],
          [
            -103.34479,
            20.693060000000003
          ],
          [
            -103.3448,
            20.693050000000003
          ],
          [
            -103.34616000000001,
            20.69302
          ],
          [
            -103.34617000000001,
            20.69302
          ],
          [
            -103.3464,
            20.69302
          ],
          [
            -103.34662,
            20.693050000000003
          ],
          [
            -103.34683000000001,
            20.693160000000002
          ],
          [
            -103.34692000000001,
            20.693250000000003
          ],
          [
            -103.34698,
            20.693330000000003
          ],
          [
            -103.34688000000001,
            20.69339
          ],
          [
            -103.34645,
            20.693620000000003
          ],
          [
            -103.34606000000001,
            20.69375
          ],
          [
            -103.34550000000002,
            20.69396
          ],
          [
            -103.34493,
            20.69416
          ],
          [
            -103.34455000000001,
            20.694270000000003
          ],
          [
            -103.34399,
            20.69433
          ],
          [
            -103.34344000000002,
            20.69434
          ],
          [
            -103.34344000000002,
            20.69451
          ],
          [
            -103.34440000000001,
            20.694470000000003
          ],
          [
            -103.34442000000001,
            20.695130000000002
          ],
          [
            -103.34444,
            20.695780000000003
          ],
          [
            -103.34522000000001,
            20.69575
          ],
          [
            -103.34658,
            20.69566
          ],
          [
            -103.34757,
            20.695500000000003
          ],
          [
            -103.34760000000001,
            20.695490000000003
          ],
          [
            -103.34771,
            20.695680000000003
          ],
          [
            -103.34794000000001,
            20.69575
          ],
          [
            -103.34798,
            20.695780000000003
          ],
          [
            -103.34809000000001,
            20.69585
          ],
          [
            -103.34837,
            20.69593
          ],
          [
            -103.34866000000001,
            20.695970000000003
          ],
          [
            -103.34883,
            20.69592
          ],
          [
            -103.34902000000001,
            20.69582
          ],
          [
            -103.34907000000001,
            20.695780000000003
          ],
          [
            -103.3491,
            20.695690000000003
          ],
          [
            -103.34918,
            20.695580000000003
          ],
          [
            -103.34920000000001,
            20.695410000000003
          ],
          [
            -103.34920000000001,
            20.695310000000003
          ],
          [
            -103.34930000000001,
            20.695130000000002
          ],
          [
            -103.34933000000001,
            20.695010000000003
          ],
          [
            -103.34920000000001,
            20.694730000000003
          ],
          [
            -103.34911000000001,
            20.69463
          ],
          [
            -103.34899000000001,
            20.69454
          ],
          [
            -103.34882,
            20.694460000000003
          ],
          [
            -103.34866000000001,
            20.69442
          ],
          [
            -103.34846,
            20.694380000000002
          ],
          [
            -103.34845000000001,
            20.694380000000002
          ],
          [
            -103.34822000000001,
            20.694460000000003
          ],
          [
            -103.34789,
            20.694650000000003
          ],
          [
            -103.34773000000001,
            20.694850000000002
          ],
          [
            -103.34762,
            20.69515
          ],
          [
            -103.34760000000001,
            20.695490000000003
          ],
          [
            -103.34771,
            20.695680000000003
          ],
          [
            -103.34794000000001,
            20.69575
          ],
          [
            -103.34802,
            20.69582
          ],
          [
            -103.34816000000001,
            20.695880000000002
          ],
          [
            -103.34844000000001,
            20.695950000000003
          ],
          [
            -103.34858000000001,
            20.695960000000003
          ],
          [
            -103.34873,
            20.695960000000003
          ],
          [
            -103.34892,
            20.695880000000002
          ],
          [
            -103.34907000000001,
            20.695780000000003
          ],
          [
            -103.34918,
            20.695580000000003
          ],
          [
            -103.34920000000001,
            20.695310000000003
          ],
          [
            -103.34930000000001,
            20.695130000000002
          ],
          [
            -103.34933000000001,
            20.695010000000003
          ],
          [
            -103.34920000000001,
            20.694730000000003
          ],
          [
            -103.34942000000001,
            20.6946
          ],
          [
            -103.34943000000001,
            20.69459
          ],
          [
            -103.34944000000002,
            20.69459
          ],
          [
            -103.34963,
            20.6945
          ],
          [
            -103.35008,
            20.69431
          ],
          [
            -103.35059000000001,
            20.69422
          ],
          [
            -103.35165,
            20.69415
          ],
          [
            -103.35167000000001,
            20.69387
          ],
          [
            -103.35170000000001,
            20.69332
          ],
          [
            -103.35174,
            20.6929
          ],
          [
            -103.35187,
            20.69134
          ],
          [
            -103.35188000000001,
            20.691170000000003
          ],
          [
            -103.35196,
            20.689500000000002
          ],
          [
            -103.35198000000001,
            20.6889
          ],
          [
            -103.3508,
            20.68897
          ],
          [
            -103.3508,
            20.68898
          ],
          [
            -103.35061,
            20.689
          ],
          [
            -103.34962,
            20.68905
          ],
          [
            -103.34863000000001,
            20.68905
          ],
          [
            -103.34863000000001,
            20.68905
          ],
          [
            -103.34813000000001,
            20.68906
          ],
          [
            -103.34802,
            20.68786
          ],
          [
            -103.34808000000001,
            20.68785
          ],
          [
            -103.34801,
            20.68654
          ],
          [
            -103.34794000000001,
            20.68541
          ],
          [
            -103.34795000000001,
            20.684500000000003
          ],
          [
            -103.34793,
            20.684230000000003
          ],
          [
            -103.35223,
            20.684410000000003
          ],
          [
            -103.35231,
            20.68278
          ],
          [
            -103.35232,
            20.6826
          ],
          [
            -103.35235000000002,
            20.68093
          ],
          [
            -103.34769000000001,
            20.680850000000003
          ],
          [
            -103.34768000000001,
            20.680850000000003
          ],
          [
            -103.34766,
            20.68034
          ],
          [
            -103.34761,
            20.67959
          ],
          [
            -103.34787000000001,
            20.679570000000002
          ],
          [
            -103.34816000000001,
            20.679550000000003
          ],
          [
            -103.34938000000001,
            20.67951
          ],
          [
            -103.34938000000001,
            20.67951
          ],
          [
            -103.34938000000001,
            20.67951
          ],
          [
            -103.35066,
            20.679460000000002
          ],
          [
            -103.35066,
            20.679450000000003
          ],
          [
            -103.35130000000001,
            20.679450000000003
          ],
          [
            -103.35158000000001,
            20.679440000000003
          ],
          [
            -103.35158000000001,
            20.679450000000003
          ],
          [
            -103.35158000000001,
            20.679450000000003
          ],
          [
            -103.35263,
            20.67942
          ],
          [
            -103.35263,
            20.67942
          ],
          [
            -103.35392,
            20.67941
          ],
          [
            -103.35393,
            20.6794
          ],
          [
            -103.35393,
            20.6794
          ],
          [
            -103.35524000000001,
            20.67941
          ],
          [
            -103.35536,
            20.6794
          ],
          [
            -103.35657,
            20.6794
          ],
          [
            -103.35657,
            20.6794
          ],
          [
            -103.35870000000001,
            20.67939
          ],
          [
            -103.35871,
            20.679380000000002
          ],
          [
            -103.35871,
            20.679380000000002
          ],
          [
            -103.36114,
            20.679370000000002
          ],
          [
            -103.36386,
            20.679350000000003
          ],
          [
            -103.36414,
            20.679350000000003
          ],
          [
            -103.36414,
            20.679350000000003
          ],
          [
            -103.36479000000001,
            20.679350000000003
          ],
          [
            -103.36649000000001,
            20.67933
          ],
          [
            -103.36759,
            20.67931
          ],
          [
            -103.36759,
            20.67932
          ],
          [
            -103.36832000000001,
            20.67932
          ],
          [
            -103.36869000000002,
            20.679270000000002
          ],
          [
            -103.36872000000001,
            20.679270000000002
          ],
          [
            -103.36879,
            20.679270000000002
          ],
          [
            -103.36904000000001,
            20.679280000000002
          ],
          [
            -103.36904000000001,
            20.679270000000002
          ],
          [
            -103.36954000000001,
            20.67931
          ],
          [
            -103.36994000000001,
            20.6793
          ],
          [
            -103.37014,
            20.6793
          ],
          [
            -103.37015000000001,
            20.67929
          ],
          [
            -103.37117,
            20.679270000000002
          ],
          [
            -103.37162000000001,
            20.67922
          ],
          [
            -103.37164000000001,
            20.67924
          ],
          [
            -103.37167000000001,
            20.679260000000003
          ],
          [
            -103.37177000000001,
            20.679260000000003
          ],
          [
            -103.37180000000001,
            20.67924
          ],
          [
            -103.37200000000001,
            20.67924
          ],
          [
            -103.37200000000001,
            20.67924
          ],
          [
            -103.37301000000001,
            20.679250000000003
          ],
          [
            -103.37301000000001,
            20.679260000000003
          ],
          [
            -103.37408,
            20.679270000000002
          ],
          [
            -103.37508000000001,
            20.67931
          ],
          [
            -103.37509000000001,
            20.67931
          ],
          [
            -103.37642000000001,
            20.679370000000002
          ],
          [
            -103.37643000000001,
            20.679380000000002
          ],
          [
            -103.37643000000001,
            20.679370000000002
          ],
          [
            -103.37673000000001,
            20.67939
          ],
          [
            -103.37822000000001,
            20.67943
          ],
          [
            -103.37823,
            20.67943
          ],
          [
            -103.37823,
            20.67941
          ],
          [
            -103.37959000000001,
            20.679460000000002
          ],
          [
            -103.38226,
            20.679570000000002
          ],
          [
            -103.38226,
            20.679560000000002
          ],
          [
            -103.38369,
            20.67961
          ],
          [
            -103.38464,
            20.679650000000002
          ],
          [
            -103.38465000000001,
            20.679660000000002
          ],
          [
            -103.38747000000001,
            20.679730000000003
          ],
          [
            -103.38747000000001,
            20.679730000000003
          ],
          [
            -103.38842000000001,
            20.67976
          ],
          [
            -103.38905000000001,
            20.67976
          ],
          [
            -103.38987,
            20.67971
          ],
          [
            -103.38988,
            20.6797
          ],
          [
            -103.39199,
            20.67958
          ],
          [
            -103.39200000000001,
            20.679570000000002
          ],
          [
            -103.39251,
            20.679530000000003
          ],
          [
            -103.39299000000001,
            20.679440000000003
          ],
          [
            -103.39322000000001,
            20.67941
          ],
          [
            -103.39325000000001,
            20.679450000000003
          ],
          [
            -103.39333,
            20.6795
          ],
          [
            -103.39341,
            20.67952
          ],
          [
            -103.39355,
            20.679530000000003
          ],
          [
            -103.39364,
            20.67951
          ],
          [
            -103.39371000000001,
            20.679460000000002
          ],
          [
            -103.39382,
            20.679350000000003
          ],
          [
            -103.39385000000001,
            20.67924
          ],
          [
            -103.39386,
            20.679170000000003
          ],
          [
            -103.39481,
            20.678970000000003
          ],
          [
            -103.39557,
            20.678870000000003
          ],
          [
            -103.39595000000001,
            20.67885
          ],
          [
            -103.39596,
            20.678980000000003
          ],
          [
            -103.39665000000001,
            20.67892
          ],
          [
            -103.3974,
            20.67886
          ],
          [
            -103.39763,
            20.67883
          ],
          [
            -103.39762,
            20.678700000000003
          ],
          [
            -103.39945,
            20.67855
          ],
          [
            -103.39945,
            20.67855
          ],
          [
            -103.39979000000001,
            20.678520000000002
          ],
          [
            -103.40020000000001,
            20.67849
          ],
          [
            -103.40021000000002,
            20.67855
          ],
          [
            -103.40395000000001,
            20.678130000000003
          ],
          [
            -103.40394,
            20.678040000000003
          ],
          [
            -103.40492,
            20.67793
          ],
          [
            -103.40567000000001,
            20.6779
          ],
          [
            -103.40568,
            20.686400000000003
          ],
          [
            -103.40568,
            20.68496
          ]
        ]
      }
    }
  ]
}