{
  "type": "FeatureCollection",
  "features": [
    {
      "type": "Feature",
      "properties": {
        "identifier": "110-a?o=2",
        "name": "Ruta 110 A"
      },
      "geometry": {
        "type": "LineString",
        "coordinates": [
          [
            -103.40579000000001,
            20.67771
          ],
          [
            -103.40523,
            20.67772
          ],
          [
            -103.40523,
            20.677780000000002
          ],
          [
            -103.40509000000002,
            20.677770000000002
          ],
          [
            -103.40445000000001,
            20.6778
          ],
          [
            -103.40379000000001,
            20.677860000000003
          ],
          [
            -103.403,
            20.677970000000002
          ],
          [
            -103.40253000000001,
            20.678040000000003
          ],
          [
            -103.40219,
            20.67808
          ],
          [
            -103.40220000000001,
            20.678140000000003
          ],
          [
            -103.4003,
            20.678350000000002
          ],
          [
            -103.40028000000001,
            20.67829
          ],
          [
            -103.39919,
            20.67837
          ],
          [
            -103.39891000000001,
            20.67839
          ],
          [
            -103.39859000000001,
            20.678420000000003
          ],
          [
            -103.39771,
            20.67849
          ],
          [
            -103.39771,
            20.67849
          ],
          [
            -103.39770000000001,
            20.678500000000003
          ],
          [
            -103.39722,
            20.678520000000002
          ],
          [
            -103.39695,
            20.67855
          ],
          [
            -103.39695,
            20.67855
          ],
          [
            -103.39584,
            20.67866
          ],
          [
            -103.39584,
            20.67866
          ],
          [
            -103.39585000000001,
            20.67876
          ],
          [
            -103.39449,
            20.678890000000003
          ],
          [
            -103.39450000000001,
            20.67886
          ],
          [
            -103.39380000000001,
            20.67902
          ],
          [
            -103.39378,
            20.678990000000002
          ],
          [
            -103.39374000000001,
            20.67896
          ],
          [
            -103.39363,
            20.678890000000003
          ],
          [
            -103.39346,
            20.678870000000003
          ],
          [
            -103.39338000000001,
            20.678890000000003
          ],
          [
            -103.39331000000001,
            20.67893
          ],
          [
            -103.39320000000001,
            20.67905
          ],
          [
            -103.39315,
            20.679180000000002
          ],
          [
            -103.39315,
            20.6792
          ],
          [
            -103.3927,
            20.67933
          ],
          [
            -103.39233000000002,
            20.67939
          ],
          [
            -103.39179000000001,
            20.67942
          ],
          [
            -103.39179000000001,
            20.67942
          ],
          [
            -103.38932000000001,
            20.679560000000002
          ],
          [
            -103.38931000000001,
            20.679560000000002
          ],
          [
            -103.38808,
            20.67959
          ],
          [
            -103.38778,
            20.67959
          ],
          [
            -103.38777,
            20.67959
          ],
          [
            -103.38654000000001,
            20.679530000000003
          ],
          [
            -103.38550000000001,
            20.67951
          ],
          [
            -103.38548000000002,
            20.67951
          ],
          [
            -103.38371000000001,
            20.67942
          ],
          [
            -103.38266000000002,
            20.679440000000003
          ],
          [
            -103.38133,
            20.679370000000002
          ],
          [
            -103.38104000000001,
            20.679360000000003
          ],
          [
            -103.38104000000001,
            20.679360000000003
          ],
          [
            -103.37969000000001,
            20.67933
          ],
          [
            -103.37968000000001,
            20.67933
          ],
          [
            -103.37836000000001,
            20.679270000000002
          ],
          [
            -103.37836000000001,
            20.679270000000002
          ],
          [
            -103.37836000000001,
            20.679280000000002
          ],
          [
            -103.37740000000001,
            20.679260000000003
          ],
          [
            -103.37671,
            20.679250000000003
          ],
          [
            -103.37545000000001,
            20.679180000000002
          ],
          [
            -103.37369000000001,
            20.67911
          ],
          [
            -103.37225000000001,
            20.679080000000003
          ],
          [
            -103.37179,
            20.679080000000003
          ],
          [
            -103.37175,
            20.679060000000003
          ],
          [
            -103.37171000000001,
            20.67905
          ],
          [
            -103.37163000000001,
            20.679080000000003
          ],
          [
            -103.37064000000001,
            20.678990000000002
          ],
          [
            -103.36989000000001,
            20.67896
          ],
          [
            -103.36913000000001,
            20.678900000000002
          ],
          [
            -103.36907000000001,
            20.678890000000003
          ],
          [
            -103.36886000000001,
            20.67893
          ],
          [
            -103.36884,
            20.67892
          ],
          [
            -103.36873000000001,
            20.678890000000003
          ],
          [
            -103.36864000000001,
            20.67893
          ],
          [
            -103.36862,
            20.67895
          ],
          [
            -103.36853,
            20.678880000000003
          ],
          [
            -103.36734000000001,
            20.678790000000003
          ],
          [
            -103.36597,
            20.67873
          ],
          [
            -103.36597,
            20.678720000000002
          ],
          [
            -103.36576000000001,
            20.685560000000002
          ],
          [
            -103.364,
            20.68551
          ],
          [
            -103.36422,
            20.678590000000003
          ],
          [
            -103.36421000000001,
            20.678590000000003
          ],
          [
            -103.36389000000001,
            20.67858
          ],
          [
            -103.36329,
            20.67858
          ],
          [
            -103.36252,
            20.678590000000003
          ],
          [
            -103.36251000000001,
            20.678600000000003
          ],
          [
            -103.36155000000001,
            20.678610000000003
          ],
          [
            -103.36155000000001,
            20.678600000000003
          ],
          [
            -103.36154,
            20.678610000000003
          ],
          [
            -103.36006,
            20.678620000000002
          ],
          [
            -103.36006,
            20.678630000000002
          ],
          [
            -103.35987000000002,
            20.68539
          ],
          [
            -103.35505,
            20.685270000000003
          ],
          [
            -103.35376000000001,
            20.685260000000003
          ],
          [
            -103.35216000000001,
            20.68515
          ],
          [
            -103.35243000000001,
            20.67876
          ],
          [
            -103.35243000000001,
            20.67874
          ],
          [
            -103.35243000000001,
            20.678700000000003
          ],
          [
            -103.35243000000001,
            20.67868
          ],
          [
            -103.35243000000001,
            20.67866
          ],
          [
            -103.35243000000001,
            20.678630000000002
          ],
          [
            -103.35386000000001,
            20.67868
          ],
          [
            -103.35384,
            20.67868
          ],
          [
            -103.35211000000001,
            20.678700000000003
          ],
          [
            -103.35211000000001,
            20.678700000000003
          ],
          [
            -103.35134000000001,
            20.678700000000003
          ],
          [
            -103.35106,
            20.678710000000002
          ],
          [
            -103.35106,
            20.67873
          ],
          [
            -103.34878,
            20.678790000000003
          ],
          [
            -103.34878,
            20.678790000000003
          ],
          [
            -103.34878,
            20.678790000000003
          ],
          [
            -103.34827000000001,
            20.678800000000003
          ],
          [
            -103.34757,
            20.67885
          ],
          [
            -103.34758000000001,
            20.679090000000002
          ],
          [
            -103.34756,
            20.679090000000002
          ],
          [
            -103.34760000000001,
            20.6796
          ],
          [
            -103.34764000000001,
            20.68035
          ],
          [
            -103.34765,
            20.680590000000002
          ],
          [
            -103.34765,
            20.681140000000003
          ],
          [
            -103.3477,
            20.681880000000003
          ],
          [
            -103.34772000000001,
            20.68214
          ],
          [
            -103.34776000000001,
            20.68277
          ],
          [
            -103.34778000000001,
            20.683570000000003
          ],
          [
            -103.34782000000001,
            20.68382
          ],
          [
            -103.34789,
            20.684500000000003
          ],
          [
            -103.34791000000001,
            20.68474
          ],
          [
            -103.34794000000001,
            20.68539
          ],
          [
            -103.34795000000001,
            20.685640000000003
          ],
          [
            -103.34796000000001,
            20.686300000000003
          ],
          [
            -103.34799000000001,
            20.68654
          ],
          [
            -103.34802,
            20.68682
          ],
          [
            -103.34802,
            20.687330000000003
          ],
          [
            -103.34805000000001,
            20.68757
          ],
          [
            -103.3481,
            20.68812
          ],
          [
            -103.34814000000001,
            20.68909
          ],
          [
            -103.34816000000001,
            20.68934
          ],
          [
            -103.34819,
            20.689780000000003
          ],
          [
            -103.34824,
            20.690530000000003
          ],
          [
            -103.34826000000001,
            20.69078
          ],
          [
            -103.34828,
            20.691260000000003
          ],
          [
            -103.34831000000001,
            20.692010000000003
          ],
          [
            -103.34833,
            20.69226
          ],
          [
            -103.34832000000002,
            20.69226
          ],
          [
            -103.34834000000001,
            20.69262
          ],
          [
            -103.34804000000001,
            20.69265
          ],
          [
            -103.34796000000001,
            20.692670000000003
          ],
          [
            -103.34786000000001,
            20.69272
          ],
          [
            -103.34764000000001,
            20.692870000000003
          ],
          [
            -103.34717,
            20.69291
          ],
          [
            -103.34639000000001,
            20.69293
          ],
          [
            -103.34639000000001,
            20.69293
          ],
          [
            -103.3451,
            20.692970000000003
          ],
          [
            -103.34483,
            20.692980000000002
          ],
          [
            -103.34483,
            20.692980000000002
          ],
          [
            -103.34460000000001,
            20.69299
          ],
          [
            -103.34367,
            20.69301
          ],
          [
            -103.34282,
            20.693040000000003
          ],
          [
            -103.34271000000001,
            20.69294
          ],
          [
            -103.34257000000001,
            20.692860000000003
          ],
          [
            -103.34246,
            20.69285
          ],
          [
            -103.34236000000001,
            20.692880000000002
          ],
          [
            -103.34229,
            20.692970000000003
          ],
          [
            -103.34222000000001,
            20.693040000000003
          ],
          [
            -103.34119000000001,
            20.69309
          ],
          [
            -103.34119000000001,
            20.69312
          ],
          [
            -103.34068,
            20.69313
          ],
          [
            -103.34008000000001,
            20.693240000000003
          ],
          [
            -103.33954000000001,
            20.693350000000002
          ],
          [
            -103.33872000000001,
            20.69366
          ],
          [
            -103.33848,
            20.69378
          ],
          [
            -103.33799,
            20.69404
          ],
          [
            -103.33745,
            20.69441
          ],
          [
            -103.33711000000001,
            20.69471
          ],
          [
            -103.33706000000001,
            20.694760000000002
          ],
          [
            -103.33706000000001,
            20.694760000000002
          ],
          [
            -103.33677000000002,
            20.69509
          ],
          [
            -103.33623000000001,
            20.695500000000003
          ],
          [
            -103.33596000000001,
            20.695600000000002
          ],
          [
            -103.33568000000001,
            20.695600000000002
          ],
          [
            -103.33538000000001,
            20.69555
          ],
          [
            -103.33506000000001,
            20.695410000000003
          ],
          [
            -103.33483000000001,
            20.695300000000003
          ],
          [
            -103.33375000000001,
            20.6948
          ],
          [
            -103.33376000000001,
            20.69479
          ],
          [
            -103.33352000000001,
            20.69468
          ],
          [
            -103.33339000000001,
            20.69463
          ],
          [
            -103.33334,
            20.694480000000002
          ],
          [
            -103.33327000000001,
            20.694380000000002
          ],
          [
            -103.33307,
            20.694360000000003
          ],
          [
            -103.33298,
            20.69441
          ],
          [
            -103.33294000000001,
            20.694470000000003
          ],
          [
            -103.33292,
            20.6946
          ],
          [
            -103.33296000000001,
            20.69469
          ],
          [
            -103.33295000000001,
            20.694760000000002
          ],
          [
            -103.33260000000001,
            20.695210000000003
          ],
          [
            -103.33235,
            20.69553
          ],
          [
            -103.33198,
            20.69621
          ],
          [
            -103.33142000000001,
            20.69723
          ],
          [
            -103.33125000000001,
            20.69754
          ],
          [
            -103.33017000000001,
            20.69957
          ],
          [
            -103.33014000000001,
            20.69956
          ],
          [
            -103.32943,
            20.70091
          ],
          [
            -103.32966,
            20.70101
          ],
          [
            -103.32966,
            20.701020000000003
          ],
          [
            -103.33071000000001,
            20.70154
          ],
          [
            -103.331,
            20.701690000000003
          ],
          [
            -103.33153000000001,
            20.70193
          ],
          [
            -103.33113,
            20.70269
          ],
          [
            -103.33063000000001,
            20.70362
          ],
          [
            -103.33063000000001,
            20.70362
          ],
          [
            -103.32995000000001,
            20.70485
          ],
          [
            -103.32985000000001,
            20.705060000000003
          ],
          [
            -103.32979,
            20.705170000000003
          ],
          [
            -103.32919000000001,
            20.706290000000003
          ],
          [
            -103.32905000000001,
            20.70654
          ],
          [
            -103.32958,
            20.70679
          ],
          [
            -103.33034,
            20.707140000000003
          ],
          [
            -103.33035000000001,
            20.707150000000002
          ],
          [
            -103.33032000000001,
            20.707210000000003
          ],
          [
            -103.33137,
            20.707710000000002
          ],
          [
            -103.33164000000001,
            20.70785
          ],
          [
            -103.33244,
            20.70823
          ],
          [
            -103.33247000000001,
            20.708170000000003
          ],
          [
            -103.33247000000001,
            20.708170000000003
          ],
          [
            -103.33295000000001,
            20.70839
          ],
          [
            -103.33335000000001,
            20.70859
          ],
          [
            -103.33412000000001,
            20.70896
          ],
          [
            -103.33436,
            20.70907
          ],
          [
            -103.33482000000001,
            20.709300000000002
          ],
          [
            -103.33470000000001,
            20.709490000000002
          ],
          [
            -103.33453000000002,
            20.709860000000003
          ],
          [
            -103.33435000000001,
            20.7102
          ],
          [
            -103.33429000000001,
            20.71038
          ],
          [
            -103.33423,
            20.710800000000003
          ],
          [
            -103.33421000000001,
            20.71123
          ],
          [
            -103.33392,
            20.71115
          ],
          [
            -103.33356,
            20.71111
          ],
          [
            -103.33224000000001,
            20.71102
          ],
          [
            -103.33198,
            20.711000000000002
          ],
          [
            -103.33173000000001,
            20.710990000000002
          ],
          [
            -103.33112000000001,
            20.71095
          ],
          [
            -103.33108000000001,
            20.711180000000002
          ],
          [
            -103.33108000000001,
            20.711190000000002
          ],
          [
            -103.33098000000001,
            20.71186
          ],
          [
            -103.33095,
            20.711930000000002
          ],
          [
            -103.33091,
            20.71196
          ],
          [
            -103.33078,
            20.712010000000003
          ],
          [
            -103.33056,
            20.712110000000003
          ],
          [
            -103.33042,
            20.71223
          ],
          [
            -103.33038,
            20.712300000000003
          ],
          [
            -103.33035000000001,
            20.71244
          ],
          [
            -103.33036000000001,
            20.712570000000003
          ],
          [
            -103.33047,
            20.712860000000003
          ],
          [
            -103.33061000000001,
            20.71339
          ],
          [
            -103.33062000000001,
            20.71339
          ],
          [
            -103.33069,
            20.713690000000003
          ],
          [
            -103.33089000000001,
            20.71414
          ],
          [
            -103.33125000000001,
            20.71495
          ],
          [
            -103.33126000000001,
            20.71495
          ],
          [
            -103.3314,
            20.715300000000003
          ],
          [
            -103.33151000000001,
            20.715490000000003
          ],
          [
            -103.33160000000001,
            20.715570000000003
          ],
          [
            -103.33216,
            20.71602
          ],
          [
            -103.33232000000001,
            20.716230000000003
          ],
          [
            -103.33243,
            20.71649
          ],
          [
            -103.33242000000001,
            20.71685
          ],
          [
            -103.33234,
            20.71684
          ],
          [
            -103.33233000000001,
            20.71685
          ],
          [
            -103.33242000000001,
            20.71685
          ],
          [
            -103.33239,
            20.717370000000003
          ],
          [
            -103.33342,
            20.717370000000003
          ],
          [
            -103.33369,
            20.717370000000003
          ],
          [
            -103.33392,
            20.717370000000003
          ],
          [
            -103.33401,
            20.71739
          ],
          [
            -103.33398000000001,
            20.717840000000002
          ],
          [
            -103.33401,
            20.71846
          ],
          [
            -103.33401,
            20.71847
          ],
          [
            -103.33409,
            20.719440000000002
          ],
          [
            -103.33409,
            20.719440000000002
          ],
          [
            -103.33417000000001,
            20.72043
          ],
          [
            -103.33421000000001,
            20.720930000000003
          ],
          [
            -103.33420000000001,
            20.72212
          ],
          [
            -103.33419,
            20.722330000000003
          ],
          [
            -103.33418,
            20.723450000000003
          ],
          [
            -103.33339000000001,
            20.72341
          ],
          [
            -103.33324,
            20.723370000000003
          ],
          [
            -103.33073,
            20.72246
          ],
          [
            -103.33073,
            20.72276
          ],
          [
            -103.33071000000001,
            20.722820000000002
          ],
          [
            -103.33066000000001,
            20.72285
          ],
          [
            -103.3306,
            20.72284
          ],
          [
            -103.33037,
            20.72277
          ],
          [
            -103.33032000000001,
            20.722900000000003
          ],
          [
            -103.33024,
            20.72313
          ],
          [
            -103.33040000000001,
            20.723190000000002
          ],
          [
            -103.33145,
            20.723570000000002
          ],
          [
            -103.33216,
            20.723840000000003
          ],
          [
            -103.33216,
            20.723840000000003
          ],
          [
            -103.33362000000001,
            20.724400000000003
          ],
          [
            -103.33558000000001,
            20.72512
          ],
          [
            -103.33657000000001,
            20.72546
          ],
          [
            -103.33698000000001,
            20.725620000000003
          ],
          [
            -103.33707000000001,
            20.725440000000003
          ],
          [
            -103.33697000000001,
            20.72539
          ],
          [
            -103.33501000000001,
            20.724680000000003
          ],
          [
            -103.33383,
            20.72425
          ],
          [
            -103.33273000000001,
            20.723830000000003
          ],
          [
            -103.33067000000001,
            20.72304
          ],
          [
            -103.33032000000001,
            20.722900000000003
          ],
          [
            -103.33019,
            20.723290000000002
          ],
          [
            -103.33017000000001,
            20.72342
          ],
          [
            -103.32990000000001,
            20.72342
          ],
          [
            -103.32989,
            20.72342
          ],
          [
            -103.32920000000001,
            20.72341
          ],
          [
            -103.32846,
            20.723380000000002
          ],
          [
            -103.32816000000001,
            20.72335
          ],
          [
            -103.32816000000001,
            20.72334
          ],
          [
            -103.32778,
            20.723280000000003
          ],
          [
            -103.32734,
            20.72316
          ],
          [
            -103.32718000000001,
            20.723090000000003
          ],
          [
            -103.32703000000001,
            20.72352
          ],
          [
            -103.32673000000001,
            20.7234
          ],
          [
            -103.32664000000001,
            20.723370000000003
          ],
          [
            -103.3264,
            20.723300000000002
          ],
          [
            -103.32639,
            20.72331
          ],
          [
            -103.32664000000001,
            20.723370000000003
          ],
          [
            -103.32651000000001,
            20.72396
          ],
          [
            -103.32582000000001,
            20.72369
          ],
          [
            -103.32522,
            20.723460000000003
          ],
          [
            -103.32512000000001,
            20.72344
          ],
          [
            -103.32487,
            20.72342
          ],
          [
            -103.32469,
            20.72343
          ],
          [
            -103.32411,
            20.723470000000002
          ],
          [
            -103.32388,
            20.72344
          ],
          [
            -103.32391000000001,
            20.723750000000003
          ],
          [
            -103.32402,
            20.72491
          ],
          [
            -103.32404000000001,
            20.725140000000003
          ],
          [
            -103.32421000000001,
            20.7266
          ],
          [
            -103.32425,
            20.727
          ],
          [
            -103.32264,
            20.72715
          ],
          [
            -103.32202000000001,
            20.727210000000003
          ],
          [
            -103.32107,
            20.727300000000003
          ],
          [
            -103.32048,
            20.72735
          ],
          [
            -103.32046000000001,
            20.728330000000003
          ],
          [
            -103.32051000000001,
            20.729180000000003
          ],
          [
            -103.32054000000001,
            20.72925
          ],
          [
            -103.32056000000001,
            20.729270000000003
          ],
          [
            -103.32109000000001,
            20.72923
          ],
          [
            -103.32213,
            20.729190000000003
          ],
          [
            -103.32252000000001,
            20.729190000000003
          ],
          [
            -103.32251000000001,
            20.729010000000002
          ],
          [
            -103.3225,
            20.729010000000002
          ],
          [
            -103.32252000000001,
            20.729190000000003
          ],
          [
            -103.32255,
            20.729190000000003
          ],
          [
            -103.32314000000001,
            20.729190000000003
          ],
          [
            -103.3237,
            20.729190000000003
          ],
          [
            -103.32419,
            20.729190000000003
          ],
          [
            -103.32417000000001,
            20.72962
          ],
          [
            -103.32412000000001,
            20.73009
          ],
          [
            -103.32408000000001,
            20.730420000000002
          ],
          [
            -103.32405000000001,
            20.73053
          ],
          [
            -103.32400000000001,
            20.7315
          ],
          [
            -103.32397,
            20.731830000000002
          ],
          [
            -103.32388,
            20.731820000000003
          ],
          [
            -103.3237,
            20.73177
          ],
          [
            -103.32369000000001,
            20.73179
          ],
          [
            -103.32334,
            20.731710000000003
          ],
          [
            -103.32270000000001,
            20.731550000000002
          ],
          [
            -103.32270000000001,
            20.731550000000002
          ],
          [
            -103.32234000000001,
            20.73147
          ],
          [
            -103.32222,
            20.732290000000003
          ],
          [
            -103.32216000000001,
            20.73271
          ],
          [
            -103.32208000000001,
            20.73299
          ],
          [
            -103.32208000000001,
            20.73299
          ],
          [
            -103.32185000000001,
            20.733970000000003
          ],
          [
            -103.32180000000001,
            20.73429
          ],
          [
            -103.32180000000001,
            20.73429
          ],
          [
            -103.32169,
            20.73504
          ],
          [
            -103.32164,
            20.73517
          ],
          [
            -103.32161,
            20.73535
          ],
          [
            -103.32159000000001,
            20.73543
          ],
          [
            -103.32156,
            20.735460000000003
          ],
          [
            -103.32146,
            20.735460000000003
          ],
          [
            -103.32087000000001,
            20.735190000000003
          ],
          [
            -103.32034,
            20.734990000000003
          ],
          [
            -103.32016000000002,
            20.73545
          ],
          [
            -103.32007000000002,
            20.735670000000002
          ],
          [
            -103.31972,
            20.73663
          ],
          [
            -103.31931,
            20.73777
          ],
          [
            -103.31928,
            20.737830000000002
          ],
          [
            -103.31897000000001,
            20.738670000000003
          ],
          [
            -103.31869,
            20.7386
          ],
          [
            -103.31869,
            20.738590000000002
          ],
          [
            -103.31869,
            20.738590000000002
          ],
          [
            -103.31726,
            20.738210000000002
          ],
          [
            -103.31698000000002,
            20.73814
          ],
          [
            -103.31699,
            20.73813
          ],
          [
            -103.31698000000002,
            20.73814
          ],
          [
            -103.31554000000001,
            20.73776
          ],
          [
            -103.31546,
            20.738000000000003
          ],
          [
            -103.31530000000001,
            20.73842
          ],
          [
            -103.31504000000001,
            20.739140000000003
          ],
          [
            -103.31474000000001,
            20.739970000000003
          ],
          [
            -103.31475,
            20.74041
          ],
          [
            -103.31475,
            20.738970000000002
          ]
        ]
      }
    }
  ]
}