{
  "type": "FeatureCollection",
  "features": [
    {
      "type": "Feature",
      "properties": {
        "identifier": "110-3?o=2",
        "name": "Ruta 110"
      },
      "geometry": {
        "type": "LineString",
        "coordinates": [
          [
            -103.32090000000001,
            20.71684
          ],
          [
            -103.32113000000001,
            20.716910000000002
          ],
          [
            -103.32123000000001,
            20.717170000000003
          ],
          [
            -103.32124,
            20.717290000000002
          ],
          [
            -103.3216,
            20.71741
          ],
          [
            -103.32319000000001,
            20.71809
          ],
          [
            -103.32319000000001,
            20.71809
          ],
          [
            -103.32405000000001,
            20.71845
          ],
          [
            -103.32406,
            20.71845
          ],
          [
            -103.32512000000001,
            20.71891
          ],
          [
            -103.32520000000001,
            20.718940000000003
          ],
          [
            -103.32520000000001,
            20.718940000000003
          ],
          [
            -103.32654000000001,
            20.719510000000003
          ],
          [
            -103.32654000000001,
            20.719510000000003
          ],
          [
            -103.32654000000001,
            20.719510000000003
          ],
          [
            -103.32805,
            20.720160000000003
          ],
          [
            -103.32805,
            20.720160000000003
          ],
          [
            -103.32835000000001,
            20.720290000000002
          ],
          [
            -103.32883000000001,
            20.72051
          ],
          [
            -103.32883000000001,
            20.72051
          ],
          [
            -103.32883000000001,
            20.72051
          ],
          [
            -103.32956000000001,
            20.72097
          ],
          [
            -103.32956000000001,
            20.72097
          ],
          [
            -103.33000000000001,
            20.72124
          ],
          [
            -103.33044000000001,
            20.72146
          ],
          [
            -103.33051,
            20.721480000000003
          ],
          [
            -103.33051,
            20.721480000000003
          ],
          [
            -103.33156000000001,
            20.721890000000002
          ],
          [
            -103.33181,
            20.721970000000002
          ],
          [
            -103.33181,
            20.721970000000002
          ],
          [
            -103.33201000000001,
            20.722040000000003
          ],
          [
            -103.33205000000001,
            20.72192
          ],
          [
            -103.33210000000001,
            20.721290000000003
          ],
          [
            -103.33215000000001,
            20.720350000000003
          ],
          [
            -103.33216,
            20.720090000000003
          ],
          [
            -103.33216,
            20.720090000000003
          ],
          [
            -103.33223000000001,
            20.7192
          ],
          [
            -103.33225,
            20.718940000000003
          ],
          [
            -103.33225,
            20.718940000000003
          ],
          [
            -103.33234,
            20.717930000000003
          ],
          [
            -103.33234,
            20.717930000000003
          ],
          [
            -103.33238000000001,
            20.717460000000003
          ],
          [
            -103.33238000000001,
            20.717460000000003
          ],
          [
            -103.33239,
            20.717370000000003
          ],
          [
            -103.3324,
            20.71705
          ],
          [
            -103.33241000000001,
            20.716920000000002
          ],
          [
            -103.33241000000001,
            20.716920000000002
          ],
          [
            -103.33244,
            20.716600000000003
          ],
          [
            -103.33242000000001,
            20.716450000000002
          ],
          [
            -103.33237000000001,
            20.716330000000003
          ],
          [
            -103.33226,
            20.716140000000003
          ],
          [
            -103.33216,
            20.71602
          ],
          [
            -103.33194,
            20.715850000000003
          ],
          [
            -103.33194,
            20.715850000000003
          ],
          [
            -103.33160000000001,
            20.715570000000003
          ],
          [
            -103.33151000000001,
            20.715490000000003
          ],
          [
            -103.3314,
            20.715310000000002
          ],
          [
            -103.33079000000001,
            20.713900000000002
          ],
          [
            -103.33065,
            20.71356
          ],
          [
            -103.33047,
            20.712870000000002
          ],
          [
            -103.33036000000001,
            20.712570000000003
          ],
          [
            -103.33035000000001,
            20.71244
          ],
          [
            -103.33038,
            20.712300000000003
          ],
          [
            -103.33042,
            20.71223
          ],
          [
            -103.33056,
            20.712120000000002
          ],
          [
            -103.33078,
            20.712010000000003
          ],
          [
            -103.33091,
            20.71196
          ],
          [
            -103.33095,
            20.711930000000002
          ],
          [
            -103.33098000000001,
            20.71186
          ],
          [
            -103.3311,
            20.711060000000003
          ],
          [
            -103.3311,
            20.71105
          ],
          [
            -103.3311,
            20.71105
          ],
          [
            -103.33127,
            20.71011
          ],
          [
            -103.33126000000001,
            20.7101
          ],
          [
            -103.33128,
            20.71
          ],
          [
            -103.3324,
            20.71008
          ],
          [
            -103.33247000000001,
            20.71008
          ],
          [
            -103.33247000000001,
            20.71008
          ],
          [
            -103.33342,
            20.71011
          ],
          [
            -103.33396,
            20.710150000000002
          ],
          [
            -103.33435000000001,
            20.7102
          ],
          [
            -103.33429000000001,
            20.71038
          ],
          [
            -103.33423,
            20.710810000000002
          ],
          [
            -103.33421000000001,
            20.71123
          ],
          [
            -103.33441,
            20.71123
          ],
          [
            -103.33448000000001,
            20.71066
          ],
          [
            -103.33455000000001,
            20.7104
          ],
          [
            -103.33476,
            20.709960000000002
          ],
          [
            -103.33476,
            20.709960000000002
          ],
          [
            -103.33493000000001,
            20.70962
          ],
          [
            -103.33513,
            20.70916
          ],
          [
            -103.33520000000001,
            20.708930000000002
          ],
          [
            -103.33520000000001,
            20.708630000000003
          ],
          [
            -103.33511000000001,
            20.708370000000002
          ],
          [
            -103.33480000000002,
            20.707720000000002
          ],
          [
            -103.33472,
            20.707420000000003
          ],
          [
            -103.33470000000001,
            20.70711
          ],
          [
            -103.33475000000001,
            20.706770000000002
          ],
          [
            -103.33475000000001,
            20.706770000000002
          ],
          [
            -103.33525,
            20.70361
          ],
          [
            -103.33538000000001,
            20.70315
          ],
          [
            -103.33555000000001,
            20.702810000000003
          ],
          [
            -103.33555000000001,
            20.702810000000003
          ],
          [
            -103.33556000000002,
            20.702810000000003
          ],
          [
            -103.33589,
            20.70214
          ],
          [
            -103.33606,
            20.70173
          ],
          [
            -103.3361,
            20.701510000000003
          ],
          [
            -103.3361,
            20.70126
          ],
          [
            -103.33605000000001,
            20.700590000000002
          ],
          [
            -103.33605000000001,
            20.700590000000002
          ],
          [
            -103.33601,
            20.700020000000002
          ],
          [
            -103.33602,
            20.699830000000002
          ],
          [
            -103.33611,
            20.699370000000002
          ],
          [
            -103.33622000000001,
            20.69913
          ],
          [
            -103.33630000000001,
            20.699
          ],
          [
            -103.33732,
            20.69762
          ],
          [
            -103.33741,
            20.697400000000002
          ],
          [
            -103.33743000000001,
            20.697290000000002
          ],
          [
            -103.33743000000001,
            20.697290000000002
          ],
          [
            -103.33748000000001,
            20.697020000000002
          ],
          [
            -103.33753000000002,
            20.69666
          ],
          [
            -103.33758,
            20.69648
          ],
          [
            -103.33773000000001,
            20.69609
          ],
          [
            -103.33796000000001,
            20.69575
          ],
          [
            -103.33815000000001,
            20.695510000000002
          ],
          [
            -103.33845000000001,
            20.69527
          ],
          [
            -103.33845000000001,
            20.69527
          ],
          [
            -103.33849000000001,
            20.695240000000002
          ],
          [
            -103.33866,
            20.695130000000002
          ],
          [
            -103.33893,
            20.695010000000003
          ],
          [
            -103.33921000000001,
            20.69491
          ],
          [
            -103.33983,
            20.69472
          ],
          [
            -103.34025000000001,
            20.694660000000002
          ],
          [
            -103.34025000000001,
            20.694660000000002
          ],
          [
            -103.34026000000001,
            20.694660000000002
          ],
          [
            -103.34079000000001,
            20.69462
          ],
          [
            -103.34148,
            20.6946
          ],
          [
            -103.34160000000001,
            20.69459
          ],
          [
            -103.34162,
            20.694490000000002
          ],
          [
            -103.34168000000001,
            20.69435
          ],
          [
            -103.34174,
            20.69425
          ],
          [
            -103.3418,
            20.69416
          ],
          [
            -103.3418,
            20.69416
          ],
          [
            -103.34211,
            20.69376
          ],
          [
            -103.34248000000001,
            20.6933
          ],
          [
            -103.34258000000001,
            20.6933
          ],
          [
            -103.34264,
            20.693270000000002
          ],
          [
            -103.34269,
            20.69322
          ],
          [
            -103.34273,
            20.69311
          ],
          [
            -103.34272000000001,
            20.69303
          ],
          [
            -103.34267000000001,
            20.692970000000003
          ],
          [
            -103.34349,
            20.691840000000003
          ],
          [
            -103.34348000000001,
            20.691840000000003
          ],
          [
            -103.34447000000002,
            20.690450000000002
          ],
          [
            -103.34448,
            20.690450000000002
          ],
          [
            -103.34502,
            20.689680000000003
          ],
          [
            -103.34502,
            20.689680000000003
          ],
          [
            -103.34538,
            20.689200000000003
          ],
          [
            -103.34574,
            20.68917
          ],
          [
            -103.34617000000001,
            20.68917
          ],
          [
            -103.34629000000001,
            20.689140000000002
          ],
          [
            -103.34651000000001,
            20.689130000000002
          ],
          [
            -103.34646000000001,
            20.688180000000003
          ],
          [
            -103.34643000000001,
            20.687910000000002
          ],
          [
            -103.34643000000001,
            20.687910000000002
          ],
          [
            -103.3464,
            20.687420000000003
          ],
          [
            -103.34635000000002,
            20.68662
          ],
          [
            -103.34635000000002,
            20.68662
          ],
          [
            -103.34627,
            20.685250000000003
          ],
          [
            -103.34627,
            20.685250000000003
          ],
          [
            -103.34627,
            20.685250000000003
          ],
          [
            -103.34623,
            20.684320000000003
          ],
          [
            -103.34623,
            20.684320000000003
          ],
          [
            -103.34623,
            20.684320000000003
          ],
          [
            -103.34617000000001,
            20.683320000000002
          ],
          [
            -103.34617000000001,
            20.683320000000002
          ],
          [
            -103.34607000000001,
            20.68165
          ],
          [
            -103.34607000000001,
            20.68165
          ],
          [
            -103.34602000000001,
            20.680860000000003
          ],
          [
            -103.34602000000001,
            20.680860000000003
          ],
          [
            -103.346,
            20.680390000000003
          ],
          [
            -103.34598000000001,
            20.680130000000002
          ],
          [
            -103.34598000000001,
            20.680130000000002
          ],
          [
            -103.34595,
            20.679660000000002
          ],
          [
            -103.34672,
            20.679620000000003
          ],
          [
            -103.34737000000001,
            20.67959
          ],
          [
            -103.34737000000001,
            20.6796
          ],
          [
            -103.34858000000001,
            20.679550000000003
          ],
          [
            -103.34858000000001,
            20.679550000000003
          ],
          [
            -103.34937000000001,
            20.67951
          ],
          [
            -103.34938000000001,
            20.67951
          ],
          [
            -103.35015000000001,
            20.67948
          ],
          [
            -103.35015000000001,
            20.679470000000002
          ],
          [
            -103.35038000000002,
            20.679460000000002
          ],
          [
            -103.35157000000001,
            20.679450000000003
          ],
          [
            -103.35157000000001,
            20.679450000000003
          ],
          [
            -103.35158000000001,
            20.679450000000003
          ],
          [
            -103.35236,
            20.67943
          ],
          [
            -103.35236,
            20.679170000000003
          ],
          [
            -103.35236,
            20.679160000000003
          ],
          [
            -103.35236,
            20.679160000000003
          ],
          [
            -103.35237000000001,
            20.678700000000003
          ],
          [
            -103.35238000000001,
            20.678430000000002
          ],
          [
            -103.35238000000001,
            20.678430000000002
          ],
          [
            -103.35243000000001,
            20.677770000000002
          ],
          [
            -103.35244,
            20.67745
          ],
          [
            -103.35243000000001,
            20.67744
          ],
          [
            -103.35243000000001,
            20.67744
          ],
          [
            -103.35243000000001,
            20.67733
          ],
          [
            -103.35238000000001,
            20.67706
          ],
          [
            -103.35233000000001,
            20.676430000000003
          ],
          [
            -103.35234000000001,
            20.67586
          ],
          [
            -103.35234000000001,
            20.67586
          ],
          [
            -103.35235000000002,
            20.67573
          ],
          [
            -103.35237000000001,
            20.67549
          ],
          [
            -103.35237000000001,
            20.67549
          ],
          [
            -103.3524,
            20.6752
          ],
          [
            -103.35241,
            20.67481
          ],
          [
            -103.35243000000001,
            20.67455
          ],
          [
            -103.35244,
            20.67394
          ],
          [
            -103.35244,
            20.67394
          ],
          [
            -103.35247000000001,
            20.673170000000002
          ],
          [
            -103.35247000000001,
            20.67291
          ],
          [
            -103.35246000000001,
            20.67291
          ],
          [
            -103.35247000000001,
            20.672770000000003
          ],
          [
            -103.35169,
            20.672770000000003
          ],
          [
            -103.35169,
            20.672790000000003
          ],
          [
            -103.35084,
            20.672790000000003
          ],
          [
            -103.35084,
            20.672790000000003
          ],
          [
            -103.35084,
            20.672790000000003
          ],
          [
            -103.34968,
            20.672800000000002
          ],
          [
            -103.34968,
            20.672800000000002
          ],
          [
            -103.34802,
            20.67282
          ],
          [
            -103.34802,
            20.67282
          ],
          [
            -103.34748,
            20.67284
          ],
          [
            -103.34720000000002,
            20.67286
          ],
          [
            -103.34721,
            20.672590000000003
          ],
          [
            -103.34721,
            20.672590000000003
          ],
          [
            -103.34721,
            20.672590000000003
          ],
          [
            -103.34721,
            20.672590000000003
          ],
          [
            -103.34721,
            20.672590000000003
          ],
          [
            -103.34722000000001,
            20.671750000000003
          ],
          [
            -103.34722000000001,
            20.671390000000002
          ],
          [
            -103.34722000000001,
            20.671390000000002
          ],
          [
            -103.34722000000001,
            20.671390000000002
          ],
          [
            -103.34722000000001,
            20.671380000000003
          ],
          [
            -103.34722000000001,
            20.671380000000003
          ],
          [
            -103.34722000000001,
            20.67069
          ],
          [
            -103.34723000000001,
            20.67069
          ],
          [
            -103.34723000000001,
            20.670560000000002
          ],
          [
            -103.34728000000001,
            20.669970000000003
          ],
          [
            -103.34735,
            20.66973
          ],
          [
            -103.34735,
            20.66973
          ],
          [
            -103.34752,
            20.669220000000003
          ],
          [
            -103.34787000000001,
            20.668180000000003
          ],
          [
            -103.34621000000001,
            20.667450000000002
          ],
          [
            -103.3461,
            20.66728
          ],
          [
            -103.34605,
            20.66722
          ],
          [
            -103.34603000000001,
            20.666870000000003
          ],
          [
            -103.34603000000001,
            20.666870000000003
          ],
          [
            -103.34603000000001,
            20.666870000000003
          ],
          [
            -103.34598000000001,
            20.666
          ],
          [
            -103.34598000000001,
            20.666
          ],
          [
            -103.34598000000001,
            20.666
          ],
          [
            -103.34594000000001,
            20.665210000000002
          ],
          [
            -103.34594000000001,
            20.665210000000002
          ],
          [
            -103.34592,
            20.664700000000003
          ],
          [
            -103.34585000000001,
            20.66381
          ],
          [
            -103.34585000000001,
            20.66381
          ],
          [
            -103.34583,
            20.66344
          ],
          [
            -103.34524,
            20.66326
          ],
          [
            -103.34524,
            20.66326
          ],
          [
            -103.34524,
            20.66326
          ],
          [
            -103.34439,
            20.663
          ],
          [
            -103.34287,
            20.66253
          ],
          [
            -103.34287,
            20.66252
          ],
          [
            -103.34159000000001,
            20.662110000000002
          ],
          [
            -103.34167000000001,
            20.66187
          ],
          [
            -103.34167000000001,
            20.66043
          ]
        ]
      }
    }
  ]
}