{
  "type": "FeatureCollection",
  "features": [
    {
      "type": "Feature",
      "properties": {
        "identifier": "128-a",
        "name": "Ruta 128 A"
      },
      "geometry": {
        "type": "LineString",
        "coordinates": [
          [
            -103.34221000000001,
            20.68108
          ],
          [
            -103.34255,
            20.681130000000003
          ],
          [
            -103.34305,
            20.681030000000003
          ],
          [
            -103.34320000000001,
            20.67979
          ],
          [
            -103.34464000000001,
            20.67971
          ],
          [
            -103.34622,
            20.679640000000003
          ],
          [
            -103.34622,
            20.679630000000003
          ],
          [
            -103.34738000000002,
            20.6796
          ],
          [
            -103.34738000000002,
            20.67958
          ],
          [
            -103.34805000000001,
            20.679550000000003
          ],
          [
            -103.34938000000001,
            20.67952
          ],
          [
            -103.34938000000001,
            20.67951
          ],
          [
            -103.34938000000001,
            20.67951
          ],
          [
            -103.35066,
            20.679460000000002
          ],
          [
            -103.35066,
            20.6795
          ],
          [
            -103.35263,
            20.679460000000002
          ],
          [
            -103.35536,
            20.67941
          ],
          [
            -103.35871,
            20.679360000000003
          ],
          [
            -103.35927000000001,
            20.679350000000003
          ],
          [
            -103.3593,
            20.676840000000002
          ],
          [
            -103.35939,
            20.676840000000002
          ],
          [
            -103.35941000000001,
            20.67623
          ],
          [
            -103.35943,
            20.67563
          ],
          [
            -103.35943,
            20.67535
          ],
          [
            -103.35942000000001,
            20.67479
          ],
          [
            -103.35940000000001,
            20.674000000000003
          ],
          [
            -103.35940000000001,
            20.673730000000003
          ],
          [
            -103.35939,
            20.673340000000003
          ],
          [
            -103.35938,
            20.672680000000003
          ],
          [
            -103.35938,
            20.672420000000002
          ],
          [
            -103.35937000000001,
            20.67226
          ],
          [
            -103.35936000000001,
            20.671570000000003
          ],
          [
            -103.35936000000001,
            20.67132
          ],
          [
            -103.35934,
            20.6703
          ],
          [
            -103.35940000000001,
            20.669300000000003
          ],
          [
            -103.35939,
            20.669300000000003
          ],
          [
            -103.35942000000001,
            20.66676
          ],
          [
            -103.35957,
            20.665100000000002
          ],
          [
            -103.35962,
            20.664540000000002
          ],
          [
            -103.35982000000001,
            20.6641
          ],
          [
            -103.35978000000001,
            20.664080000000002
          ],
          [
            -103.35986000000001,
            20.66391
          ],
          [
            -103.36015,
            20.66326
          ],
          [
            -103.36026000000001,
            20.663
          ],
          [
            -103.36030000000001,
            20.663010000000003
          ],
          [
            -103.36047,
            20.66262
          ],
          [
            -103.36086,
            20.66252
          ],
          [
            -103.36096,
            20.66234
          ],
          [
            -103.36116000000001,
            20.66241
          ],
          [
            -103.36219000000001,
            20.66281
          ],
          [
            -103.36352000000001,
            20.663320000000002
          ],
          [
            -103.36592,
            20.664250000000003
          ],
          [
            -103.36603000000001,
            20.664
          ],
          [
            -103.36706000000001,
            20.661520000000003
          ],
          [
            -103.36759,
            20.66025
          ],
          [
            -103.36766000000001,
            20.66028
          ],
          [
            -103.36800000000001,
            20.659360000000003
          ],
          [
            -103.36797000000001,
            20.65934
          ],
          [
            -103.36834,
            20.658440000000002
          ],
          [
            -103.36875,
            20.657480000000003
          ],
          [
            -103.36874,
            20.65747
          ],
          [
            -103.36938,
            20.655980000000003
          ],
          [
            -103.36963000000002,
            20.656070000000003
          ],
          [
            -103.36961000000001,
            20.65611
          ],
          [
            -103.37057000000001,
            20.656470000000002
          ],
          [
            -103.37153,
            20.656830000000003
          ],
          [
            -103.37249000000001,
            20.65718
          ],
          [
            -103.37345,
            20.65754
          ],
          [
            -103.37441000000001,
            20.6579
          ],
          [
            -103.37536000000001,
            20.658260000000002
          ],
          [
            -103.37632,
            20.658610000000003
          ],
          [
            -103.37742000000001,
            20.65903
          ],
          [
            -103.37800000000001,
            20.659180000000003
          ],
          [
            -103.37852000000001,
            20.658040000000003
          ],
          [
            -103.37845000000002,
            20.65802
          ],
          [
            -103.37864,
            20.65762
          ],
          [
            -103.37884000000001,
            20.65709
          ],
          [
            -103.37909,
            20.657210000000003
          ],
          [
            -103.37910000000001,
            20.657220000000002
          ],
          [
            -103.37910000000001,
            20.657210000000003
          ],
          [
            -103.38019000000001,
            20.657680000000003
          ],
          [
            -103.38027000000001,
            20.65708
          ],
          [
            -103.38041000000001,
            20.65603
          ],
          [
            -103.38055000000001,
            20.655
          ],
          [
            -103.38055000000001,
            20.655
          ],
          [
            -103.38062000000001,
            20.654220000000002
          ],
          [
            -103.38064000000001,
            20.654010000000003
          ],
          [
            -103.3807,
            20.653260000000003
          ],
          [
            -103.38069000000002,
            20.653260000000003
          ],
          [
            -103.38069000000002,
            20.65077
          ],
          [
            -103.38068000000001,
            20.6507
          ],
          [
            -103.3807,
            20.649330000000003
          ],
          [
            -103.3807,
            20.649240000000002
          ],
          [
            -103.38058000000001,
            20.64776
          ],
          [
            -103.38023000000001,
            20.646990000000002
          ],
          [
            -103.38033000000001,
            20.64667
          ],
          [
            -103.38036000000001,
            20.64656
          ],
          [
            -103.38068000000001,
            20.646410000000003
          ],
          [
            -103.38114,
            20.64619
          ],
          [
            -103.38140000000001,
            20.64607
          ],
          [
            -103.38142,
            20.6461
          ],
          [
            -103.38253,
            20.64562
          ],
          [
            -103.38362000000001,
            20.645000000000003
          ],
          [
            -103.38363000000001,
            20.64499
          ],
          [
            -103.38465000000001,
            20.64449
          ],
          [
            -103.38550000000001,
            20.64402
          ],
          [
            -103.38573000000001,
            20.64386
          ],
          [
            -103.38668000000001,
            20.643210000000003
          ],
          [
            -103.38698000000001,
            20.643
          ],
          [
            -103.38728,
            20.64279
          ],
          [
            -103.3879,
            20.64236
          ],
          [
            -103.38812000000001,
            20.642210000000002
          ],
          [
            -103.38820000000001,
            20.64215
          ],
          [
            -103.38967000000001,
            20.64112
          ],
          [
            -103.39001,
            20.640890000000002
          ],
          [
            -103.39026000000001,
            20.64073
          ],
          [
            -103.39043000000001,
            20.64057
          ],
          [
            -103.39078,
            20.640220000000003
          ],
          [
            -103.39083000000001,
            20.64017
          ],
          [
            -103.39085000000001,
            20.640130000000003
          ],
          [
            -103.39143000000001,
            20.63973
          ],
          [
            -103.39167,
            20.639570000000003
          ],
          [
            -103.39192000000001,
            20.63942
          ],
          [
            -103.39200000000001,
            20.639380000000003
          ],
          [
            -103.39255000000001,
            20.63906
          ],
          [
            -103.39281000000001,
            20.638910000000003
          ],
          [
            -103.39344000000001,
            20.638530000000003
          ],
          [
            -103.39369,
            20.63838
          ],
          [
            -103.39419000000001,
            20.638070000000003
          ],
          [
            -103.39431,
            20.63801
          ],
          [
            -103.39459000000001,
            20.63784
          ],
          [
            -103.39463,
            20.637900000000002
          ],
          [
            -103.39491000000001,
            20.63776
          ],
          [
            -103.39476,
            20.637500000000003
          ],
          [
            -103.39409,
            20.637330000000002
          ],
          [
            -103.39307000000001,
            20.6371
          ],
          [
            -103.39158,
            20.636760000000002
          ],
          [
            -103.39165000000001,
            20.635620000000003
          ],
          [
            -103.39179000000001,
            20.635630000000003
          ],
          [
            -103.39178000000001,
            20.635610000000003
          ],
          [
            -103.39177000000001,
            20.635340000000003
          ],
          [
            -103.39183000000001,
            20.63491
          ],
          [
            -103.39192000000001,
            20.634590000000003
          ],
          [
            -103.39187000000001,
            20.63457
          ],
          [
            -103.39201000000001,
            20.63407
          ],
          [
            -103.39263000000001,
            20.63174
          ],
          [
            -103.39289000000001,
            20.630750000000003
          ],
          [
            -103.39286000000001,
            20.630740000000003
          ],
          [
            -103.39309000000002,
            20.62993
          ],
          [
            -103.39287,
            20.629790000000003
          ],
          [
            -103.39286000000001,
            20.629810000000003
          ],
          [
            -103.39285000000001,
            20.629810000000003
          ],
          [
            -103.39168000000001,
            20.62909
          ],
          [
            -103.39168000000001,
            20.629080000000002
          ],
          [
            -103.39170000000001,
            20.629060000000003
          ],
          [
            -103.39087,
            20.62855
          ],
          [
            -103.39103000000001,
            20.628100000000003
          ],
          [
            -103.39096,
            20.628100000000003
          ],
          [
            -103.39107000000001,
            20.627360000000003
          ],
          [
            -103.39120000000001,
            20.62684
          ],
          [
            -103.39147000000001,
            20.625700000000002
          ],
          [
            -103.39148,
            20.62564
          ],
          [
            -103.39172,
            20.62471
          ],
          [
            -103.39188000000001,
            20.624090000000002
          ],
          [
            -103.39261,
            20.62262
          ],
          [
            -103.39289000000001,
            20.622770000000003
          ],
          [
            -103.39503,
            20.62397
          ],
          [
            -103.39621000000001,
            20.624630000000003
          ],
          [
            -103.39623,
            20.62461
          ],
          [
            -103.39664,
            20.62486
          ],
          [
            -103.39838,
            20.62594
          ],
          [
            -103.39868000000001,
            20.62608
          ],
          [
            -103.39869,
            20.62608
          ],
          [
            -103.39907000000001,
            20.62631
          ],
          [
            -103.39858000000001,
            20.628300000000003
          ],
          [
            -103.39851,
            20.628580000000003
          ],
          [
            -103.40076,
            20.62891
          ],
          [
            -103.40182000000001,
            20.628580000000003
          ],
          [
            -103.40231000000001,
            20.628310000000003
          ],
          [
            -103.40237,
            20.628100000000003
          ],
          [
            -103.40268,
            20.62685
          ],
          [
            -103.40268,
            20.62684
          ],
          [
            -103.40295,
            20.62584
          ],
          [
            -103.40321,
            20.624850000000002
          ],
          [
            -103.40360000000001,
            20.623340000000002
          ],
          [
            -103.40364000000001,
            20.62319
          ],
          [
            -103.40387000000001,
            20.62233
          ],
          [
            -103.40413000000001,
            20.621360000000003
          ],
          [
            -103.40418000000001,
            20.621160000000003
          ],
          [
            -103.40435000000001,
            20.620720000000002
          ],
          [
            -103.40465,
            20.62059
          ],
          [
            -103.40506,
            20.62064
          ],
          [
            -103.40564,
            20.620720000000002
          ],
          [
            -103.40615000000001,
            20.620720000000002
          ],
          [
            -103.40625000000001,
            20.620720000000002
          ],
          [
            -103.40665000000001,
            20.620690000000003
          ],
          [
            -103.40703,
            20.62055
          ],
          [
            -103.40729,
            20.620340000000002
          ],
          [
            -103.40731000000001,
            20.62017
          ],
          [
            -103.40696000000001,
            20.619950000000003
          ],
          [
            -103.40698,
            20.619940000000003
          ],
          [
            -103.40669000000001,
            20.61981
          ],
          [
            -103.40628000000001,
            20.619670000000003
          ],
          [
            -103.40603000000002,
            20.61955
          ],
          [
            -103.40586,
            20.61944
          ],
          [
            -103.40548000000001,
            20.619280000000003
          ],
          [
            -103.40501,
            20.61905
          ],
          [
            -103.40483,
            20.61896
          ],
          [
            -103.40476000000001,
            20.619030000000002
          ],
          [
            -103.40373000000001,
            20.618340000000003
          ],
          [
            -103.40319000000001,
            20.61783
          ],
          [
            -103.40270000000001,
            20.617330000000003
          ],
          [
            -103.40243000000001,
            20.61691
          ],
          [
            -103.40232,
            20.61674
          ],
          [
            -103.40224,
            20.61661
          ],
          [
            -103.40232,
            20.616560000000003
          ],
          [
            -103.40201,
            20.616020000000002
          ],
          [
            -103.40158000000001,
            20.61531
          ],
          [
            -103.40126000000001,
            20.614900000000002
          ],
          [
            -103.40107,
            20.61465
          ],
          [
            -103.40107,
            20.61445
          ],
          [
            -103.40094,
            20.614410000000003
          ],
          [
            -103.40075,
            20.61447
          ],
          [
            -103.40060000000001,
            20.61455
          ],
          [
            -103.39980000000001,
            20.614420000000003
          ],
          [
            -103.39889000000001,
            20.61421
          ],
          [
            -103.3986,
            20.614140000000003
          ],
          [
            -103.39791000000001,
            20.613960000000002
          ],
          [
            -103.39720000000001,
            20.61361
          ],
          [
            -103.39667000000001,
            20.613210000000002
          ],
          [
            -103.39548,
            20.61242
          ],
          [
            -103.39499,
            20.6121
          ],
          [
            -103.39457,
            20.6113
          ],
          [
            -103.39502,
            20.61015
          ],
          [
            -103.39623,
            20.60704
          ],
          [
            -103.39671000000001,
            20.605790000000002
          ],
          [
            -103.39697000000001,
            20.60499
          ],
          [
            -103.39717,
            20.604680000000002
          ],
          [
            -103.39729000000001,
            20.604470000000003
          ],
          [
            -103.39718,
            20.60413
          ],
          [
            -103.39649000000001,
            20.60406
          ],
          [
            -103.39633,
            20.60405
          ],
          [
            -103.39555000000001,
            20.603820000000002
          ],
          [
            -103.39553000000001,
            20.603810000000003
          ],
          [
            -103.3953,
            20.60378
          ],
          [
            -103.39517000000001,
            20.60413
          ],
          [
            -103.39499,
            20.604270000000003
          ],
          [
            -103.39459000000001,
            20.604090000000003
          ],
          [
            -103.39419000000001,
            20.603890000000003
          ],
          [
            -103.39398000000001,
            20.60425
          ],
          [
            -103.39383000000001,
            20.60462
          ],
          [
            -103.39378,
            20.604740000000003
          ],
          [
            -103.39337,
            20.604660000000003
          ],
          [
            -103.39256,
            20.604470000000003
          ],
          [
            -103.39156000000001,
            20.60426
          ],
          [
            -103.39154,
            20.60426
          ],
          [
            -103.39085000000001,
            20.60407
          ],
          [
            -103.39109,
            20.60292
          ],
          [
            -103.39172,
            20.599860000000003
          ],
          [
            -103.39142000000001,
            20.60011
          ],
          [
            -103.39173000000001,
            20.599870000000003
          ],
          [
            -103.39197000000001,
            20.60012
          ],
          [
            -103.39172,
            20.600420000000003
          ],
          [
            -103.39172,
            20.59898
          ]
        ]
      }
    }
  ]
}