{
  "type": "FeatureCollection",
  "features": [
    {
      "type": "Feature",
      "properties": {
        "identifier": "128-2",
        "name": "Ruta 128"
      },
      "geometry": {
        "type": "LineString",
        "coordinates": [
          [
            -103.3892,
            20.599030000000003
          ],
          [
            -103.38973000000001,
            20.599120000000003
          ],
          [
            -103.39036000000002,
            20.59924
          ],
          [
            -103.39066000000001,
            20.599310000000003
          ],
          [
            -103.39066000000001,
            20.599310000000003
          ],
          [
            -103.3918,
            20.59957
          ],
          [
            -103.39175,
            20.599780000000003
          ],
          [
            -103.39175,
            20.599780000000003
          ],
          [
            -103.39159000000001,
            20.600630000000002
          ],
          [
            -103.39138000000001,
            20.60153
          ],
          [
            -103.39117,
            20.602320000000002
          ],
          [
            -103.39117,
            20.602320000000002
          ],
          [
            -103.39117,
            20.602320000000002
          ],
          [
            -103.39082,
            20.60395
          ],
          [
            -103.39081,
            20.60395
          ],
          [
            -103.39081,
            20.60395
          ],
          [
            -103.39078,
            20.604110000000002
          ],
          [
            -103.39136,
            20.604200000000002
          ],
          [
            -103.39208,
            20.604380000000003
          ],
          [
            -103.39208,
            20.604380000000003
          ],
          [
            -103.39208,
            20.604380000000003
          ],
          [
            -103.39303000000001,
            20.60463
          ],
          [
            -103.39303000000001,
            20.60463
          ],
          [
            -103.39303000000001,
            20.60463
          ],
          [
            -103.39374000000001,
            20.60482
          ],
          [
            -103.39381,
            20.604850000000003
          ],
          [
            -103.39417,
            20.60397
          ],
          [
            -103.39423000000001,
            20.603930000000002
          ],
          [
            -103.39428000000001,
            20.60394
          ],
          [
            -103.39428000000001,
            20.60394
          ],
          [
            -103.3944,
            20.603990000000003
          ],
          [
            -103.3949,
            20.604190000000003
          ],
          [
            -103.39518000000001,
            20.604290000000002
          ],
          [
            -103.39523000000001,
            20.60404
          ],
          [
            -103.39523000000001,
            20.60404
          ],
          [
            -103.39529,
            20.603830000000002
          ],
          [
            -103.39574,
            20.60397
          ],
          [
            -103.39662000000001,
            20.604190000000003
          ],
          [
            -103.39698000000001,
            20.604290000000002
          ],
          [
            -103.39698000000001,
            20.604290000000002
          ],
          [
            -103.39711000000001,
            20.60433
          ],
          [
            -103.39717,
            20.604360000000003
          ],
          [
            -103.39720000000001,
            20.60442
          ],
          [
            -103.39723000000001,
            20.60461
          ],
          [
            -103.39695,
            20.60497
          ],
          [
            -103.39681,
            20.605610000000002
          ],
          [
            -103.39668,
            20.605990000000002
          ],
          [
            -103.39653000000001,
            20.60638
          ],
          [
            -103.39652000000001,
            20.60638
          ],
          [
            -103.39652000000001,
            20.60638
          ],
          [
            -103.39638000000001,
            20.60668
          ],
          [
            -103.39615,
            20.60733
          ],
          [
            -103.39609000000002,
            20.607470000000003
          ],
          [
            -103.39609000000002,
            20.607470000000003
          ],
          [
            -103.39580000000001,
            20.608210000000003
          ],
          [
            -103.39534,
            20.60931
          ],
          [
            -103.39525,
            20.609520000000003
          ],
          [
            -103.39525,
            20.609520000000003
          ],
          [
            -103.39447000000001,
            20.611340000000002
          ],
          [
            -103.39444,
            20.61144
          ],
          [
            -103.39448,
            20.611530000000002
          ],
          [
            -103.39456000000001,
            20.61167
          ],
          [
            -103.39469000000001,
            20.611870000000003
          ],
          [
            -103.39506000000002,
            20.612260000000003
          ],
          [
            -103.39535000000001,
            20.61249
          ],
          [
            -103.39587,
            20.612840000000002
          ],
          [
            -103.39618000000002,
            20.613100000000003
          ],
          [
            -103.39655,
            20.61334
          ],
          [
            -103.39655,
            20.61334
          ],
          [
            -103.39678,
            20.613500000000002
          ],
          [
            -103.39707000000001,
            20.613590000000002
          ],
          [
            -103.39736,
            20.613770000000002
          ],
          [
            -103.39804000000001,
            20.61407
          ],
          [
            -103.39819000000001,
            20.614120000000003
          ],
          [
            -103.39849000000001,
            20.61426
          ],
          [
            -103.39906,
            20.614400000000003
          ],
          [
            -103.39968,
            20.614510000000003
          ],
          [
            -103.4,
            20.61455
          ],
          [
            -103.4,
            20.61455
          ],
          [
            -103.40058,
            20.61464
          ],
          [
            -103.40078000000001,
            20.614810000000002
          ],
          [
            -103.40099000000001,
            20.614900000000002
          ],
          [
            -103.40251,
            20.61721
          ],
          [
            -103.40251,
            20.6172
          ],
          [
            -103.40252000000001,
            20.61721
          ],
          [
            -103.40276000000001,
            20.617500000000003
          ],
          [
            -103.40333000000001,
            20.618100000000002
          ],
          [
            -103.40389,
            20.618560000000002
          ],
          [
            -103.40422000000001,
            20.6188
          ],
          [
            -103.40487,
            20.619190000000003
          ],
          [
            -103.40508000000001,
            20.619280000000003
          ],
          [
            -103.40508000000001,
            20.619280000000003
          ],
          [
            -103.40513000000001,
            20.619310000000002
          ],
          [
            -103.40544000000001,
            20.61945
          ],
          [
            -103.40575000000001,
            20.619570000000003
          ],
          [
            -103.40601000000001,
            20.61964
          ],
          [
            -103.40625000000001,
            20.619690000000002
          ],
          [
            -103.40629000000001,
            20.619690000000002
          ],
          [
            -103.40666,
            20.619850000000003
          ],
          [
            -103.40666,
            20.619850000000003
          ],
          [
            -103.40665000000001,
            20.619850000000003
          ],
          [
            -103.40710000000001,
            20.62008
          ],
          [
            -103.40714000000001,
            20.620160000000002
          ],
          [
            -103.40725,
            20.620430000000002
          ],
          [
            -103.40707,
            20.62058
          ],
          [
            -103.40697000000002,
            20.62065
          ],
          [
            -103.40691000000001,
            20.62067
          ],
          [
            -103.40622,
            20.62074
          ],
          [
            -103.40570000000001,
            20.62075
          ],
          [
            -103.40548000000001,
            20.620720000000002
          ],
          [
            -103.40541,
            20.620700000000003
          ],
          [
            -103.40541,
            20.620700000000003
          ],
          [
            -103.40503000000001,
            20.620620000000002
          ],
          [
            -103.40475,
            20.62057
          ],
          [
            -103.40459000000001,
            20.62057
          ],
          [
            -103.40443,
            20.620610000000003
          ],
          [
            -103.40429,
            20.620690000000003
          ],
          [
            -103.40415000000002,
            20.62085
          ],
          [
            -103.40409000000001,
            20.621010000000002
          ],
          [
            -103.40402,
            20.62124
          ],
          [
            -103.40401000000001,
            20.62124
          ],
          [
            -103.40401000000001,
            20.62124
          ],
          [
            -103.40357,
            20.6229
          ],
          [
            -103.40357,
            20.6229
          ],
          [
            -103.40357,
            20.6229
          ],
          [
            -103.40333000000001,
            20.623790000000003
          ],
          [
            -103.40333000000001,
            20.623790000000003
          ],
          [
            -103.40309,
            20.62468
          ],
          [
            -103.40309,
            20.62468
          ],
          [
            -103.40273,
            20.626050000000003
          ],
          [
            -103.40273,
            20.626050000000003
          ],
          [
            -103.40256000000001,
            20.62669
          ],
          [
            -103.40248000000001,
            20.62695
          ],
          [
            -103.40248000000001,
            20.62695
          ],
          [
            -103.40234000000001,
            20.627460000000003
          ],
          [
            -103.40227,
            20.62771
          ],
          [
            -103.40227,
            20.62771
          ],
          [
            -103.40211000000001,
            20.62837
          ],
          [
            -103.40169,
            20.62847
          ],
          [
            -103.40143,
            20.628580000000003
          ],
          [
            -103.40106000000002,
            20.62871
          ],
          [
            -103.40087000000001,
            20.62874
          ],
          [
            -103.40042000000001,
            20.62872
          ],
          [
            -103.39874,
            20.62845
          ],
          [
            -103.39873000000001,
            20.62844
          ],
          [
            -103.39873000000001,
            20.62844
          ],
          [
            -103.39854000000001,
            20.628410000000002
          ],
          [
            -103.39862000000001,
            20.62807
          ],
          [
            -103.39878,
            20.627450000000003
          ],
          [
            -103.39908000000001,
            20.6263
          ],
          [
            -103.39912000000001,
            20.626150000000003
          ],
          [
            -103.39889000000001,
            20.62602
          ],
          [
            -103.39889000000001,
            20.62602
          ],
          [
            -103.39847,
            20.625790000000002
          ],
          [
            -103.39606,
            20.62434
          ],
          [
            -103.39606,
            20.62434
          ],
          [
            -103.39600000000002,
            20.62431
          ],
          [
            -103.39491000000001,
            20.62368
          ],
          [
            -103.39491000000001,
            20.62367
          ],
          [
            -103.39282000000001,
            20.62246
          ],
          [
            -103.39269,
            20.62263
          ],
          [
            -103.39269,
            20.62263
          ],
          [
            -103.39239,
            20.623070000000002
          ],
          [
            -103.39201000000001,
            20.623630000000002
          ],
          [
            -103.39196000000001,
            20.623820000000002
          ],
          [
            -103.39197000000001,
            20.62383
          ],
          [
            -103.39183000000001,
            20.62441
          ],
          [
            -103.39153,
            20.62546
          ],
          [
            -103.391,
            20.627480000000002
          ],
          [
            -103.39094000000001,
            20.627570000000002
          ],
          [
            -103.39094000000001,
            20.627730000000003
          ],
          [
            -103.39109,
            20.62778
          ],
          [
            -103.39102000000001,
            20.628040000000002
          ],
          [
            -103.39102000000001,
            20.628040000000002
          ],
          [
            -103.39087,
            20.628690000000002
          ],
          [
            -103.3919,
            20.62931
          ],
          [
            -103.39212,
            20.629450000000002
          ],
          [
            -103.39212,
            20.629450000000002
          ],
          [
            -103.39306,
            20.63005
          ],
          [
            -103.39299000000001,
            20.630270000000003
          ],
          [
            -103.39299000000001,
            20.630270000000003
          ],
          [
            -103.39291000000001,
            20.630550000000003
          ],
          [
            -103.39272000000001,
            20.631240000000002
          ],
          [
            -103.39272000000001,
            20.631240000000002
          ],
          [
            -103.39272000000001,
            20.631240000000002
          ],
          [
            -103.39253000000001,
            20.631990000000002
          ],
          [
            -103.39241000000001,
            20.632420000000003
          ],
          [
            -103.39237000000001,
            20.632510000000003
          ],
          [
            -103.39231000000001,
            20.632740000000002
          ],
          [
            -103.39231000000001,
            20.632740000000002
          ],
          [
            -103.39202,
            20.63387
          ],
          [
            -103.3919,
            20.634230000000002
          ],
          [
            -103.3919,
            20.634230000000002
          ],
          [
            -103.39175,
            20.63472
          ],
          [
            -103.39175,
            20.63472
          ],
          [
            -103.39175,
            20.63475
          ],
          [
            -103.39167,
            20.63519
          ],
          [
            -103.39168000000001,
            20.63556
          ],
          [
            -103.39171,
            20.635890000000003
          ],
          [
            -103.39166,
            20.63634
          ],
          [
            -103.39156000000001,
            20.636640000000003
          ],
          [
            -103.39156000000001,
            20.636640000000003
          ],
          [
            -103.39151000000001,
            20.636830000000003
          ],
          [
            -103.39415000000001,
            20.63748
          ],
          [
            -103.3944,
            20.63753
          ],
          [
            -103.3944,
            20.63753
          ],
          [
            -103.39475,
            20.637620000000002
          ],
          [
            -103.39482000000001,
            20.63765
          ],
          [
            -103.39408,
            20.638070000000003
          ],
          [
            -103.39303000000001,
            20.6387
          ],
          [
            -103.39204000000001,
            20.639270000000003
          ],
          [
            -103.39171,
            20.639480000000002
          ],
          [
            -103.39171,
            20.639480000000002
          ],
          [
            -103.39171,
            20.639480000000002
          ],
          [
            -103.39088000000001,
            20.640050000000002
          ],
          [
            -103.39074000000001,
            20.64017
          ],
          [
            -103.39034000000001,
            20.640590000000003
          ],
          [
            -103.39006,
            20.640810000000002
          ],
          [
            -103.38976000000001,
            20.64101
          ],
          [
            -103.38976000000001,
            20.64101
          ],
          [
            -103.38823000000001,
            20.64207
          ],
          [
            -103.38802000000001,
            20.642210000000002
          ],
          [
            -103.38802000000001,
            20.642200000000003
          ],
          [
            -103.38740000000001,
            20.64264
          ],
          [
            -103.38702,
            20.64289
          ],
          [
            -103.38702,
            20.64289
          ],
          [
            -103.38567,
            20.64383
          ],
          [
            -103.38521000000001,
            20.644090000000002
          ],
          [
            -103.38523,
            20.6441
          ],
          [
            -103.38523,
            20.64411
          ],
          [
            -103.38462000000001,
            20.644460000000002
          ],
          [
            -103.38437,
            20.64457
          ],
          [
            -103.38437,
            20.64457
          ],
          [
            -103.38270000000001,
            20.64536
          ],
          [
            -103.38271,
            20.645370000000003
          ],
          [
            -103.38131000000001,
            20.646040000000003
          ],
          [
            -103.38131000000001,
            20.646040000000003
          ],
          [
            -103.38131000000001,
            20.646050000000002
          ],
          [
            -103.38040000000001,
            20.64649
          ],
          [
            -103.38040000000001,
            20.64649
          ],
          [
            -103.37998,
            20.646700000000003
          ],
          [
            -103.38029,
            20.64731
          ],
          [
            -103.38045000000001,
            20.64776
          ],
          [
            -103.38052,
            20.648030000000002
          ],
          [
            -103.38060000000002,
            20.648570000000003
          ],
          [
            -103.38060000000002,
            20.648570000000003
          ],
          [
            -103.38060000000002,
            20.648570000000003
          ],
          [
            -103.38062000000001,
            20.649510000000003
          ],
          [
            -103.38061,
            20.65012
          ],
          [
            -103.38061,
            20.65012
          ],
          [
            -103.38060000000002,
            20.651590000000002
          ],
          [
            -103.38060000000002,
            20.65181
          ],
          [
            -103.38060000000002,
            20.65181
          ],
          [
            -103.38061,
            20.65267
          ],
          [
            -103.38060000000002,
            20.65277
          ],
          [
            -103.38060000000002,
            20.65277
          ],
          [
            -103.38054000000001,
            20.654010000000003
          ],
          [
            -103.38054000000001,
            20.654010000000003
          ],
          [
            -103.38053000000001,
            20.654220000000002
          ],
          [
            -103.38038,
            20.65574
          ],
          [
            -103.38033000000001,
            20.65642
          ],
          [
            -103.38025,
            20.657040000000002
          ],
          [
            -103.38024000000001,
            20.65705
          ],
          [
            -103.38024000000001,
            20.65705
          ],
          [
            -103.38019000000001,
            20.65719
          ],
          [
            -103.38007,
            20.65734
          ],
          [
            -103.37997000000001,
            20.65755
          ],
          [
            -103.37992000000001,
            20.657590000000003
          ],
          [
            -103.37982000000001,
            20.65765
          ],
          [
            -103.37972,
            20.65783
          ],
          [
            -103.37972,
            20.65783
          ],
          [
            -103.37972,
            20.65783
          ],
          [
            -103.37958,
            20.658130000000003
          ],
          [
            -103.37926,
            20.658890000000003
          ],
          [
            -103.37926,
            20.658890000000003
          ],
          [
            -103.37926,
            20.658890000000003
          ],
          [
            -103.37887,
            20.6598
          ],
          [
            -103.37887,
            20.6598
          ],
          [
            -103.37859,
            20.660490000000003
          ],
          [
            -103.37780000000001,
            20.66019
          ],
          [
            -103.37780000000001,
            20.66019
          ],
          [
            -103.37611000000001,
            20.659550000000003
          ],
          [
            -103.37610000000001,
            20.659540000000003
          ],
          [
            -103.37610000000001,
            20.659550000000003
          ],
          [
            -103.37496,
            20.65912
          ],
          [
            -103.37496,
            20.65912
          ],
          [
            -103.37352000000001,
            20.65858
          ],
          [
            -103.37352000000001,
            20.65858
          ],
          [
            -103.37256000000001,
            20.65822
          ],
          [
            -103.37256000000001,
            20.65822
          ],
          [
            -103.37161,
            20.657870000000003
          ],
          [
            -103.37161,
            20.657870000000003
          ],
          [
            -103.37086000000001,
            20.657590000000003
          ],
          [
            -103.37064000000001,
            20.657510000000002
          ],
          [
            -103.37064000000001,
            20.657510000000002
          ],
          [
            -103.36969,
            20.65716
          ],
          [
            -103.36969,
            20.65716
          ],
          [
            -103.36969,
            20.65716
          ],
          [
            -103.36899000000001,
            20.65689
          ],
          [
            -103.36878000000002,
            20.65736
          ],
          [
            -103.36868000000001,
            20.657580000000003
          ],
          [
            -103.36868000000001,
            20.657580000000003
          ],
          [
            -103.36863000000001,
            20.65772
          ],
          [
            -103.36840000000001,
            20.658240000000003
          ],
          [
            -103.36825,
            20.658630000000002
          ],
          [
            -103.36825,
            20.658630000000002
          ],
          [
            -103.36825,
            20.658630000000002
          ],
          [
            -103.36797000000001,
            20.659370000000003
          ],
          [
            -103.36797000000001,
            20.659370000000003
          ],
          [
            -103.36792000000001,
            20.65953
          ],
          [
            -103.36792000000001,
            20.65953
          ],
          [
            -103.36747000000001,
            20.660760000000003
          ],
          [
            -103.36747000000001,
            20.660760000000003
          ],
          [
            -103.36747000000001,
            20.660770000000003
          ],
          [
            -103.36680000000001,
            20.662570000000002
          ],
          [
            -103.36675000000001,
            20.66269
          ],
          [
            -103.36663000000001,
            20.66281
          ],
          [
            -103.36644000000001,
            20.66306
          ],
          [
            -103.36637,
            20.66319
          ],
          [
            -103.36731,
            20.66356
          ],
          [
            -103.36714,
            20.664080000000002
          ],
          [
            -103.36693000000001,
            20.664620000000003
          ],
          [
            -103.36683000000001,
            20.66486
          ],
          [
            -103.36683000000001,
            20.66486
          ],
          [
            -103.36652000000001,
            20.66562
          ],
          [
            -103.36652000000001,
            20.66418
          ]
        ]
      }
    }
  ]
}