{
  "type": "FeatureCollection",
  "features": [
    {
      "type": "Feature",
      "properties": {
        "identifier": "13-3",
        "name": "Ruta 13 “Ruta Modelo”"
      },
      "geometry": {
        "type": "LineString",
        "coordinates": [
          [
            -103.36035000000001,
            20.615940000000002
          ],
          [
            -103.36189,
            20.616370000000003
          ],
          [
            -103.36189,
            20.616370000000003
          ],
          [
            -103.36189,
            20.616370000000003
          ],
          [
            -103.36240000000001,
            20.61653
          ],
          [
            -103.36318000000001,
            20.61674
          ],
          [
            -103.36318000000001,
            20.61674
          ],
          [
            -103.36338,
            20.6168
          ],
          [
            -103.36332,
            20.61702
          ],
          [
            -103.36329,
            20.61701
          ],
          [
            -103.36329,
            20.61701
          ],
          [
            -103.36305000000002,
            20.61815
          ],
          [
            -103.36296000000002,
            20.6187
          ],
          [
            -103.36295000000001,
            20.6187
          ],
          [
            -103.36295000000001,
            20.6187
          ],
          [
            -103.36269000000001,
            20.620320000000003
          ],
          [
            -103.36268000000001,
            20.620320000000003
          ],
          [
            -103.36268000000001,
            20.620320000000003
          ],
          [
            -103.36267000000001,
            20.62039
          ],
          [
            -103.36337,
            20.620410000000003
          ],
          [
            -103.36381000000002,
            20.620420000000003
          ],
          [
            -103.36371000000001,
            20.62065
          ],
          [
            -103.36370000000001,
            20.62065
          ],
          [
            -103.36348000000001,
            20.62121
          ],
          [
            -103.36328,
            20.62169
          ],
          [
            -103.36311,
            20.62209
          ],
          [
            -103.36311,
            20.62209
          ],
          [
            -103.36282000000001,
            20.62275
          ],
          [
            -103.36263000000001,
            20.62319
          ],
          [
            -103.36262,
            20.62319
          ],
          [
            -103.36262,
            20.62319
          ],
          [
            -103.36229,
            20.62395
          ],
          [
            -103.36219000000001,
            20.624180000000003
          ],
          [
            -103.36221,
            20.624180000000003
          ],
          [
            -103.36211000000002,
            20.62443
          ],
          [
            -103.36163,
            20.625580000000003
          ],
          [
            -103.36163,
            20.625580000000003
          ],
          [
            -103.36125000000001,
            20.62649
          ],
          [
            -103.36126,
            20.6265
          ],
          [
            -103.36097000000001,
            20.62724
          ],
          [
            -103.36051,
            20.62827
          ],
          [
            -103.36051,
            20.62827
          ],
          [
            -103.36032,
            20.62872
          ],
          [
            -103.35946000000001,
            20.628110000000003
          ],
          [
            -103.35918000000001,
            20.62791
          ],
          [
            -103.35918000000001,
            20.627920000000003
          ],
          [
            -103.35868,
            20.627570000000002
          ],
          [
            -103.35758000000001,
            20.627000000000002
          ],
          [
            -103.35712000000001,
            20.62686
          ],
          [
            -103.3571,
            20.62685
          ],
          [
            -103.3571,
            20.62685
          ],
          [
            -103.35661,
            20.626640000000002
          ],
          [
            -103.35594,
            20.626330000000003
          ],
          [
            -103.35594,
            20.626320000000003
          ],
          [
            -103.35486,
            20.62584
          ],
          [
            -103.35415,
            20.625500000000002
          ],
          [
            -103.35415,
            20.625500000000002
          ],
          [
            -103.35363000000001,
            20.62526
          ],
          [
            -103.35288000000001,
            20.624940000000002
          ],
          [
            -103.35262,
            20.624820000000003
          ],
          [
            -103.35263,
            20.6248
          ],
          [
            -103.35189000000001,
            20.624470000000002
          ],
          [
            -103.35126000000001,
            20.624180000000003
          ],
          [
            -103.35126000000001,
            20.624180000000003
          ],
          [
            -103.35061,
            20.623880000000003
          ],
          [
            -103.35036000000001,
            20.62378
          ],
          [
            -103.35034,
            20.623810000000002
          ],
          [
            -103.34943000000001,
            20.623410000000003
          ],
          [
            -103.34929000000001,
            20.62339
          ],
          [
            -103.34929000000001,
            20.62339
          ],
          [
            -103.34842,
            20.62329
          ],
          [
            -103.34815,
            20.623260000000002
          ],
          [
            -103.34815,
            20.621820000000003
          ]
        ]
      }
    }
  ]
}