{
  "type": "FeatureCollection",
  "features": [
    {
      "type": "Feature",
      "properties": {
        "identifier": "136-a-c06",
        "name": "Ruta 136 A / C06 (SITRAN)"
      },
      "geometry": {
        "type": "LineString",
        "coordinates": [
          [
            -103.26395000000001,
            20.585330000000003
          ],
          [
            -103.26504000000001,
            20.58529
          ],
          [
            -103.26525000000001,
            20.586550000000003
          ],
          [
            -103.26564,
            20.58868
          ],
          [
            -103.26582,
            20.589920000000003
          ],
          [
            -103.26583000000001,
            20.590190000000003
          ],
          [
            -103.26521000000001,
            20.591600000000003
          ],
          [
            -103.26523,
            20.59215
          ],
          [
            -103.26524,
            20.59281
          ],
          [
            -103.26364000000001,
            20.59337
          ],
          [
            -103.26269,
            20.593680000000003
          ],
          [
            -103.26270000000001,
            20.5944
          ],
          [
            -103.26264,
            20.594630000000002
          ],
          [
            -103.26266000000001,
            20.595570000000002
          ],
          [
            -103.26259,
            20.595920000000003
          ],
          [
            -103.26263,
            20.59694
          ],
          [
            -103.26263,
            20.59844
          ],
          [
            -103.26262000000001,
            20.59974
          ],
          [
            -103.26257000000001,
            20.60039
          ],
          [
            -103.26254000000002,
            20.600740000000002
          ],
          [
            -103.26251,
            20.601170000000003
          ],
          [
            -103.26254000000002,
            20.60141
          ],
          [
            -103.26258000000001,
            20.601740000000003
          ],
          [
            -103.26256000000001,
            20.60217
          ],
          [
            -103.2625,
            20.60358
          ],
          [
            -103.26368000000001,
            20.60406
          ],
          [
            -103.26314,
            20.604580000000002
          ],
          [
            -103.26238000000001,
            20.605110000000003
          ],
          [
            -103.26167000000001,
            20.60573
          ],
          [
            -103.26148,
            20.60602
          ],
          [
            -103.26342000000001,
            20.60657
          ],
          [
            -103.26526000000001,
            20.60717
          ],
          [
            -103.26924000000001,
            20.608530000000002
          ],
          [
            -103.27339,
            20.6097
          ],
          [
            -103.27531,
            20.61016
          ],
          [
            -103.27712000000001,
            20.610280000000003
          ],
          [
            -103.27950000000001,
            20.610480000000003
          ],
          [
            -103.28013000000001,
            20.610570000000003
          ],
          [
            -103.28093000000001,
            20.61091
          ],
          [
            -103.28176,
            20.611490000000003
          ],
          [
            -103.28236000000001,
            20.61221
          ],
          [
            -103.28339000000001,
            20.6138
          ],
          [
            -103.28428000000001,
            20.61505
          ],
          [
            -103.28419000000001,
            20.615660000000002
          ],
          [
            -103.28370000000001,
            20.61617
          ],
          [
            -103.28321000000001,
            20.61633
          ],
          [
            -103.28411000000001,
            20.616490000000002
          ],
          [
            -103.28494,
            20.61661
          ],
          [
            -103.28526000000001,
            20.61644
          ],
          [
            -103.28526000000001,
            20.61615
          ],
          [
            -103.28453,
            20.61502
          ],
          [
            -103.28547,
            20.61336
          ],
          [
            -103.28558000000001,
            20.61314
          ],
          [
            -103.28572000000001,
            20.612270000000002
          ],
          [
            -103.28655,
            20.61278
          ],
          [
            -103.2883,
            20.613770000000002
          ],
          [
            -103.28899000000001,
            20.614250000000002
          ],
          [
            -103.29042000000001,
            20.61287
          ],
          [
            -103.29228,
            20.61108
          ],
          [
            -103.29190000000001,
            20.60985
          ],
          [
            -103.29351000000001,
            20.609750000000002
          ],
          [
            -103.29347000000001,
            20.60847
          ],
          [
            -103.29469,
            20.60875
          ],
          [
            -103.29634000000001,
            20.60911
          ],
          [
            -103.29830000000001,
            20.60959
          ],
          [
            -103.29979,
            20.610500000000002
          ],
          [
            -103.30054000000001,
            20.61108
          ],
          [
            -103.30168,
            20.611130000000003
          ],
          [
            -103.30245000000001,
            20.611230000000003
          ],
          [
            -103.30319000000001,
            20.611310000000003
          ],
          [
            -103.30417000000001,
            20.611340000000002
          ],
          [
            -103.30413000000001,
            20.610470000000003
          ],
          [
            -103.30424000000001,
            20.61025
          ],
          [
            -103.30437,
            20.610090000000003
          ],
          [
            -103.30536000000001,
            20.6094
          ],
          [
            -103.30602,
            20.60933
          ],
          [
            -103.30751000000001,
            20.60951
          ],
          [
            -103.30916,
            20.609800000000003
          ],
          [
            -103.31113,
            20.61016
          ],
          [
            -103.31065000000001,
            20.61158
          ],
          [
            -103.31013000000002,
            20.61314
          ],
          [
            -103.31061000000001,
            20.61325
          ],
          [
            -103.30979,
            20.615440000000003
          ],
          [
            -103.30919000000002,
            20.61729
          ],
          [
            -103.30923000000001,
            20.61745
          ],
          [
            -103.30982,
            20.61776
          ],
          [
            -103.31029000000001,
            20.61787
          ],
          [
            -103.3109,
            20.61777
          ],
          [
            -103.31136000000001,
            20.61775
          ],
          [
            -103.31171,
            20.617610000000003
          ],
          [
            -103.31381,
            20.61792
          ],
          [
            -103.31523000000001,
            20.61813
          ],
          [
            -103.31607000000001,
            20.618250000000003
          ],
          [
            -103.31625000000001,
            20.61843
          ],
          [
            -103.3165,
            20.618270000000003
          ],
          [
            -103.31907000000001,
            20.618630000000003
          ],
          [
            -103.31957000000001,
            20.618660000000002
          ],
          [
            -103.31971000000001,
            20.618850000000002
          ],
          [
            -103.31991000000001,
            20.618830000000003
          ],
          [
            -103.31997000000001,
            20.618550000000003
          ],
          [
            -103.3199,
            20.618380000000002
          ],
          [
            -103.32023000000001,
            20.61571
          ],
          [
            -103.32026,
            20.61533
          ],
          [
            -103.31975000000001,
            20.61523
          ],
          [
            -103.31981,
            20.614780000000003
          ],
          [
            -103.31892,
            20.614600000000003
          ],
          [
            -103.31882,
            20.61447
          ],
          [
            -103.31884000000001,
            20.61426
          ],
          [
            -103.319,
            20.614150000000002
          ],
          [
            -103.31931,
            20.61418
          ],
          [
            -103.31982,
            20.61457
          ],
          [
            -103.32032000000001,
            20.615080000000003
          ],
          [
            -103.32122000000001,
            20.616030000000002
          ],
          [
            -103.32171000000001,
            20.617120000000003
          ],
          [
            -103.32159000000001,
            20.61946
          ],
          [
            -103.32150000000001,
            20.62008
          ],
          [
            -103.32141000000001,
            20.621280000000002
          ],
          [
            -103.32117000000001,
            20.622950000000003
          ],
          [
            -103.32090000000001,
            20.625100000000003
          ],
          [
            -103.32075,
            20.626140000000003
          ],
          [
            -103.32049,
            20.62629
          ],
          [
            -103.32032000000001,
            20.62656
          ],
          [
            -103.32045000000001,
            20.626890000000003
          ],
          [
            -103.32058,
            20.62703
          ],
          [
            -103.31991000000001,
            20.628580000000003
          ],
          [
            -103.31893000000001,
            20.63082
          ],
          [
            -103.31810000000002,
            20.63287
          ],
          [
            -103.31744,
            20.634610000000002
          ],
          [
            -103.31682,
            20.63679
          ],
          [
            -103.31663,
            20.638360000000002
          ],
          [
            -103.31647000000001,
            20.63971
          ],
          [
            -103.31644000000001,
            20.64063
          ],
          [
            -103.31793,
            20.64261
          ],
          [
            -103.31933000000001,
            20.644560000000002
          ],
          [
            -103.32320000000001,
            20.64975
          ],
          [
            -103.32480000000001,
            20.6518
          ],
          [
            -103.32792,
            20.655980000000003
          ],
          [
            -103.32899,
            20.65743
          ],
          [
            -103.32780000000001,
            20.658830000000002
          ],
          [
            -103.32612,
            20.661080000000002
          ],
          [
            -103.32836,
            20.662370000000003
          ],
          [
            -103.32867,
            20.66261
          ],
          [
            -103.32792,
            20.66431
          ],
          [
            -103.32656000000001,
            20.667740000000002
          ],
          [
            -103.33042,
            20.66899
          ],
          [
            -103.33159,
            20.66939
          ],
          [
            -103.33151000000001,
            20.669600000000003
          ],
          [
            -103.33599000000001,
            20.671080000000003
          ],
          [
            -103.33593,
            20.67123
          ],
          [
            -103.33785,
            20.671740000000003
          ],
          [
            -103.33940000000001,
            20.672220000000003
          ],
          [
            -103.34166,
            20.672780000000003
          ],
          [
            -103.34289000000001,
            20.673080000000002
          ],
          [
            -103.34289000000001,
            20.67164
          ]
        ]
      }
    }
  ]
}