{
  "type": "FeatureCollection",
  "features": [
    {
      "type": "Feature",
      "properties": {
        "identifier": "156-2?o=2",
        "name": "Ruta 156"
      },
      "geometry": {
        "type": "LineString",
        "coordinates": [
          [
            -103.29576,
            20.715470000000003
          ],
          [
            -103.29555,
            20.71439
          ],
          [
            -103.29554,
            20.71439
          ],
          [
            -103.29531000000001,
            20.713070000000002
          ],
          [
            -103.29512000000001,
            20.71215
          ],
          [
            -103.29512000000001,
            20.71214
          ],
          [
            -103.29512000000001,
            20.71214
          ],
          [
            -103.29473000000002,
            20.71008
          ],
          [
            -103.29473000000002,
            20.71008
          ],
          [
            -103.29456,
            20.70915
          ],
          [
            -103.29451,
            20.70889
          ],
          [
            -103.29451,
            20.70889
          ],
          [
            -103.29432000000001,
            20.707780000000003
          ],
          [
            -103.2943,
            20.707700000000003
          ],
          [
            -103.2943,
            20.707700000000003
          ],
          [
            -103.29424,
            20.70746
          ],
          [
            -103.29410000000001,
            20.707140000000003
          ],
          [
            -103.29396000000001,
            20.70719
          ],
          [
            -103.29367,
            20.7073
          ],
          [
            -103.29367,
            20.7073
          ],
          [
            -103.29268,
            20.707690000000003
          ],
          [
            -103.29268,
            20.707690000000003
          ],
          [
            -103.29264,
            20.707710000000002
          ],
          [
            -103.29231000000001,
            20.70784
          ],
          [
            -103.29139,
            20.70822
          ],
          [
            -103.29139,
            20.70822
          ],
          [
            -103.29052000000001,
            20.70858
          ],
          [
            -103.28919,
            20.709110000000003
          ],
          [
            -103.28919,
            20.709110000000003
          ],
          [
            -103.28907000000001,
            20.70917
          ],
          [
            -103.28880000000001,
            20.708560000000002
          ],
          [
            -103.28880000000001,
            20.708560000000002
          ],
          [
            -103.28877000000001,
            20.70849
          ],
          [
            -103.28821,
            20.70727
          ],
          [
            -103.28821,
            20.70727
          ],
          [
            -103.28802,
            20.706860000000002
          ],
          [
            -103.28762,
            20.70596
          ],
          [
            -103.28761000000002,
            20.70595
          ],
          [
            -103.28761000000002,
            20.70595
          ],
          [
            -103.28758,
            20.70587
          ],
          [
            -103.28956000000001,
            20.705070000000003
          ],
          [
            -103.28965000000001,
            20.70502
          ],
          [
            -103.29009,
            20.70503
          ],
          [
            -103.29009,
            20.70503
          ],
          [
            -103.29009,
            20.70503
          ],
          [
            -103.29037000000001,
            20.70502
          ],
          [
            -103.29057,
            20.70495
          ],
          [
            -103.29070000000002,
            20.70483
          ],
          [
            -103.29077000000001,
            20.704720000000002
          ],
          [
            -103.29081000000001,
            20.70463
          ],
          [
            -103.29083000000001,
            20.70454
          ],
          [
            -103.29082000000001,
            20.70439
          ],
          [
            -103.29077000000001,
            20.70426
          ],
          [
            -103.29068000000001,
            20.704140000000002
          ],
          [
            -103.29054000000001,
            20.704020000000003
          ],
          [
            -103.29036,
            20.703940000000003
          ],
          [
            -103.29,
            20.70392
          ],
          [
            -103.29,
            20.70392
          ],
          [
            -103.28947000000001,
            20.70391
          ],
          [
            -103.28876000000001,
            20.703860000000002
          ],
          [
            -103.2883,
            20.70383
          ],
          [
            -103.2883,
            20.70383
          ],
          [
            -103.28784,
            20.7038
          ],
          [
            -103.28687000000001,
            20.703760000000003
          ],
          [
            -103.28682,
            20.703650000000003
          ],
          [
            -103.28671000000001,
            20.703550000000003
          ],
          [
            -103.28642,
            20.70324
          ],
          [
            -103.28641,
            20.70323
          ],
          [
            -103.28641,
            20.70323
          ],
          [
            -103.28609,
            20.702910000000003
          ],
          [
            -103.28580000000001,
            20.702640000000002
          ],
          [
            -103.28574,
            20.70249
          ],
          [
            -103.28571000000001,
            20.70241
          ],
          [
            -103.28576000000001,
            20.702060000000003
          ],
          [
            -103.28576000000001,
            20.702060000000003
          ],
          [
            -103.28576000000001,
            20.702060000000003
          ],
          [
            -103.28575000000001,
            20.70203
          ],
          [
            -103.28568000000001,
            20.70201
          ],
          [
            -103.28585000000001,
            20.701410000000003
          ],
          [
            -103.2866,
            20.699360000000002
          ],
          [
            -103.2866,
            20.699360000000002
          ],
          [
            -103.2866,
            20.699360000000002
          ],
          [
            -103.28698000000001,
            20.698310000000003
          ],
          [
            -103.28705000000001,
            20.6981
          ],
          [
            -103.28705000000001,
            20.6981
          ],
          [
            -103.28710000000001,
            20.69799
          ],
          [
            -103.28770000000002,
            20.6963
          ],
          [
            -103.28799000000001,
            20.69639
          ],
          [
            -103.28799000000001,
            20.69639
          ],
          [
            -103.28824,
            20.69647
          ],
          [
            -103.28893000000001,
            20.69669
          ],
          [
            -103.28893000000001,
            20.69669
          ],
          [
            -103.28914,
            20.69676
          ],
          [
            -103.29016000000001,
            20.697090000000003
          ],
          [
            -103.29017,
            20.697080000000003
          ],
          [
            -103.29094,
            20.69734
          ],
          [
            -103.29096000000001,
            20.69734
          ],
          [
            -103.29096000000001,
            20.69734
          ],
          [
            -103.29195000000001,
            20.697650000000003
          ],
          [
            -103.29195000000001,
            20.697650000000003
          ],
          [
            -103.29220000000001,
            20.69773
          ],
          [
            -103.29292000000001,
            20.697960000000002
          ],
          [
            -103.29292000000001,
            20.697960000000002
          ],
          [
            -103.29293000000001,
            20.69797
          ],
          [
            -103.29363000000001,
            20.69817
          ],
          [
            -103.29397,
            20.69828
          ],
          [
            -103.29396000000001,
            20.698310000000003
          ],
          [
            -103.29395000000001,
            20.69838
          ],
          [
            -103.29396000000001,
            20.69853
          ],
          [
            -103.29403,
            20.69866
          ],
          [
            -103.29415,
            20.698770000000003
          ],
          [
            -103.29431000000001,
            20.69883
          ],
          [
            -103.29447,
            20.69883
          ],
          [
            -103.29463000000001,
            20.698780000000003
          ],
          [
            -103.29473000000002,
            20.698690000000003
          ],
          [
            -103.29481000000001,
            20.69856
          ],
          [
            -103.29484000000001,
            20.69836
          ],
          [
            -103.29473000000002,
            20.698150000000002
          ],
          [
            -103.29466000000001,
            20.69809
          ],
          [
            -103.29447,
            20.69801
          ],
          [
            -103.29437000000001,
            20.698
          ],
          [
            -103.29438,
            20.697840000000003
          ],
          [
            -103.29438,
            20.697840000000003
          ],
          [
            -103.29439,
            20.697740000000003
          ],
          [
            -103.29436000000001,
            20.69685
          ],
          [
            -103.29436000000001,
            20.69685
          ],
          [
            -103.29436000000001,
            20.69685
          ],
          [
            -103.29437000000001,
            20.69592
          ],
          [
            -103.29437000000001,
            20.69565
          ],
          [
            -103.29437000000001,
            20.69565
          ],
          [
            -103.29437000000001,
            20.694470000000003
          ],
          [
            -103.29438,
            20.694470000000003
          ],
          [
            -103.29438,
            20.694470000000003
          ],
          [
            -103.29438,
            20.694470000000003
          ],
          [
            -103.29439,
            20.692690000000002
          ],
          [
            -103.29439,
            20.692690000000002
          ],
          [
            -103.29439,
            20.692690000000002
          ],
          [
            -103.29439,
            20.692690000000002
          ],
          [
            -103.29439,
            20.69245
          ],
          [
            -103.29438,
            20.69055
          ],
          [
            -103.29438,
            20.690330000000003
          ],
          [
            -103.29438,
            20.690330000000003
          ],
          [
            -103.29438,
            20.6903
          ],
          [
            -103.29438,
            20.6903
          ],
          [
            -103.29439,
            20.689510000000002
          ],
          [
            -103.29448000000001,
            20.68935
          ],
          [
            -103.29457000000001,
            20.689110000000003
          ],
          [
            -103.29456,
            20.689100000000003
          ],
          [
            -103.29457000000001,
            20.689100000000003
          ],
          [
            -103.2947,
            20.68888
          ],
          [
            -103.29496,
            20.688560000000003
          ],
          [
            -103.29509,
            20.688450000000003
          ],
          [
            -103.29501,
            20.688350000000003
          ],
          [
            -103.29475000000001,
            20.68803
          ],
          [
            -103.29469,
            20.687890000000003
          ],
          [
            -103.29457000000001,
            20.687630000000002
          ],
          [
            -103.29455000000002,
            20.6875
          ],
          [
            -103.29452,
            20.687260000000002
          ],
          [
            -103.29455000000002,
            20.686600000000002
          ],
          [
            -103.29468000000001,
            20.68552
          ],
          [
            -103.29468000000001,
            20.685470000000002
          ],
          [
            -103.29468000000001,
            20.685470000000002
          ],
          [
            -103.29484000000001,
            20.684340000000002
          ],
          [
            -103.29485000000001,
            20.68417
          ],
          [
            -103.29485000000001,
            20.684160000000002
          ],
          [
            -103.29485000000001,
            20.684160000000002
          ],
          [
            -103.29486000000001,
            20.68401
          ],
          [
            -103.2951,
            20.683780000000002
          ],
          [
            -103.29574000000001,
            20.68317
          ],
          [
            -103.29575000000001,
            20.68317
          ],
          [
            -103.29578000000001,
            20.68315
          ],
          [
            -103.29647000000001,
            20.68249
          ],
          [
            -103.29647000000001,
            20.68249
          ],
          [
            -103.29648,
            20.68249
          ],
          [
            -103.29674000000001,
            20.682270000000003
          ],
          [
            -103.29816000000001,
            20.6827
          ],
          [
            -103.29841,
            20.68277
          ],
          [
            -103.29841,
            20.68277
          ],
          [
            -103.30024,
            20.683310000000002
          ],
          [
            -103.30024,
            20.683310000000002
          ],
          [
            -103.30024,
            20.683310000000002
          ],
          [
            -103.30207000000001,
            20.683860000000003
          ],
          [
            -103.30207000000001,
            20.683860000000003
          ],
          [
            -103.30273000000001,
            20.684070000000002
          ],
          [
            -103.30299000000001,
            20.684140000000003
          ],
          [
            -103.30299000000001,
            20.684140000000003
          ],
          [
            -103.30481,
            20.684700000000003
          ],
          [
            -103.30481,
            20.684700000000003
          ],
          [
            -103.30481,
            20.684700000000003
          ],
          [
            -103.30572000000001,
            20.684970000000003
          ],
          [
            -103.30572000000001,
            20.684970000000003
          ],
          [
            -103.30640000000001,
            20.685170000000003
          ],
          [
            -103.30754,
            20.68553
          ],
          [
            -103.30754,
            20.68553
          ],
          [
            -103.30846000000001,
            20.685820000000003
          ],
          [
            -103.30846000000001,
            20.685820000000003
          ],
          [
            -103.30846000000001,
            20.685820000000003
          ],
          [
            -103.30912000000001,
            20.686020000000003
          ],
          [
            -103.30968000000001,
            20.68436
          ],
          [
            -103.30968000000001,
            20.68436
          ],
          [
            -103.30969,
            20.68436
          ],
          [
            -103.31004000000001,
            20.683320000000002
          ],
          [
            -103.31004000000001,
            20.683320000000002
          ],
          [
            -103.31039000000001,
            20.682280000000002
          ],
          [
            -103.31039000000001,
            20.682280000000002
          ],
          [
            -103.31074000000001,
            20.68126
          ],
          [
            -103.31074000000001,
            20.68126
          ],
          [
            -103.31110000000001,
            20.68023
          ],
          [
            -103.31110000000001,
            20.680220000000002
          ],
          [
            -103.31110000000001,
            20.680220000000002
          ],
          [
            -103.31145000000001,
            20.679180000000002
          ],
          [
            -103.31145000000001,
            20.679180000000002
          ],
          [
            -103.31173000000001,
            20.678400000000003
          ],
          [
            -103.31181000000001,
            20.678160000000002
          ],
          [
            -103.31181000000001,
            20.678160000000002
          ],
          [
            -103.31183000000001,
            20.67811
          ],
          [
            -103.31207,
            20.677390000000003
          ],
          [
            -103.31259000000001,
            20.67755
          ],
          [
            -103.31303000000001,
            20.677680000000002
          ],
          [
            -103.31324000000001,
            20.67774
          ],
          [
            -103.31324000000001,
            20.67773
          ],
          [
            -103.31504000000001,
            20.67827
          ],
          [
            -103.31504000000001,
            20.67827
          ],
          [
            -103.31510000000002,
            20.67829
          ],
          [
            -103.31596,
            20.67856
          ],
          [
            -103.31596,
            20.67856
          ],
          [
            -103.31596,
            20.67856
          ],
          [
            -103.31688000000001,
            20.67883
          ],
          [
            -103.31688000000001,
            20.67883
          ],
          [
            -103.31688000000001,
            20.67882
          ],
          [
            -103.31698000000002,
            20.67885
          ],
          [
            -103.31871000000001,
            20.679380000000002
          ],
          [
            -103.31871000000001,
            20.679380000000002
          ],
          [
            -103.31875000000001,
            20.6794
          ],
          [
            -103.31937,
            20.67958
          ],
          [
            -103.32053,
            20.67996
          ],
          [
            -103.32053,
            20.67996
          ],
          [
            -103.32053,
            20.67996
          ],
          [
            -103.32144000000001,
            20.68024
          ],
          [
            -103.32144000000001,
            20.68024
          ],
          [
            -103.32144000000001,
            20.68023
          ],
          [
            -103.32212000000001,
            20.68044
          ],
          [
            -103.32202000000001,
            20.68074
          ],
          [
            -103.32206000000001,
            20.680750000000003
          ],
          [
            -103.32226000000001,
            20.680750000000003
          ],
          [
            -103.32226000000001,
            20.680750000000003
          ],
          [
            -103.32227,
            20.680750000000003
          ],
          [
            -103.32348,
            20.680750000000003
          ],
          [
            -103.32373000000001,
            20.680750000000003
          ],
          [
            -103.32373000000001,
            20.680750000000003
          ],
          [
            -103.32511000000001,
            20.680750000000003
          ],
          [
            -103.32511000000001,
            20.680750000000003
          ],
          [
            -103.32627000000001,
            20.680750000000003
          ],
          [
            -103.32652,
            20.68074
          ],
          [
            -103.32652,
            20.68074
          ],
          [
            -103.32797000000001,
            20.68074
          ],
          [
            -103.32797000000001,
            20.68074
          ],
          [
            -103.32797000000001,
            20.68074
          ],
          [
            -103.32898,
            20.68072
          ],
          [
            -103.32924000000001,
            20.680750000000003
          ],
          [
            -103.32925,
            20.680750000000003
          ],
          [
            -103.32925,
            20.680750000000003
          ],
          [
            -103.33027000000001,
            20.680940000000003
          ],
          [
            -103.33053000000001,
            20.68098
          ],
          [
            -103.33053000000001,
            20.68098
          ],
          [
            -103.33054000000001,
            20.68099
          ],
          [
            -103.33171000000002,
            20.68118
          ],
          [
            -103.33199,
            20.681230000000003
          ],
          [
            -103.33199,
            20.681230000000003
          ],
          [
            -103.33226,
            20.68129
          ],
          [
            -103.33266,
            20.6813
          ],
          [
            -103.33319,
            20.68128
          ],
          [
            -103.33319,
            20.68128
          ],
          [
            -103.33426000000001,
            20.68126
          ],
          [
            -103.33478000000001,
            20.681250000000002
          ],
          [
            -103.33478000000001,
            20.681250000000002
          ],
          [
            -103.33623000000001,
            20.681240000000003
          ],
          [
            -103.33623000000001,
            20.681240000000003
          ],
          [
            -103.3374,
            20.681230000000003
          ],
          [
            -103.33779000000001,
            20.681230000000003
          ],
          [
            -103.33779000000001,
            20.681230000000003
          ],
          [
            -103.33779000000001,
            20.681230000000003
          ],
          [
            -103.33855000000001,
            20.6812
          ],
          [
            -103.33874,
            20.681150000000002
          ],
          [
            -103.33973,
            20.681160000000002
          ],
          [
            -103.34,
            20.681160000000002
          ],
          [
            -103.34,
            20.681160000000002
          ],
          [
            -103.34,
            20.681160000000002
          ],
          [
            -103.34047000000001,
            20.68118
          ],
          [
            -103.34127000000001,
            20.681350000000002
          ],
          [
            -103.34127000000001,
            20.68136
          ],
          [
            -103.34127000000001,
            20.68136
          ],
          [
            -103.3417,
            20.68145
          ],
          [
            -103.34199000000001,
            20.68149
          ],
          [
            -103.34196000000001,
            20.68118
          ],
          [
            -103.34193,
            20.68108
          ],
          [
            -103.34219,
            20.68109
          ],
          [
            -103.34219,
            20.68108
          ],
          [
            -103.34283,
            20.6811
          ],
          [
            -103.34324000000001,
            20.68112
          ],
          [
            -103.34321000000001,
            20.68055
          ],
          [
            -103.34321000000001,
            20.68055
          ],
          [
            -103.34321000000001,
            20.680500000000002
          ],
          [
            -103.34323,
            20.68014
          ],
          [
            -103.34322,
            20.6798
          ],
          [
            -103.34348000000001,
            20.67979
          ],
          [
            -103.34348000000001,
            20.67979
          ],
          [
            -103.34348000000001,
            20.67979
          ],
          [
            -103.34463000000001,
            20.679730000000003
          ],
          [
            -103.34463000000001,
            20.679730000000003
          ],
          [
            -103.34463000000001,
            20.679730000000003
          ],
          [
            -103.34516,
            20.6797
          ],
          [
            -103.34621000000001,
            20.679650000000002
          ],
          [
            -103.34621000000001,
            20.679650000000002
          ],
          [
            -103.34706000000001,
            20.679620000000003
          ],
          [
            -103.34737000000001,
            20.6796
          ],
          [
            -103.34737000000001,
            20.6796
          ],
          [
            -103.34858000000001,
            20.679550000000003
          ],
          [
            -103.34858000000001,
            20.679550000000003
          ],
          [
            -103.34909,
            20.67952
          ],
          [
            -103.34905,
            20.679000000000002
          ],
          [
            -103.34905,
            20.677560000000003
          ]
        ]
      }
    }
  ]
}