{
  "type": "FeatureCollection",
  "features": [
    {
      "type": "Feature",
      "properties": {
        "identifier": "163-2",
        "name": "Ruta 163"
      },
      "geometry": {
        "type": "LineString",
        "coordinates": [
          [
            -103.42443000000002,
            20.848190000000002
          ],
          [
            -103.42424000000001,
            20.847140000000003
          ],
          [
            -103.42433000000001,
            20.84702
          ],
          [
            -103.42443000000002,
            20.846960000000003
          ],
          [
            -103.42453,
            20.84692
          ],
          [
            -103.4247,
            20.84694
          ],
          [
            -103.4247,
            20.84694
          ],
          [
            -103.42769000000001,
            20.84737
          ],
          [
            -103.42830000000001,
            20.847440000000002
          ],
          [
            -103.4303,
            20.84774
          ],
          [
            -103.4303,
            20.84774
          ],
          [
            -103.4303,
            20.84774
          ],
          [
            -103.43498000000001,
            20.84842
          ],
          [
            -103.43875000000001,
            20.848950000000002
          ],
          [
            -103.43889000000001,
            20.848950000000002
          ],
          [
            -103.44473,
            20.84975
          ],
          [
            -103.44522,
            20.849790000000002
          ],
          [
            -103.44581000000001,
            20.847530000000003
          ],
          [
            -103.44581000000001,
            20.847520000000003
          ],
          [
            -103.44581000000001,
            20.847520000000003
          ],
          [
            -103.44610000000002,
            20.846380000000003
          ],
          [
            -103.447,
            20.84296
          ],
          [
            -103.44741,
            20.84137
          ],
          [
            -103.44802000000001,
            20.83893
          ],
          [
            -103.44888,
            20.835710000000002
          ],
          [
            -103.44939000000001,
            20.83371
          ],
          [
            -103.44968000000001,
            20.832600000000003
          ],
          [
            -103.44968000000001,
            20.832600000000003
          ],
          [
            -103.44999000000001,
            20.831390000000003
          ],
          [
            -103.44999000000001,
            20.831390000000003
          ],
          [
            -103.45041,
            20.829790000000003
          ],
          [
            -103.45041,
            20.829790000000003
          ],
          [
            -103.45080000000002,
            20.82832
          ],
          [
            -103.45080000000002,
            20.82832
          ],
          [
            -103.45154000000001,
            20.825460000000003
          ],
          [
            -103.45154000000001,
            20.825460000000003
          ],
          [
            -103.45194000000001,
            20.823960000000003
          ],
          [
            -103.45202,
            20.82385
          ],
          [
            -103.45205000000001,
            20.82375
          ],
          [
            -103.45281000000001,
            20.82074
          ],
          [
            -103.45281000000001,
            20.82074
          ],
          [
            -103.45282,
            20.82074
          ],
          [
            -103.45455000000001,
            20.81408
          ],
          [
            -103.45446000000001,
            20.81406
          ],
          [
            -103.45426,
            20.814790000000002
          ],
          [
            -103.45355,
            20.817600000000002
          ],
          [
            -103.45331,
            20.81847
          ],
          [
            -103.45331,
            20.81847
          ],
          [
            -103.45331,
            20.81847
          ],
          [
            -103.45264,
            20.821070000000002
          ],
          [
            -103.45227000000001,
            20.821340000000003
          ],
          [
            -103.45193,
            20.821440000000003
          ],
          [
            -103.45177000000001,
            20.82141
          ],
          [
            -103.45162,
            20.821270000000002
          ],
          [
            -103.45150000000001,
            20.821180000000002
          ],
          [
            -103.45136000000001,
            20.82112
          ],
          [
            -103.45121,
            20.8211
          ],
          [
            -103.44979000000001,
            20.82121
          ],
          [
            -103.44978,
            20.82121
          ],
          [
            -103.44978,
            20.82121
          ],
          [
            -103.44872000000001,
            20.82131
          ],
          [
            -103.44851000000001,
            20.82128
          ],
          [
            -103.4484,
            20.821230000000003
          ],
          [
            -103.44819000000001,
            20.821060000000003
          ],
          [
            -103.44801000000001,
            20.820960000000003
          ],
          [
            -103.44782000000001,
            20.82092
          ],
          [
            -103.44738000000001,
            20.820880000000002
          ],
          [
            -103.44737,
            20.82062
          ],
          [
            -103.44737,
            20.820610000000002
          ],
          [
            -103.44737,
            20.820610000000002
          ],
          [
            -103.44728,
            20.81952
          ],
          [
            -103.44728,
            20.81951
          ],
          [
            -103.44728,
            20.81951
          ],
          [
            -103.44718,
            20.81887
          ],
          [
            -103.44593,
            20.81897
          ],
          [
            -103.44593,
            20.81897
          ],
          [
            -103.44593,
            20.81897
          ],
          [
            -103.44447000000001,
            20.81912
          ],
          [
            -103.44447000000001,
            20.81912
          ],
          [
            -103.44349000000001,
            20.81922
          ],
          [
            -103.44349000000001,
            20.81922
          ],
          [
            -103.44291000000001,
            20.819290000000002
          ],
          [
            -103.44286000000001,
            20.81896
          ],
          [
            -103.44206000000001,
            20.819010000000002
          ],
          [
            -103.44206000000001,
            20.819010000000002
          ],
          [
            -103.44183000000001,
            20.81903
          ],
          [
            -103.44106000000001,
            20.819110000000002
          ],
          [
            -103.44106000000001,
            20.819110000000002
          ],
          [
            -103.44106000000001,
            20.819110000000002
          ],
          [
            -103.44073,
            20.81916
          ],
          [
            -103.44053000000001,
            20.81924
          ],
          [
            -103.44041000000001,
            20.81934
          ],
          [
            -103.44034,
            20.81943
          ],
          [
            -103.44027000000001,
            20.819670000000002
          ],
          [
            -103.44037,
            20.82076
          ],
          [
            -103.44172,
            20.82063
          ],
          [
            -103.44172,
            20.82063
          ],
          [
            -103.44277000000001,
            20.82054
          ],
          [
            -103.44277000000001,
            20.82054
          ],
          [
            -103.44305000000001,
            20.820520000000002
          ],
          [
            -103.44328,
            20.82082
          ],
          [
            -103.44339000000001,
            20.82093
          ],
          [
            -103.44353000000001,
            20.82102
          ],
          [
            -103.44385000000001,
            20.821180000000002
          ],
          [
            -103.44418,
            20.82128
          ],
          [
            -103.44486,
            20.821230000000003
          ],
          [
            -103.44565000000001,
            20.821150000000003
          ],
          [
            -103.44565000000001,
            20.821150000000003
          ],
          [
            -103.44739000000001,
            20.820980000000002
          ],
          [
            -103.44776,
            20.820990000000002
          ],
          [
            -103.44795,
            20.82103
          ],
          [
            -103.44814000000001,
            20.82113
          ],
          [
            -103.4483,
            20.821260000000002
          ],
          [
            -103.44846000000001,
            20.821350000000002
          ],
          [
            -103.44858,
            20.82137
          ],
          [
            -103.44882000000001,
            20.82138
          ],
          [
            -103.45105000000001,
            20.8212
          ],
          [
            -103.45122,
            20.8212
          ],
          [
            -103.45136000000001,
            20.821240000000003
          ],
          [
            -103.45151000000001,
            20.82132
          ],
          [
            -103.45161,
            20.821420000000003
          ],
          [
            -103.45200000000001,
            20.82176
          ],
          [
            -103.45200000000001,
            20.82176
          ],
          [
            -103.45214000000001,
            20.82188
          ],
          [
            -103.45237,
            20.822110000000002
          ],
          [
            -103.45194000000001,
            20.823710000000002
          ],
          [
            -103.45193,
            20.82382
          ],
          [
            -103.45194000000001,
            20.823960000000003
          ],
          [
            -103.45202,
            20.82385
          ],
          [
            -103.45334000000001,
            20.81875
          ],
          [
            -103.45437000000001,
            20.81482
          ],
          [
            -103.45443,
            20.814580000000003
          ],
          [
            -103.45443,
            20.814580000000003
          ],
          [
            -103.45555,
            20.810200000000002
          ],
          [
            -103.45659,
            20.80628
          ],
          [
            -103.45665000000001,
            20.806040000000003
          ],
          [
            -103.45665000000001,
            20.806040000000003
          ],
          [
            -103.45775,
            20.80178
          ],
          [
            -103.45775,
            20.80178
          ],
          [
            -103.45808000000001,
            20.800520000000002
          ],
          [
            -103.45957000000001,
            20.79501
          ],
          [
            -103.46099000000001,
            20.789530000000003
          ],
          [
            -103.46137,
            20.78782
          ],
          [
            -103.46150000000002,
            20.787380000000002
          ],
          [
            -103.46189000000001,
            20.78594
          ],
          [
            -103.46196,
            20.785610000000002
          ],
          [
            -103.46196,
            20.785610000000002
          ],
          [
            -103.46249,
            20.783340000000003
          ],
          [
            -103.46294,
            20.781730000000003
          ],
          [
            -103.46297000000001,
            20.7816
          ],
          [
            -103.46299,
            20.781380000000002
          ],
          [
            -103.46267,
            20.78115
          ],
          [
            -103.46267,
            20.78115
          ],
          [
            -103.46190000000001,
            20.78059
          ],
          [
            -103.46190000000001,
            20.78059
          ],
          [
            -103.45678000000001,
            20.776880000000002
          ],
          [
            -103.45678000000001,
            20.776880000000002
          ],
          [
            -103.45678000000001,
            20.776880000000002
          ],
          [
            -103.45643000000001,
            20.77664
          ],
          [
            -103.45593000000001,
            20.77625
          ],
          [
            -103.45505000000001,
            20.77561
          ],
          [
            -103.45307000000001,
            20.77418
          ],
          [
            -103.45307000000001,
            20.77418
          ],
          [
            -103.45185000000001,
            20.773290000000003
          ],
          [
            -103.45185000000001,
            20.773290000000003
          ],
          [
            -103.44935000000001,
            20.77149
          ],
          [
            -103.44934,
            20.77148
          ],
          [
            -103.44934,
            20.77148
          ],
          [
            -103.44925,
            20.771410000000003
          ],
          [
            -103.44825,
            20.7707
          ],
          [
            -103.44693000000001,
            20.769740000000002
          ],
          [
            -103.44654000000001,
            20.769450000000003
          ],
          [
            -103.44654000000001,
            20.769450000000003
          ],
          [
            -103.44641000000001,
            20.769350000000003
          ],
          [
            -103.44491000000001,
            20.76828
          ],
          [
            -103.44491000000001,
            20.76828
          ],
          [
            -103.44491000000001,
            20.76828
          ],
          [
            -103.44491000000001,
            20.76827
          ],
          [
            -103.44261,
            20.76659
          ],
          [
            -103.44259000000001,
            20.76658
          ],
          [
            -103.44258,
            20.76657
          ],
          [
            -103.44129000000001,
            20.76564
          ],
          [
            -103.44129000000001,
            20.76564
          ],
          [
            -103.44009000000001,
            20.764770000000002
          ],
          [
            -103.43993,
            20.764650000000003
          ],
          [
            -103.43993,
            20.764650000000003
          ],
          [
            -103.43789000000001,
            20.763160000000003
          ],
          [
            -103.43789000000001,
            20.763160000000003
          ],
          [
            -103.43787,
            20.763150000000003
          ],
          [
            -103.43786000000001,
            20.76314
          ],
          [
            -103.43786000000001,
            20.76314
          ],
          [
            -103.43708000000001,
            20.762590000000003
          ],
          [
            -103.4368,
            20.76237
          ],
          [
            -103.43584000000001,
            20.76169
          ],
          [
            -103.43565000000001,
            20.761550000000003
          ],
          [
            -103.43565000000001,
            20.761550000000003
          ],
          [
            -103.43467000000001,
            20.760830000000002
          ],
          [
            -103.43417000000001,
            20.76047
          ],
          [
            -103.43417000000001,
            20.76047
          ],
          [
            -103.43412000000001,
            20.760430000000003
          ],
          [
            -103.43412000000001,
            20.760430000000003
          ],
          [
            -103.43221000000001,
            20.75906
          ],
          [
            -103.43221000000001,
            20.75906
          ],
          [
            -103.43219,
            20.759050000000002
          ],
          [
            -103.43192,
            20.758840000000003
          ],
          [
            -103.42876000000001,
            20.75653
          ],
          [
            -103.42837000000002,
            20.756230000000002
          ],
          [
            -103.42738000000001,
            20.75551
          ],
          [
            -103.42722,
            20.755380000000002
          ],
          [
            -103.42722,
            20.755380000000002
          ],
          [
            -103.42722,
            20.755380000000002
          ],
          [
            -103.42326000000001,
            20.752540000000003
          ],
          [
            -103.42069000000001,
            20.750670000000003
          ],
          [
            -103.42069000000001,
            20.750670000000003
          ],
          [
            -103.42069000000001,
            20.750670000000003
          ],
          [
            -103.42068,
            20.750670000000003
          ],
          [
            -103.41832000000001,
            20.74894
          ],
          [
            -103.41810000000001,
            20.748710000000003
          ],
          [
            -103.4179,
            20.748520000000003
          ],
          [
            -103.41765000000001,
            20.748330000000003
          ],
          [
            -103.41765000000001,
            20.748330000000003
          ],
          [
            -103.41627000000001,
            20.747300000000003
          ],
          [
            -103.41627000000001,
            20.747300000000003
          ],
          [
            -103.41627000000001,
            20.747300000000003
          ],
          [
            -103.41319000000001,
            20.745070000000002
          ],
          [
            -103.41319000000001,
            20.745070000000002
          ],
          [
            -103.41153000000001,
            20.74386
          ],
          [
            -103.41152000000001,
            20.743850000000002
          ],
          [
            -103.41152000000001,
            20.743850000000002
          ],
          [
            -103.40973000000001,
            20.74256
          ],
          [
            -103.40973000000001,
            20.74256
          ],
          [
            -103.40973000000001,
            20.74256
          ],
          [
            -103.40869,
            20.74182
          ],
          [
            -103.40801,
            20.74132
          ],
          [
            -103.40801,
            20.74132
          ],
          [
            -103.40722000000001,
            20.740750000000002
          ],
          [
            -103.40664000000001,
            20.740560000000002
          ],
          [
            -103.40531000000001,
            20.739600000000003
          ],
          [
            -103.40531000000001,
            20.739600000000003
          ],
          [
            -103.40311000000001,
            20.738020000000002
          ],
          [
            -103.40305000000001,
            20.73788
          ],
          [
            -103.40285000000002,
            20.73769
          ],
          [
            -103.40237,
            20.737340000000003
          ],
          [
            -103.40237,
            20.737340000000003
          ],
          [
            -103.39974000000001,
            20.73543
          ],
          [
            -103.39974000000001,
            20.73543
          ],
          [
            -103.39864000000001,
            20.734630000000003
          ],
          [
            -103.39864000000001,
            20.734630000000003
          ],
          [
            -103.39706000000001,
            20.733490000000003
          ],
          [
            -103.39706000000001,
            20.733490000000003
          ],
          [
            -103.39636,
            20.73298
          ],
          [
            -103.39382,
            20.73112
          ],
          [
            -103.39382,
            20.73112
          ],
          [
            -103.39240000000001,
            20.73008
          ],
          [
            -103.39118,
            20.729200000000002
          ],
          [
            -103.39081,
            20.72897
          ],
          [
            -103.39049000000001,
            20.72884
          ],
          [
            -103.39028,
            20.72878
          ],
          [
            -103.38950000000001,
            20.72869
          ],
          [
            -103.38950000000001,
            20.72869
          ],
          [
            -103.38942000000002,
            20.72868
          ],
          [
            -103.38942000000002,
            20.72868
          ],
          [
            -103.38906000000001,
            20.728650000000002
          ],
          [
            -103.38815000000001,
            20.7286
          ],
          [
            -103.38815000000001,
            20.7286
          ],
          [
            -103.38807000000001,
            20.7286
          ],
          [
            -103.38714,
            20.72851
          ],
          [
            -103.38688,
            20.72839
          ],
          [
            -103.38674,
            20.72829
          ],
          [
            -103.38662000000001,
            20.728170000000002
          ],
          [
            -103.38656,
            20.72809
          ],
          [
            -103.38646000000001,
            20.727790000000002
          ],
          [
            -103.38647,
            20.72754
          ],
          [
            -103.38685000000001,
            20.726090000000003
          ],
          [
            -103.38708000000001,
            20.72528
          ],
          [
            -103.38708000000001,
            20.72528
          ],
          [
            -103.38762000000001,
            20.723390000000002
          ],
          [
            -103.38777,
            20.722810000000003
          ],
          [
            -103.38780000000001,
            20.722610000000003
          ],
          [
            -103.38778,
            20.722330000000003
          ],
          [
            -103.38775000000001,
            20.72222
          ],
          [
            -103.38775000000001,
            20.72222
          ],
          [
            -103.38774000000001,
            20.722150000000003
          ],
          [
            -103.38774000000001,
            20.722150000000003
          ],
          [
            -103.38773,
            20.72211
          ],
          [
            -103.3876,
            20.72175
          ],
          [
            -103.38751,
            20.721390000000003
          ],
          [
            -103.38739000000001,
            20.721140000000002
          ],
          [
            -103.38762000000001,
            20.71994
          ],
          [
            -103.38781,
            20.719520000000003
          ],
          [
            -103.38821000000002,
            20.718400000000003
          ],
          [
            -103.38806000000001,
            20.71837
          ],
          [
            -103.38764,
            20.719640000000002
          ],
          [
            -103.3876,
            20.71974
          ],
          [
            -103.38755,
            20.719820000000002
          ],
          [
            -103.38747000000001,
            20.71984
          ],
          [
            -103.38729000000001,
            20.71985
          ],
          [
            -103.38698000000001,
            20.719800000000003
          ],
          [
            -103.38648,
            20.71948
          ],
          [
            -103.38648,
            20.71948
          ],
          [
            -103.38539000000002,
            20.718780000000002
          ],
          [
            -103.38532000000001,
            20.71874
          ],
          [
            -103.38532000000001,
            20.71874
          ],
          [
            -103.38512000000001,
            20.71862
          ],
          [
            -103.38396,
            20.71787
          ],
          [
            -103.38396,
            20.71787
          ],
          [
            -103.38039,
            20.715580000000003
          ],
          [
            -103.38039,
            20.715580000000003
          ],
          [
            -103.37714000000001,
            20.71349
          ],
          [
            -103.37714000000001,
            20.71349
          ],
          [
            -103.37706000000001,
            20.713440000000002
          ],
          [
            -103.37706000000001,
            20.713440000000002
          ],
          [
            -103.37706000000001,
            20.713440000000002
          ],
          [
            -103.37655000000001,
            20.71312
          ],
          [
            -103.37594000000001,
            20.71271
          ],
          [
            -103.37527000000001,
            20.712300000000003
          ],
          [
            -103.37486000000001,
            20.712030000000002
          ],
          [
            -103.37486000000001,
            20.712030000000002
          ],
          [
            -103.37486000000001,
            20.712030000000002
          ],
          [
            -103.37326,
            20.71103
          ],
          [
            -103.37107,
            20.70963
          ],
          [
            -103.37051000000001,
            20.709280000000003
          ],
          [
            -103.3705,
            20.70927
          ],
          [
            -103.3705,
            20.70927
          ],
          [
            -103.36898000000001,
            20.708270000000002
          ],
          [
            -103.36898000000001,
            20.708270000000002
          ],
          [
            -103.36889000000001,
            20.70821
          ],
          [
            -103.36675000000001,
            20.706850000000003
          ],
          [
            -103.36675000000001,
            20.706850000000003
          ],
          [
            -103.36455000000001,
            20.705450000000003
          ],
          [
            -103.36454,
            20.705440000000003
          ],
          [
            -103.36454,
            20.705440000000003
          ],
          [
            -103.36247,
            20.70411
          ],
          [
            -103.36247,
            20.70411
          ],
          [
            -103.36116000000001,
            20.703270000000003
          ],
          [
            -103.36067000000001,
            20.703000000000003
          ],
          [
            -103.36025000000001,
            20.702710000000003
          ],
          [
            -103.36024,
            20.7027
          ],
          [
            -103.36024,
            20.7027
          ],
          [
            -103.35917,
            20.701990000000002
          ],
          [
            -103.35917,
            20.701990000000002
          ],
          [
            -103.35908,
            20.70193
          ],
          [
            -103.35733,
            20.7008
          ],
          [
            -103.35733,
            20.7008
          ],
          [
            -103.35634,
            20.70016
          ],
          [
            -103.35585,
            20.69988
          ],
          [
            -103.35539000000001,
            20.69956
          ],
          [
            -103.35539000000001,
            20.69956
          ],
          [
            -103.35523,
            20.699450000000002
          ],
          [
            -103.35444000000001,
            20.698990000000002
          ],
          [
            -103.35402,
            20.698700000000002
          ],
          [
            -103.35383,
            20.69857
          ],
          [
            -103.35383,
            20.69857
          ],
          [
            -103.35279000000001,
            20.697920000000003
          ],
          [
            -103.35279000000001,
            20.697920000000003
          ],
          [
            -103.35220000000001,
            20.69754
          ],
          [
            -103.35175000000001,
            20.69726
          ],
          [
            -103.35175000000001,
            20.69726
          ],
          [
            -103.35158000000001,
            20.69716
          ],
          [
            -103.35093,
            20.696710000000003
          ],
          [
            -103.35093,
            20.696710000000003
          ],
          [
            -103.35075,
            20.69659
          ],
          [
            -103.34963,
            20.695890000000002
          ],
          [
            -103.34918,
            20.695580000000003
          ],
          [
            -103.34920000000001,
            20.695320000000002
          ],
          [
            -103.34930000000001,
            20.695130000000002
          ],
          [
            -103.34933000000001,
            20.695010000000003
          ],
          [
            -103.34920000000001,
            20.694730000000003
          ],
          [
            -103.34942000000001,
            20.69459
          ],
          [
            -103.34942000000001,
            20.69459
          ],
          [
            -103.34957000000001,
            20.69451
          ],
          [
            -103.35006000000001,
            20.69432
          ],
          [
            -103.35051000000001,
            20.69422
          ],
          [
            -103.35085000000001,
            20.69416
          ],
          [
            -103.35166000000001,
            20.69414
          ],
          [
            -103.35172000000001,
            20.69331
          ],
          [
            -103.35180000000001,
            20.693160000000002
          ],
          [
            -103.35181000000001,
            20.69291
          ],
          [
            -103.35181000000001,
            20.69291
          ],
          [
            -103.35189000000001,
            20.691350000000003
          ],
          [
            -103.35189000000001,
            20.691350000000003
          ],
          [
            -103.352,
            20.689500000000002
          ],
          [
            -103.352,
            20.689500000000002
          ],
          [
            -103.352,
            20.689500000000002
          ],
          [
            -103.35208000000002,
            20.687690000000003
          ],
          [
            -103.35208000000002,
            20.687690000000003
          ],
          [
            -103.35208000000002,
            20.687690000000003
          ],
          [
            -103.35208000000002,
            20.68749
          ],
          [
            -103.35211000000001,
            20.686310000000002
          ],
          [
            -103.35211000000001,
            20.686310000000002
          ],
          [
            -103.35213,
            20.6859
          ],
          [
            -103.35217000000002,
            20.684890000000003
          ],
          [
            -103.35217000000002,
            20.684890000000003
          ],
          [
            -103.35223,
            20.68345
          ],
          [
            -103.35223,
            20.68345
          ],
          [
            -103.35223,
            20.68345
          ],
          [
            -103.35226000000002,
            20.68248
          ],
          [
            -103.35226000000002,
            20.68248
          ],
          [
            -103.35231,
            20.6808
          ],
          [
            -103.35231,
            20.6808
          ],
          [
            -103.35236,
            20.679280000000002
          ],
          [
            -103.35236,
            20.679160000000003
          ],
          [
            -103.35236,
            20.679160000000003
          ],
          [
            -103.35238000000001,
            20.678430000000002
          ],
          [
            -103.35238000000001,
            20.678430000000002
          ],
          [
            -103.35238000000001,
            20.678430000000002
          ],
          [
            -103.35244,
            20.67745
          ],
          [
            -103.35243000000001,
            20.67744
          ],
          [
            -103.35243000000001,
            20.67744
          ],
          [
            -103.35243000000001,
            20.67733
          ],
          [
            -103.35238000000001,
            20.67706
          ],
          [
            -103.35234000000001,
            20.676430000000003
          ],
          [
            -103.35235000000002,
            20.67586
          ],
          [
            -103.35235000000002,
            20.67586
          ],
          [
            -103.35235000000002,
            20.67586
          ],
          [
            -103.35237000000001,
            20.67549
          ],
          [
            -103.35237000000001,
            20.67549
          ],
          [
            -103.35242000000001,
            20.674740000000003
          ],
          [
            -103.35244,
            20.67394
          ],
          [
            -103.35244,
            20.67394
          ],
          [
            -103.35246000000001,
            20.67291
          ],
          [
            -103.35246000000001,
            20.67291
          ],
          [
            -103.35247000000001,
            20.672770000000003
          ],
          [
            -103.35169,
            20.672770000000003
          ],
          [
            -103.35169,
            20.672770000000003
          ],
          [
            -103.35084,
            20.672780000000003
          ],
          [
            -103.35084,
            20.672780000000003
          ],
          [
            -103.34968,
            20.672800000000002
          ],
          [
            -103.34968,
            20.672800000000002
          ],
          [
            -103.34802,
            20.67282
          ],
          [
            -103.34802,
            20.67282
          ],
          [
            -103.34802,
            20.67282
          ],
          [
            -103.34748,
            20.67284
          ],
          [
            -103.34720000000002,
            20.67286
          ],
          [
            -103.34721,
            20.672590000000003
          ],
          [
            -103.34721,
            20.672590000000003
          ],
          [
            -103.34721,
            20.672590000000003
          ],
          [
            -103.34722000000001,
            20.671750000000003
          ],
          [
            -103.34746000000001,
            20.671860000000002
          ],
          [
            -103.34747000000002,
            20.672120000000003
          ],
          [
            -103.34747000000002,
            20.67068
          ]
        ]
      }
    }
  ]
}