{
  "type": "FeatureCollection",
  "features": [
    {
      "type": "Feature",
      "properties": {
        "identifier": "166-2",
        "name": "Ruta 166"
      },
      "geometry": {
        "type": "LineString",
        "coordinates": [
          [
            -103.34757,
            20.705160000000003
          ],
          [
            -103.34757,
            20.70502
          ],
          [
            -103.34751000000001,
            20.704800000000002
          ],
          [
            -103.34725,
            20.704690000000003
          ],
          [
            -103.34711000000001,
            20.70467
          ],
          [
            -103.34695,
            20.70466
          ],
          [
            -103.34677,
            20.70467
          ],
          [
            -103.34664000000001,
            20.70485
          ],
          [
            -103.34660000000001,
            20.704970000000003
          ],
          [
            -103.34658,
            20.70514
          ],
          [
            -103.34663,
            20.7054
          ],
          [
            -103.3469,
            20.706010000000003
          ],
          [
            -103.34686,
            20.70626
          ],
          [
            -103.34686,
            20.70626
          ],
          [
            -103.34685,
            20.70626
          ],
          [
            -103.34638000000001,
            20.71009
          ],
          [
            -103.34638000000001,
            20.71009
          ],
          [
            -103.34638000000001,
            20.71009
          ],
          [
            -103.34617000000001,
            20.71179
          ],
          [
            -103.34609,
            20.71244
          ],
          [
            -103.34609,
            20.71244
          ],
          [
            -103.34599000000001,
            20.71329
          ],
          [
            -103.34608000000001,
            20.713610000000003
          ],
          [
            -103.34602000000001,
            20.71403
          ],
          [
            -103.34598000000001,
            20.714370000000002
          ],
          [
            -103.34598000000001,
            20.714370000000002
          ],
          [
            -103.34598000000001,
            20.714380000000002
          ],
          [
            -103.34581000000001,
            20.715750000000003
          ],
          [
            -103.34574,
            20.716150000000003
          ],
          [
            -103.34574,
            20.716150000000003
          ],
          [
            -103.34573,
            20.71628
          ],
          [
            -103.34568,
            20.71639
          ],
          [
            -103.34567000000001,
            20.716530000000002
          ],
          [
            -103.34557000000001,
            20.71733
          ],
          [
            -103.34549000000001,
            20.71805
          ],
          [
            -103.34540000000001,
            20.718030000000002
          ],
          [
            -103.34538,
            20.718310000000002
          ],
          [
            -103.34538,
            20.718310000000002
          ],
          [
            -103.34538,
            20.71834
          ],
          [
            -103.34531000000001,
            20.719350000000002
          ],
          [
            -103.34530000000001,
            20.72044
          ],
          [
            -103.34530000000001,
            20.72119
          ],
          [
            -103.34530000000001,
            20.72119
          ],
          [
            -103.34530000000001,
            20.722900000000003
          ],
          [
            -103.34529,
            20.72416
          ],
          [
            -103.34527000000001,
            20.72444
          ],
          [
            -103.34526000000001,
            20.72456
          ],
          [
            -103.34527000000001,
            20.72456
          ],
          [
            -103.34527000000001,
            20.72457
          ],
          [
            -103.34524,
            20.725330000000003
          ],
          [
            -103.3452,
            20.725640000000002
          ],
          [
            -103.34501,
            20.726470000000003
          ],
          [
            -103.34500000000001,
            20.726470000000003
          ],
          [
            -103.34501,
            20.726470000000003
          ],
          [
            -103.34497,
            20.72662
          ],
          [
            -103.34468000000001,
            20.72746
          ],
          [
            -103.34458000000001,
            20.72753
          ],
          [
            -103.34447000000002,
            20.727610000000002
          ],
          [
            -103.34441000000001,
            20.72762
          ],
          [
            -103.3443,
            20.72764
          ],
          [
            -103.34420000000001,
            20.727680000000003
          ],
          [
            -103.34399,
            20.72783
          ],
          [
            -103.34387000000001,
            20.727990000000002
          ],
          [
            -103.3438,
            20.728160000000003
          ],
          [
            -103.34378000000001,
            20.728350000000002
          ],
          [
            -103.34381,
            20.7285
          ],
          [
            -103.34394,
            20.728720000000003
          ],
          [
            -103.34403,
            20.728810000000003
          ],
          [
            -103.34408,
            20.72886
          ],
          [
            -103.34413,
            20.72903
          ],
          [
            -103.34416,
            20.729170000000003
          ],
          [
            -103.34415000000001,
            20.729210000000002
          ],
          [
            -103.34415000000001,
            20.729210000000002
          ],
          [
            -103.34415000000001,
            20.729300000000002
          ],
          [
            -103.34408,
            20.729570000000002
          ],
          [
            -103.34361000000001,
            20.73093
          ],
          [
            -103.34352000000001,
            20.730900000000002
          ],
          [
            -103.34347000000001,
            20.731060000000003
          ],
          [
            -103.34344000000002,
            20.73113
          ],
          [
            -103.34344000000002,
            20.73113
          ],
          [
            -103.34291,
            20.7327
          ],
          [
            -103.34291,
            20.7327
          ],
          [
            -103.34261000000001,
            20.73357
          ],
          [
            -103.34253000000001,
            20.733800000000002
          ],
          [
            -103.3426,
            20.733970000000003
          ],
          [
            -103.34246,
            20.734440000000003
          ],
          [
            -103.34214000000001,
            20.735310000000002
          ],
          [
            -103.34206,
            20.735590000000002
          ],
          [
            -103.34194000000001,
            20.73608
          ],
          [
            -103.34192,
            20.736490000000003
          ],
          [
            -103.34193,
            20.73665
          ],
          [
            -103.34193,
            20.73665
          ],
          [
            -103.34193,
            20.73665
          ],
          [
            -103.34203000000001,
            20.73729
          ],
          [
            -103.34215,
            20.737650000000002
          ],
          [
            -103.34227000000001,
            20.73795
          ],
          [
            -103.34245000000001,
            20.738280000000003
          ],
          [
            -103.34269,
            20.7386
          ],
          [
            -103.34313,
            20.73908
          ],
          [
            -103.34435,
            20.74031
          ],
          [
            -103.34435,
            20.74031
          ],
          [
            -103.34435,
            20.74031
          ],
          [
            -103.34545000000001,
            20.741390000000003
          ],
          [
            -103.34566000000001,
            20.74165
          ],
          [
            -103.34576000000001,
            20.74179
          ],
          [
            -103.346,
            20.74217
          ],
          [
            -103.34613,
            20.74246
          ],
          [
            -103.34633000000001,
            20.743060000000003
          ],
          [
            -103.3464,
            20.743570000000002
          ],
          [
            -103.34637000000001,
            20.744090000000003
          ],
          [
            -103.34629000000001,
            20.744480000000003
          ],
          [
            -103.34617000000001,
            20.744760000000003
          ],
          [
            -103.34617000000001,
            20.744760000000003
          ],
          [
            -103.34617000000001,
            20.744770000000003
          ],
          [
            -103.34602000000001,
            20.74509
          ],
          [
            -103.34574,
            20.745540000000002
          ],
          [
            -103.34555,
            20.745790000000003
          ],
          [
            -103.34534000000001,
            20.74602
          ],
          [
            -103.34512000000001,
            20.74621
          ],
          [
            -103.34461,
            20.74658
          ],
          [
            -103.34375000000001,
            20.74716
          ],
          [
            -103.34352000000001,
            20.74736
          ],
          [
            -103.34335000000002,
            20.74754
          ],
          [
            -103.34319,
            20.74774
          ],
          [
            -103.343,
            20.74808
          ],
          [
            -103.34283,
            20.748530000000002
          ],
          [
            -103.34275000000001,
            20.749070000000003
          ],
          [
            -103.34276000000001,
            20.74923
          ],
          [
            -103.34276000000001,
            20.74923
          ],
          [
            -103.34276000000001,
            20.74924
          ],
          [
            -103.34277,
            20.74949
          ],
          [
            -103.34281000000001,
            20.7497
          ],
          [
            -103.34296,
            20.75015
          ],
          [
            -103.34314,
            20.75055
          ],
          [
            -103.34335000000002,
            20.751040000000003
          ],
          [
            -103.34349,
            20.751420000000003
          ],
          [
            -103.34358,
            20.75176
          ],
          [
            -103.34361000000001,
            20.752080000000003
          ],
          [
            -103.34357000000001,
            20.75249
          ],
          [
            -103.3435,
            20.75279
          ],
          [
            -103.34313,
            20.753880000000002
          ],
          [
            -103.34299000000001,
            20.754450000000002
          ],
          [
            -103.34295,
            20.75475
          ],
          [
            -103.34293000000001,
            20.75525
          ],
          [
            -103.34305,
            20.75626
          ],
          [
            -103.34308000000001,
            20.75653
          ],
          [
            -103.34308000000001,
            20.75653
          ],
          [
            -103.34308000000001,
            20.75653
          ],
          [
            -103.3431,
            20.75693
          ],
          [
            -103.34306000000001,
            20.757340000000003
          ],
          [
            -103.34286,
            20.757990000000003
          ],
          [
            -103.34259000000002,
            20.758450000000003
          ],
          [
            -103.34238,
            20.75871
          ],
          [
            -103.34211,
            20.75897
          ],
          [
            -103.34182000000001,
            20.75918
          ],
          [
            -103.34093000000001,
            20.759710000000002
          ],
          [
            -103.34022,
            20.76019
          ],
          [
            -103.34016000000001,
            20.760250000000003
          ],
          [
            -103.34016000000001,
            20.760250000000003
          ],
          [
            -103.33992,
            20.76051
          ],
          [
            -103.33965,
            20.76094
          ],
          [
            -103.33945000000001,
            20.76145
          ],
          [
            -103.33940000000001,
            20.76169
          ],
          [
            -103.33937,
            20.76199
          ],
          [
            -103.33940000000001,
            20.762410000000003
          ],
          [
            -103.33948000000001,
            20.76294
          ],
          [
            -103.33955,
            20.76331
          ],
          [
            -103.33968000000002,
            20.76404
          ],
          [
            -103.33972000000001,
            20.76453
          ],
          [
            -103.33972000000001,
            20.76488
          ],
          [
            -103.33972000000001,
            20.76488
          ],
          [
            -103.33972000000001,
            20.76489
          ],
          [
            -103.33972000000001,
            20.76517
          ],
          [
            -103.3396,
            20.766650000000002
          ],
          [
            -103.33958000000001,
            20.76685
          ],
          [
            -103.33962000000001,
            20.76743
          ],
          [
            -103.33971000000001,
            20.767930000000003
          ],
          [
            -103.33986,
            20.768400000000003
          ],
          [
            -103.33986,
            20.768400000000003
          ],
          [
            -103.33986,
            20.768400000000003
          ],
          [
            -103.34032,
            20.76969
          ],
          [
            -103.34036,
            20.76997
          ],
          [
            -103.34031,
            20.77033
          ],
          [
            -103.34024000000001,
            20.77054
          ],
          [
            -103.34009,
            20.770780000000002
          ],
          [
            -103.33988000000001,
            20.77099
          ],
          [
            -103.33969,
            20.77111
          ],
          [
            -103.33937,
            20.771250000000002
          ],
          [
            -103.33891000000001,
            20.771310000000003
          ],
          [
            -103.33815000000001,
            20.771410000000003
          ],
          [
            -103.33795,
            20.77147
          ],
          [
            -103.33778000000001,
            20.77157
          ],
          [
            -103.33761000000001,
            20.771700000000003
          ],
          [
            -103.33744000000002,
            20.771890000000003
          ],
          [
            -103.33726000000001,
            20.772180000000002
          ],
          [
            -103.33720000000001,
            20.772530000000003
          ],
          [
            -103.33720000000001,
            20.77267
          ],
          [
            -103.33723,
            20.77288
          ],
          [
            -103.33731,
            20.773120000000002
          ],
          [
            -103.33739000000001,
            20.773280000000003
          ],
          [
            -103.33751000000001,
            20.77344
          ],
          [
            -103.33797000000001,
            20.77381
          ],
          [
            -103.33865000000002,
            20.774230000000003
          ],
          [
            -103.33891000000001,
            20.774430000000002
          ],
          [
            -103.33902,
            20.774540000000002
          ],
          [
            -103.33921000000001,
            20.774780000000003
          ],
          [
            -103.33932000000001,
            20.77502
          ],
          [
            -103.33945000000001,
            20.775450000000003
          ],
          [
            -103.33952000000001,
            20.775760000000002
          ],
          [
            -103.33963000000001,
            20.776100000000003
          ],
          [
            -103.33977,
            20.776310000000002
          ],
          [
            -103.33989000000001,
            20.77646
          ],
          [
            -103.34004,
            20.776580000000003
          ],
          [
            -103.34025000000001,
            20.776680000000002
          ],
          [
            -103.34087000000001,
            20.77692
          ],
          [
            -103.34141000000001,
            20.77712
          ],
          [
            -103.34161,
            20.777240000000003
          ],
          [
            -103.34177000000001,
            20.77736
          ],
          [
            -103.34201,
            20.777630000000002
          ],
          [
            -103.34215,
            20.77793
          ],
          [
            -103.34237,
            20.7788
          ],
          [
            -103.34255,
            20.77924
          ],
          [
            -103.34281000000001,
            20.77956
          ],
          [
            -103.34313,
            20.779880000000002
          ],
          [
            -103.34345,
            20.780230000000003
          ],
          [
            -103.34365000000001,
            20.780540000000002
          ],
          [
            -103.34376,
            20.780810000000002
          ],
          [
            -103.34384000000001,
            20.78104
          ],
          [
            -103.34386,
            20.78123
          ],
          [
            -103.34386,
            20.78142
          ],
          [
            -103.34383000000001,
            20.782310000000003
          ],
          [
            -103.34389,
            20.782600000000002
          ],
          [
            -103.34402000000001,
            20.78292
          ],
          [
            -103.34453,
            20.783810000000003
          ],
          [
            -103.34469000000001,
            20.784010000000002
          ],
          [
            -103.34486000000001,
            20.78416
          ],
          [
            -103.34522000000001,
            20.7844
          ],
          [
            -103.34566000000001,
            20.784550000000003
          ],
          [
            -103.34612000000001,
            20.78461
          ],
          [
            -103.34653000000002,
            20.78459
          ],
          [
            -103.34728000000001,
            20.784450000000003
          ],
          [
            -103.34786000000001,
            20.784380000000002
          ],
          [
            -103.34844000000001,
            20.784390000000002
          ],
          [
            -103.34881000000001,
            20.784450000000003
          ],
          [
            -103.34934000000001,
            20.78463
          ],
          [
            -103.34996000000001,
            20.784830000000003
          ],
          [
            -103.35072000000001,
            20.785130000000002
          ],
          [
            -103.35141000000002,
            20.78543
          ],
          [
            -103.35233000000001,
            20.78594
          ],
          [
            -103.35339,
            20.78657
          ],
          [
            -103.35357,
            20.786720000000003
          ],
          [
            -103.35373000000001,
            20.786890000000003
          ],
          [
            -103.35391000000001,
            20.78716
          ],
          [
            -103.35405000000002,
            20.78744
          ],
          [
            -103.35409000000001,
            20.78759
          ],
          [
            -103.3541,
            20.7879
          ],
          [
            -103.35406,
            20.788130000000002
          ],
          [
            -103.35393,
            20.788480000000003
          ],
          [
            -103.35382000000001,
            20.78866
          ],
          [
            -103.35367000000001,
            20.78884
          ],
          [
            -103.35348,
            20.78902
          ],
          [
            -103.35311000000002,
            20.789260000000002
          ],
          [
            -103.35217000000002,
            20.789740000000002
          ],
          [
            -103.35217000000002,
            20.789740000000002
          ],
          [
            -103.35217000000002,
            20.789740000000002
          ],
          [
            -103.35103000000001,
            20.79033
          ],
          [
            -103.35033000000001,
            20.79071
          ],
          [
            -103.35037000000001,
            20.79078
          ],
          [
            -103.35044,
            20.790860000000002
          ],
          [
            -103.35054000000001,
            20.790860000000002
          ],
          [
            -103.35054000000001,
            20.790860000000002
          ],
          [
            -103.35055000000001,
            20.79087
          ],
          [
            -103.35195,
            20.791020000000003
          ],
          [
            -103.35328000000001,
            20.791130000000003
          ],
          [
            -103.35534000000001,
            20.791320000000002
          ],
          [
            -103.35534000000001,
            20.791320000000002
          ],
          [
            -103.35535,
            20.791320000000002
          ],
          [
            -103.35626,
            20.791430000000002
          ],
          [
            -103.35794000000001,
            20.79156
          ],
          [
            -103.35982000000001,
            20.79173
          ],
          [
            -103.36072000000001,
            20.79184
          ],
          [
            -103.36091,
            20.791860000000003
          ],
          [
            -103.36102000000001,
            20.79184
          ],
          [
            -103.36115000000001,
            20.791800000000002
          ],
          [
            -103.36121000000001,
            20.79175
          ],
          [
            -103.36130000000001,
            20.79163
          ],
          [
            -103.36137000000001,
            20.79134
          ],
          [
            -103.3614,
            20.79117
          ],
          [
            -103.3615,
            20.79098
          ],
          [
            -103.36160000000001,
            20.79089
          ],
          [
            -103.36170000000001,
            20.79088
          ],
          [
            -103.36181,
            20.79089
          ],
          [
            -103.36204000000001,
            20.79099
          ],
          [
            -103.36228000000001,
            20.79117
          ],
          [
            -103.3623,
            20.79119
          ],
          [
            -103.3623,
            20.79119
          ],
          [
            -103.3623,
            20.79119
          ],
          [
            -103.36268000000001,
            20.791520000000002
          ],
          [
            -103.36296000000002,
            20.79181
          ],
          [
            -103.3632,
            20.792
          ],
          [
            -103.36341,
            20.79213
          ],
          [
            -103.36373,
            20.79239
          ],
          [
            -103.36388000000001,
            20.79259
          ],
          [
            -103.36394000000001,
            20.792710000000003
          ],
          [
            -103.36406000000001,
            20.793210000000002
          ],
          [
            -103.36416000000001,
            20.793760000000002
          ],
          [
            -103.36422,
            20.79381
          ],
          [
            -103.36481,
            20.794040000000003
          ],
          [
            -103.36544,
            20.7942
          ],
          [
            -103.36621000000001,
            20.79426
          ],
          [
            -103.36869000000002,
            20.794400000000003
          ],
          [
            -103.36892,
            20.79447
          ],
          [
            -103.36933,
            20.794680000000003
          ],
          [
            -103.36946,
            20.794780000000003
          ],
          [
            -103.36946,
            20.794780000000003
          ],
          [
            -103.36946,
            20.794780000000003
          ],
          [
            -103.36980000000001,
            20.79501
          ],
          [
            -103.37003000000001,
            20.79513
          ],
          [
            -103.37024000000001,
            20.795150000000003
          ],
          [
            -103.37042000000001,
            20.79513
          ],
          [
            -103.37062,
            20.795050000000003
          ],
          [
            -103.37097000000001,
            20.79492
          ],
          [
            -103.37110000000001,
            20.794900000000002
          ],
          [
            -103.37145000000001,
            20.79495
          ],
          [
            -103.37206,
            20.79504
          ],
          [
            -103.37228,
            20.795080000000002
          ],
          [
            -103.37236000000001,
            20.79512
          ],
          [
            -103.37262000000001,
            20.795430000000003
          ],
          [
            -103.37292000000001,
            20.795820000000003
          ],
          [
            -103.37292000000001,
            20.795820000000003
          ],
          [
            -103.37292000000001,
            20.795820000000003
          ],
          [
            -103.37304,
            20.79594
          ],
          [
            -103.37317,
            20.795990000000003
          ],
          [
            -103.37344,
            20.79605
          ],
          [
            -103.37355000000001,
            20.796100000000003
          ],
          [
            -103.37361000000001,
            20.79615
          ],
          [
            -103.37365000000001,
            20.79622
          ],
          [
            -103.37373000000001,
            20.79642
          ],
          [
            -103.37381,
            20.7965
          ],
          [
            -103.3739,
            20.796550000000003
          ],
          [
            -103.37404000000001,
            20.796580000000002
          ],
          [
            -103.37429,
            20.796550000000003
          ],
          [
            -103.37434,
            20.796570000000003
          ],
          [
            -103.37436000000001,
            20.7966
          ],
          [
            -103.37438,
            20.79664
          ],
          [
            -103.37437000000001,
            20.79689
          ],
          [
            -103.37440000000001,
            20.797020000000003
          ],
          [
            -103.37448,
            20.79711
          ],
          [
            -103.37463000000001,
            20.79719
          ],
          [
            -103.37492,
            20.79728
          ],
          [
            -103.37517000000001,
            20.79737
          ],
          [
            -103.37525000000001,
            20.79745
          ],
          [
            -103.37530000000001,
            20.79758
          ],
          [
            -103.37532,
            20.79775
          ],
          [
            -103.37532,
            20.79775
          ],
          [
            -103.37532,
            20.79775
          ],
          [
            -103.37534000000001,
            20.79792
          ],
          [
            -103.37546,
            20.798250000000003
          ],
          [
            -103.37552000000001,
            20.798440000000003
          ],
          [
            -103.37552000000001,
            20.79857
          ],
          [
            -103.37542,
            20.799000000000003
          ],
          [
            -103.37541,
            20.79908
          ],
          [
            -103.37541,
            20.79908
          ],
          [
            -103.37541,
            20.799090000000003
          ],
          [
            -103.37538,
            20.79945
          ],
          [
            -103.37543000000001,
            20.799840000000003
          ],
          [
            -103.37544000000001,
            20.80027
          ],
          [
            -103.37542,
            20.800600000000003
          ],
          [
            -103.37539000000001,
            20.80102
          ],
          [
            -103.37538,
            20.801180000000002
          ],
          [
            -103.37542,
            20.80129
          ],
          [
            -103.37557000000001,
            20.801630000000003
          ],
          [
            -103.37577,
            20.801910000000003
          ],
          [
            -103.37587,
            20.802100000000003
          ],
          [
            -103.37593000000001,
            20.80236
          ],
          [
            -103.37594000000001,
            20.80254
          ],
          [
            -103.37591,
            20.80271
          ],
          [
            -103.37574000000001,
            20.80298
          ],
          [
            -103.37566000000001,
            20.8032
          ],
          [
            -103.3756,
            20.803700000000003
          ],
          [
            -103.37561000000001,
            20.80396
          ],
          [
            -103.37561000000001,
            20.80252
          ]
        ]
      }
    }
  ]
}