{
  "type": "FeatureCollection",
  "features": [
    {
      "type": "Feature",
      "properties": {
        "identifier": "167-2?o=2",
        "name": "Ruta 167"
      },
      "geometry": {
        "type": "LineString",
        "coordinates": [
          [
            -103.33779000000001,
            20.81719
          ],
          [
            -103.33757000000001,
            20.817130000000002
          ],
          [
            -103.33736,
            20.817110000000003
          ],
          [
            -103.33705,
            20.81717
          ],
          [
            -103.33672000000001,
            20.817310000000003
          ],
          [
            -103.3362,
            20.817590000000003
          ],
          [
            -103.33597,
            20.81765
          ],
          [
            -103.33575,
            20.81763
          ],
          [
            -103.33554000000001,
            20.81755
          ],
          [
            -103.33542000000001,
            20.81744
          ],
          [
            -103.33526,
            20.817120000000003
          ],
          [
            -103.33528000000001,
            20.8169
          ],
          [
            -103.33536000000001,
            20.81671
          ],
          [
            -103.33543,
            20.81663
          ],
          [
            -103.33624,
            20.815890000000003
          ],
          [
            -103.33643000000001,
            20.815630000000002
          ],
          [
            -103.33650000000002,
            20.815510000000003
          ],
          [
            -103.33655,
            20.81522
          ],
          [
            -103.33657000000001,
            20.81463
          ],
          [
            -103.33652000000001,
            20.81436
          ],
          [
            -103.33651,
            20.81408
          ],
          [
            -103.33657000000001,
            20.813830000000003
          ],
          [
            -103.33682,
            20.813460000000003
          ],
          [
            -103.33718,
            20.813080000000003
          ],
          [
            -103.33764000000001,
            20.812510000000003
          ],
          [
            -103.33779000000001,
            20.8121
          ],
          [
            -103.33787000000001,
            20.811600000000002
          ],
          [
            -103.33819000000001,
            20.81096
          ],
          [
            -103.3383,
            20.810840000000002
          ],
          [
            -103.33881000000001,
            20.8104
          ],
          [
            -103.33922000000001,
            20.809890000000003
          ],
          [
            -103.33974,
            20.809070000000002
          ],
          [
            -103.33980000000001,
            20.80889
          ],
          [
            -103.33990000000001,
            20.808400000000002
          ],
          [
            -103.33991,
            20.808030000000002
          ],
          [
            -103.33989000000001,
            20.807720000000003
          ],
          [
            -103.33981000000001,
            20.80731
          ],
          [
            -103.33974,
            20.807080000000003
          ],
          [
            -103.33939000000001,
            20.80626
          ],
          [
            -103.33930000000001,
            20.806
          ],
          [
            -103.33926000000001,
            20.805780000000002
          ],
          [
            -103.33930000000001,
            20.805490000000002
          ],
          [
            -103.33938,
            20.805300000000003
          ],
          [
            -103.33958000000001,
            20.80499
          ],
          [
            -103.33996,
            20.804560000000002
          ],
          [
            -103.34037000000001,
            20.80385
          ],
          [
            -103.34055000000001,
            20.80368
          ],
          [
            -103.34070000000001,
            20.80358
          ],
          [
            -103.34084000000001,
            20.803530000000002
          ],
          [
            -103.34154000000001,
            20.803430000000002
          ],
          [
            -103.34186000000001,
            20.803350000000002
          ],
          [
            -103.34196000000001,
            20.8033
          ],
          [
            -103.34204000000001,
            20.803240000000002
          ],
          [
            -103.343,
            20.80226
          ],
          [
            -103.34313,
            20.80205
          ],
          [
            -103.34335000000002,
            20.80157
          ],
          [
            -103.34364000000001,
            20.800810000000002
          ],
          [
            -103.34371,
            20.80067
          ],
          [
            -103.34399,
            20.80035
          ],
          [
            -103.34431000000001,
            20.80009
          ],
          [
            -103.34473000000001,
            20.799660000000003
          ],
          [
            -103.34482000000001,
            20.79953
          ],
          [
            -103.34501,
            20.79913
          ],
          [
            -103.34508000000001,
            20.79885
          ],
          [
            -103.34508000000001,
            20.798450000000003
          ],
          [
            -103.34500000000001,
            20.798070000000003
          ],
          [
            -103.34479,
            20.79764
          ],
          [
            -103.34453,
            20.79726
          ],
          [
            -103.34447000000002,
            20.797140000000002
          ],
          [
            -103.34432000000001,
            20.79689
          ],
          [
            -103.34420000000001,
            20.7966
          ],
          [
            -103.34412,
            20.79633
          ],
          [
            -103.34411000000001,
            20.796020000000002
          ],
          [
            -103.34420000000001,
            20.795640000000002
          ],
          [
            -103.34441000000001,
            20.79528
          ],
          [
            -103.34471,
            20.79491
          ],
          [
            -103.34602000000001,
            20.79351
          ],
          [
            -103.34654,
            20.792990000000003
          ],
          [
            -103.34709000000001,
            20.79256
          ],
          [
            -103.34826000000001,
            20.791900000000002
          ],
          [
            -103.35014000000001,
            20.7909
          ],
          [
            -103.35014000000001,
            20.7909
          ],
          [
            -103.35108000000001,
            20.79041
          ],
          [
            -103.35251000000001,
            20.78967
          ],
          [
            -103.35277,
            20.789520000000003
          ],
          [
            -103.35277,
            20.789520000000003
          ],
          [
            -103.35343,
            20.789150000000003
          ],
          [
            -103.35366,
            20.788970000000003
          ],
          [
            -103.35384,
            20.788760000000003
          ],
          [
            -103.35397,
            20.78857
          ],
          [
            -103.3541,
            20.78828
          ],
          [
            -103.35416000000001,
            20.788020000000003
          ],
          [
            -103.35417000000001,
            20.78771
          ],
          [
            -103.35412000000001,
            20.78742
          ],
          [
            -103.35381000000001,
            20.78684
          ],
          [
            -103.35356,
            20.7866
          ],
          [
            -103.35334,
            20.786450000000002
          ],
          [
            -103.35237000000001,
            20.785860000000003
          ],
          [
            -103.35145000000001,
            20.78535
          ],
          [
            -103.35076000000001,
            20.785040000000002
          ],
          [
            -103.34947000000001,
            20.784570000000002
          ],
          [
            -103.34882,
            20.784370000000003
          ],
          [
            -103.34848000000001,
            20.7843
          ],
          [
            -103.34799000000001,
            20.784280000000003
          ],
          [
            -103.34739,
            20.784350000000003
          ],
          [
            -103.34669000000001,
            20.784480000000002
          ],
          [
            -103.34623,
            20.78452
          ],
          [
            -103.34586,
            20.7845
          ],
          [
            -103.34544000000001,
            20.784390000000002
          ],
          [
            -103.34516,
            20.78425
          ],
          [
            -103.34479,
            20.783980000000003
          ],
          [
            -103.34452,
            20.783620000000003
          ],
          [
            -103.34423000000001,
            20.7831
          ],
          [
            -103.34402000000001,
            20.782690000000002
          ],
          [
            -103.34395,
            20.78243
          ],
          [
            -103.34392000000001,
            20.78215
          ],
          [
            -103.34394,
            20.781730000000003
          ],
          [
            -103.34395,
            20.781200000000002
          ],
          [
            -103.34392000000001,
            20.780980000000003
          ],
          [
            -103.34374000000001,
            20.7805
          ],
          [
            -103.34354,
            20.78019
          ],
          [
            -103.34322,
            20.779850000000003
          ],
          [
            -103.34278,
            20.779410000000002
          ],
          [
            -103.34254000000001,
            20.779000000000003
          ],
          [
            -103.34224,
            20.777910000000002
          ],
          [
            -103.34199000000001,
            20.77746
          ],
          [
            -103.3417,
            20.77721
          ],
          [
            -103.34134,
            20.777030000000003
          ],
          [
            -103.34021000000001,
            20.776600000000002
          ],
          [
            -103.33998000000001,
            20.77643
          ],
          [
            -103.33978,
            20.776190000000003
          ],
          [
            -103.33966000000001,
            20.775940000000002
          ],
          [
            -103.33951,
            20.775290000000002
          ],
          [
            -103.33934,
            20.77483
          ],
          [
            -103.33923000000001,
            20.774630000000002
          ],
          [
            -103.33896000000001,
            20.77436
          ],
          [
            -103.33768,
            20.773470000000003
          ],
          [
            -103.33741,
            20.773130000000002
          ],
          [
            -103.33728,
            20.77271
          ],
          [
            -103.33735000000001,
            20.77223
          ],
          [
            -103.33756000000001,
            20.771890000000003
          ],
          [
            -103.3378,
            20.77166
          ],
          [
            -103.33804,
            20.77154
          ],
          [
            -103.33857,
            20.771430000000002
          ],
          [
            -103.33928,
            20.77136
          ],
          [
            -103.33956,
            20.77128
          ],
          [
            -103.33995,
            20.771040000000003
          ],
          [
            -103.34012000000001,
            20.770880000000002
          ],
          [
            -103.34039000000001,
            20.77042
          ],
          [
            -103.34044000000002,
            20.77016
          ],
          [
            -103.34043000000001,
            20.76978
          ],
          [
            -103.34031,
            20.76941
          ],
          [
            -103.33999000000001,
            20.76855
          ],
          [
            -103.33985000000001,
            20.768120000000003
          ],
          [
            -103.33974,
            20.767680000000002
          ],
          [
            -103.33971000000001,
            20.767370000000003
          ],
          [
            -103.33968000000002,
            20.76666
          ],
          [
            -103.33970000000001,
            20.76642
          ],
          [
            -103.33970000000001,
            20.76642
          ],
          [
            -103.33979000000001,
            20.76537
          ],
          [
            -103.33980000000001,
            20.764660000000003
          ],
          [
            -103.33978,
            20.764100000000003
          ],
          [
            -103.33963000000001,
            20.76312
          ],
          [
            -103.33951,
            20.762520000000002
          ],
          [
            -103.33951,
            20.762520000000002
          ],
          [
            -103.33949000000001,
            20.762400000000003
          ],
          [
            -103.33947,
            20.76191
          ],
          [
            -103.33958000000001,
            20.76132
          ],
          [
            -103.33985000000001,
            20.76075
          ],
          [
            -103.34017000000001,
            20.760350000000003
          ],
          [
            -103.34034000000001,
            20.7602
          ],
          [
            -103.34034000000001,
            20.7602
          ],
          [
            -103.34046000000001,
            20.76011
          ],
          [
            -103.34094,
            20.75982
          ],
          [
            -103.34189,
            20.75928
          ],
          [
            -103.34221000000001,
            20.759020000000003
          ],
          [
            -103.34264,
            20.758560000000003
          ],
          [
            -103.34291,
            20.758100000000002
          ],
          [
            -103.34317000000001,
            20.75741
          ],
          [
            -103.34321000000001,
            20.75712
          ],
          [
            -103.34321000000001,
            20.756680000000003
          ],
          [
            -103.34313,
            20.756010000000003
          ],
          [
            -103.34313,
            20.756010000000003
          ],
          [
            -103.34305,
            20.755260000000003
          ],
          [
            -103.34306000000001,
            20.75466
          ],
          [
            -103.34315000000001,
            20.75419
          ],
          [
            -103.34325000000001,
            20.753860000000003
          ],
          [
            -103.34353000000002,
            20.753
          ],
          [
            -103.34353000000002,
            20.753
          ],
          [
            -103.34361000000001,
            20.75278
          ],
          [
            -103.34366000000001,
            20.75259
          ],
          [
            -103.34370000000001,
            20.752260000000003
          ],
          [
            -103.34370000000001,
            20.75195
          ],
          [
            -103.34360000000001,
            20.751420000000003
          ],
          [
            -103.34360000000001,
            20.751420000000003
          ],
          [
            -103.34360000000001,
            20.751420000000003
          ],
          [
            -103.3435,
            20.751130000000003
          ],
          [
            -103.34313,
            20.75028
          ],
          [
            -103.34290000000001,
            20.74969
          ],
          [
            -103.34286,
            20.749460000000003
          ],
          [
            -103.34286,
            20.749070000000003
          ],
          [
            -103.34288000000001,
            20.748800000000003
          ],
          [
            -103.343,
            20.74837
          ],
          [
            -103.34314,
            20.74803
          ],
          [
            -103.34327,
            20.747790000000002
          ],
          [
            -103.34343000000001,
            20.747580000000003
          ],
          [
            -103.34368,
            20.74734
          ],
          [
            -103.34394,
            20.747130000000002
          ],
          [
            -103.34419000000001,
            20.746950000000002
          ],
          [
            -103.34419000000001,
            20.746950000000002
          ],
          [
            -103.34498,
            20.74643
          ],
          [
            -103.34540000000001,
            20.746090000000002
          ],
          [
            -103.34562000000001,
            20.74584
          ],
          [
            -103.34582,
            20.74559
          ],
          [
            -103.34611000000001,
            20.745130000000003
          ],
          [
            -103.34624000000001,
            20.744860000000003
          ],
          [
            -103.34624000000001,
            20.744850000000003
          ],
          [
            -103.34624000000001,
            20.744850000000003
          ],
          [
            -103.3464,
            20.74446
          ],
          [
            -103.34646000000001,
            20.74405
          ],
          [
            -103.34649,
            20.74361
          ],
          [
            -103.34645,
            20.74324
          ],
          [
            -103.34637000000001,
            20.742910000000002
          ],
          [
            -103.34624000000001,
            20.74255
          ],
          [
            -103.34607000000001,
            20.742160000000002
          ],
          [
            -103.34590000000001,
            20.741860000000003
          ],
          [
            -103.34566000000001,
            20.74154
          ],
          [
            -103.34566000000001,
            20.74154
          ],
          [
            -103.34563000000001,
            20.741500000000002
          ],
          [
            -103.34552000000001,
            20.741370000000003
          ],
          [
            -103.34459000000001,
            20.74043
          ],
          [
            -103.34459000000001,
            20.74043
          ],
          [
            -103.34290000000001,
            20.73874
          ],
          [
            -103.34301,
            20.73871
          ],
          [
            -103.34275000000001,
            20.73832
          ],
          [
            -103.34261000000001,
            20.738180000000003
          ],
          [
            -103.34248000000001,
            20.73797
          ],
          [
            -103.34234000000001,
            20.73758
          ],
          [
            -103.34230000000001,
            20.737540000000003
          ],
          [
            -103.34226000000001,
            20.737460000000002
          ],
          [
            -103.34217000000001,
            20.73714
          ],
          [
            -103.34212000000001,
            20.736880000000003
          ],
          [
            -103.34212000000001,
            20.736880000000003
          ],
          [
            -103.34211,
            20.73677
          ],
          [
            -103.34211,
            20.7362
          ],
          [
            -103.34233,
            20.73533
          ],
          [
            -103.34245000000001,
            20.734990000000003
          ],
          [
            -103.34245000000001,
            20.734990000000003
          ],
          [
            -103.34255,
            20.734720000000003
          ],
          [
            -103.34266000000001,
            20.734370000000002
          ],
          [
            -103.34281000000001,
            20.73385
          ],
          [
            -103.34332,
            20.732290000000003
          ],
          [
            -103.34332,
            20.732290000000003
          ],
          [
            -103.34415000000001,
            20.72982
          ],
          [
            -103.34415000000001,
            20.72982
          ],
          [
            -103.34423000000001,
            20.729580000000002
          ],
          [
            -103.34438000000002,
            20.729210000000002
          ],
          [
            -103.34472000000001,
            20.729010000000002
          ],
          [
            -103.34486000000001,
            20.72896
          ],
          [
            -103.34501,
            20.72887
          ],
          [
            -103.34511,
            20.72877
          ],
          [
            -103.34519,
            20.72866
          ],
          [
            -103.34526000000001,
            20.728520000000003
          ],
          [
            -103.34529,
            20.72837
          ],
          [
            -103.34528,
            20.72822
          ],
          [
            -103.34526000000001,
            20.728080000000002
          ],
          [
            -103.34522000000001,
            20.727960000000003
          ],
          [
            -103.34515,
            20.72785
          ],
          [
            -103.34506,
            20.72775
          ],
          [
            -103.34500000000001,
            20.727710000000002
          ],
          [
            -103.34495000000001,
            20.727510000000002
          ],
          [
            -103.34495000000001,
            20.72735
          ],
          [
            -103.34497,
            20.72727
          ],
          [
            -103.34508000000001,
            20.727130000000002
          ],
          [
            -103.34509000000001,
            20.72707
          ],
          [
            -103.34509000000001,
            20.72707
          ],
          [
            -103.34533,
            20.72624
          ],
          [
            -103.34546,
            20.725510000000003
          ],
          [
            -103.34549000000001,
            20.72539
          ],
          [
            -103.34552000000001,
            20.72491
          ],
          [
            -103.34553000000001,
            20.72453
          ],
          [
            -103.34553000000001,
            20.723940000000002
          ],
          [
            -103.34553000000001,
            20.723940000000002
          ],
          [
            -103.34554000000001,
            20.72134
          ],
          [
            -103.34554000000001,
            20.721100000000003
          ],
          [
            -103.34554000000001,
            20.721100000000003
          ],
          [
            -103.34556,
            20.719600000000003
          ],
          [
            -103.3456,
            20.718600000000002
          ],
          [
            -103.34562000000001,
            20.71833
          ],
          [
            -103.34562000000001,
            20.71833
          ],
          [
            -103.34564,
            20.71809
          ],
          [
            -103.34556,
            20.71807
          ],
          [
            -103.34575000000001,
            20.71655
          ],
          [
            -103.34576000000001,
            20.716410000000003
          ],
          [
            -103.34574,
            20.71627
          ],
          [
            -103.34574,
            20.71619
          ],
          [
            -103.34574,
            20.71619
          ],
          [
            -103.34575000000001,
            20.71612
          ],
          [
            -103.34581000000001,
            20.715750000000003
          ],
          [
            -103.34601,
            20.71412
          ],
          [
            -103.34615000000001,
            20.71413
          ],
          [
            -103.34617000000001,
            20.713880000000003
          ],
          [
            -103.34617000000001,
            20.713880000000003
          ],
          [
            -103.34621000000001,
            20.71356
          ],
          [
            -103.3464,
            20.71195
          ],
          [
            -103.3464,
            20.71195
          ],
          [
            -103.34653000000002,
            20.71094
          ],
          [
            -103.34667,
            20.709880000000002
          ],
          [
            -103.34670000000001,
            20.70961
          ],
          [
            -103.34670000000001,
            20.70961
          ],
          [
            -103.34703,
            20.70689
          ],
          [
            -103.34703,
            20.70689
          ],
          [
            -103.34720000000002,
            20.7055
          ],
          [
            -103.34747000000002,
            20.70541
          ],
          [
            -103.34757,
            20.705150000000003
          ],
          [
            -103.34757,
            20.70371
          ]
        ]
      }
    }
  ]
}