{
  "type": "FeatureCollection",
  "features": [
    {
      "type": "Feature",
      "properties": {
        "identifier": "168-3?o=2",
        "name": "Ruta 168"
      },
      "geometry": {
        "type": "LineString",
        "coordinates": [
          [
            -103.1504,
            20.710340000000002
          ],
          [
            -103.15213000000001,
            20.710430000000002
          ],
          [
            -103.15214,
            20.710440000000002
          ],
          [
            -103.15368000000001,
            20.710500000000003
          ],
          [
            -103.15483,
            20.71058
          ],
          [
            -103.15500000000002,
            20.71055
          ],
          [
            -103.15517000000001,
            20.710430000000002
          ],
          [
            -103.15568,
            20.7099
          ],
          [
            -103.15569,
            20.70989
          ],
          [
            -103.15793000000001,
            20.707310000000003
          ],
          [
            -103.15792,
            20.707320000000003
          ],
          [
            -103.15849000000001,
            20.70664
          ],
          [
            -103.15865000000001,
            20.706490000000002
          ],
          [
            -103.15879000000001,
            20.70641
          ],
          [
            -103.15908,
            20.70623
          ],
          [
            -103.15917,
            20.70615
          ],
          [
            -103.15946000000001,
            20.70577
          ],
          [
            -103.16053000000001,
            20.704320000000003
          ],
          [
            -103.16090000000001,
            20.70381
          ],
          [
            -103.16127,
            20.70304
          ],
          [
            -103.16295000000001,
            20.69959
          ],
          [
            -103.16448000000001,
            20.696440000000003
          ],
          [
            -103.16529000000001,
            20.69469
          ],
          [
            -103.16697,
            20.690330000000003
          ],
          [
            -103.16940000000001,
            20.683970000000002
          ],
          [
            -103.16980000000001,
            20.68298
          ],
          [
            -103.17056000000001,
            20.681230000000003
          ],
          [
            -103.17102000000001,
            20.680210000000002
          ],
          [
            -103.17122,
            20.679340000000003
          ],
          [
            -103.17135,
            20.678610000000003
          ],
          [
            -103.17138000000001,
            20.67846
          ],
          [
            -103.17147000000001,
            20.67819
          ],
          [
            -103.17187000000001,
            20.67752
          ],
          [
            -103.17205000000001,
            20.677190000000003
          ],
          [
            -103.17210000000001,
            20.67705
          ],
          [
            -103.17210000000001,
            20.676920000000003
          ],
          [
            -103.17206,
            20.676820000000003
          ],
          [
            -103.17199000000001,
            20.676720000000003
          ],
          [
            -103.17162,
            20.67624
          ],
          [
            -103.17136,
            20.675980000000003
          ],
          [
            -103.17126,
            20.67593
          ],
          [
            -103.17071000000001,
            20.67576
          ],
          [
            -103.17037,
            20.67563
          ],
          [
            -103.17033,
            20.675590000000003
          ],
          [
            -103.17031000000001,
            20.67548
          ],
          [
            -103.17038000000001,
            20.675310000000003
          ],
          [
            -103.17143000000002,
            20.67464
          ],
          [
            -103.17330000000001,
            20.67329
          ],
          [
            -103.17397000000001,
            20.672870000000003
          ],
          [
            -103.17465000000001,
            20.672420000000002
          ],
          [
            -103.17887,
            20.669790000000003
          ],
          [
            -103.17980000000001,
            20.669230000000002
          ],
          [
            -103.18003,
            20.669020000000003
          ],
          [
            -103.18008,
            20.668860000000002
          ],
          [
            -103.18009,
            20.66878
          ],
          [
            -103.18007000000001,
            20.668650000000003
          ],
          [
            -103.18003,
            20.668560000000003
          ],
          [
            -103.17960000000001,
            20.66805
          ],
          [
            -103.17956000000001,
            20.667910000000003
          ],
          [
            -103.17959,
            20.667810000000003
          ],
          [
            -103.17964,
            20.667730000000002
          ],
          [
            -103.17986,
            20.667530000000003
          ],
          [
            -103.17993000000001,
            20.66741
          ],
          [
            -103.17999,
            20.667160000000003
          ],
          [
            -103.18011000000001,
            20.66647
          ],
          [
            -103.18028000000001,
            20.665940000000003
          ],
          [
            -103.18041000000001,
            20.66573
          ],
          [
            -103.18114000000001,
            20.66478
          ],
          [
            -103.18150000000001,
            20.66428
          ],
          [
            -103.18163000000001,
            20.66419
          ],
          [
            -103.1817,
            20.664160000000003
          ],
          [
            -103.18176000000001,
            20.664160000000003
          ],
          [
            -103.18182,
            20.66419
          ],
          [
            -103.18186000000001,
            20.664250000000003
          ],
          [
            -103.18189000000001,
            20.664350000000002
          ],
          [
            -103.18184000000001,
            20.664620000000003
          ],
          [
            -103.18177000000001,
            20.665080000000003
          ],
          [
            -103.18176000000001,
            20.665270000000003
          ],
          [
            -103.18171000000001,
            20.66544
          ],
          [
            -103.18159000000001,
            20.6657
          ],
          [
            -103.18156,
            20.66587
          ],
          [
            -103.18158000000001,
            20.66608
          ],
          [
            -103.18146000000002,
            20.666690000000003
          ],
          [
            -103.18146000000002,
            20.66683
          ],
          [
            -103.18149000000001,
            20.666980000000002
          ],
          [
            -103.18174,
            20.667530000000003
          ],
          [
            -103.18239000000001,
            20.66901
          ],
          [
            -103.18265000000001,
            20.66957
          ],
          [
            -103.18279000000001,
            20.66983
          ],
          [
            -103.18308,
            20.67014
          ],
          [
            -103.18323000000001,
            20.670260000000003
          ],
          [
            -103.18342000000001,
            20.670360000000002
          ],
          [
            -103.18393,
            20.670550000000002
          ],
          [
            -103.18458000000001,
            20.67077
          ],
          [
            -103.18483,
            20.670800000000003
          ],
          [
            -103.18506000000001,
            20.67078
          ],
          [
            -103.18527,
            20.670820000000003
          ],
          [
            -103.18555,
            20.67094
          ],
          [
            -103.18575000000001,
            20.67105
          ],
          [
            -103.18581,
            20.671110000000002
          ],
          [
            -103.18599,
            20.67143
          ],
          [
            -103.18611000000001,
            20.67154
          ],
          [
            -103.18637000000001,
            20.67163
          ],
          [
            -103.18700000000001,
            20.67172
          ],
          [
            -103.18709000000001,
            20.671750000000003
          ],
          [
            -103.18740000000001,
            20.672030000000003
          ],
          [
            -103.18785000000001,
            20.67246
          ],
          [
            -103.18801,
            20.67258
          ],
          [
            -103.18807000000001,
            20.672610000000002
          ],
          [
            -103.18858,
            20.67272
          ],
          [
            -103.18892000000001,
            20.67283
          ],
          [
            -103.18900000000001,
            20.672890000000002
          ],
          [
            -103.18906000000001,
            20.67303
          ],
          [
            -103.18907000000002,
            20.67323
          ],
          [
            -103.18911000000001,
            20.673440000000003
          ],
          [
            -103.18929000000001,
            20.67398
          ],
          [
            -103.18936000000001,
            20.674190000000003
          ],
          [
            -103.18936000000001,
            20.67426
          ],
          [
            -103.18934,
            20.67433
          ],
          [
            -103.18929000000001,
            20.67441
          ],
          [
            -103.18903,
            20.6746
          ],
          [
            -103.18864,
            20.674750000000003
          ],
          [
            -103.18858,
            20.674850000000003
          ],
          [
            -103.18859,
            20.67498
          ],
          [
            -103.18887000000001,
            20.67535
          ],
          [
            -103.18896000000001,
            20.675400000000003
          ],
          [
            -103.18905000000001,
            20.675420000000003
          ],
          [
            -103.18960000000001,
            20.67528
          ],
          [
            -103.18969000000001,
            20.67526
          ],
          [
            -103.18982000000001,
            20.67518
          ],
          [
            -103.19003000000001,
            20.67499
          ],
          [
            -103.19009000000001,
            20.67489
          ],
          [
            -103.19009000000001,
            20.674580000000002
          ],
          [
            -103.19016,
            20.67435
          ],
          [
            -103.19019000000002,
            20.674110000000002
          ],
          [
            -103.19016,
            20.673920000000003
          ],
          [
            -103.19007,
            20.673720000000003
          ],
          [
            -103.18971,
            20.673260000000003
          ],
          [
            -103.18941000000001,
            20.67294
          ],
          [
            -103.18937000000001,
            20.672870000000003
          ],
          [
            -103.18933000000001,
            20.67275
          ],
          [
            -103.18926,
            20.67264
          ],
          [
            -103.18920000000001,
            20.672600000000003
          ],
          [
            -103.18875000000001,
            20.67237
          ],
          [
            -103.18854,
            20.67229
          ],
          [
            -103.18827,
            20.672140000000002
          ],
          [
            -103.18822000000002,
            20.67211
          ],
          [
            -103.188,
            20.6719
          ],
          [
            -103.18767000000001,
            20.67169
          ],
          [
            -103.18726000000001,
            20.67124
          ],
          [
            -103.18719000000002,
            20.67115
          ],
          [
            -103.18715,
            20.67107
          ],
          [
            -103.18700000000001,
            20.670630000000003
          ],
          [
            -103.18688,
            20.67031
          ],
          [
            -103.18685,
            20.670070000000003
          ],
          [
            -103.18683000000001,
            20.669790000000003
          ],
          [
            -103.18678000000001,
            20.669580000000003
          ],
          [
            -103.18677000000001,
            20.669490000000003
          ],
          [
            -103.18690000000001,
            20.66851
          ],
          [
            -103.18693,
            20.66841
          ],
          [
            -103.18697,
            20.668370000000003
          ],
          [
            -103.18734,
            20.668100000000003
          ],
          [
            -103.18745000000001,
            20.668010000000002
          ],
          [
            -103.18751,
            20.66779
          ],
          [
            -103.18755,
            20.667440000000003
          ],
          [
            -103.18755,
            20.66722
          ],
          [
            -103.18742,
            20.666500000000003
          ],
          [
            -103.18742,
            20.666420000000002
          ],
          [
            -103.18746,
            20.666320000000002
          ],
          [
            -103.18753000000001,
            20.666110000000003
          ],
          [
            -103.18747,
            20.66563
          ],
          [
            -103.18739000000001,
            20.66507
          ],
          [
            -103.18727000000001,
            20.664630000000002
          ],
          [
            -103.18723000000001,
            20.66437
          ],
          [
            -103.18727000000001,
            20.664240000000003
          ],
          [
            -103.18761,
            20.663870000000003
          ],
          [
            -103.18763000000001,
            20.663760000000003
          ],
          [
            -103.1876,
            20.663700000000002
          ],
          [
            -103.18755,
            20.663670000000003
          ],
          [
            -103.18714000000001,
            20.66353
          ],
          [
            -103.18691000000001,
            20.66345
          ],
          [
            -103.18685,
            20.663390000000003
          ],
          [
            -103.18649,
            20.66278
          ],
          [
            -103.18635,
            20.662570000000002
          ],
          [
            -103.18610000000001,
            20.66235
          ],
          [
            -103.18594,
            20.662190000000002
          ],
          [
            -103.18584000000001,
            20.66205
          ],
          [
            -103.18572,
            20.66178
          ],
          [
            -103.18547000000001,
            20.661060000000003
          ],
          [
            -103.18527,
            20.66056
          ],
          [
            -103.18499000000001,
            20.660120000000003
          ],
          [
            -103.18454000000001,
            20.659370000000003
          ],
          [
            -103.18424,
            20.65893
          ],
          [
            -103.18403,
            20.658630000000002
          ],
          [
            -103.18402,
            20.65858
          ],
          [
            -103.18403,
            20.658520000000003
          ],
          [
            -103.18407,
            20.65846
          ],
          [
            -103.18414000000001,
            20.658420000000003
          ],
          [
            -103.18421000000001,
            20.658420000000003
          ],
          [
            -103.18430000000001,
            20.65848
          ],
          [
            -103.18462000000001,
            20.658800000000003
          ],
          [
            -103.18473,
            20.65894
          ],
          [
            -103.18491,
            20.65931
          ],
          [
            -103.18504000000001,
            20.6595
          ],
          [
            -103.18587000000001,
            20.66026
          ],
          [
            -103.18634000000002,
            20.660670000000003
          ],
          [
            -103.18649,
            20.66083
          ],
          [
            -103.18657,
            20.66093
          ],
          [
            -103.18666,
            20.661150000000003
          ],
          [
            -103.18713000000001,
            20.66242
          ],
          [
            -103.18721000000001,
            20.66252
          ],
          [
            -103.18731000000001,
            20.6626
          ],
          [
            -103.18747,
            20.662650000000003
          ],
          [
            -103.18774,
            20.662660000000002
          ],
          [
            -103.18806000000001,
            20.66271
          ],
          [
            -103.18833000000001,
            20.662750000000003
          ],
          [
            -103.18845,
            20.662740000000003
          ],
          [
            -103.18865000000001,
            20.66268
          ],
          [
            -103.18887000000001,
            20.662640000000003
          ],
          [
            -103.18898000000002,
            20.662660000000002
          ],
          [
            -103.18903,
            20.6627
          ],
          [
            -103.18905000000001,
            20.662750000000003
          ],
          [
            -103.18904,
            20.66309
          ],
          [
            -103.18898000000002,
            20.663480000000003
          ],
          [
            -103.18887000000001,
            20.663770000000003
          ],
          [
            -103.18868,
            20.664140000000003
          ],
          [
            -103.18866000000001,
            20.664250000000003
          ],
          [
            -103.18868,
            20.66431
          ],
          [
            -103.18878000000001,
            20.6644
          ],
          [
            -103.18896000000001,
            20.664430000000003
          ],
          [
            -103.18999000000001,
            20.664240000000003
          ],
          [
            -103.19013000000001,
            20.66422
          ],
          [
            -103.19048000000001,
            20.664250000000003
          ],
          [
            -103.19076000000001,
            20.664250000000003
          ],
          [
            -103.19113000000002,
            20.664230000000003
          ],
          [
            -103.19133000000001,
            20.66418
          ],
          [
            -103.19157000000001,
            20.66409
          ],
          [
            -103.19209000000001,
            20.663780000000003
          ],
          [
            -103.19251000000001,
            20.663600000000002
          ],
          [
            -103.19264000000001,
            20.66355
          ],
          [
            -103.19275,
            20.66345
          ],
          [
            -103.19290000000001,
            20.66334
          ],
          [
            -103.19315,
            20.663200000000003
          ],
          [
            -103.19331000000001,
            20.66306
          ],
          [
            -103.19353000000001,
            20.66297
          ],
          [
            -103.19411000000001,
            20.662840000000003
          ],
          [
            -103.19442000000001,
            20.66272
          ],
          [
            -103.19488000000001,
            20.66263
          ],
          [
            -103.19516000000002,
            20.662540000000003
          ],
          [
            -103.19571,
            20.662260000000003
          ],
          [
            -103.19612000000001,
            20.66206
          ],
          [
            -103.19653000000001,
            20.66193
          ],
          [
            -103.19661,
            20.66187
          ],
          [
            -103.19664,
            20.661820000000002
          ],
          [
            -103.19664,
            20.66177
          ],
          [
            -103.19662000000001,
            20.661700000000003
          ],
          [
            -103.19648000000001,
            20.661620000000003
          ],
          [
            -103.19609000000001,
            20.661620000000003
          ],
          [
            -103.19501000000001,
            20.66174
          ],
          [
            -103.19480000000001,
            20.66174
          ],
          [
            -103.19469000000001,
            20.661710000000003
          ],
          [
            -103.19455,
            20.66166
          ],
          [
            -103.19445,
            20.66159
          ],
          [
            -103.19434000000001,
            20.66146
          ],
          [
            -103.19427,
            20.66131
          ],
          [
            -103.19424000000001,
            20.66112
          ],
          [
            -103.19426000000001,
            20.66101
          ],
          [
            -103.19431,
            20.660870000000003
          ],
          [
            -103.19443000000001,
            20.66071
          ],
          [
            -103.19473,
            20.66046
          ],
          [
            -103.19501000000001,
            20.66026
          ],
          [
            -103.19539,
            20.660020000000003
          ],
          [
            -103.19548,
            20.65997
          ],
          [
            -103.19563000000001,
            20.659940000000002
          ],
          [
            -103.19706000000001,
            20.66008
          ],
          [
            -103.19735000000001,
            20.660110000000003
          ],
          [
            -103.19744000000001,
            20.660130000000002
          ],
          [
            -103.19781,
            20.660390000000003
          ],
          [
            -103.19797000000001,
            20.66046
          ],
          [
            -103.19806000000001,
            20.66047
          ],
          [
            -103.19818000000001,
            20.660400000000003
          ],
          [
            -103.19845000000001,
            20.66008
          ],
          [
            -103.19861,
            20.660010000000003
          ],
          [
            -103.19956,
            20.660100000000003
          ],
          [
            -103.20077,
            20.66024
          ],
          [
            -103.20077,
            20.66025
          ],
          [
            -103.20344000000001,
            20.66053
          ],
          [
            -103.20476000000001,
            20.660690000000002
          ],
          [
            -103.20522000000001,
            20.66071
          ],
          [
            -103.20523000000001,
            20.66071
          ],
          [
            -103.20593000000001,
            20.66073
          ],
          [
            -103.20664000000001,
            20.660690000000002
          ],
          [
            -103.20928,
            20.66045
          ],
          [
            -103.20993000000001,
            20.660400000000003
          ],
          [
            -103.21016,
            20.660400000000003
          ],
          [
            -103.21038000000001,
            20.66043
          ],
          [
            -103.21071,
            20.660590000000003
          ],
          [
            -103.21082000000001,
            20.660670000000003
          ],
          [
            -103.21097,
            20.66082
          ],
          [
            -103.21108000000001,
            20.66099
          ],
          [
            -103.21164,
            20.662260000000003
          ],
          [
            -103.21198000000001,
            20.66299
          ],
          [
            -103.21221000000001,
            20.663410000000002
          ],
          [
            -103.21248000000001,
            20.663780000000003
          ],
          [
            -103.21271000000002,
            20.66402
          ],
          [
            -103.21309000000001,
            20.664330000000003
          ],
          [
            -103.21342000000001,
            20.66456
          ],
          [
            -103.21375,
            20.66479
          ],
          [
            -103.21385000000001,
            20.66497
          ],
          [
            -103.21546000000001,
            20.666050000000002
          ],
          [
            -103.21546000000001,
            20.66606
          ],
          [
            -103.21603,
            20.66644
          ],
          [
            -103.21665,
            20.666790000000002
          ],
          [
            -103.21751,
            20.667330000000003
          ],
          [
            -103.21832,
            20.66787
          ],
          [
            -103.21936000000001,
            20.668560000000003
          ],
          [
            -103.21990000000001,
            20.66889
          ],
          [
            -103.22155000000001,
            20.66995
          ],
          [
            -103.22154,
            20.66995
          ],
          [
            -103.2218,
            20.6701
          ],
          [
            -103.22215000000001,
            20.670260000000003
          ],
          [
            -103.22257,
            20.6704
          ],
          [
            -103.22289,
            20.67048
          ],
          [
            -103.22314000000001,
            20.670520000000003
          ],
          [
            -103.22355,
            20.670540000000003
          ],
          [
            -103.22390000000001,
            20.670530000000003
          ],
          [
            -103.22452000000001,
            20.670450000000002
          ],
          [
            -103.22501000000001,
            20.670350000000003
          ],
          [
            -103.22554000000001,
            20.67029
          ],
          [
            -103.22840000000001,
            20.669860000000003
          ],
          [
            -103.22869000000001,
            20.669810000000002
          ],
          [
            -103.23343000000001,
            20.669120000000003
          ],
          [
            -103.23371,
            20.66907
          ],
          [
            -103.23371,
            20.66907
          ],
          [
            -103.23461,
            20.668940000000003
          ],
          [
            -103.23473000000001,
            20.66899
          ],
          [
            -103.23484,
            20.669040000000003
          ],
          [
            -103.23495000000001,
            20.66909
          ],
          [
            -103.23508000000001,
            20.669400000000003
          ],
          [
            -103.23541,
            20.67011
          ],
          [
            -103.23617000000002,
            20.6718
          ],
          [
            -103.23649,
            20.67254
          ],
          [
            -103.23648000000001,
            20.67254
          ],
          [
            -103.23648000000001,
            20.67255
          ],
          [
            -103.2372,
            20.674210000000002
          ],
          [
            -103.23750000000001,
            20.6748
          ],
          [
            -103.23773000000001,
            20.6752
          ],
          [
            -103.23824,
            20.67595
          ],
          [
            -103.23839000000001,
            20.675900000000002
          ],
          [
            -103.23886,
            20.675890000000003
          ],
          [
            -103.23991000000001,
            20.675890000000003
          ],
          [
            -103.24066,
            20.67592
          ],
          [
            -103.24116000000001,
            20.675890000000003
          ],
          [
            -103.2412,
            20.675890000000003
          ],
          [
            -103.24203000000001,
            20.67583
          ],
          [
            -103.24274000000001,
            20.67582
          ],
          [
            -103.24327000000001,
            20.67582
          ],
          [
            -103.24379,
            20.675880000000003
          ],
          [
            -103.24409000000001,
            20.675890000000003
          ],
          [
            -103.2441,
            20.675890000000003
          ],
          [
            -103.24442,
            20.675890000000003
          ],
          [
            -103.24443000000001,
            20.676340000000003
          ],
          [
            -103.24521000000001,
            20.67632
          ],
          [
            -103.24521000000001,
            20.67651
          ],
          [
            -103.24520000000001,
            20.67652
          ],
          [
            -103.24515000000001,
            20.677660000000003
          ],
          [
            -103.24518,
            20.67826
          ],
          [
            -103.24521000000001,
            20.678530000000002
          ],
          [
            -103.24521000000001,
            20.67854
          ],
          [
            -103.24525000000001,
            20.678800000000003
          ],
          [
            -103.24583000000001,
            20.67882
          ],
          [
            -103.24597000000001,
            20.67885
          ],
          [
            -103.24617,
            20.678890000000003
          ],
          [
            -103.24639,
            20.678990000000002
          ],
          [
            -103.24677000000001,
            20.67921
          ],
          [
            -103.24706,
            20.67933
          ],
          [
            -103.24729,
            20.679360000000003
          ],
          [
            -103.24787,
            20.67943
          ],
          [
            -103.24803000000001,
            20.67942
          ],
          [
            -103.24825000000001,
            20.679360000000003
          ],
          [
            -103.24916,
            20.67911
          ],
          [
            -103.24954000000001,
            20.67894
          ],
          [
            -103.24984,
            20.678780000000003
          ],
          [
            -103.25037,
            20.678510000000003
          ],
          [
            -103.25066000000001,
            20.678410000000003
          ],
          [
            -103.25172,
            20.678040000000003
          ],
          [
            -103.25247,
            20.677840000000003
          ],
          [
            -103.25248,
            20.67783
          ],
          [
            -103.25304000000001,
            20.677670000000003
          ],
          [
            -103.25334000000001,
            20.67762
          ],
          [
            -103.25369,
            20.677570000000003
          ],
          [
            -103.25435,
            20.67754
          ],
          [
            -103.25458,
            20.677580000000003
          ],
          [
            -103.25500000000001,
            20.6776
          ],
          [
            -103.25618000000001,
            20.677560000000003
          ],
          [
            -103.25715000000001,
            20.67743
          ],
          [
            -103.25716000000001,
            20.67742
          ],
          [
            -103.25715000000001,
            20.677370000000003
          ],
          [
            -103.25732,
            20.67735
          ],
          [
            -103.25756000000001,
            20.677300000000002
          ],
          [
            -103.25774000000001,
            20.67727
          ],
          [
            -103.25833000000002,
            20.677110000000003
          ],
          [
            -103.25873000000001,
            20.677020000000002
          ],
          [
            -103.25885000000001,
            20.677000000000003
          ],
          [
            -103.25894000000001,
            20.677000000000003
          ],
          [
            -103.25913000000001,
            20.67699
          ],
          [
            -103.25913000000001,
            20.677000000000003
          ],
          [
            -103.25913000000001,
            20.677000000000003
          ],
          [
            -103.26105000000001,
            20.676920000000003
          ],
          [
            -103.26116,
            20.676930000000002
          ],
          [
            -103.26115000000001,
            20.676930000000002
          ],
          [
            -103.26180000000001,
            20.676930000000002
          ],
          [
            -103.26261000000001,
            20.677000000000003
          ],
          [
            -103.26313,
            20.67708
          ],
          [
            -103.26339000000002,
            20.677130000000002
          ],
          [
            -103.26339000000002,
            20.67714
          ],
          [
            -103.26359000000001,
            20.677190000000003
          ],
          [
            -103.26360000000001,
            20.677210000000002
          ],
          [
            -103.26362,
            20.67724
          ],
          [
            -103.26365000000001,
            20.677280000000003
          ],
          [
            -103.26370000000001,
            20.677300000000002
          ],
          [
            -103.26517000000001,
            20.677770000000002
          ],
          [
            -103.26601000000001,
            20.678040000000003
          ],
          [
            -103.26632000000001,
            20.678140000000003
          ],
          [
            -103.26633000000001,
            20.678140000000003
          ],
          [
            -103.26697000000001,
            20.67837
          ],
          [
            -103.26713000000001,
            20.67849
          ],
          [
            -103.26724000000002,
            20.678610000000003
          ],
          [
            -103.2676,
            20.679060000000003
          ],
          [
            -103.26788,
            20.679270000000002
          ],
          [
            -103.26789000000001,
            20.679280000000002
          ],
          [
            -103.26814,
            20.67948
          ],
          [
            -103.26846,
            20.679740000000002
          ],
          [
            -103.26862000000001,
            20.6798
          ],
          [
            -103.26878,
            20.679830000000003
          ],
          [
            -103.26901000000001,
            20.679830000000003
          ],
          [
            -103.26960000000001,
            20.679650000000002
          ],
          [
            -103.27002,
            20.67948
          ],
          [
            -103.27003,
            20.679470000000002
          ],
          [
            -103.27003,
            20.679470000000002
          ],
          [
            -103.2703,
            20.679340000000003
          ],
          [
            -103.27080000000001,
            20.67902
          ],
          [
            -103.27118000000002,
            20.67873
          ],
          [
            -103.27136,
            20.678600000000003
          ],
          [
            -103.27138000000001,
            20.678630000000002
          ],
          [
            -103.27194000000001,
            20.678240000000002
          ],
          [
            -103.27224000000001,
            20.678
          ],
          [
            -103.27231,
            20.67793
          ],
          [
            -103.27247000000001,
            20.677750000000003
          ],
          [
            -103.27263,
            20.67751
          ],
          [
            -103.27275,
            20.67727
          ],
          [
            -103.27275,
            20.67727
          ],
          [
            -103.27292000000001,
            20.676920000000003
          ],
          [
            -103.27343,
            20.67556
          ],
          [
            -103.27348,
            20.675520000000002
          ],
          [
            -103.2736,
            20.675420000000003
          ],
          [
            -103.27354000000001,
            20.67535
          ],
          [
            -103.2737,
            20.675310000000003
          ],
          [
            -103.27467000000001,
            20.67507
          ],
          [
            -103.27475000000001,
            20.675040000000003
          ],
          [
            -103.27477,
            20.67482
          ],
          [
            -103.27477,
            20.67482
          ],
          [
            -103.27478,
            20.674660000000003
          ],
          [
            -103.27507000000001,
            20.6733
          ],
          [
            -103.27513,
            20.67302
          ],
          [
            -103.27514000000001,
            20.67302
          ],
          [
            -103.27519000000001,
            20.672770000000003
          ],
          [
            -103.27535,
            20.67199
          ],
          [
            -103.27535,
            20.670550000000002
          ]
        ]
      }
    }
  ]
}