{
  "type": "FeatureCollection",
  "features": [
    {
      "type": "Feature",
      "properties": {
        "identifier": "170-b",
        "name": "Ruta 170 B"
      },
      "geometry": {
        "type": "LineString",
        "coordinates": [
          [
            -103.35761000000001,
            20.72059
          ],
          [
            -103.35773,
            20.72061
          ],
          [
            -103.35795,
            20.720470000000002
          ],
          [
            -103.35795,
            20.720460000000003
          ],
          [
            -103.35795,
            20.720460000000003
          ],
          [
            -103.35814,
            20.720360000000003
          ],
          [
            -103.35830000000001,
            20.72031
          ],
          [
            -103.35846000000001,
            20.72032
          ],
          [
            -103.35903,
            20.72043
          ],
          [
            -103.35903,
            20.72043
          ],
          [
            -103.35903,
            20.72043
          ],
          [
            -103.36009000000001,
            20.7206
          ],
          [
            -103.36009000000001,
            20.7206
          ],
          [
            -103.36035000000001,
            20.720650000000003
          ],
          [
            -103.36138000000001,
            20.720820000000003
          ],
          [
            -103.36138000000001,
            20.720820000000003
          ],
          [
            -103.36138000000001,
            20.720820000000003
          ],
          [
            -103.36373,
            20.721130000000002
          ],
          [
            -103.36373,
            20.721130000000002
          ],
          [
            -103.36374,
            20.721130000000002
          ],
          [
            -103.36415000000001,
            20.72117
          ],
          [
            -103.36415000000001,
            20.72117
          ],
          [
            -103.36679000000001,
            20.72143
          ],
          [
            -103.36679000000001,
            20.72143
          ],
          [
            -103.36679000000001,
            20.72143
          ],
          [
            -103.36812,
            20.72152
          ],
          [
            -103.36812,
            20.72152
          ],
          [
            -103.36812,
            20.72152
          ],
          [
            -103.36918000000001,
            20.72162
          ],
          [
            -103.37038000000001,
            20.721690000000002
          ],
          [
            -103.37168000000001,
            20.721780000000003
          ],
          [
            -103.37296,
            20.721880000000002
          ],
          [
            -103.37405000000001,
            20.721950000000003
          ],
          [
            -103.37405000000001,
            20.721950000000003
          ],
          [
            -103.37558000000001,
            20.722050000000003
          ],
          [
            -103.37686000000001,
            20.72212
          ],
          [
            -103.37696000000001,
            20.72212
          ],
          [
            -103.37696000000001,
            20.72212
          ],
          [
            -103.37874000000001,
            20.722250000000003
          ],
          [
            -103.38133,
            20.7224
          ],
          [
            -103.38196,
            20.72246
          ],
          [
            -103.38265000000001,
            20.72248
          ],
          [
            -103.38286000000001,
            20.72246
          ],
          [
            -103.38334,
            20.72211
          ],
          [
            -103.38380000000001,
            20.72173
          ],
          [
            -103.38425000000001,
            20.721420000000002
          ],
          [
            -103.38457000000001,
            20.72128
          ],
          [
            -103.38513,
            20.72119
          ],
          [
            -103.38569000000001,
            20.721130000000002
          ],
          [
            -103.38614000000001,
            20.72108
          ],
          [
            -103.38653000000001,
            20.72107
          ],
          [
            -103.38722000000001,
            20.72116
          ],
          [
            -103.38771000000001,
            20.721200000000003
          ],
          [
            -103.38771000000001,
            20.721200000000003
          ],
          [
            -103.38780000000001,
            20.721210000000003
          ],
          [
            -103.38873000000001,
            20.721330000000002
          ],
          [
            -103.38873000000001,
            20.72134
          ],
          [
            -103.39008000000001,
            20.72156
          ],
          [
            -103.39053000000001,
            20.72164
          ],
          [
            -103.39053000000001,
            20.72164
          ],
          [
            -103.39182000000001,
            20.721870000000003
          ],
          [
            -103.39182000000001,
            20.721870000000003
          ],
          [
            -103.39417,
            20.722260000000002
          ],
          [
            -103.39443000000001,
            20.7223
          ],
          [
            -103.39443000000001,
            20.7223
          ],
          [
            -103.39531000000001,
            20.722440000000002
          ],
          [
            -103.39540000000001,
            20.722450000000002
          ],
          [
            -103.39540000000001,
            20.722450000000002
          ],
          [
            -103.39712000000002,
            20.72277
          ],
          [
            -103.39712000000002,
            20.72277
          ],
          [
            -103.39713,
            20.72277
          ],
          [
            -103.39853000000001,
            20.723000000000003
          ],
          [
            -103.39853000000001,
            20.723000000000003
          ],
          [
            -103.39854000000001,
            20.723010000000002
          ],
          [
            -103.39946,
            20.723170000000003
          ],
          [
            -103.39952000000001,
            20.723190000000002
          ],
          [
            -103.39957000000001,
            20.723260000000003
          ],
          [
            -103.39983000000001,
            20.72391
          ],
          [
            -103.4,
            20.72434
          ],
          [
            -103.40021000000002,
            20.72455
          ],
          [
            -103.40021000000002,
            20.72455
          ],
          [
            -103.40021000000002,
            20.72455
          ],
          [
            -103.40051000000001,
            20.72483
          ],
          [
            -103.40046000000001,
            20.724870000000003
          ],
          [
            -103.40018,
            20.725050000000003
          ],
          [
            -103.39917000000001,
            20.72569
          ],
          [
            -103.39887,
            20.72596
          ],
          [
            -103.39890000000001,
            20.725980000000003
          ],
          [
            -103.39902000000001,
            20.726100000000002
          ],
          [
            -103.39902000000001,
            20.726100000000002
          ],
          [
            -103.39932,
            20.72642
          ],
          [
            -103.40017,
            20.72725
          ],
          [
            -103.40017,
            20.72725
          ],
          [
            -103.40033000000001,
            20.727410000000003
          ],
          [
            -103.40096000000001,
            20.728
          ],
          [
            -103.40114000000001,
            20.728180000000002
          ],
          [
            -103.40114000000001,
            20.728180000000002
          ],
          [
            -103.40146000000001,
            20.72851
          ],
          [
            -103.40217000000001,
            20.729200000000002
          ],
          [
            -103.40235000000001,
            20.729380000000003
          ],
          [
            -103.40235000000001,
            20.729380000000003
          ],
          [
            -103.40278,
            20.72981
          ],
          [
            -103.40375,
            20.73075
          ],
          [
            -103.40390000000001,
            20.730900000000002
          ],
          [
            -103.40390000000001,
            20.730900000000002
          ],
          [
            -103.40424,
            20.731250000000003
          ],
          [
            -103.40469,
            20.73168
          ],
          [
            -103.40492,
            20.73166
          ],
          [
            -103.40492,
            20.73166
          ],
          [
            -103.40663,
            20.731520000000003
          ],
          [
            -103.40788,
            20.7314
          ],
          [
            -103.40788,
            20.7314
          ],
          [
            -103.40880000000001,
            20.731330000000003
          ],
          [
            -103.40931,
            20.73128
          ],
          [
            -103.40931,
            20.73128
          ],
          [
            -103.40974000000001,
            20.731240000000003
          ],
          [
            -103.41113000000001,
            20.731140000000003
          ],
          [
            -103.41113000000001,
            20.731140000000003
          ],
          [
            -103.41113000000001,
            20.731140000000003
          ],
          [
            -103.41202000000001,
            20.731090000000002
          ],
          [
            -103.41255000000001,
            20.73104
          ],
          [
            -103.41255000000001,
            20.73104
          ],
          [
            -103.41355000000001,
            20.730960000000003
          ],
          [
            -103.41355000000001,
            20.730960000000003
          ],
          [
            -103.41399000000001,
            20.73093
          ],
          [
            -103.41480000000001,
            20.73084
          ],
          [
            -103.41585,
            20.730770000000003
          ],
          [
            -103.41585,
            20.730770000000003
          ],
          [
            -103.41604000000001,
            20.73076
          ],
          [
            -103.41655000000002,
            20.730700000000002
          ],
          [
            -103.41655000000002,
            20.730700000000002
          ],
          [
            -103.41655000000002,
            20.730700000000002
          ],
          [
            -103.41799,
            20.73057
          ],
          [
            -103.41799,
            20.73057
          ],
          [
            -103.41799,
            20.73057
          ],
          [
            -103.41928000000001,
            20.73047
          ],
          [
            -103.41928000000001,
            20.73047
          ],
          [
            -103.41929,
            20.73047
          ],
          [
            -103.42022000000001,
            20.730390000000003
          ],
          [
            -103.42022000000001,
            20.730390000000003
          ],
          [
            -103.42034000000001,
            20.730390000000003
          ],
          [
            -103.42147000000001,
            20.73026
          ],
          [
            -103.42147000000001,
            20.73026
          ],
          [
            -103.42304000000001,
            20.7301
          ],
          [
            -103.42304000000001,
            20.7301
          ],
          [
            -103.42304000000001,
            20.7301
          ],
          [
            -103.42411000000001,
            20.730040000000002
          ],
          [
            -103.42411000000001,
            20.730040000000002
          ],
          [
            -103.42412,
            20.730040000000002
          ],
          [
            -103.42514000000001,
            20.72999
          ],
          [
            -103.42514000000001,
            20.72999
          ],
          [
            -103.42514000000001,
            20.73
          ],
          [
            -103.42540000000001,
            20.72999
          ],
          [
            -103.42626000000001,
            20.72999
          ],
          [
            -103.42626000000001,
            20.72999
          ],
          [
            -103.42891,
            20.72999
          ],
          [
            -103.42891,
            20.72999
          ],
          [
            -103.42891,
            20.72999
          ],
          [
            -103.43083000000001,
            20.729940000000003
          ],
          [
            -103.43109000000001,
            20.729930000000003
          ],
          [
            -103.43317,
            20.729930000000003
          ],
          [
            -103.43341000000001,
            20.729920000000003
          ],
          [
            -103.43361,
            20.729870000000002
          ],
          [
            -103.43455,
            20.7297
          ],
          [
            -103.43455,
            20.7297
          ],
          [
            -103.43455,
            20.7297
          ],
          [
            -103.43598000000001,
            20.72943
          ],
          [
            -103.43615000000001,
            20.72943
          ],
          [
            -103.44013000000001,
            20.72988
          ],
          [
            -103.44013000000001,
            20.72988
          ],
          [
            -103.44242000000001,
            20.730140000000002
          ],
          [
            -103.44296000000001,
            20.7302
          ],
          [
            -103.44296000000001,
            20.7302
          ],
          [
            -103.44331000000001,
            20.730240000000002
          ],
          [
            -103.44528000000001,
            20.73046
          ],
          [
            -103.44528000000001,
            20.73046
          ],
          [
            -103.44648000000001,
            20.730600000000003
          ],
          [
            -103.45109000000001,
            20.73111
          ],
          [
            -103.45109000000001,
            20.73111
          ],
          [
            -103.45109000000001,
            20.73111
          ],
          [
            -103.45146000000001,
            20.731140000000003
          ],
          [
            -103.45155000000001,
            20.731150000000003
          ],
          [
            -103.45166,
            20.7311
          ],
          [
            -103.45243,
            20.73119
          ],
          [
            -103.45309,
            20.73129
          ],
          [
            -103.45309,
            20.73129
          ],
          [
            -103.45309,
            20.73129
          ],
          [
            -103.45574,
            20.73176
          ],
          [
            -103.45631,
            20.731910000000003
          ],
          [
            -103.45631,
            20.731910000000003
          ],
          [
            -103.45632,
            20.731910000000003
          ],
          [
            -103.45761,
            20.73224
          ],
          [
            -103.45797,
            20.732270000000003
          ],
          [
            -103.4581,
            20.732370000000003
          ],
          [
            -103.45816,
            20.732400000000002
          ],
          [
            -103.45836000000001,
            20.73244
          ],
          [
            -103.45836000000001,
            20.73244
          ],
          [
            -103.45957000000001,
            20.73269
          ],
          [
            -103.45978000000001,
            20.73273
          ],
          [
            -103.45978000000001,
            20.73273
          ],
          [
            -103.46072000000001,
            20.732940000000003
          ],
          [
            -103.46143000000001,
            20.733140000000002
          ],
          [
            -103.46232,
            20.73336
          ],
          [
            -103.46333000000001,
            20.733580000000003
          ],
          [
            -103.46333000000001,
            20.733580000000003
          ],
          [
            -103.46448000000001,
            20.73384
          ],
          [
            -103.46600000000001,
            20.734170000000002
          ],
          [
            -103.46600000000001,
            20.734170000000002
          ],
          [
            -103.46632000000001,
            20.734250000000003
          ],
          [
            -103.46756,
            20.73451
          ],
          [
            -103.46784000000001,
            20.734450000000002
          ],
          [
            -103.46873000000001,
            20.73466
          ],
          [
            -103.47084000000001,
            20.73504
          ],
          [
            -103.47120000000001,
            20.735110000000002
          ],
          [
            -103.47120000000001,
            20.735110000000002
          ],
          [
            -103.47327000000001,
            20.73555
          ],
          [
            -103.47404,
            20.7357
          ],
          [
            -103.47426000000002,
            20.735770000000002
          ],
          [
            -103.47556,
            20.736050000000002
          ],
          [
            -103.47778000000001,
            20.736520000000002
          ],
          [
            -103.48145000000001,
            20.73731
          ],
          [
            -103.48145000000001,
            20.73731
          ],
          [
            -103.48242,
            20.73752
          ],
          [
            -103.48385,
            20.737830000000002
          ],
          [
            -103.48412,
            20.737930000000002
          ],
          [
            -103.48429,
            20.738010000000003
          ],
          [
            -103.48450000000001,
            20.738100000000003
          ],
          [
            -103.48627,
            20.738490000000002
          ],
          [
            -103.48830000000001,
            20.7389
          ],
          [
            -103.48977000000001,
            20.739220000000003
          ],
          [
            -103.49167000000001,
            20.739610000000003
          ],
          [
            -103.49185000000001,
            20.739680000000003
          ],
          [
            -103.49208,
            20.73982
          ],
          [
            -103.49232,
            20.740000000000002
          ],
          [
            -103.49239000000001,
            20.739800000000002
          ],
          [
            -103.49249,
            20.73958
          ],
          [
            -103.49316,
            20.740070000000003
          ],
          [
            -103.49403000000001,
            20.74067
          ],
          [
            -103.49516000000001,
            20.741470000000003
          ],
          [
            -103.49555000000001,
            20.74174
          ],
          [
            -103.49592000000001,
            20.74202
          ],
          [
            -103.49638,
            20.742350000000002
          ],
          [
            -103.49660000000002,
            20.74247
          ],
          [
            -103.49675,
            20.74254
          ],
          [
            -103.49726000000001,
            20.742720000000002
          ],
          [
            -103.49745000000001,
            20.742790000000003
          ],
          [
            -103.49859000000001,
            20.7432
          ],
          [
            -103.49966,
            20.743560000000002
          ],
          [
            -103.50076000000001,
            20.74387
          ],
          [
            -103.50137000000001,
            20.74408
          ],
          [
            -103.50336000000001,
            20.74473
          ],
          [
            -103.50597,
            20.74557
          ],
          [
            -103.50875,
            20.746450000000003
          ],
          [
            -103.50979000000001,
            20.746820000000003
          ],
          [
            -103.51157,
            20.74742
          ],
          [
            -103.51156,
            20.747410000000002
          ],
          [
            -103.51156,
            20.747410000000002
          ],
          [
            -103.50979000000001,
            20.746820000000003
          ],
          [
            -103.50875,
            20.746450000000003
          ],
          [
            -103.50597,
            20.74557
          ],
          [
            -103.50336000000001,
            20.74473
          ],
          [
            -103.50137000000001,
            20.74408
          ],
          [
            -103.50076000000001,
            20.74387
          ],
          [
            -103.49966,
            20.743560000000002
          ],
          [
            -103.49859000000001,
            20.7432
          ],
          [
            -103.49745000000001,
            20.742790000000003
          ],
          [
            -103.49726000000001,
            20.742720000000002
          ],
          [
            -103.49675,
            20.74254
          ],
          [
            -103.49660000000002,
            20.74247
          ],
          [
            -103.49638,
            20.742350000000002
          ],
          [
            -103.49592000000001,
            20.74202
          ],
          [
            -103.49555000000001,
            20.74174
          ],
          [
            -103.49516000000001,
            20.741470000000003
          ],
          [
            -103.49403000000001,
            20.74067
          ],
          [
            -103.49316,
            20.740070000000003
          ],
          [
            -103.49249,
            20.73958
          ],
          [
            -103.49239000000001,
            20.739800000000002
          ],
          [
            -103.49232,
            20.740000000000002
          ],
          [
            -103.49287000000001,
            20.740460000000002
          ],
          [
            -103.49624000000001,
            20.74324
          ],
          [
            -103.49839000000001,
            20.74499
          ],
          [
            -103.49991000000001,
            20.746100000000002
          ],
          [
            -103.50185,
            20.747480000000003
          ],
          [
            -103.50317000000001,
            20.7484
          ],
          [
            -103.50385000000001,
            20.748910000000002
          ],
          [
            -103.50425000000001,
            20.74925
          ],
          [
            -103.50463,
            20.74961
          ],
          [
            -103.50494,
            20.749930000000003
          ],
          [
            -103.50535,
            20.75043
          ],
          [
            -103.50571000000001,
            20.75082
          ],
          [
            -103.50716000000001,
            20.752080000000003
          ],
          [
            -103.51031,
            20.75476
          ],
          [
            -103.5112,
            20.755560000000003
          ],
          [
            -103.51200000000001,
            20.756230000000002
          ],
          [
            -103.5129,
            20.75703
          ],
          [
            -103.51349,
            20.757550000000002
          ],
          [
            -103.51389,
            20.75807
          ],
          [
            -103.51448,
            20.758830000000003
          ],
          [
            -103.51503000000001,
            20.759600000000002
          ],
          [
            -103.51604,
            20.76096
          ],
          [
            -103.51686000000001,
            20.76208
          ],
          [
            -103.51710000000001,
            20.76244
          ],
          [
            -103.51731000000001,
            20.762790000000003
          ],
          [
            -103.51746000000001,
            20.763060000000003
          ],
          [
            -103.51757,
            20.763180000000002
          ],
          [
            -103.51792,
            20.7634
          ],
          [
            -103.51828,
            20.7636
          ],
          [
            -103.51904,
            20.76396
          ],
          [
            -103.5203,
            20.764480000000002
          ],
          [
            -103.52054000000001,
            20.764560000000003
          ],
          [
            -103.52054000000001,
            20.764560000000003
          ],
          [
            -103.5216,
            20.764940000000003
          ],
          [
            -103.52198000000001,
            20.76507
          ],
          [
            -103.52198000000001,
            20.76507
          ],
          [
            -103.52248,
            20.765240000000002
          ],
          [
            -103.52299000000001,
            20.76545
          ],
          [
            -103.52315000000002,
            20.765530000000002
          ],
          [
            -103.52315000000002,
            20.765530000000002
          ],
          [
            -103.52331000000001,
            20.765610000000002
          ],
          [
            -103.52340000000001,
            20.765680000000003
          ],
          [
            -103.52382000000001,
            20.765130000000003
          ],
          [
            -103.52482,
            20.763840000000002
          ],
          [
            -103.52622000000001,
            20.762050000000002
          ],
          [
            -103.52682000000001,
            20.76135
          ],
          [
            -103.52682000000001,
            20.76135
          ],
          [
            -103.52683,
            20.76135
          ],
          [
            -103.52700000000002,
            20.761170000000003
          ],
          [
            -103.52719,
            20.761020000000002
          ],
          [
            -103.52754,
            20.76078
          ],
          [
            -103.52805000000001,
            20.760450000000002
          ],
          [
            -103.52842000000001,
            20.760250000000003
          ],
          [
            -103.52902,
            20.759990000000002
          ],
          [
            -103.52902,
            20.759990000000002
          ],
          [
            -103.52905000000001,
            20.759980000000002
          ],
          [
            -103.53041,
            20.75935
          ],
          [
            -103.53114000000001,
            20.75899
          ],
          [
            -103.53152000000001,
            20.7588
          ],
          [
            -103.53193,
            20.758470000000003
          ],
          [
            -103.53389000000001,
            20.75636
          ],
          [
            -103.53526000000001,
            20.75487
          ],
          [
            -103.53526000000001,
            20.75487
          ],
          [
            -103.53632,
            20.75374
          ],
          [
            -103.53656000000001,
            20.753490000000003
          ],
          [
            -103.53672,
            20.75328
          ],
          [
            -103.53684000000001,
            20.753040000000002
          ],
          [
            -103.5369,
            20.75278
          ],
          [
            -103.537,
            20.75212
          ],
          [
            -103.53715000000001,
            20.750950000000003
          ],
          [
            -103.53723000000001,
            20.750310000000002
          ],
          [
            -103.53736,
            20.74856
          ],
          [
            -103.53755000000001,
            20.74736
          ],
          [
            -103.53810000000001,
            20.744040000000002
          ],
          [
            -103.53839,
            20.742310000000003
          ],
          [
            -103.53885000000001,
            20.73898
          ],
          [
            -103.53886000000001,
            20.738850000000003
          ],
          [
            -103.53886000000001,
            20.738850000000003
          ],
          [
            -103.53946,
            20.734370000000002
          ],
          [
            -103.53989000000001,
            20.73102
          ],
          [
            -103.5399,
            20.730790000000002
          ],
          [
            -103.5399,
            20.730790000000002
          ],
          [
            -103.53992000000001,
            20.730620000000002
          ],
          [
            -103.53983000000001,
            20.72971
          ],
          [
            -103.53979000000001,
            20.72943
          ],
          [
            -103.53979000000001,
            20.72943
          ],
          [
            -103.53974000000001,
            20.72906
          ],
          [
            -103.54076,
            20.728800000000003
          ],
          [
            -103.54100000000001,
            20.728740000000002
          ],
          [
            -103.54100000000001,
            20.728740000000002
          ],
          [
            -103.54176000000001,
            20.72857
          ],
          [
            -103.54282,
            20.728340000000003
          ],
          [
            -103.54282,
            20.728340000000003
          ],
          [
            -103.54282,
            20.728340000000003
          ],
          [
            -103.54367,
            20.72813
          ],
          [
            -103.54475000000001,
            20.72785
          ],
          [
            -103.54504000000001,
            20.727780000000003
          ],
          [
            -103.54504000000001,
            20.727780000000003
          ],
          [
            -103.54670000000002,
            20.72744
          ],
          [
            -103.54670000000002,
            20.727430000000002
          ],
          [
            -103.54670000000002,
            20.727430000000002
          ],
          [
            -103.54734,
            20.727310000000003
          ],
          [
            -103.54769,
            20.72727
          ],
          [
            -103.54857000000001,
            20.72734
          ],
          [
            -103.54895,
            20.72738
          ],
          [
            -103.54936000000001,
            20.72747
          ],
          [
            -103.55143000000001,
            20.72801
          ],
          [
            -103.55232000000001,
            20.728240000000003
          ],
          [
            -103.55301000000001,
            20.72841
          ],
          [
            -103.55356,
            20.7285
          ],
          [
            -103.55404000000001,
            20.728530000000003
          ],
          [
            -103.55447000000001,
            20.728540000000002
          ],
          [
            -103.55513,
            20.72849
          ],
          [
            -103.55546000000001,
            20.728430000000003
          ],
          [
            -103.55743000000001,
            20.7279
          ],
          [
            -103.55786,
            20.727800000000002
          ],
          [
            -103.55915,
            20.727590000000003
          ],
          [
            -103.55959000000001,
            20.727520000000002
          ],
          [
            -103.55999000000001,
            20.727500000000003
          ],
          [
            -103.56054,
            20.727500000000003
          ],
          [
            -103.56093000000001,
            20.72756
          ],
          [
            -103.56093000000001,
            20.72756
          ],
          [
            -103.56093000000001,
            20.72756
          ],
          [
            -103.56157,
            20.727680000000003
          ],
          [
            -103.56186000000001,
            20.72672
          ],
          [
            -103.56186000000001,
            20.72672
          ],
          [
            -103.56187000000001,
            20.72672
          ],
          [
            -103.56221000000001,
            20.72567
          ],
          [
            -103.56221000000001,
            20.72567
          ],
          [
            -103.56243,
            20.725040000000003
          ],
          [
            -103.56262000000001,
            20.72455
          ],
          [
            -103.56262000000001,
            20.72455
          ],
          [
            -103.56266000000001,
            20.72445
          ],
          [
            -103.56313000000002,
            20.724580000000003
          ],
          [
            -103.56313000000002,
            20.724580000000003
          ],
          [
            -103.56320000000001,
            20.724600000000002
          ],
          [
            -103.56382,
            20.724800000000002
          ],
          [
            -103.56382,
            20.724800000000002
          ],
          [
            -103.56478000000001,
            20.7251
          ],
          [
            -103.56478000000001,
            20.7251
          ],
          [
            -103.56479,
            20.72511
          ],
          [
            -103.56487000000001,
            20.725140000000003
          ],
          [
            -103.56526000000001,
            20.72388
          ],
          [
            -103.56526000000001,
            20.72387
          ],
          [
            -103.56526000000001,
            20.72387
          ],
          [
            -103.56536000000001,
            20.72362
          ],
          [
            -103.56589000000001,
            20.72227
          ],
          [
            -103.56599000000001,
            20.72199
          ],
          [
            -103.56599000000001,
            20.72199
          ],
          [
            -103.566,
            20.72199
          ],
          [
            -103.56616000000001,
            20.72155
          ],
          [
            -103.56626000000001,
            20.72143
          ],
          [
            -103.56636,
            20.72125
          ],
          [
            -103.56653000000001,
            20.72069
          ],
          [
            -103.56664,
            20.720480000000002
          ],
          [
            -103.56688000000001,
            20.720180000000003
          ],
          [
            -103.56694,
            20.720100000000002
          ],
          [
            -103.56694,
            20.720090000000003
          ],
          [
            -103.56694,
            20.720090000000003
          ],
          [
            -103.56725000000002,
            20.71956
          ],
          [
            -103.56750000000001,
            20.71912
          ],
          [
            -103.56762,
            20.718600000000002
          ],
          [
            -103.56781000000001,
            20.71779
          ],
          [
            -103.56791000000001,
            20.71753
          ],
          [
            -103.56819000000002,
            20.71725
          ],
          [
            -103.56864,
            20.71695
          ],
          [
            -103.56873,
            20.716800000000003
          ],
          [
            -103.56882,
            20.71659
          ],
          [
            -103.56884000000001,
            20.71647
          ],
          [
            -103.56883,
            20.716230000000003
          ],
          [
            -103.56877000000001,
            20.716060000000002
          ],
          [
            -103.56877000000001,
            20.71462
          ]
        ]
      }
    }
  ]
}