{
  "type": "FeatureCollection",
  "features": [
    {
      "type": "Feature",
      "properties": {
        "identifier": "171-via-santa-fe?o=2",
        "name": "Ruta 171 Vía Santa Fe"
      },
      "geometry": {
        "type": "LineString",
        "coordinates": [
          [
            -103.36024,
            20.49801
          ],
          [
            -103.36039000000001,
            20.49897
          ],
          [
            -103.3606,
            20.500310000000002
          ],
          [
            -103.3606,
            20.500310000000002
          ],
          [
            -103.36091,
            20.502290000000002
          ],
          [
            -103.36095,
            20.50253
          ],
          [
            -103.36096,
            20.50253
          ],
          [
            -103.36120000000001,
            20.50413
          ],
          [
            -103.36136,
            20.505110000000002
          ],
          [
            -103.36135,
            20.505110000000002
          ],
          [
            -103.36157000000001,
            20.506400000000003
          ],
          [
            -103.36163,
            20.50666
          ],
          [
            -103.36196000000001,
            20.50712
          ],
          [
            -103.36210000000001,
            20.50731
          ],
          [
            -103.36210000000001,
            20.50731
          ],
          [
            -103.36266,
            20.50806
          ],
          [
            -103.36298000000001,
            20.508490000000002
          ],
          [
            -103.36299000000001,
            20.508480000000002
          ],
          [
            -103.36377,
            20.509510000000002
          ],
          [
            -103.36441,
            20.5104
          ],
          [
            -103.36500000000001,
            20.511190000000003
          ],
          [
            -103.36500000000001,
            20.511190000000003
          ],
          [
            -103.36513000000001,
            20.511370000000003
          ],
          [
            -103.36582000000001,
            20.512220000000003
          ],
          [
            -103.36588,
            20.512320000000003
          ],
          [
            -103.36594000000001,
            20.512310000000003
          ],
          [
            -103.36611,
            20.512300000000003
          ],
          [
            -103.36646,
            20.51226
          ],
          [
            -103.36646,
            20.51226
          ],
          [
            -103.36731,
            20.51218
          ],
          [
            -103.36842000000001,
            20.51208
          ],
          [
            -103.36918000000001,
            20.51201
          ],
          [
            -103.36936000000001,
            20.51201
          ],
          [
            -103.36956,
            20.512040000000002
          ],
          [
            -103.36976000000001,
            20.512050000000002
          ],
          [
            -103.36976000000001,
            20.512050000000002
          ],
          [
            -103.37113000000001,
            20.512140000000002
          ],
          [
            -103.373,
            20.5122
          ],
          [
            -103.37324000000001,
            20.512150000000002
          ],
          [
            -103.37370000000001,
            20.512020000000003
          ],
          [
            -103.37393,
            20.51199
          ],
          [
            -103.37411,
            20.512020000000003
          ],
          [
            -103.37534000000001,
            20.51219
          ],
          [
            -103.37534000000001,
            20.51219
          ],
          [
            -103.37538,
            20.5122
          ],
          [
            -103.37608,
            20.51229
          ],
          [
            -103.37637000000001,
            20.512310000000003
          ],
          [
            -103.37669000000001,
            20.512330000000002
          ],
          [
            -103.37716,
            20.512400000000003
          ],
          [
            -103.37806,
            20.51254
          ],
          [
            -103.3786,
            20.51263
          ],
          [
            -103.37867000000001,
            20.512690000000003
          ],
          [
            -103.37879000000001,
            20.51285
          ],
          [
            -103.37875000000001,
            20.513170000000002
          ],
          [
            -103.37875000000001,
            20.513170000000002
          ],
          [
            -103.37875000000001,
            20.513180000000002
          ],
          [
            -103.37872000000002,
            20.51341
          ],
          [
            -103.37855,
            20.5149
          ],
          [
            -103.37834000000001,
            20.51633
          ],
          [
            -103.37829,
            20.51666
          ],
          [
            -103.37827000000001,
            20.51677
          ],
          [
            -103.37840000000001,
            20.51678
          ],
          [
            -103.37882,
            20.516840000000002
          ],
          [
            -103.37882,
            20.516840000000002
          ],
          [
            -103.37882,
            20.516840000000002
          ],
          [
            -103.38041000000001,
            20.51704
          ],
          [
            -103.3807,
            20.51707
          ],
          [
            -103.3807,
            20.51707
          ],
          [
            -103.38108000000001,
            20.51713
          ],
          [
            -103.38382000000001,
            20.51751
          ],
          [
            -103.38414,
            20.51755
          ],
          [
            -103.38414,
            20.51755
          ],
          [
            -103.38468,
            20.51762
          ],
          [
            -103.38728,
            20.5179
          ],
          [
            -103.38738000000001,
            20.518
          ],
          [
            -103.38745000000002,
            20.51818
          ],
          [
            -103.38742,
            20.51838
          ],
          [
            -103.38742,
            20.51838
          ],
          [
            -103.38728,
            20.51961
          ],
          [
            -103.38723,
            20.519910000000003
          ],
          [
            -103.38723,
            20.519910000000003
          ],
          [
            -103.38706,
            20.52127
          ],
          [
            -103.38701,
            20.521520000000002
          ],
          [
            -103.38701,
            20.521520000000002
          ],
          [
            -103.38697,
            20.52183
          ],
          [
            -103.38681000000001,
            20.52211
          ],
          [
            -103.38628000000001,
            20.523020000000002
          ],
          [
            -103.38587000000001,
            20.52362
          ],
          [
            -103.38566,
            20.523760000000003
          ],
          [
            -103.38449000000001,
            20.524230000000003
          ],
          [
            -103.38446,
            20.52449
          ],
          [
            -103.38446,
            20.52449
          ],
          [
            -103.38446,
            20.524500000000003
          ],
          [
            -103.38440000000001,
            20.525080000000003
          ],
          [
            -103.38431000000001,
            20.52642
          ],
          [
            -103.38430000000001,
            20.52643
          ],
          [
            -103.38429000000001,
            20.52645
          ],
          [
            -103.38428,
            20.526480000000003
          ],
          [
            -103.38430000000001,
            20.52653
          ],
          [
            -103.38426000000001,
            20.52674
          ],
          [
            -103.38426000000001,
            20.526750000000003
          ],
          [
            -103.38424,
            20.526780000000002
          ],
          [
            -103.38424,
            20.52683
          ],
          [
            -103.38427000000001,
            20.526870000000002
          ],
          [
            -103.38415,
            20.52738
          ],
          [
            -103.38399000000001,
            20.52764
          ],
          [
            -103.38399000000001,
            20.52764
          ],
          [
            -103.38398000000001,
            20.52768
          ],
          [
            -103.38355000000001,
            20.52802
          ],
          [
            -103.38316,
            20.52823
          ],
          [
            -103.38265000000001,
            20.52841
          ],
          [
            -103.38204,
            20.528570000000002
          ],
          [
            -103.38132,
            20.528740000000003
          ],
          [
            -103.38001000000001,
            20.52897
          ],
          [
            -103.37965000000001,
            20.529020000000003
          ],
          [
            -103.37959000000001,
            20.529020000000003
          ],
          [
            -103.37962,
            20.52897
          ],
          [
            -103.37955000000001,
            20.529010000000003
          ],
          [
            -103.37788,
            20.52916
          ],
          [
            -103.37761,
            20.52918
          ],
          [
            -103.37761,
            20.52918
          ],
          [
            -103.37637000000001,
            20.529300000000003
          ],
          [
            -103.37637000000001,
            20.529290000000003
          ],
          [
            -103.37522000000001,
            20.529400000000003
          ],
          [
            -103.37521000000001,
            20.529400000000003
          ],
          [
            -103.37521000000001,
            20.529400000000003
          ],
          [
            -103.37342000000001,
            20.52954
          ],
          [
            -103.37254000000001,
            20.529680000000003
          ],
          [
            -103.37227000000001,
            20.52973
          ],
          [
            -103.37227000000001,
            20.52973
          ],
          [
            -103.37128000000001,
            20.52991
          ],
          [
            -103.37002000000001,
            20.52993
          ],
          [
            -103.36973,
            20.529960000000003
          ],
          [
            -103.36963000000002,
            20.53
          ],
          [
            -103.36917000000001,
            20.530600000000003
          ],
          [
            -103.36917000000001,
            20.530600000000003
          ],
          [
            -103.36829,
            20.531760000000002
          ],
          [
            -103.36800000000001,
            20.53216
          ],
          [
            -103.36800000000001,
            20.53216
          ],
          [
            -103.36800000000001,
            20.53217
          ],
          [
            -103.36661000000001,
            20.533920000000002
          ],
          [
            -103.36662000000001,
            20.533920000000002
          ],
          [
            -103.36599000000001,
            20.53472
          ],
          [
            -103.36573000000001,
            20.535040000000002
          ],
          [
            -103.36536000000001,
            20.535410000000002
          ],
          [
            -103.36501000000001,
            20.535700000000002
          ],
          [
            -103.36476,
            20.53593
          ],
          [
            -103.36425000000001,
            20.536550000000002
          ],
          [
            -103.36414,
            20.53669
          ],
          [
            -103.36414,
            20.53669
          ],
          [
            -103.36364,
            20.53734
          ],
          [
            -103.36364,
            20.53734
          ],
          [
            -103.36339000000001,
            20.537670000000002
          ],
          [
            -103.36250000000001,
            20.53883
          ],
          [
            -103.36147000000001,
            20.540200000000002
          ],
          [
            -103.36040000000001,
            20.54162
          ],
          [
            -103.35997,
            20.5422
          ],
          [
            -103.35997,
            20.5422
          ],
          [
            -103.35997,
            20.54221
          ],
          [
            -103.35910000000001,
            20.54332
          ],
          [
            -103.35904000000001,
            20.543390000000002
          ],
          [
            -103.35904000000001,
            20.543390000000002
          ],
          [
            -103.35871,
            20.543860000000002
          ],
          [
            -103.3584,
            20.54435
          ],
          [
            -103.35814,
            20.544870000000003
          ],
          [
            -103.35796,
            20.545080000000002
          ],
          [
            -103.35796,
            20.545080000000002
          ],
          [
            -103.35796,
            20.545090000000002
          ],
          [
            -103.35759,
            20.54549
          ],
          [
            -103.35749000000001,
            20.545620000000003
          ],
          [
            -103.35736000000001,
            20.546020000000002
          ],
          [
            -103.35736000000001,
            20.546020000000002
          ],
          [
            -103.35736000000001,
            20.546020000000002
          ],
          [
            -103.35708000000001,
            20.54709
          ],
          [
            -103.35689,
            20.547250000000002
          ],
          [
            -103.35672000000001,
            20.547320000000003
          ],
          [
            -103.35649000000001,
            20.54735
          ],
          [
            -103.35620000000002,
            20.54737
          ],
          [
            -103.35481000000001,
            20.547320000000003
          ],
          [
            -103.35269000000001,
            20.54719
          ],
          [
            -103.35222,
            20.54716
          ],
          [
            -103.35142,
            20.54716
          ],
          [
            -103.35109000000001,
            20.547140000000002
          ],
          [
            -103.35109000000001,
            20.547140000000002
          ],
          [
            -103.35102,
            20.547140000000002
          ],
          [
            -103.35046000000001,
            20.54711
          ],
          [
            -103.3499,
            20.54708
          ],
          [
            -103.3499,
            20.54708
          ],
          [
            -103.34904,
            20.547040000000003
          ],
          [
            -103.34710000000001,
            20.546950000000002
          ],
          [
            -103.34682000000001,
            20.546940000000003
          ],
          [
            -103.34682000000001,
            20.546960000000002
          ],
          [
            -103.34659,
            20.546960000000002
          ],
          [
            -103.34529,
            20.54689
          ],
          [
            -103.34423000000001,
            20.54681
          ],
          [
            -103.34423000000001,
            20.5468
          ],
          [
            -103.34327,
            20.54672
          ],
          [
            -103.34246,
            20.54662
          ],
          [
            -103.34182000000001,
            20.5465
          ],
          [
            -103.3409,
            20.546570000000003
          ],
          [
            -103.34024000000001,
            20.54663
          ],
          [
            -103.34024000000001,
            20.54663
          ],
          [
            -103.34005,
            20.546650000000003
          ],
          [
            -103.33727,
            20.54688
          ],
          [
            -103.33727,
            20.54688
          ],
          [
            -103.33535,
            20.547040000000003
          ],
          [
            -103.33358000000001,
            20.547210000000003
          ],
          [
            -103.33180000000002,
            20.547340000000002
          ],
          [
            -103.32985000000001,
            20.547520000000002
          ],
          [
            -103.32993,
            20.54784
          ],
          [
            -103.32993,
            20.54784
          ],
          [
            -103.33019,
            20.548810000000003
          ],
          [
            -103.33030000000001,
            20.549280000000003
          ],
          [
            -103.33030000000001,
            20.549280000000003
          ],
          [
            -103.33077000000002,
            20.55123
          ],
          [
            -103.33078,
            20.55122
          ],
          [
            -103.33120000000001,
            20.55291
          ],
          [
            -103.33126000000001,
            20.553160000000002
          ],
          [
            -103.33127,
            20.553160000000002
          ],
          [
            -103.33156000000001,
            20.554260000000003
          ],
          [
            -103.33173000000001,
            20.554910000000003
          ],
          [
            -103.33172,
            20.554910000000003
          ],
          [
            -103.33185,
            20.555400000000002
          ],
          [
            -103.33185,
            20.555400000000002
          ],
          [
            -103.33200000000001,
            20.555940000000003
          ],
          [
            -103.33207,
            20.55628
          ],
          [
            -103.33207,
            20.55628
          ],
          [
            -103.33213,
            20.556540000000002
          ],
          [
            -103.33218000000001,
            20.55703
          ],
          [
            -103.33225,
            20.558480000000003
          ],
          [
            -103.33225,
            20.558480000000003
          ],
          [
            -103.33242000000001,
            20.561510000000002
          ],
          [
            -103.33242000000001,
            20.561510000000002
          ],
          [
            -103.33248,
            20.56259
          ],
          [
            -103.33256000000002,
            20.56466
          ],
          [
            -103.33256000000002,
            20.56466
          ],
          [
            -103.33263000000001,
            20.56621
          ],
          [
            -103.33264000000001,
            20.56644
          ],
          [
            -103.33264000000001,
            20.56644
          ],
          [
            -103.33274000000002,
            20.568330000000003
          ],
          [
            -103.33283000000002,
            20.56884
          ],
          [
            -103.33304000000001,
            20.569750000000003
          ],
          [
            -103.33304000000001,
            20.569750000000003
          ],
          [
            -103.33305000000001,
            20.569760000000002
          ],
          [
            -103.33326000000001,
            20.570800000000002
          ],
          [
            -103.33326000000001,
            20.570800000000002
          ],
          [
            -103.33331000000001,
            20.57103
          ],
          [
            -103.33344000000001,
            20.57179
          ],
          [
            -103.33345000000001,
            20.57205
          ],
          [
            -103.33345000000001,
            20.57205
          ],
          [
            -103.33346,
            20.57206
          ],
          [
            -103.33346,
            20.57224
          ],
          [
            -103.33342,
            20.572460000000003
          ],
          [
            -103.33335000000001,
            20.5727
          ],
          [
            -103.33312000000001,
            20.57327
          ],
          [
            -103.33282000000001,
            20.57432
          ],
          [
            -103.33267000000001,
            20.574550000000002
          ],
          [
            -103.33267000000001,
            20.574550000000002
          ],
          [
            -103.33265000000002,
            20.5746
          ],
          [
            -103.33220000000001,
            20.57608
          ],
          [
            -103.33211000000001,
            20.57638
          ],
          [
            -103.33211000000001,
            20.57638
          ],
          [
            -103.33184000000001,
            20.5773
          ],
          [
            -103.33178000000001,
            20.577530000000003
          ],
          [
            -103.33178000000001,
            20.577530000000003
          ],
          [
            -103.33155000000001,
            20.578590000000002
          ],
          [
            -103.33148000000001,
            20.57911
          ],
          [
            -103.33145,
            20.579530000000002
          ],
          [
            -103.3315,
            20.579810000000002
          ],
          [
            -103.3315,
            20.579810000000002
          ],
          [
            -103.33152000000001,
            20.57992
          ],
          [
            -103.33149,
            20.58003
          ],
          [
            -103.33164000000001,
            20.58096
          ],
          [
            -103.33164000000001,
            20.58096
          ],
          [
            -103.33164000000001,
            20.58096
          ],
          [
            -103.33168,
            20.58125
          ],
          [
            -103.33187000000001,
            20.58248
          ],
          [
            -103.33187000000001,
            20.58248
          ],
          [
            -103.33187000000001,
            20.58248
          ],
          [
            -103.33214000000001,
            20.58417
          ],
          [
            -103.33214000000001,
            20.58417
          ],
          [
            -103.33219000000001,
            20.584490000000002
          ],
          [
            -103.33199,
            20.584600000000002
          ],
          [
            -103.33082,
            20.585250000000002
          ],
          [
            -103.32904,
            20.58622
          ],
          [
            -103.3289,
            20.58633
          ],
          [
            -103.32887000000001,
            20.58639
          ],
          [
            -103.32884000000001,
            20.5865
          ],
          [
            -103.3267,
            20.587660000000003
          ],
          [
            -103.32669000000001,
            20.587660000000003
          ],
          [
            -103.32454000000001,
            20.58884
          ],
          [
            -103.32384,
            20.58921
          ],
          [
            -103.32289000000002,
            20.589730000000003
          ],
          [
            -103.32282000000001,
            20.58977
          ],
          [
            -103.32282000000001,
            20.58977
          ],
          [
            -103.32263,
            20.58989
          ],
          [
            -103.32128,
            20.590760000000003
          ],
          [
            -103.32104000000001,
            20.590860000000003
          ],
          [
            -103.32091000000001,
            20.5909
          ],
          [
            -103.3208,
            20.59089
          ],
          [
            -103.3207,
            20.590870000000002
          ],
          [
            -103.32057,
            20.5908
          ],
          [
            -103.32048,
            20.59072
          ],
          [
            -103.32044,
            20.590670000000003
          ],
          [
            -103.32039,
            20.59056
          ],
          [
            -103.32037000000001,
            20.59046
          ],
          [
            -103.32039,
            20.59035
          ],
          [
            -103.32043,
            20.59024
          ],
          [
            -103.32051000000001,
            20.59014
          ],
          [
            -103.32060000000001,
            20.59007
          ],
          [
            -103.32072000000001,
            20.590020000000003
          ],
          [
            -103.32085000000001,
            20.590000000000003
          ],
          [
            -103.32098,
            20.590020000000003
          ],
          [
            -103.32112000000001,
            20.59008
          ],
          [
            -103.32130000000001,
            20.590200000000003
          ],
          [
            -103.32157000000001,
            20.59074
          ],
          [
            -103.32227,
            20.59221
          ],
          [
            -103.32227,
            20.59221
          ],
          [
            -103.32227,
            20.59221
          ],
          [
            -103.32263,
            20.59299
          ],
          [
            -103.3241,
            20.596130000000002
          ],
          [
            -103.32437,
            20.596790000000002
          ],
          [
            -103.32441000000001,
            20.59692
          ],
          [
            -103.32445000000001,
            20.59713
          ],
          [
            -103.32446,
            20.597350000000002
          ],
          [
            -103.32443,
            20.59805
          ],
          [
            -103.32440000000001,
            20.598270000000003
          ],
          [
            -103.32434,
            20.598480000000002
          ],
          [
            -103.32434,
            20.598480000000002
          ],
          [
            -103.32434,
            20.59849
          ],
          [
            -103.32427000000001,
            20.598740000000003
          ],
          [
            -103.3241,
            20.59908
          ],
          [
            -103.32393,
            20.59937
          ],
          [
            -103.32371,
            20.599690000000002
          ],
          [
            -103.32308,
            20.60049
          ],
          [
            -103.32291000000001,
            20.600730000000002
          ],
          [
            -103.32285,
            20.60078
          ],
          [
            -103.32285,
            20.60078
          ],
          [
            -103.32259,
            20.601080000000003
          ],
          [
            -103.32199000000001,
            20.6016
          ],
          [
            -103.32166000000001,
            20.601840000000003
          ],
          [
            -103.32129,
            20.60208
          ],
          [
            -103.32077000000001,
            20.60234
          ],
          [
            -103.32021,
            20.60264
          ],
          [
            -103.32012,
            20.602690000000003
          ],
          [
            -103.31968,
            20.60292
          ],
          [
            -103.31968,
            20.60292
          ],
          [
            -103.319,
            20.60329
          ],
          [
            -103.31757,
            20.60405
          ],
          [
            -103.31694,
            20.60441
          ],
          [
            -103.31648000000001,
            20.60479
          ],
          [
            -103.31626000000001,
            20.605050000000002
          ],
          [
            -103.31603000000001,
            20.60536
          ],
          [
            -103.31587,
            20.605620000000002
          ],
          [
            -103.31580000000001,
            20.605770000000003
          ],
          [
            -103.31578,
            20.605770000000003
          ],
          [
            -103.31578,
            20.605790000000002
          ],
          [
            -103.31568000000001,
            20.606070000000003
          ],
          [
            -103.31558000000001,
            20.60639
          ],
          [
            -103.31551,
            20.60685
          ],
          [
            -103.31540000000001,
            20.607860000000002
          ],
          [
            -103.31536000000001,
            20.608700000000002
          ],
          [
            -103.31544000000001,
            20.609250000000003
          ],
          [
            -103.31558000000001,
            20.609740000000002
          ],
          [
            -103.31577000000001,
            20.61016
          ],
          [
            -103.31592,
            20.61044
          ],
          [
            -103.31621000000001,
            20.610850000000003
          ],
          [
            -103.31678000000001,
            20.61146
          ],
          [
            -103.31955,
            20.61426
          ],
          [
            -103.32013,
            20.614890000000003
          ],
          [
            -103.3208,
            20.615540000000003
          ],
          [
            -103.32115,
            20.615930000000002
          ],
          [
            -103.32145000000001,
            20.616410000000002
          ],
          [
            -103.32167000000001,
            20.616970000000002
          ],
          [
            -103.32174,
            20.617320000000003
          ],
          [
            -103.32175000000001,
            20.617720000000002
          ],
          [
            -103.32159000000001,
            20.619510000000002
          ],
          [
            -103.32159000000001,
            20.619510000000002
          ],
          [
            -103.32156,
            20.61989
          ],
          [
            -103.32138,
            20.620970000000003
          ],
          [
            -103.32138,
            20.621180000000003
          ],
          [
            -103.32135000000001,
            20.62141
          ],
          [
            -103.32105000000001,
            20.624080000000003
          ],
          [
            -103.32099000000001,
            20.62453
          ],
          [
            -103.32086000000001,
            20.625420000000002
          ],
          [
            -103.32081000000001,
            20.62594
          ],
          [
            -103.32073000000001,
            20.626130000000003
          ],
          [
            -103.32074000000001,
            20.62638
          ],
          [
            -103.32078000000001,
            20.62658
          ],
          [
            -103.32090000000001,
            20.626910000000002
          ],
          [
            -103.32101000000002,
            20.62712
          ],
          [
            -103.32111,
            20.627280000000003
          ],
          [
            -103.32111,
            20.627280000000003
          ],
          [
            -103.32117000000001,
            20.627380000000002
          ],
          [
            -103.32226000000001,
            20.629080000000002
          ],
          [
            -103.32226000000001,
            20.629080000000002
          ],
          [
            -103.32230000000001,
            20.629140000000003
          ],
          [
            -103.32294,
            20.630090000000003
          ],
          [
            -103.32305000000001,
            20.630270000000003
          ],
          [
            -103.32305000000001,
            20.630270000000003
          ],
          [
            -103.32454000000001,
            20.63258
          ],
          [
            -103.32474,
            20.63295
          ],
          [
            -103.32474,
            20.63295
          ],
          [
            -103.32474,
            20.63295
          ],
          [
            -103.32628000000001,
            20.63537
          ],
          [
            -103.32628000000001,
            20.63537
          ],
          [
            -103.32679,
            20.636180000000003
          ],
          [
            -103.32759000000001,
            20.637430000000002
          ],
          [
            -103.32759000000001,
            20.637430000000002
          ],
          [
            -103.32827,
            20.63848
          ],
          [
            -103.32827,
            20.63848
          ],
          [
            -103.32867,
            20.639100000000003
          ],
          [
            -103.32928000000001,
            20.640040000000003
          ],
          [
            -103.32928000000001,
            20.640040000000003
          ],
          [
            -103.32929000000001,
            20.640050000000002
          ],
          [
            -103.33002,
            20.64119
          ],
          [
            -103.33002,
            20.64119
          ],
          [
            -103.33076000000001,
            20.64235
          ],
          [
            -103.33087,
            20.64252
          ],
          [
            -103.33087,
            20.64252
          ],
          [
            -103.33164000000001,
            20.64375
          ],
          [
            -103.33164000000001,
            20.64375
          ],
          [
            -103.3324,
            20.644940000000002
          ],
          [
            -103.3324,
            20.644940000000002
          ],
          [
            -103.3324,
            20.644940000000002
          ],
          [
            -103.33311,
            20.646040000000003
          ],
          [
            -103.33311,
            20.646040000000003
          ],
          [
            -103.33328,
            20.646310000000003
          ],
          [
            -103.33391,
            20.64731
          ],
          [
            -103.33391,
            20.64731
          ],
          [
            -103.33412000000001,
            20.647640000000003
          ],
          [
            -103.33470000000001,
            20.64853
          ],
          [
            -103.33472,
            20.648570000000003
          ],
          [
            -103.33472,
            20.648570000000003
          ],
          [
            -103.33503,
            20.64908
          ],
          [
            -103.33563000000001,
            20.649990000000003
          ],
          [
            -103.33563000000001,
            20.649990000000003
          ],
          [
            -103.33601,
            20.650570000000002
          ],
          [
            -103.33654000000001,
            20.651400000000002
          ],
          [
            -103.33654000000001,
            20.651400000000002
          ],
          [
            -103.33686,
            20.6519
          ],
          [
            -103.33699000000001,
            20.652030000000003
          ],
          [
            -103.33834,
            20.653180000000003
          ],
          [
            -103.33855000000001,
            20.653350000000003
          ],
          [
            -103.33855000000001,
            20.653350000000003
          ],
          [
            -103.33947,
            20.654100000000003
          ],
          [
            -103.34035000000002,
            20.654850000000003
          ],
          [
            -103.34045,
            20.65493
          ],
          [
            -103.34045,
            20.65493
          ],
          [
            -103.34145000000001,
            20.65576
          ],
          [
            -103.34145000000001,
            20.65576
          ],
          [
            -103.34187000000001,
            20.65611
          ],
          [
            -103.34252000000001,
            20.65662
          ],
          [
            -103.34317000000001,
            20.65718
          ],
          [
            -103.34335000000002,
            20.65733
          ],
          [
            -103.34335000000002,
            20.65733
          ],
          [
            -103.34335000000002,
            20.65733
          ],
          [
            -103.34423000000001,
            20.658060000000003
          ],
          [
            -103.34423000000001,
            20.658060000000003
          ],
          [
            -103.34521000000001,
            20.658880000000003
          ],
          [
            -103.34537,
            20.659010000000002
          ],
          [
            -103.34537,
            20.659010000000002
          ],
          [
            -103.34575000000001,
            20.65932
          ],
          [
            -103.34635000000002,
            20.659920000000003
          ],
          [
            -103.34722000000001,
            20.6609
          ],
          [
            -103.34830000000001,
            20.66216
          ],
          [
            -103.34830000000001,
            20.66216
          ],
          [
            -103.34831000000001,
            20.662170000000003
          ],
          [
            -103.34862000000001,
            20.662480000000002
          ],
          [
            -103.34881000000001,
            20.662560000000003
          ],
          [
            -103.34909,
            20.662560000000003
          ],
          [
            -103.34971,
            20.66262
          ],
          [
            -103.34973000000001,
            20.66281
          ],
          [
            -103.34952000000001,
            20.66335
          ],
          [
            -103.34942000000001,
            20.66362
          ],
          [
            -103.34943000000001,
            20.66362
          ],
          [
            -103.34915000000001,
            20.664450000000002
          ],
          [
            -103.34915000000001,
            20.664450000000002
          ],
          [
            -103.34866000000001,
            20.6659
          ],
          [
            -103.34867000000001,
            20.6659
          ],
          [
            -103.34867000000001,
            20.66591
          ],
          [
            -103.34802,
            20.66779
          ],
          [
            -103.34797,
            20.667890000000003
          ],
          [
            -103.34797,
            20.667890000000003
          ],
          [
            -103.34787000000001,
            20.668180000000003
          ],
          [
            -103.34752,
            20.669220000000003
          ],
          [
            -103.34736000000001,
            20.66972
          ],
          [
            -103.34736000000001,
            20.66972
          ],
          [
            -103.34728000000001,
            20.669970000000003
          ],
          [
            -103.34723000000001,
            20.670560000000002
          ],
          [
            -103.34722000000001,
            20.671270000000003
          ],
          [
            -103.34722000000001,
            20.671750000000003
          ],
          [
            -103.34746000000001,
            20.671860000000002
          ],
          [
            -103.34746000000001,
            20.67042
          ]
        ]
      }
    }
  ]
}