{
  "type": "FeatureCollection",
  "features": [
    {
      "type": "Feature",
      "properties": {
        "identifier": "171-via-valle-dorado?o=2",
        "name": "Ruta 171 Vía Valle Dorado"
      },
      "geometry": {
        "type": "LineString",
        "coordinates": [
          [
            -103.35447,
            20.49277
          ],
          [
            -103.35458000000001,
            20.494200000000003
          ],
          [
            -103.35462000000001,
            20.49453
          ],
          [
            -103.35475000000001,
            20.49452
          ],
          [
            -103.35475000000001,
            20.49452
          ],
          [
            -103.35475000000001,
            20.494510000000002
          ],
          [
            -103.35513,
            20.49446
          ],
          [
            -103.35583000000001,
            20.494400000000002
          ],
          [
            -103.35615000000001,
            20.494400000000002
          ],
          [
            -103.35702,
            20.49446
          ],
          [
            -103.35736000000001,
            20.494500000000002
          ],
          [
            -103.35736000000001,
            20.494500000000002
          ],
          [
            -103.35745000000001,
            20.49452
          ],
          [
            -103.35827,
            20.49473
          ],
          [
            -103.35887000000001,
            20.49493
          ],
          [
            -103.35918000000001,
            20.49508
          ],
          [
            -103.35931000000001,
            20.49519
          ],
          [
            -103.35931000000001,
            20.49519
          ],
          [
            -103.35964000000001,
            20.49548
          ],
          [
            -103.35981000000001,
            20.495730000000002
          ],
          [
            -103.35993,
            20.496070000000003
          ],
          [
            -103.36009000000001,
            20.49707
          ],
          [
            -103.36015,
            20.49745
          ],
          [
            -103.36008000000001,
            20.49756
          ],
          [
            -103.35995000000001,
            20.497690000000002
          ],
          [
            -103.35973000000001,
            20.49771
          ],
          [
            -103.35972000000001,
            20.49771
          ],
          [
            -103.35972000000001,
            20.49771
          ],
          [
            -103.35855000000001,
            20.497770000000003
          ],
          [
            -103.35832,
            20.497770000000003
          ],
          [
            -103.35819000000001,
            20.49781
          ],
          [
            -103.35791,
            20.497950000000003
          ],
          [
            -103.35757000000001,
            20.498230000000003
          ],
          [
            -103.35730000000001,
            20.498540000000002
          ],
          [
            -103.35698000000001,
            20.498810000000002
          ],
          [
            -103.35673000000001,
            20.498990000000003
          ],
          [
            -103.35628000000001,
            20.49921
          ],
          [
            -103.35633000000001,
            20.4994
          ],
          [
            -103.35633000000001,
            20.4994
          ],
          [
            -103.35633000000001,
            20.49941
          ],
          [
            -103.35644,
            20.499910000000003
          ],
          [
            -103.35653,
            20.500600000000002
          ],
          [
            -103.35639,
            20.501340000000003
          ],
          [
            -103.35626,
            20.50185
          ],
          [
            -103.35626,
            20.50185
          ],
          [
            -103.35616,
            20.50223
          ],
          [
            -103.3559,
            20.503390000000003
          ],
          [
            -103.35589,
            20.503390000000003
          ],
          [
            -103.35589,
            20.503390000000003
          ],
          [
            -103.35577,
            20.504040000000003
          ],
          [
            -103.35565000000001,
            20.50446
          ],
          [
            -103.35567,
            20.50469
          ],
          [
            -103.35575000000001,
            20.504920000000002
          ],
          [
            -103.35605000000001,
            20.505450000000003
          ],
          [
            -103.35634,
            20.505950000000002
          ],
          [
            -103.35634,
            20.505950000000002
          ],
          [
            -103.35667000000001,
            20.506510000000002
          ],
          [
            -103.35754000000001,
            20.507900000000003
          ],
          [
            -103.35755,
            20.507900000000003
          ],
          [
            -103.35763000000001,
            20.50804
          ],
          [
            -103.35548000000001,
            20.50784
          ],
          [
            -103.35464,
            20.50776
          ],
          [
            -103.3546,
            20.50776
          ],
          [
            -103.35455,
            20.50769
          ],
          [
            -103.35455,
            20.50769
          ],
          [
            -103.35402,
            20.506780000000003
          ],
          [
            -103.35402,
            20.506780000000003
          ],
          [
            -103.35402,
            20.506780000000003
          ],
          [
            -103.35385000000001,
            20.50653
          ],
          [
            -103.35296000000001,
            20.505090000000003
          ],
          [
            -103.35257000000001,
            20.504430000000003
          ],
          [
            -103.35257000000001,
            20.504430000000003
          ],
          [
            -103.35253,
            20.504360000000002
          ],
          [
            -103.35243000000001,
            20.504430000000003
          ],
          [
            -103.35229000000001,
            20.50421
          ],
          [
            -103.35171000000001,
            20.50327
          ],
          [
            -103.35157000000001,
            20.50297
          ],
          [
            -103.35148000000001,
            20.502670000000002
          ],
          [
            -103.35142,
            20.502450000000003
          ],
          [
            -103.35137,
            20.502370000000003
          ],
          [
            -103.35134000000001,
            20.502360000000003
          ],
          [
            -103.35097,
            20.502370000000003
          ],
          [
            -103.35096000000001,
            20.502370000000003
          ],
          [
            -103.35096000000001,
            20.502370000000003
          ],
          [
            -103.35024000000001,
            20.50243
          ],
          [
            -103.34965000000001,
            20.5025
          ],
          [
            -103.34930000000001,
            20.50261
          ],
          [
            -103.34920000000001,
            20.50262
          ],
          [
            -103.34920000000001,
            20.50262
          ],
          [
            -103.34908000000001,
            20.502650000000003
          ],
          [
            -103.34911000000001,
            20.503030000000003
          ],
          [
            -103.34915000000001,
            20.503610000000002
          ],
          [
            -103.34915000000001,
            20.503610000000002
          ],
          [
            -103.34918,
            20.50394
          ],
          [
            -103.34922,
            20.50468
          ],
          [
            -103.34922,
            20.50468
          ],
          [
            -103.34926000000002,
            20.50525
          ],
          [
            -103.34927,
            20.505470000000003
          ],
          [
            -103.34923,
            20.50563
          ],
          [
            -103.34907000000001,
            20.50587
          ],
          [
            -103.34884000000001,
            20.506110000000003
          ],
          [
            -103.34883,
            20.506110000000003
          ],
          [
            -103.34883,
            20.506110000000003
          ],
          [
            -103.34873,
            20.506230000000002
          ],
          [
            -103.34870000000001,
            20.506230000000002
          ],
          [
            -103.34866000000001,
            20.506230000000002
          ],
          [
            -103.34861000000001,
            20.506230000000002
          ],
          [
            -103.34853000000001,
            20.50627
          ],
          [
            -103.34846,
            20.50634
          ],
          [
            -103.34843000000001,
            20.50644
          ],
          [
            -103.34844000000001,
            20.50653
          ],
          [
            -103.3485,
            20.506600000000002
          ],
          [
            -103.34859,
            20.50665
          ],
          [
            -103.34856,
            20.50709
          ],
          [
            -103.34846,
            20.507150000000003
          ],
          [
            -103.34839000000001,
            20.50721
          ],
          [
            -103.34835000000001,
            20.50729
          ],
          [
            -103.34817000000001,
            20.507270000000002
          ],
          [
            -103.34817000000001,
            20.507270000000002
          ],
          [
            -103.34582,
            20.507060000000003
          ],
          [
            -103.34530000000001,
            20.507070000000002
          ],
          [
            -103.34214000000001,
            20.50674
          ],
          [
            -103.34082000000001,
            20.50663
          ],
          [
            -103.34056000000001,
            20.50664
          ],
          [
            -103.34056000000001,
            20.50664
          ],
          [
            -103.34055000000001,
            20.50665
          ],
          [
            -103.34045,
            20.506690000000003
          ],
          [
            -103.34045,
            20.50685
          ],
          [
            -103.33990000000001,
            20.506860000000003
          ],
          [
            -103.33937,
            20.506860000000003
          ],
          [
            -103.33732,
            20.50671
          ],
          [
            -103.33673,
            20.506690000000003
          ],
          [
            -103.33653000000001,
            20.50665
          ],
          [
            -103.33615,
            20.50663
          ],
          [
            -103.33615,
            20.50671
          ],
          [
            -103.33615,
            20.50671
          ],
          [
            -103.33624,
            20.50862
          ],
          [
            -103.3361,
            20.5086
          ],
          [
            -103.33604000000001,
            20.50861
          ],
          [
            -103.33599000000001,
            20.508650000000003
          ],
          [
            -103.33598,
            20.508680000000002
          ],
          [
            -103.33598,
            20.508680000000002
          ],
          [
            -103.33598,
            20.508740000000003
          ],
          [
            -103.33602,
            20.509230000000002
          ],
          [
            -103.33615,
            20.510420000000003
          ],
          [
            -103.33616,
            20.510540000000002
          ],
          [
            -103.33616,
            20.510540000000002
          ],
          [
            -103.33629,
            20.51178
          ],
          [
            -103.33631000000001,
            20.51207
          ],
          [
            -103.33631000000001,
            20.51207
          ],
          [
            -103.33632000000001,
            20.512130000000003
          ],
          [
            -103.33635000000001,
            20.5122
          ],
          [
            -103.33638,
            20.51227
          ],
          [
            -103.33637,
            20.512300000000003
          ],
          [
            -103.33636000000001,
            20.51237
          ],
          [
            -103.33638,
            20.51244
          ],
          [
            -103.33646,
            20.51253
          ],
          [
            -103.33656,
            20.51256
          ],
          [
            -103.33667000000001,
            20.51256
          ],
          [
            -103.33676000000001,
            20.512510000000002
          ],
          [
            -103.33834,
            20.51281
          ],
          [
            -103.33897,
            20.51293
          ],
          [
            -103.33924,
            20.51295
          ],
          [
            -103.3396,
            20.51294
          ],
          [
            -103.34013,
            20.512890000000002
          ],
          [
            -103.34046000000001,
            20.512860000000003
          ],
          [
            -103.34078000000001,
            20.512890000000002
          ],
          [
            -103.34097000000001,
            20.51294
          ],
          [
            -103.34121,
            20.512900000000002
          ],
          [
            -103.34129000000001,
            20.512870000000003
          ],
          [
            -103.34129000000001,
            20.512870000000003
          ],
          [
            -103.34135,
            20.512860000000003
          ],
          [
            -103.34145000000001,
            20.51283
          ],
          [
            -103.34148,
            20.51292
          ],
          [
            -103.34174,
            20.51369
          ],
          [
            -103.34324000000001,
            20.51838
          ],
          [
            -103.34417,
            20.521130000000003
          ],
          [
            -103.34422,
            20.52121
          ],
          [
            -103.34426,
            20.52135
          ],
          [
            -103.34447000000002,
            20.521980000000003
          ],
          [
            -103.34448,
            20.521980000000003
          ],
          [
            -103.34479,
            20.523020000000002
          ],
          [
            -103.34075000000001,
            20.522920000000003
          ],
          [
            -103.33885000000001,
            20.5229
          ],
          [
            -103.33885000000001,
            20.5229
          ],
          [
            -103.33885000000001,
            20.5229
          ],
          [
            -103.33847000000002,
            20.52288
          ],
          [
            -103.3383,
            20.52286
          ],
          [
            -103.33789,
            20.52286
          ],
          [
            -103.33646,
            20.522830000000003
          ],
          [
            -103.33646,
            20.522830000000003
          ],
          [
            -103.33455000000001,
            20.522810000000003
          ],
          [
            -103.33379000000001,
            20.52278
          ],
          [
            -103.33371000000001,
            20.524710000000002
          ],
          [
            -103.33370000000001,
            20.525080000000003
          ],
          [
            -103.3341,
            20.525100000000002
          ],
          [
            -103.33623000000001,
            20.525170000000003
          ],
          [
            -103.33625,
            20.525250000000003
          ],
          [
            -103.33625,
            20.525250000000003
          ],
          [
            -103.33625,
            20.525250000000003
          ],
          [
            -103.33632000000001,
            20.52534
          ],
          [
            -103.33647,
            20.52551
          ],
          [
            -103.3366,
            20.52558
          ],
          [
            -103.33744000000002,
            20.5256
          ],
          [
            -103.33851000000001,
            20.525640000000003
          ],
          [
            -103.33958000000001,
            20.525660000000002
          ],
          [
            -103.34125,
            20.525720000000003
          ],
          [
            -103.34125,
            20.525720000000003
          ],
          [
            -103.34151000000001,
            20.525730000000003
          ],
          [
            -103.3417,
            20.52588
          ],
          [
            -103.3418,
            20.52598
          ],
          [
            -103.34184,
            20.526040000000002
          ],
          [
            -103.34186000000001,
            20.526120000000002
          ],
          [
            -103.34190000000001,
            20.526690000000002
          ],
          [
            -103.34198,
            20.527140000000003
          ],
          [
            -103.34202,
            20.527220000000003
          ],
          [
            -103.34213000000001,
            20.52731
          ],
          [
            -103.34229,
            20.527420000000003
          ],
          [
            -103.34247,
            20.52745
          ],
          [
            -103.34372,
            20.52748
          ],
          [
            -103.34381,
            20.52747
          ],
          [
            -103.34429000000002,
            20.527410000000003
          ],
          [
            -103.34526000000001,
            20.527440000000002
          ],
          [
            -103.34599000000001,
            20.52748
          ],
          [
            -103.34599000000001,
            20.52748
          ],
          [
            -103.34605,
            20.52749
          ],
          [
            -103.34615000000001,
            20.527530000000002
          ],
          [
            -103.34623,
            20.52759
          ],
          [
            -103.34630000000001,
            20.52768
          ],
          [
            -103.34636,
            20.527710000000003
          ],
          [
            -103.34665000000001,
            20.528740000000003
          ],
          [
            -103.34677,
            20.52906
          ],
          [
            -103.34677,
            20.52906
          ],
          [
            -103.34704,
            20.529880000000002
          ],
          [
            -103.34970000000001,
            20.53808
          ],
          [
            -103.3499,
            20.538690000000003
          ],
          [
            -103.3499,
            20.538690000000003
          ],
          [
            -103.34991000000001,
            20.538700000000002
          ],
          [
            -103.35182,
            20.54454
          ],
          [
            -103.35183,
            20.54454
          ],
          [
            -103.35257000000001,
            20.54679
          ],
          [
            -103.35268,
            20.54717
          ],
          [
            -103.3525,
            20.54716
          ],
          [
            -103.35195,
            20.54717
          ],
          [
            -103.35195,
            20.54717
          ],
          [
            -103.35169,
            20.54718
          ],
          [
            -103.35046000000001,
            20.54711
          ],
          [
            -103.3499,
            20.54708
          ],
          [
            -103.3499,
            20.54708
          ],
          [
            -103.34904,
            20.547040000000003
          ],
          [
            -103.34710000000001,
            20.546950000000002
          ],
          [
            -103.34682000000001,
            20.546940000000003
          ],
          [
            -103.34682000000001,
            20.546960000000002
          ],
          [
            -103.34659,
            20.546960000000002
          ],
          [
            -103.34529,
            20.54689
          ],
          [
            -103.34423000000001,
            20.54681
          ],
          [
            -103.34423000000001,
            20.5468
          ],
          [
            -103.34327,
            20.54672
          ],
          [
            -103.34246,
            20.54662
          ],
          [
            -103.34182000000001,
            20.5465
          ],
          [
            -103.3409,
            20.546570000000003
          ],
          [
            -103.34024000000001,
            20.54663
          ],
          [
            -103.34024000000001,
            20.54663
          ],
          [
            -103.34005,
            20.546650000000003
          ],
          [
            -103.33727,
            20.54688
          ],
          [
            -103.33727,
            20.546870000000002
          ],
          [
            -103.33535,
            20.547040000000003
          ],
          [
            -103.33358000000001,
            20.547210000000003
          ],
          [
            -103.33306,
            20.547240000000002
          ],
          [
            -103.33306,
            20.547240000000002
          ],
          [
            -103.33144000000001,
            20.54737
          ],
          [
            -103.33029,
            20.54747
          ],
          [
            -103.32985000000001,
            20.547520000000002
          ],
          [
            -103.32988,
            20.547610000000002
          ],
          [
            -103.32992000000002,
            20.54785
          ],
          [
            -103.32993,
            20.54785
          ],
          [
            -103.32993,
            20.54785
          ],
          [
            -103.33044000000001,
            20.54979
          ],
          [
            -103.33079000000001,
            20.55122
          ],
          [
            -103.33078,
            20.55122
          ],
          [
            -103.33120000000001,
            20.55291
          ],
          [
            -103.33126000000001,
            20.553160000000002
          ],
          [
            -103.33126000000001,
            20.553160000000002
          ],
          [
            -103.33186,
            20.555400000000002
          ],
          [
            -103.33186,
            20.555400000000002
          ],
          [
            -103.33186,
            20.555400000000002
          ],
          [
            -103.33211000000001,
            20.55645
          ],
          [
            -103.33218000000001,
            20.55703
          ],
          [
            -103.33219000000001,
            20.557270000000003
          ],
          [
            -103.33219000000001,
            20.557270000000003
          ],
          [
            -103.33224000000001,
            20.55824
          ],
          [
            -103.33251000000001,
            20.55826
          ],
          [
            -103.33251000000001,
            20.55826
          ],
          [
            -103.33472,
            20.558490000000003
          ],
          [
            -103.33472,
            20.558490000000003
          ],
          [
            -103.33716000000001,
            20.55873
          ],
          [
            -103.33716000000001,
            20.55873
          ],
          [
            -103.33789,
            20.55881
          ],
          [
            -103.34095,
            20.559060000000002
          ],
          [
            -103.34095,
            20.559060000000002
          ],
          [
            -103.34112,
            20.55908
          ],
          [
            -103.34074000000001,
            20.55994
          ],
          [
            -103.34052000000001,
            20.56051
          ],
          [
            -103.34052000000001,
            20.56051
          ],
          [
            -103.34048000000001,
            20.560630000000003
          ],
          [
            -103.34024000000001,
            20.561220000000002
          ],
          [
            -103.34015000000001,
            20.56156
          ],
          [
            -103.34013,
            20.56162
          ],
          [
            -103.34013,
            20.56162
          ],
          [
            -103.34011000000001,
            20.56172
          ],
          [
            -103.33986,
            20.562880000000003
          ],
          [
            -103.33986,
            20.562880000000003
          ],
          [
            -103.33983,
            20.56303
          ],
          [
            -103.34003000000001,
            20.56341
          ],
          [
            -103.34014,
            20.56352
          ],
          [
            -103.34026000000001,
            20.56361
          ],
          [
            -103.34049,
            20.56368
          ],
          [
            -103.3408,
            20.563730000000003
          ],
          [
            -103.34112,
            20.563740000000003
          ],
          [
            -103.34137000000001,
            20.563760000000002
          ],
          [
            -103.34137000000001,
            20.56377
          ],
          [
            -103.34206,
            20.563850000000002
          ],
          [
            -103.34503000000001,
            20.564140000000002
          ],
          [
            -103.34503000000001,
            20.564140000000002
          ],
          [
            -103.34715000000001,
            20.56435
          ],
          [
            -103.34711000000001,
            20.56445
          ],
          [
            -103.34711000000001,
            20.56445
          ],
          [
            -103.34709000000001,
            20.56452
          ],
          [
            -103.34626000000002,
            20.56577
          ],
          [
            -103.34621000000001,
            20.565920000000002
          ],
          [
            -103.34620000000001,
            20.566010000000002
          ],
          [
            -103.34620000000001,
            20.566010000000002
          ],
          [
            -103.34615000000001,
            20.56653
          ],
          [
            -103.34602000000001,
            20.56764
          ],
          [
            -103.34588000000001,
            20.56922
          ],
          [
            -103.34587,
            20.56942
          ],
          [
            -103.34590000000001,
            20.569650000000003
          ],
          [
            -103.346,
            20.5701
          ],
          [
            -103.34601,
            20.57034
          ],
          [
            -103.34601,
            20.57034
          ],
          [
            -103.34612000000001,
            20.57186
          ],
          [
            -103.34612000000001,
            20.57186
          ],
          [
            -103.34617000000001,
            20.572470000000003
          ],
          [
            -103.34619,
            20.57261
          ],
          [
            -103.34637000000001,
            20.57318
          ],
          [
            -103.34643000000001,
            20.573420000000002
          ],
          [
            -103.34643000000001,
            20.573420000000002
          ],
          [
            -103.34700000000001,
            20.575650000000003
          ],
          [
            -103.34726,
            20.57561
          ],
          [
            -103.34726,
            20.57561
          ],
          [
            -103.3485,
            20.57542
          ],
          [
            -103.34870000000001,
            20.575590000000002
          ],
          [
            -103.34870000000001,
            20.575590000000002
          ],
          [
            -103.34876000000001,
            20.575650000000003
          ],
          [
            -103.34887,
            20.575770000000002
          ],
          [
            -103.3486,
            20.5758
          ],
          [
            -103.34809000000001,
            20.5759
          ],
          [
            -103.34775,
            20.57598
          ],
          [
            -103.34751000000001,
            20.576060000000002
          ],
          [
            -103.34715000000001,
            20.57625
          ],
          [
            -103.34689,
            20.576400000000003
          ],
          [
            -103.34648000000001,
            20.57672
          ],
          [
            -103.34633000000001,
            20.57686
          ],
          [
            -103.34623,
            20.576980000000002
          ],
          [
            -103.34620000000001,
            20.57704
          ],
          [
            -103.34555,
            20.57741
          ],
          [
            -103.34258000000001,
            20.57901
          ],
          [
            -103.34257000000001,
            20.57901
          ],
          [
            -103.34257000000001,
            20.57901
          ],
          [
            -103.33603000000001,
            20.582590000000003
          ],
          [
            -103.33557,
            20.582690000000003
          ],
          [
            -103.33459,
            20.5832
          ],
          [
            -103.33288,
            20.584110000000003
          ],
          [
            -103.33288,
            20.584110000000003
          ],
          [
            -103.33288,
            20.584120000000002
          ],
          [
            -103.33288,
            20.584120000000002
          ],
          [
            -103.33226,
            20.58446
          ],
          [
            -103.32904,
            20.58622
          ],
          [
            -103.3289,
            20.58633
          ],
          [
            -103.32887000000001,
            20.58639
          ],
          [
            -103.32884000000001,
            20.5865
          ],
          [
            -103.3267,
            20.587660000000003
          ],
          [
            -103.3267,
            20.587660000000003
          ],
          [
            -103.32669000000001,
            20.587660000000003
          ],
          [
            -103.32669000000001,
            20.587660000000003
          ],
          [
            -103.32454000000001,
            20.58884
          ],
          [
            -103.32384,
            20.58921
          ],
          [
            -103.32289000000002,
            20.589730000000003
          ],
          [
            -103.32282000000001,
            20.58977
          ],
          [
            -103.32282000000001,
            20.58977
          ],
          [
            -103.32263,
            20.58989
          ],
          [
            -103.32128,
            20.590760000000003
          ],
          [
            -103.32104000000001,
            20.590860000000003
          ],
          [
            -103.32091000000001,
            20.5909
          ],
          [
            -103.3208,
            20.59089
          ],
          [
            -103.3207,
            20.590870000000002
          ],
          [
            -103.32057,
            20.5908
          ],
          [
            -103.32048,
            20.59072
          ],
          [
            -103.32044,
            20.590670000000003
          ],
          [
            -103.32039,
            20.59056
          ],
          [
            -103.32037000000001,
            20.59046
          ],
          [
            -103.32039,
            20.59035
          ],
          [
            -103.32043,
            20.59024
          ],
          [
            -103.32051000000001,
            20.59014
          ],
          [
            -103.32060000000001,
            20.59007
          ],
          [
            -103.32072000000001,
            20.590020000000003
          ],
          [
            -103.32085000000001,
            20.590000000000003
          ],
          [
            -103.32098,
            20.590020000000003
          ],
          [
            -103.32112000000001,
            20.59008
          ],
          [
            -103.32130000000001,
            20.590200000000003
          ],
          [
            -103.32157000000001,
            20.59074
          ],
          [
            -103.32227,
            20.59221
          ],
          [
            -103.32227,
            20.59221
          ],
          [
            -103.32227,
            20.59221
          ],
          [
            -103.32263,
            20.59299
          ],
          [
            -103.3241,
            20.596130000000002
          ],
          [
            -103.32437,
            20.596790000000002
          ],
          [
            -103.32441000000001,
            20.59692
          ],
          [
            -103.32445000000001,
            20.59713
          ],
          [
            -103.32446,
            20.597350000000002
          ],
          [
            -103.32443,
            20.59805
          ],
          [
            -103.32440000000001,
            20.598270000000003
          ],
          [
            -103.32434,
            20.598480000000002
          ],
          [
            -103.32434,
            20.598480000000002
          ],
          [
            -103.32427000000001,
            20.598740000000003
          ],
          [
            -103.3241,
            20.59908
          ],
          [
            -103.32393,
            20.59937
          ],
          [
            -103.32371,
            20.599690000000002
          ],
          [
            -103.32308,
            20.60049
          ],
          [
            -103.32291000000001,
            20.600730000000002
          ],
          [
            -103.32264,
            20.60103
          ],
          [
            -103.32218,
            20.60144
          ],
          [
            -103.32184000000001,
            20.60172
          ],
          [
            -103.32129,
            20.60208
          ],
          [
            -103.32020000000001,
            20.60265
          ],
          [
            -103.32006000000001,
            20.60272
          ],
          [
            -103.32006000000001,
            20.60272
          ],
          [
            -103.31800000000001,
            20.603830000000002
          ],
          [
            -103.31711000000001,
            20.604300000000002
          ],
          [
            -103.31666000000001,
            20.60462
          ],
          [
            -103.31636,
            20.604930000000003
          ],
          [
            -103.31614,
            20.605210000000003
          ],
          [
            -103.31594000000001,
            20.605500000000003
          ],
          [
            -103.31578,
            20.605770000000003
          ],
          [
            -103.31578,
            20.605770000000003
          ],
          [
            -103.31578,
            20.605790000000002
          ],
          [
            -103.31568000000001,
            20.606070000000003
          ],
          [
            -103.31558000000001,
            20.60639
          ],
          [
            -103.31551,
            20.60685
          ],
          [
            -103.31540000000001,
            20.607860000000002
          ],
          [
            -103.31536000000001,
            20.608700000000002
          ],
          [
            -103.31544000000001,
            20.609250000000003
          ],
          [
            -103.31558000000001,
            20.609740000000002
          ],
          [
            -103.31577000000001,
            20.61016
          ],
          [
            -103.31592,
            20.61044
          ],
          [
            -103.31621000000001,
            20.610850000000003
          ],
          [
            -103.31678000000001,
            20.61146
          ],
          [
            -103.31955,
            20.61426
          ],
          [
            -103.32013,
            20.614890000000003
          ],
          [
            -103.3208,
            20.615540000000003
          ],
          [
            -103.32115,
            20.615930000000002
          ],
          [
            -103.32145000000001,
            20.616410000000002
          ],
          [
            -103.32167000000001,
            20.616970000000002
          ],
          [
            -103.32174,
            20.617320000000003
          ],
          [
            -103.32175000000001,
            20.617720000000002
          ],
          [
            -103.32159000000001,
            20.619510000000002
          ],
          [
            -103.32159000000001,
            20.619510000000002
          ],
          [
            -103.32156,
            20.61989
          ],
          [
            -103.32138,
            20.620970000000003
          ],
          [
            -103.32138,
            20.621180000000003
          ],
          [
            -103.32135000000001,
            20.62141
          ],
          [
            -103.32105000000001,
            20.624080000000003
          ],
          [
            -103.32099000000001,
            20.62453
          ],
          [
            -103.32086000000001,
            20.625420000000002
          ],
          [
            -103.32081000000001,
            20.62594
          ],
          [
            -103.32073000000001,
            20.626130000000003
          ],
          [
            -103.32074000000001,
            20.62638
          ],
          [
            -103.32078000000001,
            20.62658
          ],
          [
            -103.32090000000001,
            20.626910000000002
          ],
          [
            -103.32101000000002,
            20.62712
          ],
          [
            -103.32111,
            20.627280000000003
          ],
          [
            -103.32111,
            20.627280000000003
          ],
          [
            -103.32117000000001,
            20.627380000000002
          ],
          [
            -103.32226000000001,
            20.629080000000002
          ],
          [
            -103.32226000000001,
            20.629080000000002
          ],
          [
            -103.32230000000001,
            20.629140000000003
          ],
          [
            -103.32294,
            20.630090000000003
          ],
          [
            -103.32305000000001,
            20.630270000000003
          ],
          [
            -103.32305000000001,
            20.630270000000003
          ],
          [
            -103.32454000000001,
            20.63258
          ],
          [
            -103.32474,
            20.63295
          ],
          [
            -103.32474,
            20.63295
          ],
          [
            -103.32474,
            20.63295
          ],
          [
            -103.32628000000001,
            20.63537
          ],
          [
            -103.32628000000001,
            20.63537
          ],
          [
            -103.32679,
            20.636180000000003
          ],
          [
            -103.32759000000001,
            20.637430000000002
          ],
          [
            -103.32759000000001,
            20.637430000000002
          ],
          [
            -103.32827,
            20.63848
          ],
          [
            -103.32827,
            20.63848
          ],
          [
            -103.32867,
            20.639100000000003
          ],
          [
            -103.32928000000001,
            20.640040000000003
          ],
          [
            -103.32928000000001,
            20.640040000000003
          ],
          [
            -103.32929000000001,
            20.640050000000002
          ],
          [
            -103.33002,
            20.64119
          ],
          [
            -103.33002,
            20.64119
          ],
          [
            -103.33076000000001,
            20.64235
          ],
          [
            -103.33087,
            20.64252
          ],
          [
            -103.33086000000002,
            20.64253
          ],
          [
            -103.33158,
            20.64366
          ],
          [
            -103.33158,
            20.64366
          ],
          [
            -103.3324,
            20.644930000000002
          ],
          [
            -103.3324,
            20.644940000000002
          ],
          [
            -103.33311,
            20.646040000000003
          ],
          [
            -103.33311,
            20.646040000000003
          ],
          [
            -103.33328,
            20.646310000000003
          ],
          [
            -103.33391,
            20.64731
          ],
          [
            -103.33391,
            20.64731
          ],
          [
            -103.33412000000001,
            20.647640000000003
          ],
          [
            -103.33470000000001,
            20.64853
          ],
          [
            -103.33472,
            20.648570000000003
          ],
          [
            -103.33472,
            20.648570000000003
          ],
          [
            -103.33503,
            20.64908
          ],
          [
            -103.33563000000001,
            20.649990000000003
          ],
          [
            -103.33563000000001,
            20.649990000000003
          ],
          [
            -103.33601,
            20.650570000000002
          ],
          [
            -103.33654000000001,
            20.651400000000002
          ],
          [
            -103.33654000000001,
            20.651400000000002
          ],
          [
            -103.33686,
            20.6519
          ],
          [
            -103.33699000000001,
            20.652030000000003
          ],
          [
            -103.33834,
            20.653180000000003
          ],
          [
            -103.33855000000001,
            20.653350000000003
          ],
          [
            -103.33855000000001,
            20.653350000000003
          ],
          [
            -103.33947,
            20.654100000000003
          ],
          [
            -103.34035000000002,
            20.654850000000003
          ],
          [
            -103.34045,
            20.65493
          ],
          [
            -103.34045,
            20.65493
          ],
          [
            -103.34145000000001,
            20.65576
          ],
          [
            -103.34145000000001,
            20.65576
          ],
          [
            -103.34252000000001,
            20.65662
          ],
          [
            -103.34252000000001,
            20.65662
          ],
          [
            -103.34252000000001,
            20.65662
          ],
          [
            -103.34263000000001,
            20.65671
          ],
          [
            -103.34262000000001,
            20.65671
          ],
          [
            -103.34263000000001,
            20.65672
          ],
          [
            -103.34335000000002,
            20.657320000000002
          ],
          [
            -103.34335000000002,
            20.65733
          ],
          [
            -103.34423000000001,
            20.658060000000003
          ],
          [
            -103.34423000000001,
            20.658060000000003
          ],
          [
            -103.34521000000001,
            20.658880000000003
          ],
          [
            -103.34537,
            20.659010000000002
          ],
          [
            -103.34537,
            20.659010000000002
          ],
          [
            -103.34575000000001,
            20.65932
          ],
          [
            -103.34635000000002,
            20.659920000000003
          ],
          [
            -103.34722000000001,
            20.6609
          ],
          [
            -103.34830000000001,
            20.66216
          ],
          [
            -103.34830000000001,
            20.66216
          ],
          [
            -103.34831000000001,
            20.662170000000003
          ],
          [
            -103.34862000000001,
            20.662480000000002
          ],
          [
            -103.34881000000001,
            20.662560000000003
          ],
          [
            -103.34909,
            20.662560000000003
          ],
          [
            -103.34971,
            20.66262
          ],
          [
            -103.34973000000001,
            20.66281
          ],
          [
            -103.34952000000001,
            20.66335
          ],
          [
            -103.34942000000001,
            20.66362
          ],
          [
            -103.34943000000001,
            20.66362
          ],
          [
            -103.34915000000001,
            20.664450000000002
          ],
          [
            -103.34915000000001,
            20.664450000000002
          ],
          [
            -103.34866000000001,
            20.6659
          ],
          [
            -103.34867000000001,
            20.6659
          ],
          [
            -103.34867000000001,
            20.66591
          ],
          [
            -103.34802,
            20.66779
          ],
          [
            -103.34797,
            20.667890000000003
          ],
          [
            -103.34797,
            20.667890000000003
          ],
          [
            -103.34787000000001,
            20.668180000000003
          ],
          [
            -103.34752,
            20.669220000000003
          ],
          [
            -103.34736000000001,
            20.66972
          ],
          [
            -103.34736000000001,
            20.66972
          ],
          [
            -103.34728000000001,
            20.669970000000003
          ],
          [
            -103.34723000000001,
            20.670560000000002
          ],
          [
            -103.34722000000001,
            20.671270000000003
          ],
          [
            -103.34722000000001,
            20.671750000000003
          ],
          [
            -103.34746000000001,
            20.671860000000002
          ],
          [
            -103.34746000000001,
            20.67042
          ]
        ]
      }
    }
  ]
}