{
  "type": "FeatureCollection",
  "features": [
    {
      "type": "Feature",
      "properties": {
        "identifier": "175-a?o=2",
        "name": "Ruta 175 A"
      },
      "geometry": {
        "type": "LineString",
        "coordinates": [
          [
            -103.44955,
            20.47755
          ],
          [
            -103.44976000000001,
            20.47659
          ],
          [
            -103.44950000000001,
            20.476550000000003
          ],
          [
            -103.44836000000001,
            20.476390000000002
          ],
          [
            -103.44744000000001,
            20.476270000000003
          ],
          [
            -103.44720000000001,
            20.47623
          ],
          [
            -103.44608000000001,
            20.47606
          ],
          [
            -103.44496000000001,
            20.47588
          ],
          [
            -103.44382,
            20.475710000000003
          ],
          [
            -103.44309000000001,
            20.4756
          ],
          [
            -103.44257,
            20.47682
          ],
          [
            -103.44066000000001,
            20.476750000000003
          ],
          [
            -103.43687000000001,
            20.47837
          ],
          [
            -103.43633000000001,
            20.4786
          ],
          [
            -103.43268,
            20.48045
          ],
          [
            -103.43165,
            20.48157
          ],
          [
            -103.43156,
            20.48206
          ],
          [
            -103.43212000000001,
            20.482380000000003
          ],
          [
            -103.43216000000001,
            20.482660000000003
          ],
          [
            -103.43137000000002,
            20.482830000000003
          ],
          [
            -103.43122000000001,
            20.482850000000003
          ],
          [
            -103.42985,
            20.483700000000002
          ],
          [
            -103.42744,
            20.48555
          ],
          [
            -103.42658000000002,
            20.486680000000003
          ],
          [
            -103.42477000000001,
            20.48731
          ],
          [
            -103.42465000000001,
            20.487360000000002
          ],
          [
            -103.42135,
            20.488290000000003
          ],
          [
            -103.42027,
            20.48899
          ],
          [
            -103.41895000000001,
            20.48985
          ],
          [
            -103.41789000000001,
            20.491660000000003
          ],
          [
            -103.41783000000001,
            20.492990000000002
          ],
          [
            -103.41729000000001,
            20.493250000000003
          ],
          [
            -103.41384000000001,
            20.492990000000002
          ],
          [
            -103.41351,
            20.492990000000002
          ],
          [
            -103.41114,
            20.49303
          ],
          [
            -103.40944,
            20.49324
          ],
          [
            -103.40843000000001,
            20.493360000000003
          ],
          [
            -103.40743,
            20.493350000000003
          ],
          [
            -103.40743,
            20.49341
          ],
          [
            -103.40553000000001,
            20.493370000000002
          ],
          [
            -103.40553000000001,
            20.49333
          ],
          [
            -103.40474,
            20.49333
          ],
          [
            -103.40461,
            20.493530000000003
          ],
          [
            -103.40847000000001,
            20.493630000000003
          ],
          [
            -103.41109,
            20.49323
          ],
          [
            -103.41639,
            20.49339
          ],
          [
            -103.41640000000001,
            20.49324
          ],
          [
            -103.41684000000001,
            20.493280000000002
          ],
          [
            -103.41733,
            20.493360000000003
          ],
          [
            -103.41758000000002,
            20.493450000000003
          ],
          [
            -103.41794,
            20.49367
          ],
          [
            -103.41814000000001,
            20.493830000000003
          ],
          [
            -103.41842000000001,
            20.49462
          ],
          [
            -103.41839,
            20.49492
          ],
          [
            -103.41731000000001,
            20.49714
          ],
          [
            -103.41667000000001,
            20.49819
          ],
          [
            -103.41574000000001,
            20.49968
          ],
          [
            -103.41568000000001,
            20.499650000000003
          ],
          [
            -103.41550000000001,
            20.49996
          ],
          [
            -103.41536,
            20.500220000000002
          ],
          [
            -103.41526,
            20.500590000000003
          ],
          [
            -103.41524000000001,
            20.500770000000003
          ],
          [
            -103.41527,
            20.500880000000002
          ],
          [
            -103.41528000000001,
            20.50094
          ],
          [
            -103.41518,
            20.501340000000003
          ],
          [
            -103.41517,
            20.5014
          ],
          [
            -103.41517,
            20.5014
          ],
          [
            -103.41518,
            20.5014
          ],
          [
            -103.41392,
            20.50654
          ],
          [
            -103.41380000000001,
            20.50702
          ],
          [
            -103.41298,
            20.50985
          ],
          [
            -103.41139000000001,
            20.51526
          ],
          [
            -103.41176000000002,
            20.51547
          ],
          [
            -103.41525000000001,
            20.51752
          ],
          [
            -103.41543000000001,
            20.51763
          ],
          [
            -103.41624,
            20.51808
          ],
          [
            -103.41974,
            20.52008
          ],
          [
            -103.42132000000001,
            20.520970000000002
          ],
          [
            -103.42221,
            20.52149
          ],
          [
            -103.42311000000001,
            20.522250000000003
          ],
          [
            -103.42375000000001,
            20.523490000000002
          ],
          [
            -103.42452000000002,
            20.52551
          ],
          [
            -103.42463000000001,
            20.52618
          ],
          [
            -103.4247,
            20.52663
          ],
          [
            -103.42392000000001,
            20.528720000000003
          ],
          [
            -103.42409,
            20.52982
          ],
          [
            -103.42414000000001,
            20.530160000000002
          ],
          [
            -103.4247,
            20.53162
          ],
          [
            -103.42462,
            20.531910000000003
          ],
          [
            -103.42459000000001,
            20.5319
          ],
          [
            -103.42405000000001,
            20.53367
          ],
          [
            -103.42399,
            20.53388
          ],
          [
            -103.42370000000001,
            20.534750000000003
          ],
          [
            -103.42318,
            20.53632
          ],
          [
            -103.42289000000001,
            20.537190000000002
          ],
          [
            -103.42281000000001,
            20.537450000000003
          ],
          [
            -103.42216,
            20.53937
          ],
          [
            -103.42214000000001,
            20.539440000000003
          ],
          [
            -103.42083000000001,
            20.54295
          ],
          [
            -103.42073,
            20.54636
          ],
          [
            -103.42066000000001,
            20.548540000000003
          ],
          [
            -103.41912,
            20.55243
          ],
          [
            -103.41898,
            20.552860000000003
          ],
          [
            -103.41701,
            20.558580000000003
          ],
          [
            -103.41697,
            20.5587
          ],
          [
            -103.41607,
            20.561110000000003
          ],
          [
            -103.41302,
            20.56405
          ],
          [
            -103.41276,
            20.56426
          ],
          [
            -103.40817000000001,
            20.567970000000003
          ],
          [
            -103.40530000000001,
            20.573770000000003
          ],
          [
            -103.40526000000001,
            20.573880000000003
          ],
          [
            -103.40396000000001,
            20.577240000000003
          ],
          [
            -103.40302000000001,
            20.57964
          ],
          [
            -103.40288000000001,
            20.58004
          ],
          [
            -103.40131000000001,
            20.58434
          ],
          [
            -103.40088000000002,
            20.585790000000003
          ],
          [
            -103.40090000000001,
            20.585800000000003
          ],
          [
            -103.40019000000001,
            20.58772
          ],
          [
            -103.39972,
            20.58902
          ],
          [
            -103.39920000000001,
            20.59044
          ],
          [
            -103.39920000000001,
            20.59502
          ],
          [
            -103.40019000000001,
            20.59739
          ],
          [
            -103.40006000000001,
            20.599680000000003
          ],
          [
            -103.40065000000001,
            20.60009
          ],
          [
            -103.40071,
            20.59981
          ],
          [
            -103.40200000000002,
            20.60013
          ],
          [
            -103.40141000000001,
            20.600610000000003
          ],
          [
            -103.40163000000001,
            20.60085
          ],
          [
            -103.40366,
            20.601670000000002
          ],
          [
            -103.40353,
            20.602670000000003
          ],
          [
            -103.40265000000001,
            20.60356
          ],
          [
            -103.40062,
            20.60545
          ],
          [
            -103.40043000000001,
            20.605620000000002
          ],
          [
            -103.39961000000001,
            20.604830000000003
          ],
          [
            -103.39972,
            20.60473
          ],
          [
            -103.39971000000001,
            20.60473
          ],
          [
            -103.3986,
            20.60377
          ],
          [
            -103.39833,
            20.60347
          ],
          [
            -103.39797000000002,
            20.60313
          ],
          [
            -103.39797000000002,
            20.60312
          ],
          [
            -103.39800000000001,
            20.6031
          ],
          [
            -103.39687,
            20.602140000000002
          ],
          [
            -103.3953,
            20.600800000000003
          ],
          [
            -103.39493,
            20.60105
          ],
          [
            -103.39508000000001,
            20.601170000000003
          ],
          [
            -103.39602000000001,
            20.60201
          ],
          [
            -103.39720000000001,
            20.603050000000003
          ],
          [
            -103.39750000000001,
            20.603260000000002
          ],
          [
            -103.39947000000001,
            20.605
          ],
          [
            -103.39998000000001,
            20.60546
          ],
          [
            -103.40016000000001,
            20.6079
          ],
          [
            -103.39972,
            20.60846
          ],
          [
            -103.39828000000001,
            20.61026
          ],
          [
            -103.39674000000001,
            20.61221
          ],
          [
            -103.39593,
            20.613220000000002
          ],
          [
            -103.39595000000001,
            20.61324
          ],
          [
            -103.39590000000001,
            20.613300000000002
          ],
          [
            -103.39456000000001,
            20.61495
          ],
          [
            -103.39251,
            20.61748
          ],
          [
            -103.39129000000001,
            20.619040000000002
          ],
          [
            -103.39015,
            20.62049
          ],
          [
            -103.38968000000001,
            20.621070000000003
          ],
          [
            -103.38964000000001,
            20.62104
          ],
          [
            -103.38869000000001,
            20.622210000000003
          ],
          [
            -103.38715,
            20.62406
          ],
          [
            -103.38560000000001,
            20.62591
          ],
          [
            -103.38496,
            20.626800000000003
          ],
          [
            -103.38461000000001,
            20.6273
          ],
          [
            -103.38405,
            20.62809
          ],
          [
            -103.38366,
            20.62865
          ],
          [
            -103.38350000000001,
            20.628860000000003
          ],
          [
            -103.38343,
            20.62882
          ],
          [
            -103.38244,
            20.63006
          ],
          [
            -103.38219000000001,
            20.630370000000003
          ],
          [
            -103.38112000000001,
            20.63194
          ],
          [
            -103.38087,
            20.63228
          ],
          [
            -103.38047,
            20.632810000000003
          ],
          [
            -103.37907000000001,
            20.63241
          ],
          [
            -103.37883000000001,
            20.632350000000002
          ],
          [
            -103.37746000000001,
            20.63211
          ],
          [
            -103.37747,
            20.63204
          ],
          [
            -103.37593000000001,
            20.631780000000003
          ],
          [
            -103.37592000000001,
            20.63184
          ],
          [
            -103.37489000000001,
            20.631670000000003
          ],
          [
            -103.37423000000001,
            20.63157
          ],
          [
            -103.37382000000001,
            20.631500000000003
          ],
          [
            -103.37273,
            20.631330000000002
          ],
          [
            -103.37173000000001,
            20.63117
          ],
          [
            -103.37075000000002,
            20.631010000000003
          ],
          [
            -103.36978,
            20.630860000000002
          ],
          [
            -103.36980000000001,
            20.630760000000002
          ],
          [
            -103.36876000000001,
            20.630570000000002
          ],
          [
            -103.36875,
            20.630660000000002
          ],
          [
            -103.36839,
            20.63061
          ],
          [
            -103.36762,
            20.632440000000003
          ],
          [
            -103.36678,
            20.634420000000002
          ],
          [
            -103.36673,
            20.634410000000003
          ],
          [
            -103.36648000000001,
            20.635
          ],
          [
            -103.36482000000001,
            20.63888
          ],
          [
            -103.36472,
            20.639120000000002
          ],
          [
            -103.36366000000001,
            20.64161
          ],
          [
            -103.36357000000001,
            20.641840000000002
          ],
          [
            -103.36250000000001,
            20.644340000000003
          ],
          [
            -103.36241000000001,
            20.644560000000002
          ],
          [
            -103.36144,
            20.646780000000003
          ],
          [
            -103.36125000000001,
            20.64721
          ],
          [
            -103.36077,
            20.648280000000003
          ],
          [
            -103.36068,
            20.648500000000002
          ],
          [
            -103.36054000000001,
            20.64881
          ],
          [
            -103.3605,
            20.64893
          ],
          [
            -103.36031000000001,
            20.64936
          ],
          [
            -103.36022000000001,
            20.649590000000003
          ],
          [
            -103.36005000000002,
            20.649970000000003
          ],
          [
            -103.35992,
            20.650270000000003
          ],
          [
            -103.35981000000001,
            20.650530000000003
          ],
          [
            -103.35952,
            20.65123
          ],
          [
            -103.35943,
            20.65145
          ],
          [
            -103.35914000000001,
            20.652130000000003
          ],
          [
            -103.35876,
            20.65303
          ],
          [
            -103.35822,
            20.654320000000002
          ],
          [
            -103.35808000000002,
            20.65464
          ],
          [
            -103.35784000000001,
            20.6552
          ],
          [
            -103.35764,
            20.65568
          ],
          [
            -103.35745000000001,
            20.65613
          ],
          [
            -103.35709000000001,
            20.657
          ],
          [
            -103.35697,
            20.657110000000003
          ],
          [
            -103.35643,
            20.658340000000003
          ],
          [
            -103.35642000000001,
            20.658350000000002
          ],
          [
            -103.35613000000001,
            20.65895
          ],
          [
            -103.35602000000002,
            20.65922
          ],
          [
            -103.3559,
            20.65949
          ],
          [
            -103.3558,
            20.65971
          ],
          [
            -103.35558,
            20.66028
          ],
          [
            -103.3555,
            20.66052
          ],
          [
            -103.35535,
            20.660960000000003
          ],
          [
            -103.35537000000001,
            20.6611
          ],
          [
            -103.35525000000001,
            20.661340000000003
          ],
          [
            -103.35508000000002,
            20.66146
          ],
          [
            -103.35458000000001,
            20.66156
          ],
          [
            -103.35452000000001,
            20.661610000000003
          ],
          [
            -103.35455,
            20.661640000000002
          ],
          [
            -103.35391000000001,
            20.662190000000002
          ],
          [
            -103.35220000000001,
            20.66447
          ],
          [
            -103.35219000000001,
            20.66448
          ],
          [
            -103.35191,
            20.66505
          ],
          [
            -103.35109000000001,
            20.666690000000003
          ],
          [
            -103.35105000000001,
            20.666770000000003
          ],
          [
            -103.35025,
            20.66823
          ],
          [
            -103.35020000000002,
            20.66822
          ],
          [
            -103.34987000000001,
            20.66873
          ],
          [
            -103.34984000000001,
            20.66897
          ],
          [
            -103.35035,
            20.66906
          ],
          [
            -103.35139000000001,
            20.66926
          ],
          [
            -103.35175000000001,
            20.669320000000003
          ],
          [
            -103.35171000000001,
            20.67051
          ],
          [
            -103.35166000000001,
            20.67051
          ],
          [
            -103.35163000000001,
            20.671190000000003
          ],
          [
            -103.35156,
            20.67236
          ],
          [
            -103.3515,
            20.673450000000003
          ],
          [
            -103.35182,
            20.67348
          ],
          [
            -103.35182,
            20.672040000000003
          ]
        ]
      }
    }
  ]
}