{
  "type": "FeatureCollection",
  "features": [
    {
      "type": "Feature",
      "properties": {
        "identifier": "175-gavilanes",
        "name": "Ruta 175 VSS"
      },
      "geometry": {
        "type": "LineString",
        "coordinates": [
          [
            -103.40062,
            20.60581
          ],
          [
            -103.39865,
            20.60403
          ],
          [
            -103.3983,
            20.603420000000003
          ],
          [
            -103.39831000000001,
            20.60328
          ],
          [
            -103.39943000000001,
            20.602210000000003
          ],
          [
            -103.40098,
            20.600980000000003
          ],
          [
            -103.40172000000001,
            20.600450000000002
          ],
          [
            -103.40331,
            20.599230000000002
          ],
          [
            -103.40354,
            20.599
          ],
          [
            -103.40756,
            20.595950000000002
          ],
          [
            -103.40947000000001,
            20.59485
          ],
          [
            -103.40963,
            20.59483
          ],
          [
            -103.41068000000001,
            20.59418
          ],
          [
            -103.41074,
            20.594040000000003
          ],
          [
            -103.41156000000001,
            20.593570000000003
          ],
          [
            -103.41168,
            20.593590000000003
          ],
          [
            -103.41303,
            20.59249
          ],
          [
            -103.41373000000002,
            20.59195
          ],
          [
            -103.41442,
            20.59121
          ],
          [
            -103.41828000000001,
            20.588710000000003
          ],
          [
            -103.42159000000001,
            20.58623
          ],
          [
            -103.42526000000001,
            20.5834
          ],
          [
            -103.43011000000001,
            20.579220000000003
          ],
          [
            -103.43335,
            20.576490000000003
          ],
          [
            -103.43534000000001,
            20.57475
          ],
          [
            -103.43842000000001,
            20.5716
          ],
          [
            -103.4423,
            20.56773
          ],
          [
            -103.44641000000001,
            20.563390000000002
          ],
          [
            -103.45025000000001,
            20.559350000000002
          ],
          [
            -103.45319,
            20.556130000000003
          ],
          [
            -103.45428000000001,
            20.55516
          ],
          [
            -103.45434,
            20.55495
          ],
          [
            -103.45664000000001,
            20.551900000000003
          ],
          [
            -103.45441000000001,
            20.551280000000002
          ],
          [
            -103.44892000000002,
            20.549690000000002
          ],
          [
            -103.44283000000001,
            20.547960000000003
          ],
          [
            -103.44525,
            20.5426
          ],
          [
            -103.44611,
            20.54033
          ],
          [
            -103.44664,
            20.53819
          ],
          [
            -103.44599000000001,
            20.538020000000003
          ],
          [
            -103.44548,
            20.53791
          ],
          [
            -103.44524000000001,
            20.53819
          ],
          [
            -103.44511000000001,
            20.53818
          ],
          [
            -103.44303000000001,
            20.5377
          ],
          [
            -103.44213,
            20.537470000000003
          ],
          [
            -103.44199,
            20.537380000000002
          ],
          [
            -103.44219000000001,
            20.53619
          ],
          [
            -103.44209000000001,
            20.536050000000003
          ],
          [
            -103.43928000000001,
            20.535140000000002
          ],
          [
            -103.43725,
            20.534570000000002
          ],
          [
            -103.43703000000001,
            20.534580000000002
          ],
          [
            -103.43475000000001,
            20.534000000000002
          ],
          [
            -103.43437000000002,
            20.53386
          ],
          [
            -103.43402,
            20.533810000000003
          ],
          [
            -103.43373000000001,
            20.53403
          ],
          [
            -103.43303,
            20.53387
          ],
          [
            -103.43270000000001,
            20.53378
          ],
          [
            -103.43319000000001,
            20.53263
          ],
          [
            -103.43382000000001,
            20.53095
          ],
          [
            -103.4342,
            20.530130000000003
          ],
          [
            -103.43463000000001,
            20.52926
          ],
          [
            -103.43493000000001,
            20.5286
          ],
          [
            -103.43418000000001,
            20.528360000000003
          ],
          [
            -103.43436000000001,
            20.52775
          ],
          [
            -103.43473,
            20.526750000000003
          ],
          [
            -103.43483,
            20.52655
          ],
          [
            -103.43527,
            20.526010000000003
          ],
          [
            -103.43551000000001,
            20.525250000000003
          ],
          [
            -103.43369000000001,
            20.52475
          ],
          [
            -103.43376,
            20.524410000000003
          ],
          [
            -103.43485000000001,
            20.521140000000003
          ],
          [
            -103.43485000000001,
            20.5197
          ]
        ]
      }
    }
  ]
}