{
  "type": "FeatureCollection",
  "features": [
    {
      "type": "Feature",
      "properties": {
        "identifier": "176-a-via-chula-vista?o=2",
        "name": "Ruta 176 A Vía Chula Vista"
      },
      "geometry": {
        "type": "LineString",
        "coordinates": [
          [
            -103.34626000000002,
            20.670350000000003
          ],
          [
            -103.34619,
            20.669150000000002
          ],
          [
            -103.34642000000001,
            20.66862
          ],
          [
            -103.34651000000001,
            20.668390000000002
          ],
          [
            -103.34651000000001,
            20.668390000000002
          ],
          [
            -103.34652000000001,
            20.668390000000002
          ],
          [
            -103.34652000000001,
            20.668390000000002
          ],
          [
            -103.3468,
            20.667710000000003
          ],
          [
            -103.34621000000001,
            20.667450000000002
          ],
          [
            -103.3461,
            20.66728
          ],
          [
            -103.34605,
            20.66722
          ],
          [
            -103.34603000000001,
            20.666870000000003
          ],
          [
            -103.34603000000001,
            20.666870000000003
          ],
          [
            -103.34594000000001,
            20.665210000000002
          ],
          [
            -103.34594000000001,
            20.665210000000002
          ],
          [
            -103.34592,
            20.664700000000003
          ],
          [
            -103.34585000000001,
            20.66381
          ],
          [
            -103.34585000000001,
            20.66381
          ],
          [
            -103.34583,
            20.66344
          ],
          [
            -103.34580000000001,
            20.662930000000003
          ],
          [
            -103.34580000000001,
            20.662930000000003
          ],
          [
            -103.34579000000001,
            20.66268
          ],
          [
            -103.34571000000001,
            20.66101
          ],
          [
            -103.34571000000001,
            20.66101
          ],
          [
            -103.34571000000001,
            20.66101
          ],
          [
            -103.34571000000001,
            20.66101
          ],
          [
            -103.34563000000001,
            20.65921
          ],
          [
            -103.3456,
            20.658990000000003
          ],
          [
            -103.34568,
            20.659070000000003
          ],
          [
            -103.34566000000001,
            20.65771
          ],
          [
            -103.34566000000001,
            20.65771
          ],
          [
            -103.34565,
            20.657590000000003
          ],
          [
            -103.34565,
            20.657590000000003
          ],
          [
            -103.34562000000001,
            20.65688
          ],
          [
            -103.3456,
            20.65658
          ],
          [
            -103.34555,
            20.656360000000003
          ],
          [
            -103.34550000000002,
            20.65622
          ],
          [
            -103.34535000000001,
            20.65594
          ],
          [
            -103.34511,
            20.655530000000002
          ],
          [
            -103.34496000000001,
            20.6553
          ],
          [
            -103.34495000000001,
            20.6553
          ],
          [
            -103.34405000000001,
            20.653950000000002
          ],
          [
            -103.34324000000001,
            20.65268
          ],
          [
            -103.34325000000001,
            20.65268
          ],
          [
            -103.34325000000001,
            20.65268
          ],
          [
            -103.34325000000001,
            20.65268
          ],
          [
            -103.34266000000001,
            20.651750000000003
          ],
          [
            -103.34266000000001,
            20.651750000000003
          ],
          [
            -103.34266000000001,
            20.651750000000003
          ],
          [
            -103.34266000000001,
            20.651750000000003
          ],
          [
            -103.34182000000001,
            20.65043
          ],
          [
            -103.34182000000001,
            20.65043
          ],
          [
            -103.34081,
            20.64883
          ],
          [
            -103.34081,
            20.64883
          ],
          [
            -103.34081,
            20.64883
          ],
          [
            -103.34081,
            20.64883
          ],
          [
            -103.34054,
            20.648400000000002
          ],
          [
            -103.33969,
            20.64703
          ],
          [
            -103.33898,
            20.64592
          ],
          [
            -103.33898,
            20.64592
          ],
          [
            -103.33897,
            20.64591
          ],
          [
            -103.33897,
            20.64591
          ],
          [
            -103.33828000000001,
            20.644810000000003
          ],
          [
            -103.3378,
            20.6441
          ],
          [
            -103.33765000000001,
            20.643810000000002
          ],
          [
            -103.33725000000001,
            20.6432
          ],
          [
            -103.33725000000001,
            20.6432
          ],
          [
            -103.33724000000001,
            20.64319
          ],
          [
            -103.33724000000001,
            20.64319
          ],
          [
            -103.3371,
            20.64298
          ],
          [
            -103.33698000000001,
            20.643030000000003
          ],
          [
            -103.33682,
            20.642780000000002
          ],
          [
            -103.33665,
            20.642560000000003
          ],
          [
            -103.33653000000001,
            20.64233
          ],
          [
            -103.33627000000001,
            20.642000000000003
          ],
          [
            -103.33554000000001,
            20.64113
          ],
          [
            -103.33536000000001,
            20.640980000000003
          ],
          [
            -103.33498,
            20.640710000000002
          ],
          [
            -103.33415000000001,
            20.640220000000003
          ],
          [
            -103.33384000000001,
            20.63992
          ],
          [
            -103.33366000000001,
            20.639670000000002
          ],
          [
            -103.33321000000001,
            20.63896
          ],
          [
            -103.33321000000001,
            20.63896
          ],
          [
            -103.33243,
            20.637700000000002
          ],
          [
            -103.33215000000001,
            20.63727
          ],
          [
            -103.33085000000001,
            20.63578
          ],
          [
            -103.33096,
            20.6357
          ],
          [
            -103.33085000000001,
            20.63557
          ],
          [
            -103.33085000000001,
            20.63557
          ],
          [
            -103.33085000000001,
            20.63557
          ],
          [
            -103.33085000000001,
            20.63557
          ],
          [
            -103.3297,
            20.63425
          ],
          [
            -103.3297,
            20.63425
          ],
          [
            -103.3297,
            20.63425
          ],
          [
            -103.3297,
            20.63425
          ],
          [
            -103.32886,
            20.633290000000002
          ],
          [
            -103.32886,
            20.633290000000002
          ],
          [
            -103.32886,
            20.633290000000002
          ],
          [
            -103.32886,
            20.633290000000002
          ],
          [
            -103.32886,
            20.633290000000002
          ],
          [
            -103.32693,
            20.6311
          ],
          [
            -103.32693,
            20.6311
          ],
          [
            -103.32692000000002,
            20.63109
          ],
          [
            -103.32692000000002,
            20.63109
          ],
          [
            -103.32608,
            20.63013
          ],
          [
            -103.32573000000001,
            20.629710000000003
          ],
          [
            -103.32553000000001,
            20.62939
          ],
          [
            -103.32507000000001,
            20.628480000000003
          ],
          [
            -103.32473,
            20.62788
          ],
          [
            -103.3246,
            20.627670000000002
          ],
          [
            -103.32448000000001,
            20.62752
          ],
          [
            -103.32425,
            20.6273
          ],
          [
            -103.32409000000001,
            20.627180000000003
          ],
          [
            -103.32398,
            20.627110000000002
          ],
          [
            -103.32375,
            20.62705
          ],
          [
            -103.32353,
            20.62703
          ],
          [
            -103.32333000000001,
            20.626910000000002
          ],
          [
            -103.32318000000001,
            20.626920000000002
          ],
          [
            -103.32302000000001,
            20.62695
          ],
          [
            -103.32274000000001,
            20.626920000000002
          ],
          [
            -103.32274000000001,
            20.626920000000002
          ],
          [
            -103.32273,
            20.626920000000002
          ],
          [
            -103.32273,
            20.626920000000002
          ],
          [
            -103.32248000000001,
            20.626900000000003
          ],
          [
            -103.32198000000001,
            20.626820000000002
          ],
          [
            -103.32180000000001,
            20.62674
          ],
          [
            -103.32165,
            20.626630000000002
          ],
          [
            -103.32158000000001,
            20.626440000000002
          ],
          [
            -103.32157000000001,
            20.62631
          ],
          [
            -103.32143,
            20.6262
          ],
          [
            -103.32111,
            20.62611
          ],
          [
            -103.32103000000001,
            20.62611
          ],
          [
            -103.32107,
            20.625600000000002
          ],
          [
            -103.32119,
            20.624730000000003
          ],
          [
            -103.32126000000001,
            20.623980000000003
          ],
          [
            -103.32149000000001,
            20.62198
          ],
          [
            -103.32158000000001,
            20.6215
          ],
          [
            -103.32162000000001,
            20.620880000000003
          ],
          [
            -103.32162000000001,
            20.620880000000003
          ],
          [
            -103.32176000000001,
            20.619200000000003
          ],
          [
            -103.32180000000001,
            20.61888
          ],
          [
            -103.32190000000001,
            20.61764
          ],
          [
            -103.32194000000001,
            20.61699
          ],
          [
            -103.32197000000001,
            20.6167
          ],
          [
            -103.32208000000001,
            20.61623
          ],
          [
            -103.32229000000001,
            20.615460000000002
          ],
          [
            -103.32259,
            20.61456
          ],
          [
            -103.32267,
            20.61436
          ],
          [
            -103.32293000000001,
            20.613840000000003
          ],
          [
            -103.32325,
            20.61327
          ],
          [
            -103.32356000000001,
            20.61276
          ],
          [
            -103.32356000000001,
            20.61276
          ],
          [
            -103.32359000000001,
            20.612730000000003
          ],
          [
            -103.32385000000001,
            20.612350000000003
          ],
          [
            -103.32419,
            20.611900000000002
          ],
          [
            -103.32458000000001,
            20.61145
          ],
          [
            -103.32747,
            20.608580000000003
          ],
          [
            -103.32811000000001,
            20.60792
          ],
          [
            -103.32811000000001,
            20.60792
          ],
          [
            -103.32813,
            20.60791
          ],
          [
            -103.32822,
            20.6078
          ],
          [
            -103.32847000000001,
            20.60745
          ],
          [
            -103.32865000000001,
            20.607110000000002
          ],
          [
            -103.32873000000001,
            20.60687
          ],
          [
            -103.32879000000001,
            20.60639
          ],
          [
            -103.32878000000001,
            20.605960000000003
          ],
          [
            -103.32870000000001,
            20.605490000000003
          ],
          [
            -103.32817000000001,
            20.60435
          ],
          [
            -103.32634,
            20.600550000000002
          ],
          [
            -103.32506000000001,
            20.59787
          ],
          [
            -103.32506000000001,
            20.59787
          ],
          [
            -103.32461,
            20.59694
          ],
          [
            -103.32461,
            20.59694
          ],
          [
            -103.32461,
            20.59693
          ],
          [
            -103.3246,
            20.59692
          ],
          [
            -103.3246,
            20.59692
          ],
          [
            -103.32295,
            20.59316
          ],
          [
            -103.32295,
            20.59316
          ],
          [
            -103.32295,
            20.59316
          ],
          [
            -103.32294,
            20.593140000000002
          ],
          [
            -103.32294,
            20.593140000000002
          ],
          [
            -103.32265000000001,
            20.59251
          ],
          [
            -103.32267,
            20.59233
          ],
          [
            -103.32268,
            20.591970000000003
          ],
          [
            -103.32272,
            20.591790000000003
          ],
          [
            -103.32313,
            20.590470000000003
          ],
          [
            -103.32327000000001,
            20.59008
          ],
          [
            -103.32338000000001,
            20.58986
          ],
          [
            -103.32350000000001,
            20.5897
          ],
          [
            -103.32392000000002,
            20.589290000000002
          ],
          [
            -103.3241,
            20.58921
          ],
          [
            -103.3241,
            20.58921
          ],
          [
            -103.3241,
            20.58921
          ],
          [
            -103.32416,
            20.589170000000003
          ],
          [
            -103.32416,
            20.589170000000003
          ],
          [
            -103.32643,
            20.58793
          ],
          [
            -103.32790000000001,
            20.58715
          ],
          [
            -103.32893000000001,
            20.58659
          ],
          [
            -103.32906000000001,
            20.5866
          ],
          [
            -103.32913,
            20.5866
          ],
          [
            -103.32919000000001,
            20.58659
          ],
          [
            -103.32988,
            20.58622
          ],
          [
            -103.32988,
            20.58622
          ],
          [
            -103.32989,
            20.58622
          ],
          [
            -103.32989,
            20.58622
          ],
          [
            -103.33176,
            20.585250000000002
          ],
          [
            -103.33176,
            20.585250000000002
          ],
          [
            -103.33176,
            20.585250000000002
          ],
          [
            -103.33185,
            20.58519
          ],
          [
            -103.33185,
            20.58519
          ],
          [
            -103.33409,
            20.58397
          ],
          [
            -103.33409,
            20.58397
          ],
          [
            -103.33409,
            20.58396
          ],
          [
            -103.33409,
            20.58396
          ],
          [
            -103.33516,
            20.583380000000002
          ],
          [
            -103.33533000000001,
            20.583280000000002
          ],
          [
            -103.33546000000001,
            20.583170000000003
          ],
          [
            -103.33563000000001,
            20.582990000000002
          ],
          [
            -103.3357,
            20.582900000000002
          ],
          [
            -103.33704,
            20.582160000000002
          ],
          [
            -103.33801000000001,
            20.58164
          ],
          [
            -103.34264,
            20.57911
          ],
          [
            -103.34264,
            20.57911
          ],
          [
            -103.34265,
            20.57911
          ],
          [
            -103.34265,
            20.57911
          ],
          [
            -103.34745000000001,
            20.576490000000003
          ],
          [
            -103.34756,
            20.576150000000002
          ],
          [
            -103.34762,
            20.57581
          ],
          [
            -103.3477,
            20.57553
          ],
          [
            -103.34767000000001,
            20.574990000000003
          ],
          [
            -103.34754000000001,
            20.57403
          ],
          [
            -103.34744,
            20.57222
          ],
          [
            -103.34718000000001,
            20.57206
          ],
          [
            -103.34702000000001,
            20.56895
          ],
          [
            -103.34702000000001,
            20.56668
          ],
          [
            -103.34702000000001,
            20.56668
          ],
          [
            -103.34702000000001,
            20.566670000000002
          ],
          [
            -103.34700000000001,
            20.566670000000002
          ],
          [
            -103.34683000000001,
            20.56634
          ],
          [
            -103.34673000000001,
            20.56499
          ],
          [
            -103.34674000000001,
            20.56444
          ],
          [
            -103.3464,
            20.56415
          ],
          [
            -103.3464,
            20.56285
          ],
          [
            -103.3464,
            20.56285
          ],
          [
            -103.3464,
            20.56284
          ],
          [
            -103.34629000000001,
            20.56284
          ],
          [
            -103.34620000000001,
            20.562420000000003
          ],
          [
            -103.34617000000001,
            20.562350000000002
          ],
          [
            -103.34597000000001,
            20.56231
          ],
          [
            -103.34572000000001,
            20.56163
          ],
          [
            -103.34443,
            20.561680000000003
          ],
          [
            -103.34423000000001,
            20.56203
          ],
          [
            -103.34405000000001,
            20.562060000000002
          ],
          [
            -103.34385,
            20.562050000000003
          ],
          [
            -103.34322,
            20.56208
          ],
          [
            -103.34242,
            20.562150000000003
          ],
          [
            -103.34219,
            20.56222
          ],
          [
            -103.34131000000001,
            20.562260000000002
          ],
          [
            -103.34111000000001,
            20.56255
          ],
          [
            -103.34101000000001,
            20.56266
          ],
          [
            -103.34093000000001,
            20.56266
          ],
          [
            -103.34089,
            20.562600000000003
          ],
          [
            -103.34091000000001,
            20.5625
          ],
          [
            -103.34099,
            20.5624
          ],
          [
            -103.34108,
            20.562320000000003
          ],
          [
            -103.34117,
            20.56231
          ],
          [
            -103.34122,
            20.56236
          ],
          [
            -103.34136000000001,
            20.562430000000003
          ],
          [
            -103.34157,
            20.562430000000003
          ],
          [
            -103.34200000000001,
            20.56237
          ],
          [
            -103.34224,
            20.56221
          ],
          [
            -103.34416,
            20.562140000000003
          ],
          [
            -103.34555,
            20.56191
          ],
          [
            -103.34565,
            20.561580000000003
          ],
          [
            -103.34604,
            20.56155
          ],
          [
            -103.34629000000001,
            20.561390000000003
          ],
          [
            -103.34655000000001,
            20.56127
          ],
          [
            -103.34841000000002,
            20.56118
          ],
          [
            -103.34841000000002,
            20.56059
          ],
          [
            -103.34841000000002,
            20.56059
          ],
          [
            -103.34841000000002,
            20.56058
          ],
          [
            -103.34873,
            20.56058
          ],
          [
            -103.34973000000001,
            20.560480000000002
          ],
          [
            -103.34973000000001,
            20.560160000000003
          ],
          [
            -103.34973000000001,
            20.560160000000003
          ],
          [
            -103.34973000000001,
            20.56015
          ],
          [
            -103.35114000000002,
            20.56015
          ],
          [
            -103.35223,
            20.55968
          ],
          [
            -103.35288000000001,
            20.559450000000002
          ],
          [
            -103.35407000000001,
            20.5593
          ],
          [
            -103.35435000000001,
            20.559050000000003
          ],
          [
            -103.35467000000001,
            20.558960000000003
          ],
          [
            -103.35493000000001,
            20.55883
          ],
          [
            -103.3554,
            20.55874
          ],
          [
            -103.3554,
            20.55864
          ],
          [
            -103.3554,
            20.55864
          ],
          [
            -103.3554,
            20.55864
          ],
          [
            -103.3554,
            20.55864
          ],
          [
            -103.36097000000001,
            20.55864
          ],
          [
            -103.36162,
            20.5575
          ],
          [
            -103.36162,
            20.557370000000002
          ],
          [
            -103.36162,
            20.557370000000002
          ],
          [
            -103.36162,
            20.557370000000002
          ],
          [
            -103.36212,
            20.557370000000002
          ],
          [
            -103.36259000000001,
            20.557280000000002
          ],
          [
            -103.36347,
            20.557170000000003
          ],
          [
            -103.36374,
            20.557010000000002
          ],
          [
            -103.36396,
            20.557000000000002
          ],
          [
            -103.36441,
            20.55703
          ],
          [
            -103.36461000000001,
            20.557160000000003
          ],
          [
            -103.36492000000001,
            20.557260000000003
          ],
          [
            -103.36574,
            20.55749
          ],
          [
            -103.36574,
            20.55816
          ],
          [
            -103.36575,
            20.55816
          ],
          [
            -103.36575,
            20.55817
          ],
          [
            -103.36598000000001,
            20.55817
          ],
          [
            -103.36646,
            20.55836
          ],
          [
            -103.36697000000001,
            20.55872
          ],
          [
            -103.36734000000001,
            20.559150000000002
          ],
          [
            -103.36774000000001,
            20.559600000000003
          ],
          [
            -103.36871000000001,
            20.56014
          ],
          [
            -103.36871000000001,
            20.561420000000002
          ],
          [
            -103.36871000000001,
            20.561420000000002
          ],
          [
            -103.36874,
            20.561420000000002
          ],
          [
            -103.36874,
            20.56146
          ],
          [
            -103.36925000000001,
            20.56146
          ],
          [
            -103.37011000000001,
            20.56211
          ],
          [
            -103.37031,
            20.56325
          ],
          [
            -103.37326,
            20.563480000000002
          ],
          [
            -103.37326,
            20.56745
          ],
          [
            -103.37327,
            20.56745
          ],
          [
            -103.37327,
            20.56746
          ],
          [
            -103.37341,
            20.56746
          ],
          [
            -103.37368000000001,
            20.56765
          ],
          [
            -103.37368000000001,
            20.567590000000003
          ],
          [
            -103.37368000000001,
            20.567590000000003
          ],
          [
            -103.37368000000001,
            20.567580000000003
          ],
          [
            -103.37467000000001,
            20.567580000000003
          ],
          [
            -103.37561000000001,
            20.56734
          ],
          [
            -103.37721,
            20.567140000000002
          ],
          [
            -103.37721,
            20.566730000000003
          ],
          [
            -103.37721,
            20.566730000000003
          ],
          [
            -103.37721,
            20.566730000000003
          ],
          [
            -103.37761,
            20.566730000000003
          ],
          [
            -103.37817000000001,
            20.56663
          ],
          [
            -103.37830000000001,
            20.566450000000003
          ],
          [
            -103.37876000000001,
            20.56635
          ],
          [
            -103.37876000000001,
            20.56595
          ],
          [
            -103.37876000000001,
            20.56595
          ],
          [
            -103.37876000000001,
            20.56594
          ],
          [
            -103.37892000000001,
            20.56594
          ],
          [
            -103.37953,
            20.565800000000003
          ],
          [
            -103.38036000000001,
            20.56549
          ],
          [
            -103.38036000000001,
            20.56493
          ],
          [
            -103.38036000000001,
            20.56493
          ],
          [
            -103.38049000000001,
            20.56493
          ],
          [
            -103.38049000000001,
            20.56483
          ],
          [
            -103.38170000000001,
            20.56483
          ],
          [
            -103.38211000000001,
            20.56387
          ],
          [
            -103.38211000000001,
            20.563570000000002
          ],
          [
            -103.38212000000001,
            20.563570000000002
          ],
          [
            -103.38212000000001,
            20.563570000000002
          ],
          [
            -103.38299,
            20.563570000000002
          ],
          [
            -103.38496,
            20.562920000000002
          ],
          [
            -103.38601000000001,
            20.56144
          ],
          [
            -103.38602,
            20.560640000000003
          ],
          [
            -103.38606000000001,
            20.56058
          ],
          [
            -103.38616,
            20.560470000000002
          ],
          [
            -103.38703000000001,
            20.560350000000003
          ],
          [
            -103.38703000000001,
            20.559700000000003
          ],
          [
            -103.38703000000001,
            20.559700000000003
          ],
          [
            -103.38704000000001,
            20.559700000000003
          ],
          [
            -103.38704000000001,
            20.559700000000003
          ],
          [
            -103.38741,
            20.559700000000003
          ],
          [
            -103.38746,
            20.55939
          ],
          [
            -103.38767000000001,
            20.55936
          ],
          [
            -103.38798000000001,
            20.559350000000002
          ],
          [
            -103.38830000000002,
            20.559070000000002
          ],
          [
            -103.38848000000002,
            20.558680000000003
          ],
          [
            -103.38848000000002,
            20.558490000000003
          ],
          [
            -103.38848000000002,
            20.558490000000003
          ],
          [
            -103.38848000000002,
            20.558480000000003
          ],
          [
            -103.38853,
            20.558480000000003
          ],
          [
            -103.38898,
            20.55842
          ],
          [
            -103.38956,
            20.558020000000003
          ],
          [
            -103.39041,
            20.557570000000002
          ],
          [
            -103.39155000000001,
            20.556880000000003
          ],
          [
            -103.39155000000001,
            20.55599
          ],
          [
            -103.39155000000001,
            20.55599
          ],
          [
            -103.39155000000001,
            20.55599
          ],
          [
            -103.39181,
            20.55599
          ],
          [
            -103.39272000000001,
            20.555790000000002
          ],
          [
            -103.39311000000001,
            20.555120000000002
          ],
          [
            -103.39311000000001,
            20.554830000000003
          ],
          [
            -103.39311000000001,
            20.554830000000003
          ],
          [
            -103.39311000000001,
            20.554820000000003
          ],
          [
            -103.39381,
            20.554820000000003
          ],
          [
            -103.39383000000001,
            20.55429
          ],
          [
            -103.39386,
            20.554180000000002
          ],
          [
            -103.39387,
            20.55377
          ],
          [
            -103.39387,
            20.553340000000002
          ],
          [
            -103.39387,
            20.553340000000002
          ],
          [
            -103.39387,
            20.553340000000002
          ],
          [
            -103.39388000000001,
            20.553340000000002
          ],
          [
            -103.39416000000001,
            20.552660000000003
          ],
          [
            -103.39416000000001,
            20.55113
          ],
          [
            -103.39416000000001,
            20.55113
          ],
          [
            -103.39417,
            20.55113
          ],
          [
            -103.39417,
            20.55113
          ],
          [
            -103.39428000000001,
            20.55113
          ],
          [
            -103.39439000000002,
            20.550130000000003
          ],
          [
            -103.39439000000002,
            20.548730000000003
          ],
          [
            -103.39439000000002,
            20.548730000000003
          ],
          [
            -103.39439000000002,
            20.548720000000003
          ],
          [
            -103.39441000000001,
            20.548720000000003
          ],
          [
            -103.39454,
            20.548430000000003
          ],
          [
            -103.39454,
            20.547030000000003
          ],
          [
            -103.39454,
            20.547030000000003
          ],
          [
            -103.39454,
            20.547020000000003
          ],
          [
            -103.39464000000001,
            20.547020000000003
          ],
          [
            -103.39513000000001,
            20.54594
          ],
          [
            -103.39513000000001,
            20.545910000000003
          ],
          [
            -103.39513000000001,
            20.545910000000003
          ],
          [
            -103.39513000000001,
            20.545910000000003
          ],
          [
            -103.39513000000001,
            20.545840000000002
          ],
          [
            -103.39513000000001,
            20.545840000000002
          ],
          [
            -103.39513000000001,
            20.545840000000002
          ],
          [
            -103.39685000000001,
            20.545910000000003
          ],
          [
            -103.39695,
            20.54577
          ],
          [
            -103.39774000000001,
            20.54579
          ],
          [
            -103.39816,
            20.54653
          ],
          [
            -103.39940000000001,
            20.54651
          ],
          [
            -103.39940000000001,
            20.54641
          ],
          [
            -103.39940000000001,
            20.54641
          ],
          [
            -103.39940000000001,
            20.54641
          ],
          [
            -103.39952000000001,
            20.54641
          ],
          [
            -103.40207000000001,
            20.546400000000002
          ],
          [
            -103.40207000000001,
            20.54622
          ],
          [
            -103.40207000000001,
            20.54622
          ],
          [
            -103.40211000000001,
            20.54622
          ],
          [
            -103.40211000000001,
            20.54622
          ],
          [
            -103.4025,
            20.54622
          ],
          [
            -103.40404000000001,
            20.546180000000003
          ],
          [
            -103.40494000000001,
            20.54598
          ],
          [
            -103.40494000000001,
            20.545840000000002
          ],
          [
            -103.40494000000001,
            20.545840000000002
          ],
          [
            -103.40494000000001,
            20.545840000000002
          ],
          [
            -103.40617,
            20.545840000000002
          ],
          [
            -103.40736000000001,
            20.54566
          ],
          [
            -103.40736000000001,
            20.5455
          ],
          [
            -103.40737000000001,
            20.5455
          ],
          [
            -103.40737000000001,
            20.5455
          ],
          [
            -103.41009000000001,
            20.5455
          ],
          [
            -103.41028000000001,
            20.54514
          ],
          [
            -103.41028000000001,
            20.54512
          ],
          [
            -103.41028000000001,
            20.54512
          ],
          [
            -103.41028000000001,
            20.54512
          ],
          [
            -103.41067000000001,
            20.54512
          ],
          [
            -103.41112000000001,
            20.545070000000003
          ],
          [
            -103.41122000000001,
            20.54503
          ],
          [
            -103.41157000000001,
            20.54501
          ],
          [
            -103.41159,
            20.54726
          ],
          [
            -103.41186,
            20.54786
          ],
          [
            -103.41186,
            20.54973
          ],
          [
            -103.41186,
            20.54973
          ],
          [
            -103.41186,
            20.54973
          ],
          [
            -103.41187000000001,
            20.54973
          ],
          [
            -103.41188000000001,
            20.54981
          ],
          [
            -103.41168,
            20.55008
          ],
          [
            -103.41174000000001,
            20.55094
          ],
          [
            -103.41175000000001,
            20.55206
          ],
          [
            -103.41175000000001,
            20.552570000000003
          ],
          [
            -103.41175000000001,
            20.552570000000003
          ],
          [
            -103.41175000000001,
            20.552580000000003
          ],
          [
            -103.41175000000001,
            20.552580000000003
          ],
          [
            -103.41188000000001,
            20.55282
          ],
          [
            -103.41188000000001,
            20.554440000000003
          ],
          [
            -103.41158000000001,
            20.55486
          ],
          [
            -103.41195,
            20.55799
          ],
          [
            -103.41195,
            20.558280000000003
          ],
          [
            -103.41195,
            20.558280000000003
          ],
          [
            -103.41195,
            20.558280000000003
          ],
          [
            -103.41205000000001,
            20.558280000000003
          ],
          [
            -103.41308000000001,
            20.55836
          ],
          [
            -103.41308000000001,
            20.559140000000003
          ],
          [
            -103.41309000000001,
            20.559140000000003
          ],
          [
            -103.41309000000001,
            20.559150000000002
          ],
          [
            -103.41375000000001,
            20.559150000000002
          ],
          [
            -103.41396,
            20.55965
          ],
          [
            -103.41396,
            20.559810000000002
          ],
          [
            -103.41397,
            20.559810000000002
          ],
          [
            -103.41397,
            20.559820000000002
          ],
          [
            -103.41495,
            20.559820000000002
          ],
          [
            -103.41550000000001,
            20.56053
          ],
          [
            -103.41550000000001,
            20.560950000000002
          ],
          [
            -103.41551000000001,
            20.560950000000002
          ],
          [
            -103.41551000000001,
            20.56096
          ],
          [
            -103.41586000000001,
            20.56096
          ],
          [
            -103.41644000000001,
            20.561220000000002
          ],
          [
            -103.41707000000001,
            20.56164
          ],
          [
            -103.41722000000001,
            20.56212
          ],
          [
            -103.41743000000001,
            20.56222
          ],
          [
            -103.41770000000001,
            20.562260000000002
          ],
          [
            -103.41770000000001,
            20.5623
          ],
          [
            -103.41771000000001,
            20.5623
          ],
          [
            -103.41771000000001,
            20.56231
          ],
          [
            -103.42001,
            20.56231
          ],
          [
            -103.42028,
            20.56266
          ],
          [
            -103.42028,
            20.562710000000003
          ],
          [
            -103.42029000000001,
            20.562710000000003
          ],
          [
            -103.42029000000001,
            20.562720000000002
          ],
          [
            -103.42249000000001,
            20.562720000000002
          ],
          [
            -103.42249000000001,
            20.563070000000003
          ],
          [
            -103.42249000000001,
            20.563070000000003
          ],
          [
            -103.42250000000001,
            20.563070000000003
          ],
          [
            -103.42250000000001,
            20.563080000000003
          ],
          [
            -103.42471,
            20.563080000000003
          ],
          [
            -103.42471,
            20.56342
          ],
          [
            -103.42472000000001,
            20.56342
          ],
          [
            -103.42472000000001,
            20.56343
          ],
          [
            -103.42581000000001,
            20.56343
          ],
          [
            -103.42708,
            20.5636
          ],
          [
            -103.42775,
            20.5638
          ],
          [
            -103.42796000000001,
            20.56389
          ],
          [
            -103.42817000000001,
            20.56396
          ],
          [
            -103.42835000000001,
            20.56406
          ],
          [
            -103.42835000000001,
            20.564200000000003
          ],
          [
            -103.42835000000001,
            20.564200000000003
          ],
          [
            -103.42835000000001,
            20.564200000000003
          ],
          [
            -103.42835000000001,
            20.564200000000003
          ],
          [
            -103.42853000000001,
            20.564200000000003
          ],
          [
            -103.42887,
            20.564400000000003
          ],
          [
            -103.42907000000001,
            20.56484
          ],
          [
            -103.42927,
            20.56538
          ],
          [
            -103.42941,
            20.56606
          ],
          [
            -103.42941,
            20.566180000000003
          ],
          [
            -103.42941,
            20.566180000000003
          ],
          [
            -103.42942000000001,
            20.566180000000003
          ],
          [
            -103.42942000000001,
            20.566190000000002
          ],
          [
            -103.42948000000001,
            20.566190000000002
          ],
          [
            -103.42961000000001,
            20.56623
          ],
          [
            -103.43112,
            20.566290000000002
          ],
          [
            -103.43112,
            20.56641
          ],
          [
            -103.43113000000001,
            20.56641
          ],
          [
            -103.43113000000001,
            20.56641
          ],
          [
            -103.43147,
            20.56641
          ],
          [
            -103.43195000000001,
            20.56644
          ],
          [
            -103.43260000000001,
            20.56649
          ],
          [
            -103.43312,
            20.569640000000003
          ],
          [
            -103.43310000000001,
            20.56972
          ],
          [
            -103.43454000000001,
            20.5696
          ]
        ]
      }
    }
  ]
}