{
  "type": "FeatureCollection",
  "features": [
    {
      "type": "Feature",
      "properties": {
        "identifier": "176-2",
        "name": "Ruta 176"
      },
      "geometry": {
        "type": "LineString",
        "coordinates": [
          [
            -103.27258,
            20.544620000000002
          ],
          [
            -103.27211000000001,
            20.54568
          ],
          [
            -103.27211000000001,
            20.54568
          ],
          [
            -103.27206000000001,
            20.545820000000003
          ],
          [
            -103.27256000000001,
            20.54626
          ],
          [
            -103.27256000000001,
            20.54626
          ],
          [
            -103.27265000000001,
            20.54634
          ],
          [
            -103.27309000000001,
            20.54541
          ],
          [
            -103.27309000000001,
            20.54541
          ],
          [
            -103.27310000000001,
            20.54541
          ],
          [
            -103.27356,
            20.544620000000002
          ],
          [
            -103.27361,
            20.54446
          ],
          [
            -103.27361,
            20.54446
          ],
          [
            -103.27362000000001,
            20.54446
          ],
          [
            -103.27365,
            20.54438
          ],
          [
            -103.27369,
            20.544420000000002
          ],
          [
            -103.27380000000001,
            20.544340000000002
          ],
          [
            -103.27399000000001,
            20.54409
          ],
          [
            -103.27457000000001,
            20.543270000000003
          ],
          [
            -103.27468,
            20.54304
          ],
          [
            -103.27468,
            20.54304
          ],
          [
            -103.27489000000001,
            20.542620000000003
          ],
          [
            -103.27543000000001,
            20.54153
          ],
          [
            -103.27583000000001,
            20.541690000000003
          ],
          [
            -103.27603,
            20.54176
          ],
          [
            -103.27603,
            20.54176
          ],
          [
            -103.27643,
            20.54192
          ],
          [
            -103.27665,
            20.542150000000003
          ],
          [
            -103.27674,
            20.54219
          ],
          [
            -103.27674,
            20.54219
          ],
          [
            -103.27680000000001,
            20.54222
          ],
          [
            -103.27792000000001,
            20.542530000000003
          ],
          [
            -103.27792000000001,
            20.542530000000003
          ],
          [
            -103.27792000000001,
            20.542530000000003
          ],
          [
            -103.27804,
            20.54256
          ],
          [
            -103.27825000000001,
            20.54172
          ],
          [
            -103.27825000000001,
            20.541710000000002
          ],
          [
            -103.27825000000001,
            20.541710000000002
          ],
          [
            -103.27838000000001,
            20.54119
          ],
          [
            -103.27847000000001,
            20.540830000000003
          ],
          [
            -103.27847000000001,
            20.540830000000003
          ],
          [
            -103.27850000000001,
            20.54073
          ],
          [
            -103.27885,
            20.54079
          ],
          [
            -103.27909000000001,
            20.540850000000002
          ],
          [
            -103.27909000000001,
            20.540850000000002
          ],
          [
            -103.27910000000001,
            20.540860000000002
          ],
          [
            -103.27997,
            20.54107
          ],
          [
            -103.28023,
            20.541130000000003
          ],
          [
            -103.28023,
            20.541130000000003
          ],
          [
            -103.2814,
            20.541420000000002
          ],
          [
            -103.2814,
            20.541420000000002
          ],
          [
            -103.28141000000001,
            20.541430000000002
          ],
          [
            -103.28195000000001,
            20.54157
          ],
          [
            -103.28226000000001,
            20.541610000000002
          ],
          [
            -103.28280000000001,
            20.54156
          ],
          [
            -103.28323,
            20.541580000000003
          ],
          [
            -103.28323,
            20.541580000000003
          ],
          [
            -103.28323,
            20.541580000000003
          ],
          [
            -103.28414000000001,
            20.54166
          ],
          [
            -103.28443000000001,
            20.54164
          ],
          [
            -103.28443000000001,
            20.54164
          ],
          [
            -103.28514000000001,
            20.54162
          ],
          [
            -103.28569,
            20.54162
          ],
          [
            -103.28624,
            20.54164
          ],
          [
            -103.28644000000001,
            20.54162
          ],
          [
            -103.28649000000001,
            20.541610000000002
          ],
          [
            -103.28649000000001,
            20.541610000000002
          ],
          [
            -103.28657000000001,
            20.541610000000002
          ],
          [
            -103.28681,
            20.541610000000002
          ],
          [
            -103.28716000000001,
            20.541670000000003
          ],
          [
            -103.28781000000001,
            20.54181
          ],
          [
            -103.28805000000001,
            20.541860000000003
          ],
          [
            -103.28805000000001,
            20.541860000000003
          ],
          [
            -103.28831000000001,
            20.54192
          ],
          [
            -103.28851,
            20.54193
          ],
          [
            -103.28865,
            20.54191
          ],
          [
            -103.28933,
            20.541680000000003
          ],
          [
            -103.28991,
            20.54144
          ],
          [
            -103.28991,
            20.54144
          ],
          [
            -103.29007000000001,
            20.54138
          ],
          [
            -103.29024000000001,
            20.540170000000003
          ],
          [
            -103.29024000000001,
            20.540170000000003
          ],
          [
            -103.29024000000001,
            20.540170000000003
          ],
          [
            -103.29026,
            20.540080000000003
          ],
          [
            -103.29046000000001,
            20.540100000000002
          ],
          [
            -103.29127000000001,
            20.54025
          ],
          [
            -103.29152,
            20.54041
          ],
          [
            -103.29164000000002,
            20.540490000000002
          ],
          [
            -103.29164000000002,
            20.540490000000002
          ],
          [
            -103.29212000000001,
            20.54081
          ],
          [
            -103.29269000000001,
            20.54091
          ],
          [
            -103.29306000000001,
            20.5409
          ],
          [
            -103.2933,
            20.540930000000003
          ],
          [
            -103.29390000000001,
            20.54108
          ],
          [
            -103.29390000000001,
            20.54108
          ],
          [
            -103.29391000000001,
            20.54109
          ],
          [
            -103.29480000000001,
            20.54134
          ],
          [
            -103.29570000000001,
            20.54157
          ],
          [
            -103.29683000000001,
            20.54182
          ],
          [
            -103.2973,
            20.541890000000002
          ],
          [
            -103.29767000000001,
            20.54191
          ],
          [
            -103.29828,
            20.54176
          ],
          [
            -103.29837,
            20.541960000000003
          ],
          [
            -103.29837,
            20.541960000000003
          ],
          [
            -103.29893000000001,
            20.543110000000002
          ],
          [
            -103.29992000000001,
            20.5452
          ],
          [
            -103.30099000000001,
            20.547490000000003
          ],
          [
            -103.30135000000001,
            20.548260000000003
          ],
          [
            -103.30136,
            20.548260000000003
          ],
          [
            -103.30171000000001,
            20.54898
          ],
          [
            -103.30183000000001,
            20.54924
          ],
          [
            -103.30183000000001,
            20.54924
          ],
          [
            -103.30257,
            20.55083
          ],
          [
            -103.30345000000001,
            20.552650000000003
          ],
          [
            -103.30332000000001,
            20.55271
          ],
          [
            -103.30363000000001,
            20.55338
          ],
          [
            -103.30377000000001,
            20.553320000000003
          ],
          [
            -103.30397,
            20.55374
          ],
          [
            -103.30464,
            20.55516
          ],
          [
            -103.30464,
            20.55516
          ],
          [
            -103.30464,
            20.55516
          ],
          [
            -103.30541000000001,
            20.55676
          ],
          [
            -103.30567,
            20.55732
          ],
          [
            -103.30567,
            20.55732
          ],
          [
            -103.30658000000001,
            20.559230000000003
          ],
          [
            -103.30658000000001,
            20.559230000000003
          ],
          [
            -103.30684000000001,
            20.55976
          ],
          [
            -103.30823000000001,
            20.562700000000003
          ],
          [
            -103.30824000000001,
            20.562920000000002
          ],
          [
            -103.30831,
            20.56312
          ],
          [
            -103.30841000000001,
            20.563350000000003
          ],
          [
            -103.30852,
            20.5633
          ],
          [
            -103.30972000000001,
            20.565820000000002
          ],
          [
            -103.30994000000001,
            20.566300000000002
          ],
          [
            -103.31004000000001,
            20.56652
          ],
          [
            -103.31005,
            20.56652
          ],
          [
            -103.31265,
            20.572020000000002
          ],
          [
            -103.31414000000001,
            20.57515
          ],
          [
            -103.31414000000001,
            20.57515
          ],
          [
            -103.31775,
            20.58273
          ],
          [
            -103.31775,
            20.58273
          ],
          [
            -103.31802,
            20.58329
          ],
          [
            -103.32022,
            20.587880000000002
          ],
          [
            -103.32057,
            20.58866
          ],
          [
            -103.32094000000001,
            20.589440000000003
          ],
          [
            -103.32094000000001,
            20.589440000000003
          ],
          [
            -103.32165,
            20.59093
          ],
          [
            -103.32223,
            20.59212
          ],
          [
            -103.32227,
            20.59221
          ],
          [
            -103.32227,
            20.59221
          ],
          [
            -103.32263,
            20.59299
          ],
          [
            -103.32373000000001,
            20.59533
          ],
          [
            -103.32373000000001,
            20.59533
          ],
          [
            -103.32373000000001,
            20.59533
          ],
          [
            -103.3241,
            20.596130000000002
          ],
          [
            -103.32437,
            20.596790000000002
          ],
          [
            -103.32441000000001,
            20.59692
          ],
          [
            -103.32445000000001,
            20.59713
          ],
          [
            -103.32446,
            20.597350000000002
          ],
          [
            -103.32443,
            20.59805
          ],
          [
            -103.32440000000001,
            20.598270000000003
          ],
          [
            -103.32434,
            20.598480000000002
          ],
          [
            -103.32434,
            20.598480000000002
          ],
          [
            -103.32427000000001,
            20.598740000000003
          ],
          [
            -103.3241,
            20.59908
          ],
          [
            -103.32393,
            20.59937
          ],
          [
            -103.32371,
            20.599690000000002
          ],
          [
            -103.32308,
            20.60049
          ],
          [
            -103.32291000000001,
            20.600730000000002
          ],
          [
            -103.32264,
            20.60103
          ],
          [
            -103.32218,
            20.60144
          ],
          [
            -103.32184000000001,
            20.60172
          ],
          [
            -103.32129,
            20.60208
          ],
          [
            -103.32020000000001,
            20.60265
          ],
          [
            -103.32006000000001,
            20.60272
          ],
          [
            -103.32006000000001,
            20.60272
          ],
          [
            -103.319,
            20.60329
          ],
          [
            -103.31884000000001,
            20.60323
          ],
          [
            -103.31884000000001,
            20.60323
          ],
          [
            -103.31884000000001,
            20.60323
          ],
          [
            -103.319,
            20.60329
          ],
          [
            -103.31711000000001,
            20.604300000000002
          ],
          [
            -103.31666000000001,
            20.60462
          ],
          [
            -103.31636,
            20.604930000000003
          ],
          [
            -103.31614,
            20.605210000000003
          ],
          [
            -103.31594000000001,
            20.605500000000003
          ],
          [
            -103.31578,
            20.605770000000003
          ],
          [
            -103.31578,
            20.605770000000003
          ],
          [
            -103.31578,
            20.605790000000002
          ],
          [
            -103.31568000000001,
            20.606070000000003
          ],
          [
            -103.31558000000001,
            20.60639
          ],
          [
            -103.31551,
            20.60685
          ],
          [
            -103.31540000000001,
            20.607860000000002
          ],
          [
            -103.31536000000001,
            20.608700000000002
          ],
          [
            -103.31544000000001,
            20.609250000000003
          ],
          [
            -103.31558000000001,
            20.609740000000002
          ],
          [
            -103.31577000000001,
            20.61016
          ],
          [
            -103.31592,
            20.61044
          ],
          [
            -103.31621000000001,
            20.610850000000003
          ],
          [
            -103.31678000000001,
            20.61146
          ],
          [
            -103.31955,
            20.61426
          ],
          [
            -103.32013,
            20.614890000000003
          ],
          [
            -103.3208,
            20.615540000000003
          ],
          [
            -103.32115,
            20.615930000000002
          ],
          [
            -103.32145000000001,
            20.616410000000002
          ],
          [
            -103.32167000000001,
            20.616970000000002
          ],
          [
            -103.32174,
            20.617320000000003
          ],
          [
            -103.32175000000001,
            20.617720000000002
          ],
          [
            -103.32159000000001,
            20.619510000000002
          ],
          [
            -103.32159000000001,
            20.619510000000002
          ],
          [
            -103.32156,
            20.61989
          ],
          [
            -103.32138,
            20.620970000000003
          ],
          [
            -103.32138,
            20.621180000000003
          ],
          [
            -103.32135000000001,
            20.62141
          ],
          [
            -103.32105000000001,
            20.624080000000003
          ],
          [
            -103.32099000000001,
            20.62453
          ],
          [
            -103.32086000000001,
            20.625420000000002
          ],
          [
            -103.32081000000001,
            20.62594
          ],
          [
            -103.32073000000001,
            20.626130000000003
          ],
          [
            -103.32074000000001,
            20.62638
          ],
          [
            -103.32078000000001,
            20.62658
          ],
          [
            -103.32090000000001,
            20.626910000000002
          ],
          [
            -103.32101000000002,
            20.62712
          ],
          [
            -103.32111,
            20.627280000000003
          ],
          [
            -103.32111,
            20.627280000000003
          ],
          [
            -103.32117000000001,
            20.627380000000002
          ],
          [
            -103.32226000000001,
            20.629080000000002
          ],
          [
            -103.32226000000001,
            20.629080000000002
          ],
          [
            -103.32230000000001,
            20.629140000000003
          ],
          [
            -103.32294,
            20.630090000000003
          ],
          [
            -103.32305000000001,
            20.630270000000003
          ],
          [
            -103.32305000000001,
            20.630260000000003
          ],
          [
            -103.32306000000001,
            20.630270000000003
          ],
          [
            -103.32433,
            20.632270000000002
          ],
          [
            -103.32433,
            20.632270000000002
          ],
          [
            -103.32433,
            20.632270000000002
          ],
          [
            -103.32454000000001,
            20.63258
          ],
          [
            -103.32478,
            20.633020000000002
          ],
          [
            -103.32520000000001,
            20.633680000000002
          ],
          [
            -103.32520000000001,
            20.633680000000002
          ],
          [
            -103.32572,
            20.634510000000002
          ],
          [
            -103.32627000000001,
            20.63538
          ],
          [
            -103.32627000000001,
            20.63537
          ],
          [
            -103.32691000000001,
            20.636380000000003
          ],
          [
            -103.32691000000001,
            20.636380000000003
          ],
          [
            -103.32759000000001,
            20.63744
          ],
          [
            -103.32759000000001,
            20.637430000000002
          ],
          [
            -103.32827,
            20.63848
          ],
          [
            -103.32826000000001,
            20.63848
          ],
          [
            -103.32883000000001,
            20.63935
          ],
          [
            -103.32883000000001,
            20.63935
          ],
          [
            -103.32933000000001,
            20.640120000000003
          ],
          [
            -103.32945000000001,
            20.640320000000003
          ],
          [
            -103.32945000000001,
            20.640320000000003
          ],
          [
            -103.33087,
            20.64252
          ],
          [
            -103.33087,
            20.64252
          ],
          [
            -103.33086000000002,
            20.64253
          ],
          [
            -103.33158,
            20.64366
          ],
          [
            -103.33158,
            20.64366
          ],
          [
            -103.3324,
            20.644930000000002
          ],
          [
            -103.3324,
            20.644940000000002
          ],
          [
            -103.33311,
            20.646040000000003
          ],
          [
            -103.33311,
            20.646040000000003
          ],
          [
            -103.33328,
            20.646310000000003
          ],
          [
            -103.33391,
            20.64731
          ],
          [
            -103.33391,
            20.64731
          ],
          [
            -103.33412000000001,
            20.647640000000003
          ],
          [
            -103.33470000000001,
            20.64853
          ],
          [
            -103.33472,
            20.648570000000003
          ],
          [
            -103.33472,
            20.648570000000003
          ],
          [
            -103.33503,
            20.64908
          ],
          [
            -103.33563000000001,
            20.649990000000003
          ],
          [
            -103.33563000000001,
            20.649990000000003
          ],
          [
            -103.33601,
            20.650570000000002
          ],
          [
            -103.33654000000001,
            20.651400000000002
          ],
          [
            -103.33654000000001,
            20.651400000000002
          ],
          [
            -103.33678,
            20.651780000000002
          ],
          [
            -103.33691,
            20.651950000000003
          ],
          [
            -103.33720000000001,
            20.652220000000003
          ],
          [
            -103.33853,
            20.65332
          ],
          [
            -103.33853,
            20.65332
          ],
          [
            -103.33967000000001,
            20.65427
          ],
          [
            -103.33967000000001,
            20.65427
          ],
          [
            -103.33967000000001,
            20.65427
          ],
          [
            -103.34055000000001,
            20.65501
          ],
          [
            -103.34055000000001,
            20.65501
          ],
          [
            -103.34124000000001,
            20.65559
          ],
          [
            -103.34145000000001,
            20.65576
          ],
          [
            -103.34145000000001,
            20.65576
          ],
          [
            -103.34252000000001,
            20.65662
          ],
          [
            -103.34252000000001,
            20.65662
          ],
          [
            -103.34252000000001,
            20.65662
          ],
          [
            -103.34263000000001,
            20.65671
          ],
          [
            -103.34262000000001,
            20.65671
          ],
          [
            -103.34263000000001,
            20.65672
          ],
          [
            -103.34335000000002,
            20.657320000000002
          ],
          [
            -103.34335000000002,
            20.65733
          ],
          [
            -103.34423000000001,
            20.658060000000003
          ],
          [
            -103.34423000000001,
            20.658060000000003
          ],
          [
            -103.34521000000001,
            20.658880000000003
          ],
          [
            -103.34537,
            20.659010000000002
          ],
          [
            -103.34537,
            20.659010000000002
          ],
          [
            -103.34575000000001,
            20.65932
          ],
          [
            -103.34635000000002,
            20.659920000000003
          ],
          [
            -103.34722000000001,
            20.6609
          ],
          [
            -103.34830000000001,
            20.66216
          ],
          [
            -103.34830000000001,
            20.66216
          ],
          [
            -103.34831000000001,
            20.662170000000003
          ],
          [
            -103.34862000000001,
            20.662480000000002
          ],
          [
            -103.34881000000001,
            20.662560000000003
          ],
          [
            -103.34909,
            20.662560000000003
          ],
          [
            -103.34971,
            20.66262
          ],
          [
            -103.34973000000001,
            20.66281
          ],
          [
            -103.34952000000001,
            20.66335
          ],
          [
            -103.34942000000001,
            20.66362
          ],
          [
            -103.34943000000001,
            20.66362
          ],
          [
            -103.34915000000001,
            20.664450000000002
          ],
          [
            -103.34915000000001,
            20.664450000000002
          ],
          [
            -103.34878,
            20.665570000000002
          ],
          [
            -103.34847,
            20.666510000000002
          ],
          [
            -103.34846,
            20.666510000000002
          ],
          [
            -103.34846,
            20.666510000000002
          ],
          [
            -103.34828,
            20.667070000000002
          ],
          [
            -103.34797,
            20.667890000000003
          ],
          [
            -103.34797,
            20.667890000000003
          ],
          [
            -103.34787000000001,
            20.668180000000003
          ],
          [
            -103.34752,
            20.669220000000003
          ],
          [
            -103.34736000000001,
            20.66972
          ],
          [
            -103.34736000000001,
            20.66972
          ],
          [
            -103.34736000000001,
            20.66972
          ],
          [
            -103.34728000000001,
            20.669970000000003
          ],
          [
            -103.34706000000001,
            20.66983
          ],
          [
            -103.34706000000001,
            20.668390000000002
          ]
        ]
      }
    }
  ]
}