{
  "type": "FeatureCollection",
  "features": [
    {
      "type": "Feature",
      "properties": {
        "identifier": "178-a-via-2",
        "name": "Ruta 178 A Via 2"
      },
      "geometry": {
        "type": "LineString",
        "coordinates": [
          [
            -103.32274000000001,
            20.627170000000003
          ],
          [
            -103.32227,
            20.6273
          ],
          [
            -103.32173,
            20.627170000000003
          ],
          [
            -103.32129,
            20.62685
          ],
          [
            -103.32100000000001,
            20.62628
          ],
          [
            -103.32107,
            20.625420000000002
          ],
          [
            -103.32129,
            20.624100000000002
          ],
          [
            -103.32130000000001,
            20.62365
          ],
          [
            -103.32141000000001,
            20.623540000000002
          ],
          [
            -103.32164,
            20.623350000000002
          ],
          [
            -103.32197000000001,
            20.623350000000002
          ],
          [
            -103.32218,
            20.623510000000003
          ],
          [
            -103.32222,
            20.62385
          ],
          [
            -103.32201,
            20.624090000000002
          ],
          [
            -103.32169,
            20.624200000000002
          ],
          [
            -103.32101000000002,
            20.624070000000003
          ],
          [
            -103.32066,
            20.62394
          ],
          [
            -103.32004,
            20.62375
          ],
          [
            -103.31945,
            20.623600000000003
          ],
          [
            -103.31847,
            20.623610000000003
          ],
          [
            -103.31757,
            20.62366
          ],
          [
            -103.31580000000001,
            20.6235
          ],
          [
            -103.31333000000001,
            20.6233
          ],
          [
            -103.31250000000001,
            20.62318
          ],
          [
            -103.31069000000001,
            20.62328
          ],
          [
            -103.30929,
            20.623540000000002
          ],
          [
            -103.30641000000001,
            20.62452
          ],
          [
            -103.30427,
            20.625390000000003
          ],
          [
            -103.30421000000001,
            20.625030000000002
          ],
          [
            -103.30264000000001,
            20.62378
          ],
          [
            -103.30042,
            20.622100000000003
          ],
          [
            -103.29905000000001,
            20.620230000000003
          ],
          [
            -103.29813000000001,
            20.61915
          ],
          [
            -103.29705000000001,
            20.6183
          ],
          [
            -103.29586,
            20.617070000000002
          ],
          [
            -103.29504000000001,
            20.61614
          ],
          [
            -103.29452,
            20.615340000000003
          ],
          [
            -103.29331,
            20.61326
          ],
          [
            -103.29233,
            20.61116
          ],
          [
            -103.29214,
            20.610770000000002
          ],
          [
            -103.29150000000001,
            20.608520000000002
          ],
          [
            -103.29111,
            20.60778
          ],
          [
            -103.29064000000001,
            20.606250000000003
          ],
          [
            -103.29037000000001,
            20.60311
          ],
          [
            -103.29039,
            20.602200000000003
          ],
          [
            -103.28917000000001,
            20.602130000000002
          ],
          [
            -103.28912000000001,
            20.60182
          ],
          [
            -103.28871000000001,
            20.60162
          ],
          [
            -103.28763000000001,
            20.60133
          ],
          [
            -103.28746000000001,
            20.60112
          ],
          [
            -103.28744,
            20.600890000000003
          ],
          [
            -103.28753,
            20.60069
          ],
          [
            -103.28776,
            20.6004
          ],
          [
            -103.28852,
            20.60003
          ],
          [
            -103.28867000000001,
            20.59991
          ],
          [
            -103.2886,
            20.59983
          ],
          [
            -103.28849000000001,
            20.59984
          ],
          [
            -103.28783000000001,
            20.59974
          ],
          [
            -103.28801000000001,
            20.59962
          ],
          [
            -103.28811,
            20.599520000000002
          ],
          [
            -103.28789,
            20.59823
          ],
          [
            -103.28787000000001,
            20.597250000000003
          ],
          [
            -103.28785,
            20.59692
          ],
          [
            -103.28605,
            20.59683
          ],
          [
            -103.28401000000001,
            20.596770000000003
          ],
          [
            -103.28333,
            20.596690000000002
          ],
          [
            -103.28347000000001,
            20.59542
          ],
          [
            -103.28364,
            20.59279
          ],
          [
            -103.28117,
            20.592550000000003
          ],
          [
            -103.27882000000001,
            20.592380000000002
          ],
          [
            -103.27662000000001,
            20.59225
          ],
          [
            -103.27439000000001,
            20.592090000000002
          ],
          [
            -103.27422000000001,
            20.59221
          ],
          [
            -103.26522000000001,
            20.59239
          ],
          [
            -103.26513000000001,
            20.59251
          ],
          [
            -103.26442000000002,
            20.59277
          ],
          [
            -103.26288000000001,
            20.59352
          ],
          [
            -103.26194000000001,
            20.594170000000002
          ],
          [
            -103.26060000000001,
            20.59513
          ],
          [
            -103.26071,
            20.59728
          ],
          [
            -103.26047000000001,
            20.60245
          ],
          [
            -103.25923,
            20.601830000000003
          ],
          [
            -103.25934000000001,
            20.602520000000002
          ],
          [
            -103.25930000000001,
            20.603930000000002
          ],
          [
            -103.25921000000001,
            20.60545
          ],
          [
            -103.25914,
            20.60548
          ],
          [
            -103.25765000000001,
            20.60538
          ],
          [
            -103.25586000000001,
            20.6051
          ],
          [
            -103.25428000000001,
            20.604940000000003
          ],
          [
            -103.25370000000001,
            20.604830000000003
          ],
          [
            -103.25269000000002,
            20.604740000000003
          ],
          [
            -103.25226,
            20.604670000000002
          ],
          [
            -103.2502,
            20.60432
          ],
          [
            -103.24882000000001,
            20.603930000000002
          ],
          [
            -103.24207000000001,
            20.601960000000002
          ],
          [
            -103.23609,
            20.600160000000002
          ],
          [
            -103.23425,
            20.59965
          ],
          [
            -103.23266000000001,
            20.59915
          ],
          [
            -103.23059,
            20.598540000000003
          ],
          [
            -103.22968,
            20.598200000000002
          ],
          [
            -103.22921000000001,
            20.59793
          ],
          [
            -103.22877000000001,
            20.59746
          ],
          [
            -103.22841000000001,
            20.59693
          ],
          [
            -103.22706000000001,
            20.594630000000002
          ],
          [
            -103.22561,
            20.592270000000003
          ],
          [
            -103.22424000000001,
            20.58996
          ],
          [
            -103.22252,
            20.587290000000003
          ],
          [
            -103.21912,
            20.581480000000003
          ],
          [
            -103.21565000000001,
            20.575670000000002
          ],
          [
            -103.21405000000001,
            20.57307
          ],
          [
            -103.21354000000001,
            20.57234
          ],
          [
            -103.21273000000001,
            20.571550000000002
          ],
          [
            -103.21175000000001,
            20.570880000000002
          ],
          [
            -103.21095000000001,
            20.57037
          ],
          [
            -103.20913,
            20.56925
          ],
          [
            -103.20842,
            20.56884
          ],
          [
            -103.20776000000001,
            20.568540000000002
          ],
          [
            -103.20705000000001,
            20.568440000000002
          ],
          [
            -103.20539000000001,
            20.56859
          ],
          [
            -103.20418000000001,
            20.56868
          ],
          [
            -103.20296,
            20.568800000000003
          ],
          [
            -103.20119000000001,
            20.569380000000002
          ],
          [
            -103.19877000000001,
            20.570110000000003
          ],
          [
            -103.19770000000001,
            20.570410000000003
          ],
          [
            -103.19445,
            20.57138
          ],
          [
            -103.18843000000001,
            20.573140000000002
          ],
          [
            -103.18806000000001,
            20.572200000000002
          ],
          [
            -103.18793000000001,
            20.57167
          ],
          [
            -103.18694,
            20.566460000000003
          ],
          [
            -103.18672000000001,
            20.565810000000003
          ],
          [
            -103.186,
            20.564880000000002
          ],
          [
            -103.18587000000001,
            20.564590000000003
          ],
          [
            -103.18532,
            20.561120000000003
          ],
          [
            -103.18511000000001,
            20.559910000000002
          ],
          [
            -103.18489000000001,
            20.558280000000003
          ],
          [
            -103.18442,
            20.55516
          ],
          [
            -103.18423000000001,
            20.55415
          ],
          [
            -103.18430000000001,
            20.55133
          ],
          [
            -103.18433,
            20.55104
          ],
          [
            -103.18416,
            20.55057
          ],
          [
            -103.18326,
            20.549310000000002
          ],
          [
            -103.18312,
            20.54907
          ],
          [
            -103.18204000000001,
            20.54392
          ],
          [
            -103.18158000000001,
            20.541150000000002
          ],
          [
            -103.18142,
            20.53979
          ],
          [
            -103.18088,
            20.538490000000003
          ],
          [
            -103.18042000000001,
            20.5376
          ],
          [
            -103.18022,
            20.53716
          ],
          [
            -103.18119000000002,
            20.534180000000003
          ],
          [
            -103.18091000000001,
            20.53356
          ],
          [
            -103.1808,
            20.53327
          ],
          [
            -103.18077000000001,
            20.53299
          ],
          [
            -103.18114000000001,
            20.532110000000003
          ],
          [
            -103.18141000000001,
            20.53123
          ],
          [
            -103.18147,
            20.530140000000003
          ],
          [
            -103.18147,
            20.52964
          ],
          [
            -103.18152,
            20.529120000000002
          ],
          [
            -103.18177000000001,
            20.527510000000003
          ],
          [
            -103.18190000000001,
            20.52684
          ],
          [
            -103.18154000000001,
            20.52579
          ],
          [
            -103.1812,
            20.52495
          ],
          [
            -103.18053,
            20.52317
          ],
          [
            -103.18014000000001,
            20.521970000000003
          ],
          [
            -103.17855000000002,
            20.517500000000002
          ],
          [
            -103.17989000000001,
            20.51708
          ],
          [
            -103.17958,
            20.516250000000003
          ],
          [
            -103.17966000000001,
            20.51622
          ],
          [
            -103.17945,
            20.515600000000003
          ],
          [
            -103.17936,
            20.51537
          ],
          [
            -103.17796000000001,
            20.515810000000002
          ],
          [
            -103.17716000000001,
            20.513340000000003
          ],
          [
            -103.17732000000001,
            20.513360000000002
          ],
          [
            -103.17043000000001,
            20.511770000000002
          ],
          [
            -103.17058000000002,
            20.511380000000003
          ],
          [
            -103.17105000000001,
            20.509410000000003
          ],
          [
            -103.17111000000001,
            20.509130000000003
          ],
          [
            -103.17122,
            20.508380000000002
          ],
          [
            -103.17159000000001,
            20.50691
          ],
          [
            -103.17171,
            20.50627
          ],
          [
            -103.17187000000001,
            20.505650000000003
          ],
          [
            -103.17179,
            20.50569
          ],
          [
            -103.17083000000001,
            20.50549
          ],
          [
            -103.17075000000001,
            20.50598
          ],
          [
            -103.17046,
            20.508110000000002
          ],
          [
            -103.17046,
            20.506670000000003
          ]
        ]
      }
    }
  ]
}