{
  "type": "FeatureCollection",
  "features": [
    {
      "type": "Feature",
      "properties": {
        "identifier": "178-a-via-1",
        "name": "Ruta 178 A Via 1"
      },
      "geometry": {
        "type": "LineString",
        "coordinates": [
          [
            -103.17045,
            20.508090000000003
          ],
          [
            -103.17030000000001,
            20.509110000000003
          ],
          [
            -103.17109,
            20.509220000000003
          ],
          [
            -103.17058000000002,
            20.511380000000003
          ],
          [
            -103.17045,
            20.51178
          ],
          [
            -103.17240000000001,
            20.512240000000002
          ],
          [
            -103.17603000000001,
            20.51304
          ],
          [
            -103.17714000000001,
            20.513330000000003
          ],
          [
            -103.17825,
            20.51667
          ],
          [
            -103.17880000000001,
            20.518230000000003
          ],
          [
            -103.17902000000001,
            20.51877
          ],
          [
            -103.17946,
            20.52033
          ],
          [
            -103.18016000000001,
            20.52203
          ],
          [
            -103.18049,
            20.52304
          ],
          [
            -103.1812,
            20.52495
          ],
          [
            -103.18153000000001,
            20.525760000000002
          ],
          [
            -103.18189000000001,
            20.52682
          ],
          [
            -103.18188,
            20.527130000000003
          ],
          [
            -103.18179,
            20.5274
          ],
          [
            -103.18177000000001,
            20.527510000000003
          ],
          [
            -103.18152,
            20.529120000000002
          ],
          [
            -103.18147,
            20.52964
          ],
          [
            -103.18147,
            20.530140000000003
          ],
          [
            -103.18141000000001,
            20.53123
          ],
          [
            -103.18116,
            20.532120000000003
          ],
          [
            -103.18077000000001,
            20.53299
          ],
          [
            -103.18081000000001,
            20.5333
          ],
          [
            -103.18099000000001,
            20.53375
          ],
          [
            -103.18114000000001,
            20.53406
          ],
          [
            -103.18116,
            20.53422
          ],
          [
            -103.18031,
            20.536820000000002
          ],
          [
            -103.18022,
            20.53715
          ],
          [
            -103.18042000000001,
            20.5376
          ],
          [
            -103.18114000000001,
            20.53902
          ],
          [
            -103.18142,
            20.53977
          ],
          [
            -103.18171000000001,
            20.5422
          ],
          [
            -103.18195000000001,
            20.54369
          ],
          [
            -103.18218,
            20.544610000000002
          ],
          [
            -103.18299,
            20.548470000000002
          ],
          [
            -103.18314000000001,
            20.54906
          ],
          [
            -103.18355000000001,
            20.549750000000003
          ],
          [
            -103.18393,
            20.5503
          ],
          [
            -103.1842,
            20.55066
          ],
          [
            -103.18432000000001,
            20.551070000000003
          ],
          [
            -103.18429,
            20.55244
          ],
          [
            -103.18422000000001,
            20.553720000000002
          ],
          [
            -103.18424,
            20.55415
          ],
          [
            -103.18463000000001,
            20.556520000000003
          ],
          [
            -103.18530000000001,
            20.561120000000003
          ],
          [
            -103.18587000000001,
            20.564570000000003
          ],
          [
            -103.18601000000001,
            20.56492
          ],
          [
            -103.18636000000001,
            20.565330000000003
          ],
          [
            -103.18672000000001,
            20.565810000000003
          ],
          [
            -103.18693,
            20.56649
          ],
          [
            -103.18701000000001,
            20.566930000000003
          ],
          [
            -103.18750000000001,
            20.569270000000003
          ],
          [
            -103.18796,
            20.57188
          ],
          [
            -103.18803000000001,
            20.57222
          ],
          [
            -103.18867,
            20.57326
          ],
          [
            -103.19332000000001,
            20.571820000000002
          ],
          [
            -103.19893,
            20.57016
          ],
          [
            -103.20274,
            20.569000000000003
          ],
          [
            -103.20368,
            20.568830000000002
          ],
          [
            -103.20702000000001,
            20.568550000000002
          ],
          [
            -103.20755000000001,
            20.568610000000003
          ],
          [
            -103.20787000000001,
            20.56868
          ],
          [
            -103.20856,
            20.569010000000002
          ],
          [
            -103.2111,
            20.57062
          ],
          [
            -103.21229000000001,
            20.5713
          ],
          [
            -103.2129,
            20.571820000000002
          ],
          [
            -103.21366,
            20.57281
          ],
          [
            -103.21415,
            20.57289
          ],
          [
            -103.21458000000001,
            20.57261
          ],
          [
            -103.21781000000001,
            20.575100000000003
          ],
          [
            -103.22062000000001,
            20.57712
          ],
          [
            -103.22399000000001,
            20.579720000000002
          ],
          [
            -103.22540000000001,
            20.580910000000003
          ],
          [
            -103.22811000000002,
            20.58312
          ],
          [
            -103.23230000000001,
            20.586750000000002
          ],
          [
            -103.23458000000001,
            20.58884
          ],
          [
            -103.23676,
            20.59025
          ],
          [
            -103.24018000000001,
            20.59239
          ],
          [
            -103.24188000000001,
            20.593320000000002
          ],
          [
            -103.24453000000001,
            20.594620000000003
          ],
          [
            -103.24570000000001,
            20.59525
          ],
          [
            -103.25005,
            20.597360000000002
          ],
          [
            -103.25127,
            20.59786
          ],
          [
            -103.25619,
            20.60031
          ],
          [
            -103.25831000000001,
            20.60132
          ],
          [
            -103.2613,
            20.6029
          ],
          [
            -103.26261000000001,
            20.60357
          ],
          [
            -103.26389,
            20.60413
          ],
          [
            -103.26536000000002,
            20.6049
          ],
          [
            -103.26677000000001,
            20.605980000000002
          ],
          [
            -103.26786000000001,
            20.606730000000002
          ],
          [
            -103.26872,
            20.607200000000002
          ],
          [
            -103.26946000000001,
            20.607480000000002
          ],
          [
            -103.27173,
            20.608
          ],
          [
            -103.27352,
            20.60827
          ],
          [
            -103.27407000000001,
            20.60844
          ],
          [
            -103.27512000000002,
            20.60895
          ],
          [
            -103.27565000000001,
            20.609170000000002
          ],
          [
            -103.2758,
            20.608020000000003
          ],
          [
            -103.27588000000002,
            20.607750000000003
          ],
          [
            -103.27597000000002,
            20.60761
          ],
          [
            -103.27623000000001,
            20.60745
          ],
          [
            -103.27647,
            20.607270000000003
          ],
          [
            -103.27672000000001,
            20.606820000000003
          ],
          [
            -103.27736,
            20.605110000000003
          ],
          [
            -103.27826,
            20.604090000000003
          ],
          [
            -103.27968000000001,
            20.60265
          ],
          [
            -103.28119000000001,
            20.601930000000003
          ],
          [
            -103.28158,
            20.60154
          ],
          [
            -103.28241000000001,
            20.60151
          ],
          [
            -103.28509000000001,
            20.601660000000003
          ],
          [
            -103.28511,
            20.59964
          ],
          [
            -103.28783000000001,
            20.59975
          ],
          [
            -103.28943000000001,
            20.598560000000003
          ],
          [
            -103.29006000000001,
            20.59803
          ],
          [
            -103.29083000000001,
            20.59746
          ],
          [
            -103.29132000000001,
            20.597140000000003
          ],
          [
            -103.29261000000001,
            20.59653
          ],
          [
            -103.29356000000001,
            20.596480000000003
          ],
          [
            -103.29488,
            20.59655
          ],
          [
            -103.29606000000001,
            20.59665
          ],
          [
            -103.29613,
            20.59684
          ],
          [
            -103.29607000000001,
            20.5973
          ],
          [
            -103.29592000000001,
            20.59739
          ],
          [
            -103.29566000000001,
            20.597440000000002
          ],
          [
            -103.29548000000001,
            20.597700000000003
          ],
          [
            -103.29545,
            20.597990000000003
          ],
          [
            -103.29558000000002,
            20.598380000000002
          ],
          [
            -103.29586,
            20.59881
          ],
          [
            -103.29598000000001,
            20.599040000000002
          ],
          [
            -103.29591,
            20.59962
          ],
          [
            -103.2959,
            20.600250000000003
          ],
          [
            -103.29608,
            20.601650000000003
          ],
          [
            -103.29570000000001,
            20.60162
          ],
          [
            -103.29546,
            20.60152
          ],
          [
            -103.29530000000001,
            20.60125
          ],
          [
            -103.29526000000001,
            20.601210000000002
          ],
          [
            -103.295,
            20.60115
          ],
          [
            -103.29469,
            20.60125
          ],
          [
            -103.29439,
            20.60124
          ],
          [
            -103.29384,
            20.601190000000003
          ],
          [
            -103.29356000000001,
            20.601080000000003
          ],
          [
            -103.29313,
            20.600980000000003
          ],
          [
            -103.29272,
            20.60096
          ],
          [
            -103.29251000000001,
            20.600920000000002
          ],
          [
            -103.29246,
            20.600810000000003
          ],
          [
            -103.29194000000001,
            20.600720000000003
          ],
          [
            -103.29174,
            20.600740000000002
          ],
          [
            -103.29038000000001,
            20.600700000000003
          ],
          [
            -103.29035,
            20.60322
          ],
          [
            -103.29048,
            20.605030000000003
          ],
          [
            -103.29068000000001,
            20.606260000000002
          ],
          [
            -103.29104000000001,
            20.60762
          ],
          [
            -103.29142,
            20.60838
          ],
          [
            -103.29164000000002,
            20.60893
          ],
          [
            -103.29201,
            20.610400000000002
          ],
          [
            -103.29224,
            20.61108
          ],
          [
            -103.29236,
            20.611140000000002
          ],
          [
            -103.29303,
            20.61287
          ],
          [
            -103.29382000000001,
            20.614030000000003
          ],
          [
            -103.29418000000001,
            20.61464
          ],
          [
            -103.29466000000001,
            20.61558
          ],
          [
            -103.29573,
            20.616960000000002
          ],
          [
            -103.29678000000001,
            20.61805
          ],
          [
            -103.29761,
            20.6188
          ],
          [
            -103.29817000000001,
            20.61916
          ],
          [
            -103.29877,
            20.6199
          ],
          [
            -103.30044000000001,
            20.622120000000002
          ],
          [
            -103.30426000000001,
            20.62508
          ],
          [
            -103.30427,
            20.62537
          ],
          [
            -103.30435000000001,
            20.625700000000002
          ],
          [
            -103.30859000000001,
            20.62413
          ],
          [
            -103.30956,
            20.623880000000003
          ],
          [
            -103.3109,
            20.62366
          ],
          [
            -103.31225,
            20.62357
          ],
          [
            -103.31449,
            20.62376
          ],
          [
            -103.31438000000001,
            20.624630000000003
          ],
          [
            -103.31435,
            20.62543
          ],
          [
            -103.31400000000001,
            20.62547
          ],
          [
            -103.31385,
            20.625670000000003
          ],
          [
            -103.31387000000001,
            20.625880000000002
          ],
          [
            -103.31395,
            20.62612
          ],
          [
            -103.31419000000001,
            20.626260000000002
          ],
          [
            -103.31441000000001,
            20.62628
          ],
          [
            -103.31451000000001,
            20.62621
          ],
          [
            -103.31497,
            20.62704
          ],
          [
            -103.31764000000001,
            20.628010000000003
          ],
          [
            -103.32201,
            20.62967
          ],
          [
            -103.32245,
            20.629140000000003
          ],
          [
            -103.32384,
            20.6273
          ],
          [
            -103.32375,
            20.627170000000003
          ],
          [
            -103.32306000000001,
            20.62714
          ],
          [
            -103.32273,
            20.627180000000003
          ],
          [
            -103.32273,
            20.62574
          ]
        ]
      }
    }
  ]
}