{
  "type": "FeatureCollection",
  "features": [
    {
      "type": "Feature",
      "properties": {
        "identifier": "179-2?o=2",
        "name": "Ruta 179"
      },
      "geometry": {
        "type": "LineString",
        "coordinates": [
          [
            -103.24267,
            20.5163
          ],
          [
            -103.23952000000001,
            20.51254
          ],
          [
            -103.23880000000001,
            20.51413
          ],
          [
            -103.23379000000001,
            20.507230000000003
          ],
          [
            -103.23162,
            20.50709
          ],
          [
            -103.23344,
            20.50626
          ],
          [
            -103.23041,
            20.498810000000002
          ],
          [
            -103.19090000000001,
            20.512690000000003
          ],
          [
            -103.19153000000001,
            20.514740000000003
          ],
          [
            -103.18517000000001,
            20.516930000000002
          ],
          [
            -103.18582,
            20.518600000000003
          ],
          [
            -103.17961000000001,
            20.520500000000002
          ],
          [
            -103.18189000000001,
            20.52681
          ],
          [
            -103.18141000000001,
            20.53122
          ],
          [
            -103.18077000000001,
            20.532980000000002
          ],
          [
            -103.18115,
            20.53421
          ],
          [
            -103.18023000000001,
            20.53714
          ],
          [
            -103.18142,
            20.53978
          ],
          [
            -103.18318000000001,
            20.549200000000003
          ],
          [
            -103.18426000000001,
            20.55076
          ],
          [
            -103.18425,
            20.554370000000002
          ],
          [
            -103.18587000000001,
            20.564680000000003
          ],
          [
            -103.18678000000001,
            20.565920000000002
          ],
          [
            -103.18801,
            20.57213
          ],
          [
            -103.18867,
            20.57326
          ],
          [
            -103.20305,
            20.568920000000002
          ],
          [
            -103.20708,
            20.568540000000002
          ],
          [
            -103.20859000000002,
            20.569010000000002
          ],
          [
            -103.21325,
            20.57214
          ],
          [
            -103.22866,
            20.597520000000003
          ],
          [
            -103.22995,
            20.598450000000003
          ],
          [
            -103.23936,
            20.60123
          ],
          [
            -103.24273000000001,
            20.610480000000003
          ],
          [
            -103.24223,
            20.61288
          ],
          [
            -103.24427000000001,
            20.614140000000003
          ],
          [
            -103.24382000000001,
            20.61455
          ],
          [
            -103.24100000000001,
            20.614800000000002
          ],
          [
            -103.23994,
            20.618550000000003
          ],
          [
            -103.24386000000001,
            20.619490000000003
          ],
          [
            -103.24474000000001,
            20.61906
          ],
          [
            -103.24814,
            20.618820000000003
          ],
          [
            -103.24390000000001,
            20.632620000000003
          ],
          [
            -103.24311,
            20.63932
          ],
          [
            -103.24267,
            20.64008
          ],
          [
            -103.23833,
            20.64289
          ],
          [
            -103.23721,
            20.64438
          ],
          [
            -103.23221000000001,
            20.660120000000003
          ],
          [
            -103.23227000000001,
            20.66279
          ],
          [
            -103.23766,
            20.674970000000002
          ],
          [
            -103.24076000000001,
            20.678500000000003
          ],
          [
            -103.24519000000001,
            20.678240000000002
          ],
          [
            -103.24525000000001,
            20.678780000000003
          ],
          [
            -103.24788000000001,
            20.67942
          ],
          [
            -103.2531,
            20.67762
          ],
          [
            -103.25777000000001,
            20.67723
          ],
          [
            -103.25845000000001,
            20.68459
          ],
          [
            -103.26163000000001,
            20.68455
          ],
          [
            -103.26165,
            20.68589
          ],
          [
            -103.26368000000001,
            20.685850000000002
          ],
          [
            -103.26376,
            20.69028
          ],
          [
            -103.26495000000001,
            20.69096
          ],
          [
            -103.26508000000001,
            20.69266
          ],
          [
            -103.26441000000001,
            20.69266
          ],
          [
            -103.26446000000001,
            20.693550000000002
          ],
          [
            -103.26446000000001,
            20.692110000000003
          ]
        ]
      }
    }
  ]
}