{
  "type": "FeatureCollection",
  "features": [
    {
      "type": "Feature",
      "properties": {
        "identifier": "180-2?o=2",
        "name": "Ruta 180"
      },
      "geometry": {
        "type": "LineString",
        "coordinates": [
          [
            -103.32117000000001,
            20.58942
          ],
          [
            -103.32073000000001,
            20.588520000000003
          ],
          [
            -103.32043,
            20.587860000000003
          ],
          [
            -103.3203,
            20.58762
          ],
          [
            -103.31810000000002,
            20.58301
          ],
          [
            -103.31810000000002,
            20.583000000000002
          ],
          [
            -103.31551,
            20.577540000000003
          ],
          [
            -103.31435,
            20.57514
          ],
          [
            -103.31436000000001,
            20.57513
          ],
          [
            -103.31307000000001,
            20.57242
          ],
          [
            -103.31307000000001,
            20.57242
          ],
          [
            -103.31289000000001,
            20.57206
          ],
          [
            -103.31281000000001,
            20.57188
          ],
          [
            -103.31281000000001,
            20.571710000000003
          ],
          [
            -103.31283,
            20.571530000000003
          ],
          [
            -103.31289000000001,
            20.57141
          ],
          [
            -103.31297,
            20.571330000000003
          ],
          [
            -103.31309,
            20.571260000000002
          ],
          [
            -103.31321000000001,
            20.571240000000003
          ],
          [
            -103.31336,
            20.571250000000003
          ],
          [
            -103.31349,
            20.571330000000003
          ],
          [
            -103.31359,
            20.571420000000003
          ],
          [
            -103.31364,
            20.571530000000003
          ],
          [
            -103.31366000000001,
            20.571630000000003
          ],
          [
            -103.31364,
            20.57176
          ],
          [
            -103.31358,
            20.57188
          ],
          [
            -103.31345,
            20.571990000000003
          ],
          [
            -103.31324000000001,
            20.57206
          ],
          [
            -103.31311000000001,
            20.572090000000003
          ],
          [
            -103.31292,
            20.57206
          ],
          [
            -103.31267000000001,
            20.572010000000002
          ],
          [
            -103.31198,
            20.571910000000003
          ],
          [
            -103.31096000000001,
            20.571710000000003
          ],
          [
            -103.30982,
            20.571530000000003
          ],
          [
            -103.30882000000001,
            20.57137
          ],
          [
            -103.30821,
            20.57122
          ],
          [
            -103.30794,
            20.57112
          ],
          [
            -103.30747000000001,
            20.57091
          ],
          [
            -103.30704000000001,
            20.570690000000003
          ],
          [
            -103.30703000000001,
            20.570690000000003
          ],
          [
            -103.30609000000001,
            20.570220000000003
          ],
          [
            -103.30521,
            20.5698
          ],
          [
            -103.30520000000001,
            20.5698
          ],
          [
            -103.30414,
            20.569280000000003
          ],
          [
            -103.30329,
            20.56886
          ],
          [
            -103.30329,
            20.56885
          ],
          [
            -103.30107000000001,
            20.567780000000003
          ],
          [
            -103.29976,
            20.567130000000002
          ],
          [
            -103.29854,
            20.56653
          ],
          [
            -103.29631,
            20.565440000000002
          ],
          [
            -103.29606000000001,
            20.565320000000003
          ],
          [
            -103.29564,
            20.56512
          ],
          [
            -103.29536,
            20.56502
          ],
          [
            -103.29476000000001,
            20.56472
          ],
          [
            -103.29476000000001,
            20.56471
          ],
          [
            -103.29377000000001,
            20.564210000000003
          ],
          [
            -103.29334000000001,
            20.564020000000003
          ],
          [
            -103.29331,
            20.564010000000003
          ],
          [
            -103.29245,
            20.563560000000003
          ],
          [
            -103.29220000000001,
            20.56344
          ],
          [
            -103.2913,
            20.563000000000002
          ],
          [
            -103.29060000000001,
            20.56268
          ],
          [
            -103.29028000000001,
            20.562530000000002
          ],
          [
            -103.28993000000001,
            20.562430000000003
          ],
          [
            -103.28945,
            20.56236
          ],
          [
            -103.28568000000001,
            20.562160000000002
          ],
          [
            -103.28458,
            20.56211
          ],
          [
            -103.28458,
            20.5621
          ],
          [
            -103.28458,
            20.5621
          ],
          [
            -103.28293000000001,
            20.56203
          ],
          [
            -103.27934,
            20.56184
          ],
          [
            -103.27934,
            20.56184
          ],
          [
            -103.27877000000001,
            20.56183
          ],
          [
            -103.27877000000001,
            20.56182
          ],
          [
            -103.27877000000001,
            20.56182
          ],
          [
            -103.27866,
            20.56182
          ],
          [
            -103.27828000000001,
            20.561780000000002
          ],
          [
            -103.27792000000001,
            20.561680000000003
          ],
          [
            -103.27771000000001,
            20.56161
          ],
          [
            -103.27736,
            20.56144
          ],
          [
            -103.27707000000001,
            20.56124
          ],
          [
            -103.27682000000001,
            20.561020000000003
          ],
          [
            -103.27646000000001,
            20.56059
          ],
          [
            -103.27555000000001,
            20.559430000000003
          ],
          [
            -103.27372000000001,
            20.55713
          ],
          [
            -103.27363000000001,
            20.55702
          ],
          [
            -103.27207000000001,
            20.555030000000002
          ],
          [
            -103.272,
            20.55496
          ],
          [
            -103.27096,
            20.553600000000003
          ],
          [
            -103.27035000000001,
            20.552840000000003
          ],
          [
            -103.26840000000001,
            20.550430000000002
          ],
          [
            -103.26686000000001,
            20.5485
          ],
          [
            -103.26632000000001,
            20.547800000000002
          ],
          [
            -103.26598000000001,
            20.54739
          ],
          [
            -103.26573,
            20.547040000000003
          ],
          [
            -103.26490000000001,
            20.546010000000003
          ],
          [
            -103.26474,
            20.54579
          ],
          [
            -103.26394,
            20.544800000000002
          ],
          [
            -103.26320000000001,
            20.54388
          ],
          [
            -103.26239000000001,
            20.542820000000003
          ],
          [
            -103.25962000000001,
            20.539340000000003
          ],
          [
            -103.25714,
            20.53621
          ],
          [
            -103.25483000000001,
            20.533350000000002
          ],
          [
            -103.25428000000001,
            20.53263
          ],
          [
            -103.25423,
            20.53256
          ],
          [
            -103.25336000000001,
            20.531450000000003
          ],
          [
            -103.25027000000001,
            20.52756
          ],
          [
            -103.24981000000001,
            20.52701
          ],
          [
            -103.24835,
            20.525090000000002
          ],
          [
            -103.24609000000001,
            20.52231
          ],
          [
            -103.24567,
            20.521890000000003
          ],
          [
            -103.24567,
            20.521880000000003
          ],
          [
            -103.24367000000001,
            20.520090000000003
          ],
          [
            -103.24335,
            20.519810000000003
          ],
          [
            -103.24312,
            20.51952
          ],
          [
            -103.24132,
            20.517190000000003
          ],
          [
            -103.24116000000001,
            20.51695
          ],
          [
            -103.24115,
            20.51696
          ],
          [
            -103.23962,
            20.515
          ],
          [
            -103.23962,
            20.51501
          ],
          [
            -103.23961000000001,
            20.51501
          ],
          [
            -103.23871000000001,
            20.513820000000003
          ],
          [
            -103.23870000000001,
            20.513820000000003
          ],
          [
            -103.23669000000001,
            20.51126
          ],
          [
            -103.23668,
            20.51126
          ],
          [
            -103.23544000000001,
            20.509670000000003
          ],
          [
            -103.23545000000001,
            20.509670000000003
          ],
          [
            -103.23515,
            20.509320000000002
          ],
          [
            -103.23456,
            20.50852
          ],
          [
            -103.23427000000001,
            20.50803
          ],
          [
            -103.23377,
            20.50683
          ],
          [
            -103.23257000000001,
            20.503790000000002
          ],
          [
            -103.23257000000001,
            20.503790000000002
          ],
          [
            -103.23231000000001,
            20.50315
          ],
          [
            -103.23222000000001,
            20.5029
          ],
          [
            -103.2318,
            20.50183
          ],
          [
            -103.23072,
            20.499160000000003
          ],
          [
            -103.23065000000001,
            20.498990000000003
          ],
          [
            -103.23065000000001,
            20.498810000000002
          ],
          [
            -103.23073000000001,
            20.49866
          ],
          [
            -103.23111000000002,
            20.498530000000002
          ],
          [
            -103.23111000000002,
            20.498530000000002
          ],
          [
            -103.23479,
            20.49727
          ],
          [
            -103.23563000000001,
            20.497000000000003
          ],
          [
            -103.23587,
            20.496930000000003
          ],
          [
            -103.23656000000001,
            20.49678
          ],
          [
            -103.23791000000001,
            20.49658
          ],
          [
            -103.23942000000001,
            20.496280000000002
          ],
          [
            -103.23993000000002,
            20.49621
          ],
          [
            -103.24396000000002,
            20.49539
          ],
          [
            -103.24376000000001,
            20.495050000000003
          ],
          [
            -103.2428,
            20.4935
          ],
          [
            -103.2424,
            20.492900000000002
          ],
          [
            -103.24218,
            20.492620000000002
          ],
          [
            -103.24141,
            20.49189
          ],
          [
            -103.24129,
            20.49171
          ],
          [
            -103.24107000000001,
            20.491470000000003
          ],
          [
            -103.24106,
            20.491470000000003
          ],
          [
            -103.24053,
            20.49099
          ],
          [
            -103.24032000000001,
            20.49068
          ],
          [
            -103.24031000000001,
            20.49057
          ],
          [
            -103.24024000000001,
            20.49049
          ],
          [
            -103.24014000000001,
            20.490450000000003
          ],
          [
            -103.24007,
            20.490460000000002
          ],
          [
            -103.23951000000001,
            20.49012
          ],
          [
            -103.23946000000001,
            20.4901
          ],
          [
            -103.23905,
            20.489700000000003
          ],
          [
            -103.23831000000001,
            20.489050000000002
          ],
          [
            -103.23828,
            20.48902
          ],
          [
            -103.23798000000001,
            20.48882
          ],
          [
            -103.23696000000001,
            20.488210000000002
          ],
          [
            -103.23663,
            20.48796
          ],
          [
            -103.23638000000001,
            20.48766
          ],
          [
            -103.23624000000001,
            20.48741
          ],
          [
            -103.23568,
            20.485940000000003
          ],
          [
            -103.23568,
            20.485930000000003
          ],
          [
            -103.23515,
            20.48451
          ],
          [
            -103.23489000000001,
            20.48393
          ],
          [
            -103.23457,
            20.48329
          ],
          [
            -103.23403,
            20.482270000000003
          ],
          [
            -103.23341,
            20.481160000000003
          ],
          [
            -103.23326,
            20.480860000000003
          ],
          [
            -103.23312000000001,
            20.480600000000003
          ],
          [
            -103.23294000000001,
            20.48025
          ],
          [
            -103.23265,
            20.47951
          ],
          [
            -103.23187000000001,
            20.47737
          ],
          [
            -103.23197,
            20.47734
          ],
          [
            -103.23197,
            20.47734
          ],
          [
            -103.23187000000001,
            20.47737
          ],
          [
            -103.23177000000001,
            20.477110000000003
          ],
          [
            -103.23127000000001,
            20.47569
          ],
          [
            -103.23085,
            20.47455
          ],
          [
            -103.23045,
            20.473660000000002
          ],
          [
            -103.23032,
            20.47341
          ],
          [
            -103.22994000000001,
            20.472720000000002
          ],
          [
            -103.22961000000001,
            20.47222
          ],
          [
            -103.22935000000001,
            20.471870000000003
          ],
          [
            -103.22935000000001,
            20.471860000000003
          ],
          [
            -103.22805000000001,
            20.47004
          ],
          [
            -103.22805000000001,
            20.47003
          ],
          [
            -103.22654000000001,
            20.467940000000002
          ],
          [
            -103.22630000000001,
            20.46759
          ],
          [
            -103.22630000000001,
            20.46758
          ],
          [
            -103.22386,
            20.464090000000002
          ],
          [
            -103.22390000000001,
            20.464070000000003
          ],
          [
            -103.22390000000001,
            20.464070000000003
          ],
          [
            -103.22386,
            20.464090000000002
          ],
          [
            -103.2236,
            20.46376
          ],
          [
            -103.22257,
            20.46237
          ],
          [
            -103.22183000000001,
            20.46129
          ],
          [
            -103.22023000000002,
            20.45907
          ],
          [
            -103.21963000000001,
            20.458190000000002
          ],
          [
            -103.21962,
            20.458180000000002
          ],
          [
            -103.21883000000001,
            20.457060000000002
          ],
          [
            -103.21729,
            20.454880000000003
          ],
          [
            -103.21535000000002,
            20.452150000000003
          ],
          [
            -103.21484000000001,
            20.451330000000002
          ],
          [
            -103.21363000000001,
            20.449630000000003
          ],
          [
            -103.21363000000001,
            20.449630000000003
          ],
          [
            -103.21085000000001,
            20.445670000000003
          ],
          [
            -103.21085000000001,
            20.44566
          ],
          [
            -103.20808000000001,
            20.441750000000003
          ],
          [
            -103.20808000000001,
            20.441750000000003
          ],
          [
            -103.20747000000001,
            20.440900000000003
          ],
          [
            -103.20691000000001,
            20.440150000000003
          ],
          [
            -103.20708,
            20.439970000000002
          ],
          [
            -103.2082,
            20.43879
          ],
          [
            -103.20929000000001,
            20.43758
          ],
          [
            -103.20996000000001,
            20.4368
          ],
          [
            -103.20997000000001,
            20.436790000000002
          ],
          [
            -103.21024000000001,
            20.43646
          ],
          [
            -103.21117000000001,
            20.4354
          ],
          [
            -103.21124,
            20.43525
          ],
          [
            -103.21143000000001,
            20.434520000000003
          ],
          [
            -103.21112000000001,
            20.43431
          ],
          [
            -103.20986,
            20.433470000000003
          ],
          [
            -103.20700000000001,
            20.43149
          ],
          [
            -103.20699,
            20.43149
          ],
          [
            -103.20614,
            20.4309
          ],
          [
            -103.20476000000001,
            20.4299
          ],
          [
            -103.20348000000001,
            20.42902
          ],
          [
            -103.19980000000001,
            20.42652
          ],
          [
            -103.19980000000001,
            20.42651
          ],
          [
            -103.19854000000001,
            20.42563
          ],
          [
            -103.19832000000001,
            20.425400000000003
          ],
          [
            -103.19819000000001,
            20.425230000000003
          ],
          [
            -103.19784000000001,
            20.424660000000003
          ],
          [
            -103.19773,
            20.42453
          ],
          [
            -103.19633,
            20.42358
          ],
          [
            -103.19465000000001,
            20.42248
          ],
          [
            -103.19407000000001,
            20.42208
          ],
          [
            -103.19257,
            20.421100000000003
          ],
          [
            -103.18794000000001,
            20.41805
          ],
          [
            -103.18794000000001,
            20.41804
          ],
          [
            -103.18299,
            20.414640000000002
          ],
          [
            -103.18299,
            20.413200000000003
          ]
        ]
      }
    }
  ]
}