{
  "type": "FeatureCollection",
  "features": [
    {
      "type": "Feature",
      "properties": {
        "identifier": "185-lm",
        "name": "Ruta 185 LM"
      },
      "geometry": {
        "type": "LineString",
        "coordinates": [
          [
            -103.43535000000001,
            20.56203
          ],
          [
            -103.4376,
            20.556630000000002
          ],
          [
            -103.43632000000001,
            20.556430000000002
          ],
          [
            -103.43617,
            20.55684
          ],
          [
            -103.43542000000001,
            20.556600000000003
          ],
          [
            -103.43645000000001,
            20.55384
          ],
          [
            -103.43678000000001,
            20.552750000000003
          ],
          [
            -103.43706,
            20.551640000000003
          ],
          [
            -103.43713000000001,
            20.5514
          ],
          [
            -103.43851000000001,
            20.55158
          ],
          [
            -103.44068000000001,
            20.55195
          ],
          [
            -103.44229000000001,
            20.55216
          ],
          [
            -103.44297,
            20.552290000000003
          ],
          [
            -103.44415000000001,
            20.552770000000002
          ],
          [
            -103.44525,
            20.553250000000002
          ],
          [
            -103.44624,
            20.55366
          ],
          [
            -103.44909000000001,
            20.554530000000003
          ],
          [
            -103.45032,
            20.55495
          ],
          [
            -103.45206,
            20.55546
          ],
          [
            -103.45327,
            20.55591
          ],
          [
            -103.45343000000001,
            20.555950000000003
          ],
          [
            -103.45427000000001,
            20.55518
          ],
          [
            -103.45447000000001,
            20.555100000000003
          ],
          [
            -103.45583,
            20.55572
          ],
          [
            -103.45669000000001,
            20.555100000000003
          ],
          [
            -103.45728000000001,
            20.55476
          ],
          [
            -103.45817000000001,
            20.55431
          ],
          [
            -103.45913,
            20.55374
          ],
          [
            -103.46044,
            20.552670000000003
          ],
          [
            -103.46064000000001,
            20.55254
          ],
          [
            -103.46163000000001,
            20.552180000000003
          ],
          [
            -103.46223,
            20.551920000000003
          ],
          [
            -103.46394000000001,
            20.55094
          ],
          [
            -103.46454000000001,
            20.54729
          ],
          [
            -103.46461000000001,
            20.5466
          ],
          [
            -103.46477,
            20.54585
          ],
          [
            -103.46488000000001,
            20.54492
          ],
          [
            -103.4676,
            20.545450000000002
          ],
          [
            -103.46843000000001,
            20.54557
          ],
          [
            -103.47183000000001,
            20.54622
          ],
          [
            -103.47195,
            20.54626
          ],
          [
            -103.47078,
            20.547970000000003
          ],
          [
            -103.47019,
            20.548920000000003
          ],
          [
            -103.46833000000001,
            20.55158
          ],
          [
            -103.46584000000001,
            20.555390000000003
          ],
          [
            -103.46381000000001,
            20.55861
          ],
          [
            -103.46343,
            20.559140000000003
          ],
          [
            -103.46161000000001,
            20.561870000000003
          ],
          [
            -103.46087000000001,
            20.56306
          ],
          [
            -103.45622,
            20.5701
          ],
          [
            -103.45368,
            20.57402
          ],
          [
            -103.45253000000001,
            20.575680000000002
          ],
          [
            -103.44992,
            20.57973
          ],
          [
            -103.44733000000001,
            20.58368
          ],
          [
            -103.44501000000001,
            20.58705
          ],
          [
            -103.44347,
            20.589470000000002
          ],
          [
            -103.44185,
            20.591900000000003
          ],
          [
            -103.44035000000001,
            20.594170000000002
          ],
          [
            -103.43838000000001,
            20.5972
          ],
          [
            -103.43679,
            20.599600000000002
          ],
          [
            -103.43225000000001,
            20.606530000000003
          ],
          [
            -103.42612000000001,
            20.615750000000002
          ],
          [
            -103.42596,
            20.61615
          ],
          [
            -103.42443000000002,
            20.618470000000002
          ],
          [
            -103.42021000000001,
            20.624850000000002
          ],
          [
            -103.4201,
            20.624910000000003
          ],
          [
            -103.41821,
            20.627760000000002
          ],
          [
            -103.41204,
            20.637120000000003
          ],
          [
            -103.41203,
            20.637210000000003
          ],
          [
            -103.40800000000002,
            20.6433
          ],
          [
            -103.40791000000002,
            20.64345
          ],
          [
            -103.40780000000001,
            20.64355
          ],
          [
            -103.40645,
            20.64561
          ],
          [
            -103.40616000000001,
            20.64589
          ],
          [
            -103.40546,
            20.64693
          ],
          [
            -103.40485000000001,
            20.647270000000002
          ],
          [
            -103.40469,
            20.64729
          ],
          [
            -103.40417000000001,
            20.64757
          ],
          [
            -103.40169,
            20.64902
          ],
          [
            -103.39345,
            20.65378
          ],
          [
            -103.38770000000001,
            20.65707
          ],
          [
            -103.38583000000001,
            20.65821
          ],
          [
            -103.38458000000001,
            20.658910000000002
          ],
          [
            -103.38424,
            20.65902
          ],
          [
            -103.38403000000001,
            20.658890000000003
          ],
          [
            -103.38380000000001,
            20.658880000000003
          ],
          [
            -103.38358000000001,
            20.65896
          ],
          [
            -103.38336000000001,
            20.65915
          ],
          [
            -103.38325,
            20.65942
          ],
          [
            -103.38332000000001,
            20.65972
          ],
          [
            -103.38164,
            20.660690000000002
          ],
          [
            -103.38077000000001,
            20.66118
          ],
          [
            -103.3807,
            20.661260000000002
          ],
          [
            -103.38038,
            20.66148
          ],
          [
            -103.37945,
            20.661980000000003
          ],
          [
            -103.37869,
            20.662450000000003
          ],
          [
            -103.37697000000001,
            20.66316
          ],
          [
            -103.37681,
            20.66316
          ],
          [
            -103.37682000000001,
            20.66318
          ],
          [
            -103.37634000000001,
            20.663390000000003
          ],
          [
            -103.37208000000001,
            20.66525
          ],
          [
            -103.37011000000001,
            20.664450000000002
          ],
          [
            -103.36535,
            20.662670000000002
          ],
          [
            -103.35805,
            20.65988
          ],
          [
            -103.35441,
            20.658520000000003
          ],
          [
            -103.35368000000001,
            20.658230000000003
          ],
          [
            -103.35302000000001,
            20.66101
          ],
          [
            -103.35239000000001,
            20.663880000000002
          ],
          [
            -103.35252000000001,
            20.66404
          ],
          [
            -103.35205,
            20.66467
          ],
          [
            -103.34929000000001,
            20.663890000000002
          ],
          [
            -103.34805000000001,
            20.66344
          ],
          [
            -103.34579000000001,
            20.66279
          ],
          [
            -103.34582,
            20.66345
          ],
          [
            -103.34158000000001,
            20.66213
          ],
          [
            -103.34201,
            20.66074
          ],
          [
            -103.34201,
            20.6593
          ]
        ]
      }
    }
  ]
}