{
  "type": "FeatureCollection",
  "features": [
    {
      "type": "Feature",
      "properties": {
        "identifier": "185-lm?o=2",
        "name": "Ruta 185 LM"
      },
      "geometry": {
        "type": "LineString",
        "coordinates": [
          [
            -103.34201,
            20.66074
          ],
          [
            -103.34351000000001,
            20.661260000000002
          ],
          [
            -103.34577,
            20.662020000000002
          ],
          [
            -103.34582,
            20.66205
          ],
          [
            -103.34709000000001,
            20.66224
          ],
          [
            -103.34842,
            20.662460000000003
          ],
          [
            -103.3485,
            20.6624
          ],
          [
            -103.3486,
            20.66253
          ],
          [
            -103.34881000000001,
            20.6626
          ],
          [
            -103.349,
            20.662570000000002
          ],
          [
            -103.34971,
            20.66263
          ],
          [
            -103.35259,
            20.663030000000003
          ],
          [
            -103.35303,
            20.66101
          ],
          [
            -103.35365,
            20.65837
          ],
          [
            -103.35602000000002,
            20.6593
          ],
          [
            -103.3598,
            20.660670000000003
          ],
          [
            -103.36529,
            20.662770000000002
          ],
          [
            -103.36771,
            20.66372
          ],
          [
            -103.36999,
            20.66458
          ],
          [
            -103.37204000000001,
            20.665370000000003
          ],
          [
            -103.37559,
            20.663800000000002
          ],
          [
            -103.37667,
            20.663330000000002
          ],
          [
            -103.37693,
            20.663240000000002
          ],
          [
            -103.37698,
            20.66316
          ],
          [
            -103.37869,
            20.662450000000003
          ],
          [
            -103.37945,
            20.661980000000003
          ],
          [
            -103.38038,
            20.66148
          ],
          [
            -103.3807,
            20.661260000000002
          ],
          [
            -103.38083,
            20.661260000000002
          ],
          [
            -103.38333000000002,
            20.65981
          ],
          [
            -103.38358000000001,
            20.65999
          ],
          [
            -103.38384,
            20.660020000000003
          ],
          [
            -103.38418000000001,
            20.65996
          ],
          [
            -103.38429000000001,
            20.659830000000003
          ],
          [
            -103.38446,
            20.65952
          ],
          [
            -103.3845,
            20.659360000000003
          ],
          [
            -103.38442,
            20.659170000000003
          ],
          [
            -103.38638,
            20.65808
          ],
          [
            -103.38762000000001,
            20.65735
          ],
          [
            -103.38777,
            20.657210000000003
          ],
          [
            -103.38819000000001,
            20.656950000000002
          ],
          [
            -103.39822000000001,
            20.65116
          ],
          [
            -103.39886000000001,
            20.6508
          ],
          [
            -103.39896,
            20.65078
          ],
          [
            -103.40032000000001,
            20.649980000000003
          ],
          [
            -103.40116,
            20.649520000000003
          ],
          [
            -103.40392000000001,
            20.64789
          ],
          [
            -103.40459000000001,
            20.647550000000003
          ],
          [
            -103.40474,
            20.6476
          ],
          [
            -103.40501,
            20.64788
          ],
          [
            -103.40617,
            20.64619
          ],
          [
            -103.40632000000001,
            20.645880000000002
          ],
          [
            -103.40788,
            20.643600000000003
          ],
          [
            -103.40792,
            20.64345
          ],
          [
            -103.40801,
            20.6433
          ],
          [
            -103.41203,
            20.637210000000003
          ],
          [
            -103.41212,
            20.63717
          ],
          [
            -103.41361,
            20.634990000000002
          ],
          [
            -103.41383,
            20.634600000000002
          ],
          [
            -103.41723,
            20.629450000000002
          ],
          [
            -103.41836,
            20.62778
          ],
          [
            -103.42019,
            20.62497
          ],
          [
            -103.42022000000001,
            20.624850000000002
          ],
          [
            -103.42596,
            20.61615
          ],
          [
            -103.42629000000001,
            20.61578
          ],
          [
            -103.4278,
            20.61355
          ],
          [
            -103.42853000000001,
            20.612360000000002
          ],
          [
            -103.42954,
            20.610850000000003
          ],
          [
            -103.43233000000001,
            20.6066
          ],
          [
            -103.43693,
            20.59972
          ],
          [
            -103.44195,
            20.592010000000002
          ],
          [
            -103.4436,
            20.589560000000002
          ],
          [
            -103.44522,
            20.587100000000003
          ],
          [
            -103.44866,
            20.58182
          ],
          [
            -103.45001,
            20.57976
          ],
          [
            -103.45105000000001,
            20.57826
          ],
          [
            -103.45469000000001,
            20.572840000000003
          ],
          [
            -103.45623,
            20.57046
          ],
          [
            -103.4578,
            20.56809
          ],
          [
            -103.45932,
            20.56576
          ],
          [
            -103.46912,
            20.55085
          ],
          [
            -103.46989,
            20.5496
          ],
          [
            -103.47132,
            20.547400000000003
          ],
          [
            -103.47119,
            20.54735
          ],
          [
            -103.46947000000002,
            20.549930000000003
          ],
          [
            -103.46518,
            20.54943
          ],
          [
            -103.46499000000001,
            20.550440000000002
          ],
          [
            -103.46299,
            20.55149
          ],
          [
            -103.46219,
            20.55196
          ],
          [
            -103.46166000000001,
            20.55216
          ],
          [
            -103.46067000000001,
            20.552490000000002
          ],
          [
            -103.4603,
            20.552760000000003
          ],
          [
            -103.45937,
            20.55358
          ],
          [
            -103.45891,
            20.553910000000002
          ],
          [
            -103.45685,
            20.555010000000003
          ],
          [
            -103.45591,
            20.555670000000003
          ],
          [
            -103.45453,
            20.555030000000002
          ],
          [
            -103.45431,
            20.55515
          ],
          [
            -103.45345,
            20.55593
          ],
          [
            -103.45054,
            20.555020000000003
          ],
          [
            -103.44763,
            20.554060000000003
          ],
          [
            -103.44651,
            20.55375
          ],
          [
            -103.44572000000001,
            20.55347
          ],
          [
            -103.44468,
            20.55302
          ],
          [
            -103.44347,
            20.552480000000003
          ],
          [
            -103.44287000000001,
            20.55226
          ],
          [
            -103.44162000000001,
            20.552090000000003
          ],
          [
            -103.43885,
            20.55167
          ],
          [
            -103.43715,
            20.551360000000003
          ],
          [
            -103.43667,
            20.55319
          ],
          [
            -103.43612,
            20.55479
          ],
          [
            -103.4351,
            20.55732
          ],
          [
            -103.43447,
            20.558780000000002
          ],
          [
            -103.43399000000001,
            20.560070000000003
          ],
          [
            -103.43357,
            20.5607
          ],
          [
            -103.43321,
            20.56118
          ],
          [
            -103.43365000000001,
            20.56134
          ],
          [
            -103.43535000000001,
            20.562040000000003
          ],
          [
            -103.43535000000001,
            20.5606
          ]
        ]
      }
    }
  ]
}