{
  "type": "FeatureCollection",
  "features": [
    {
      "type": "Feature",
      "properties": {
        "identifier": "186-a-via-lopez-mateos?o=2",
        "name": "Ruta 186 A Vía López Mateos"
      },
      "geometry": {
        "type": "LineString",
        "coordinates": [
          [
            -103.40067,
            20.605690000000003
          ],
          [
            -103.40073000000001,
            20.60563
          ],
          [
            -103.40113000000001,
            20.605980000000002
          ],
          [
            -103.4017,
            20.606440000000003
          ],
          [
            -103.40195000000001,
            20.606640000000002
          ],
          [
            -103.40196,
            20.606800000000003
          ],
          [
            -103.40187,
            20.606910000000003
          ],
          [
            -103.40240000000001,
            20.607210000000002
          ],
          [
            -103.4034,
            20.607570000000003
          ],
          [
            -103.40518,
            20.608020000000003
          ],
          [
            -103.40737000000001,
            20.60855
          ],
          [
            -103.41119,
            20.609440000000003
          ],
          [
            -103.41443000000001,
            20.61025
          ],
          [
            -103.41859000000001,
            20.611250000000002
          ],
          [
            -103.42194,
            20.612060000000003
          ],
          [
            -103.42266000000001,
            20.61232
          ],
          [
            -103.42373,
            20.61289
          ],
          [
            -103.42483000000001,
            20.61355
          ],
          [
            -103.42681,
            20.614690000000003
          ],
          [
            -103.42752000000002,
            20.61511
          ],
          [
            -103.42760000000001,
            20.61533
          ],
          [
            -103.42760000000001,
            20.615640000000003
          ],
          [
            -103.42741000000001,
            20.615850000000002
          ],
          [
            -103.42716000000001,
            20.615930000000002
          ],
          [
            -103.42696000000001,
            20.61589
          ],
          [
            -103.42680000000001,
            20.61578
          ],
          [
            -103.42670000000001,
            20.615620000000003
          ],
          [
            -103.42670000000001,
            20.615370000000002
          ],
          [
            -103.42677,
            20.6151
          ],
          [
            -103.42717,
            20.614520000000002
          ],
          [
            -103.42797,
            20.613280000000003
          ],
          [
            -103.4282,
            20.612920000000003
          ],
          [
            -103.42834,
            20.61287
          ],
          [
            -103.42932,
            20.6113
          ],
          [
            -103.43083000000001,
            20.609060000000003
          ],
          [
            -103.43269000000001,
            20.606240000000003
          ],
          [
            -103.43439000000001,
            20.603650000000002
          ],
          [
            -103.43524000000001,
            20.602230000000002
          ],
          [
            -103.43672000000001,
            20.599970000000003
          ],
          [
            -103.43893000000001,
            20.59662
          ],
          [
            -103.4407,
            20.59392
          ],
          [
            -103.44263000000001,
            20.591
          ],
          [
            -103.44482,
            20.58771
          ],
          [
            -103.44681000000001,
            20.58464
          ],
          [
            -103.44888,
            20.581480000000003
          ],
          [
            -103.44994000000001,
            20.579890000000002
          ],
          [
            -103.45158,
            20.577430000000003
          ],
          [
            -103.45460000000001,
            20.572940000000003
          ],
          [
            -103.45907000000001,
            20.566110000000002
          ],
          [
            -103.4628,
            20.560470000000002
          ],
          [
            -103.46588000000001,
            20.55582
          ],
          [
            -103.46770000000001,
            20.552970000000002
          ],
          [
            -103.47003000000001,
            20.549380000000003
          ],
          [
            -103.47222000000001,
            20.546010000000003
          ],
          [
            -103.47241000000001,
            20.545560000000002
          ],
          [
            -103.47318000000001,
            20.542360000000002
          ],
          [
            -103.47417000000002,
            20.538130000000002
          ],
          [
            -103.47535,
            20.53302
          ],
          [
            -103.47637,
            20.53114
          ],
          [
            -103.47821,
            20.52792
          ],
          [
            -103.48042000000001,
            20.524140000000003
          ],
          [
            -103.48264,
            20.52025
          ],
          [
            -103.48418000000001,
            20.51763
          ],
          [
            -103.48596,
            20.514560000000003
          ],
          [
            -103.48635,
            20.5137
          ],
          [
            -103.48656000000001,
            20.51281
          ],
          [
            -103.48722000000001,
            20.50881
          ],
          [
            -103.48818000000001,
            20.503330000000002
          ],
          [
            -103.48890000000002,
            20.498690000000003
          ],
          [
            -103.48985,
            20.49343
          ],
          [
            -103.49026,
            20.491410000000002
          ],
          [
            -103.49048,
            20.49089
          ],
          [
            -103.49088,
            20.490280000000002
          ],
          [
            -103.49143000000001,
            20.48945
          ],
          [
            -103.49259,
            20.48795
          ],
          [
            -103.49271,
            20.4878
          ],
          [
            -103.49306000000001,
            20.487720000000003
          ],
          [
            -103.49367000000001,
            20.48813
          ],
          [
            -103.49392,
            20.48833
          ],
          [
            -103.49414,
            20.48908
          ],
          [
            -103.49306000000001,
            20.489320000000003
          ],
          [
            -103.49296000000001,
            20.489310000000003
          ],
          [
            -103.49096000000002,
            20.489790000000003
          ],
          [
            -103.4903,
            20.48995
          ],
          [
            -103.48931,
            20.490160000000003
          ],
          [
            -103.48870000000001,
            20.490260000000003
          ],
          [
            -103.48747,
            20.4903
          ],
          [
            -103.48312000000001,
            20.4904
          ],
          [
            -103.47808,
            20.49057
          ],
          [
            -103.47362000000001,
            20.490640000000003
          ],
          [
            -103.47307,
            20.49059
          ],
          [
            -103.47121000000001,
            20.490360000000003
          ],
          [
            -103.46839000000001,
            20.489910000000002
          ],
          [
            -103.46678000000001,
            20.48973
          ],
          [
            -103.46501,
            20.489590000000003
          ],
          [
            -103.46418000000001,
            20.489430000000002
          ],
          [
            -103.46028000000001,
            20.48799
          ],
          [
            -103.45786000000001,
            20.487000000000002
          ],
          [
            -103.45757,
            20.486790000000003
          ],
          [
            -103.45734,
            20.486530000000002
          ],
          [
            -103.45717,
            20.4861
          ],
          [
            -103.45713,
            20.485480000000003
          ],
          [
            -103.45707,
            20.48496
          ],
          [
            -103.45699,
            20.48466
          ],
          [
            -103.45660000000001,
            20.483870000000003
          ],
          [
            -103.45599000000001,
            20.4828
          ],
          [
            -103.45454000000001,
            20.48019
          ],
          [
            -103.45348000000001,
            20.478340000000003
          ],
          [
            -103.45317000000001,
            20.477790000000002
          ],
          [
            -103.45270000000001,
            20.477040000000002
          ],
          [
            -103.45237,
            20.476560000000003
          ],
          [
            -103.45226000000001,
            20.47616
          ],
          [
            -103.45222000000001,
            20.47597
          ],
          [
            -103.45219,
            20.47538
          ],
          [
            -103.45221000000001,
            20.474790000000002
          ],
          [
            -103.45216,
            20.474310000000003
          ],
          [
            -103.45215,
            20.47363
          ],
          [
            -103.45215,
            20.473360000000003
          ],
          [
            -103.45214000000001,
            20.47297
          ],
          [
            -103.45042000000001,
            20.472710000000003
          ],
          [
            -103.44875,
            20.47246
          ],
          [
            -103.44577000000001,
            20.472060000000003
          ],
          [
            -103.44271,
            20.47164
          ],
          [
            -103.4415,
            20.47147
          ],
          [
            -103.44111000000001,
            20.47078
          ],
          [
            -103.44075000000001,
            20.47002
          ],
          [
            -103.44001000000002,
            20.46911
          ],
          [
            -103.43885,
            20.46805
          ],
          [
            -103.43758000000001,
            20.46711
          ],
          [
            -103.43462000000001,
            20.46515
          ],
          [
            -103.43392000000001,
            20.4644
          ],
          [
            -103.4317,
            20.46348
          ],
          [
            -103.42920000000001,
            20.46252
          ],
          [
            -103.42761,
            20.461660000000002
          ],
          [
            -103.42660000000001,
            20.46096
          ],
          [
            -103.42436000000001,
            20.45923
          ],
          [
            -103.42213000000001,
            20.458360000000003
          ],
          [
            -103.42041,
            20.457700000000003
          ],
          [
            -103.41924,
            20.457400000000003
          ],
          [
            -103.41924,
            20.45596
          ]
        ]
      }
    }
  ]
}