{
  "type": "FeatureCollection",
  "features": [
    {
      "type": "Feature",
      "properties": {
        "identifier": "186-gf",
        "name": "Ruta 186 GF"
      },
      "geometry": {
        "type": "LineString",
        "coordinates": [
          [
            -103.34575000000001,
            20.66204
          ],
          [
            -103.34831000000001,
            20.662450000000003
          ],
          [
            -103.34854000000001,
            20.662470000000003
          ],
          [
            -103.34887,
            20.66261
          ],
          [
            -103.34904,
            20.662570000000002
          ],
          [
            -103.35026,
            20.66269
          ],
          [
            -103.35263,
            20.663040000000002
          ],
          [
            -103.35347,
            20.659200000000002
          ],
          [
            -103.35365,
            20.65838
          ],
          [
            -103.35505,
            20.658910000000002
          ],
          [
            -103.35816000000001,
            20.66008
          ],
          [
            -103.36115000000001,
            20.66118
          ],
          [
            -103.36376000000001,
            20.66221
          ],
          [
            -103.36698000000001,
            20.663420000000002
          ],
          [
            -103.37062,
            20.664810000000003
          ],
          [
            -103.37211,
            20.665390000000002
          ],
          [
            -103.3734,
            20.66488
          ],
          [
            -103.37399,
            20.66465
          ],
          [
            -103.37448,
            20.66429
          ],
          [
            -103.37548000000001,
            20.663860000000003
          ],
          [
            -103.37691000000001,
            20.66325
          ],
          [
            -103.37700000000001,
            20.66316
          ],
          [
            -103.37873,
            20.66243
          ],
          [
            -103.37947000000001,
            20.66196
          ],
          [
            -103.38058000000001,
            20.66137
          ],
          [
            -103.38071000000001,
            20.661250000000003
          ],
          [
            -103.38084,
            20.661270000000002
          ],
          [
            -103.38241000000001,
            20.66035
          ],
          [
            -103.38480000000001,
            20.65897
          ],
          [
            -103.38739000000001,
            20.657510000000002
          ],
          [
            -103.38762000000001,
            20.65736
          ],
          [
            -103.38780000000001,
            20.657210000000003
          ],
          [
            -103.39018000000002,
            20.655800000000003
          ],
          [
            -103.39368,
            20.65377
          ],
          [
            -103.39725000000001,
            20.65172
          ],
          [
            -103.39887,
            20.65078
          ],
          [
            -103.39895000000001,
            20.65078
          ],
          [
            -103.40137000000001,
            20.64938
          ],
          [
            -103.40311000000001,
            20.648370000000003
          ],
          [
            -103.40416,
            20.64777
          ],
          [
            -103.40446000000001,
            20.64759
          ],
          [
            -103.40456,
            20.647560000000002
          ],
          [
            -103.40508000000001,
            20.647740000000002
          ],
          [
            -103.40553000000001,
            20.647080000000003
          ],
          [
            -103.40589000000001,
            20.646700000000003
          ],
          [
            -103.40762000000001,
            20.64411
          ],
          [
            -103.41004000000001,
            20.64046
          ],
          [
            -103.41220000000001,
            20.637220000000003
          ],
          [
            -103.41327000000001,
            20.635620000000003
          ],
          [
            -103.4136,
            20.63512
          ],
          [
            -103.41376000000001,
            20.634990000000002
          ],
          [
            -103.41388,
            20.634990000000002
          ],
          [
            -103.414,
            20.63483
          ],
          [
            -103.41395000000001,
            20.63463
          ],
          [
            -103.414,
            20.63445
          ],
          [
            -103.41496000000001,
            20.63303
          ],
          [
            -103.41675000000001,
            20.630370000000003
          ],
          [
            -103.41697,
            20.630010000000002
          ],
          [
            -103.41698000000001,
            20.629830000000002
          ],
          [
            -103.41775000000001,
            20.628680000000003
          ],
          [
            -103.418,
            20.628290000000003
          ],
          [
            -103.41820000000001,
            20.62799
          ],
          [
            -103.41925,
            20.626420000000003
          ],
          [
            -103.4205,
            20.62443
          ],
          [
            -103.42168000000001,
            20.62265
          ],
          [
            -103.42267000000001,
            20.62113
          ],
          [
            -103.42429000000001,
            20.61867
          ],
          [
            -103.426,
            20.61608
          ],
          [
            -103.42624,
            20.61586
          ],
          [
            -103.42677,
            20.61511
          ],
          [
            -103.42717,
            20.614520000000002
          ],
          [
            -103.42797,
            20.613280000000003
          ],
          [
            -103.4282,
            20.612920000000003
          ],
          [
            -103.42834,
            20.61287
          ],
          [
            -103.42932,
            20.6113
          ],
          [
            -103.43083000000001,
            20.609060000000003
          ],
          [
            -103.43269000000001,
            20.606240000000003
          ],
          [
            -103.43439000000001,
            20.603650000000002
          ],
          [
            -103.43524000000001,
            20.602230000000002
          ],
          [
            -103.43672000000001,
            20.599970000000003
          ],
          [
            -103.43892000000001,
            20.59663
          ],
          [
            -103.4407,
            20.59392
          ],
          [
            -103.44263000000001,
            20.591
          ],
          [
            -103.44482,
            20.58771
          ],
          [
            -103.44680000000001,
            20.58464
          ],
          [
            -103.44888,
            20.581480000000003
          ],
          [
            -103.44994000000001,
            20.579890000000002
          ],
          [
            -103.45158,
            20.577430000000003
          ],
          [
            -103.45460000000001,
            20.572940000000003
          ],
          [
            -103.45907000000001,
            20.566110000000002
          ],
          [
            -103.4628,
            20.560470000000002
          ],
          [
            -103.46588000000001,
            20.55582
          ],
          [
            -103.46770000000001,
            20.552970000000002
          ],
          [
            -103.47003000000001,
            20.549380000000003
          ],
          [
            -103.47222000000001,
            20.546010000000003
          ],
          [
            -103.47241000000001,
            20.545560000000002
          ],
          [
            -103.47318000000001,
            20.542360000000002
          ],
          [
            -103.47417000000002,
            20.538130000000002
          ],
          [
            -103.47535,
            20.53302
          ],
          [
            -103.47637,
            20.53114
          ],
          [
            -103.47821,
            20.52792
          ],
          [
            -103.48042000000001,
            20.524140000000003
          ],
          [
            -103.48264,
            20.52025
          ],
          [
            -103.48418000000001,
            20.51764
          ],
          [
            -103.48596,
            20.514560000000003
          ],
          [
            -103.48635,
            20.5137
          ],
          [
            -103.48656000000001,
            20.51281
          ],
          [
            -103.48722000000001,
            20.50881
          ],
          [
            -103.48818000000001,
            20.50334
          ],
          [
            -103.48890000000002,
            20.498690000000003
          ],
          [
            -103.48984000000002,
            20.49343
          ],
          [
            -103.49026,
            20.491410000000002
          ],
          [
            -103.49048,
            20.49089
          ],
          [
            -103.49089000000001,
            20.4903
          ],
          [
            -103.49152000000001,
            20.48936
          ],
          [
            -103.49215000000001,
            20.48853
          ],
          [
            -103.49268000000001,
            20.487820000000003
          ],
          [
            -103.49304000000001,
            20.487730000000003
          ],
          [
            -103.49388,
            20.488280000000003
          ],
          [
            -103.49411,
            20.489060000000002
          ],
          [
            -103.49308,
            20.489320000000003
          ],
          [
            -103.49292000000001,
            20.489310000000003
          ],
          [
            -103.49117000000001,
            20.489810000000002
          ],
          [
            -103.4898,
            20.490150000000003
          ],
          [
            -103.48924000000001,
            20.490280000000002
          ],
          [
            -103.48881000000002,
            20.490360000000003
          ],
          [
            -103.48872000000001,
            20.490380000000002
          ],
          [
            -103.48833,
            20.490370000000002
          ],
          [
            -103.48693000000002,
            20.490450000000003
          ],
          [
            -103.48499000000001,
            20.49051
          ],
          [
            -103.48315000000001,
            20.490540000000003
          ],
          [
            -103.48254000000001,
            20.490560000000002
          ],
          [
            -103.47806000000001,
            20.490660000000002
          ],
          [
            -103.47371000000001,
            20.49076
          ],
          [
            -103.47302,
            20.49071
          ],
          [
            -103.47118,
            20.49043
          ],
          [
            -103.46831,
            20.489990000000002
          ],
          [
            -103.46678000000001,
            20.48983
          ],
          [
            -103.46503000000001,
            20.489700000000003
          ],
          [
            -103.46440000000001,
            20.489600000000003
          ],
          [
            -103.46206000000001,
            20.48879
          ],
          [
            -103.45952000000001,
            20.48776
          ],
          [
            -103.45807,
            20.48722
          ],
          [
            -103.45762,
            20.48702
          ],
          [
            -103.45736000000001,
            20.486780000000003
          ],
          [
            -103.45714000000001,
            20.486500000000003
          ],
          [
            -103.45701000000001,
            20.48611
          ],
          [
            -103.45697000000001,
            20.485480000000003
          ],
          [
            -103.45693000000001,
            20.48487
          ],
          [
            -103.45677,
            20.48447
          ],
          [
            -103.45641,
            20.48385
          ],
          [
            -103.45584000000001,
            20.48279
          ],
          [
            -103.45515,
            20.4816
          ],
          [
            -103.45416,
            20.47981
          ],
          [
            -103.45378000000001,
            20.479100000000003
          ],
          [
            -103.45333000000001,
            20.478350000000002
          ],
          [
            -103.44951,
            20.47785
          ],
          [
            -103.44838000000001,
            20.477680000000003
          ],
          [
            -103.44881000000001,
            20.475070000000002
          ],
          [
            -103.44924,
            20.472530000000003
          ],
          [
            -103.45043000000001,
            20.472710000000003
          ],
          [
            -103.45043000000001,
            20.47127
          ]
        ]
      }
    }
  ]
}