{
  "type": "FeatureCollection",
  "features": [
    {
      "type": "Feature",
      "properties": {
        "identifier": "19-a",
        "name": "Ruta 19 A"
      },
      "geometry": {
        "type": "LineString",
        "coordinates": [
          [
            -103.4308,
            20.726920000000003
          ],
          [
            -103.42826000000001,
            20.72698
          ],
          [
            -103.42648000000001,
            20.72701
          ],
          [
            -103.42614,
            20.727200000000003
          ],
          [
            -103.42604000000001,
            20.727600000000002
          ],
          [
            -103.42608000000001,
            20.728240000000003
          ],
          [
            -103.42617000000001,
            20.72907
          ],
          [
            -103.42602000000001,
            20.7299
          ],
          [
            -103.42481000000001,
            20.729930000000003
          ],
          [
            -103.42347000000001,
            20.72999
          ],
          [
            -103.41598,
            20.73065
          ],
          [
            -103.41549,
            20.735390000000002
          ],
          [
            -103.41544,
            20.735670000000002
          ],
          [
            -103.41423,
            20.736020000000003
          ],
          [
            -103.41264000000001,
            20.734460000000002
          ],
          [
            -103.41251000000001,
            20.73449
          ],
          [
            -103.4124,
            20.734930000000002
          ],
          [
            -103.41164,
            20.73508
          ],
          [
            -103.41104000000001,
            20.734550000000002
          ],
          [
            -103.40977000000001,
            20.733330000000002
          ],
          [
            -103.41241000000001,
            20.73094
          ],
          [
            -103.4116,
            20.73103
          ],
          [
            -103.4103,
            20.73223
          ],
          [
            -103.40428000000001,
            20.737640000000003
          ],
          [
            -103.40385,
            20.73777
          ],
          [
            -103.40314000000001,
            20.737820000000003
          ],
          [
            -103.40266000000001,
            20.737530000000003
          ],
          [
            -103.40227,
            20.737250000000003
          ],
          [
            -103.40189000000001,
            20.73739
          ],
          [
            -103.40200000000002,
            20.737640000000003
          ],
          [
            -103.40214,
            20.7392
          ],
          [
            -103.40189000000001,
            20.739620000000002
          ],
          [
            -103.40139,
            20.739880000000003
          ],
          [
            -103.40060000000001,
            20.739890000000003
          ],
          [
            -103.40020000000001,
            20.74002
          ],
          [
            -103.39478000000001,
            20.74021
          ],
          [
            -103.39193,
            20.740260000000003
          ],
          [
            -103.38731000000001,
            20.74039
          ],
          [
            -103.38610000000001,
            20.74029
          ],
          [
            -103.37865000000001,
            20.73834
          ],
          [
            -103.37924000000001,
            20.735970000000002
          ],
          [
            -103.38434000000001,
            20.732390000000002
          ],
          [
            -103.38886000000001,
            20.72935
          ],
          [
            -103.38924000000002,
            20.729190000000003
          ],
          [
            -103.38959000000001,
            20.72914
          ],
          [
            -103.38974,
            20.72923
          ],
          [
            -103.39022000000001,
            20.728930000000002
          ],
          [
            -103.39022000000001,
            20.72877
          ],
          [
            -103.38780000000001,
            20.72856
          ],
          [
            -103.38708000000001,
            20.72847
          ],
          [
            -103.38676000000001,
            20.7283
          ],
          [
            -103.38653000000001,
            20.72802
          ],
          [
            -103.38649000000001,
            20.72774
          ],
          [
            -103.38652,
            20.727490000000003
          ],
          [
            -103.38707000000001,
            20.72532
          ],
          [
            -103.38783000000001,
            20.72268
          ],
          [
            -103.38761000000001,
            20.72172
          ],
          [
            -103.38742,
            20.721040000000002
          ],
          [
            -103.38743000000001,
            20.72091
          ],
          [
            -103.3875,
            20.720650000000003
          ],
          [
            -103.38745000000002,
            20.720350000000003
          ],
          [
            -103.38704000000001,
            20.71978
          ],
          [
            -103.38665,
            20.71958
          ],
          [
            -103.38257000000002,
            20.717000000000002
          ],
          [
            -103.37734,
            20.71367
          ],
          [
            -103.37665000000001,
            20.71317
          ],
          [
            -103.37507000000001,
            20.712200000000003
          ],
          [
            -103.37453000000001,
            20.71292
          ],
          [
            -103.37422000000001,
            20.713150000000002
          ],
          [
            -103.37177000000001,
            20.713780000000003
          ],
          [
            -103.37116,
            20.713800000000003
          ],
          [
            -103.37025000000001,
            20.713320000000003
          ],
          [
            -103.36696,
            20.71302
          ],
          [
            -103.36634000000001,
            20.71291
          ],
          [
            -103.36555000000001,
            20.712960000000002
          ],
          [
            -103.36248,
            20.712770000000003
          ],
          [
            -103.36014000000002,
            20.713500000000003
          ],
          [
            -103.35860000000001,
            20.71402
          ],
          [
            -103.35807000000001,
            20.714290000000002
          ],
          [
            -103.35645000000001,
            20.715470000000003
          ],
          [
            -103.35606000000001,
            20.71555
          ],
          [
            -103.35561000000001,
            20.715500000000002
          ],
          [
            -103.35467000000001,
            20.715320000000002
          ],
          [
            -103.35471000000001,
            20.71412
          ],
          [
            -103.35508000000002,
            20.713240000000003
          ],
          [
            -103.35452000000001,
            20.713330000000003
          ],
          [
            -103.33885000000001,
            20.711250000000003
          ],
          [
            -103.33503,
            20.709390000000003
          ],
          [
            -103.33518000000001,
            20.709030000000002
          ],
          [
            -103.33517,
            20.708730000000003
          ],
          [
            -103.33509000000001,
            20.70841
          ],
          [
            -103.33481,
            20.70784
          ],
          [
            -103.33470000000001,
            20.70754
          ],
          [
            -103.33469000000001,
            20.707120000000003
          ],
          [
            -103.33449,
            20.70707
          ],
          [
            -103.33451000000001,
            20.70763
          ],
          [
            -103.33472,
            20.708180000000002
          ],
          [
            -103.33496000000001,
            20.708620000000003
          ],
          [
            -103.33494,
            20.708930000000002
          ],
          [
            -103.33467,
            20.70952
          ],
          [
            -103.33428,
            20.71027
          ],
          [
            -103.33414,
            20.71103
          ],
          [
            -103.33412000000001,
            20.71124
          ],
          [
            -103.33373,
            20.71115
          ],
          [
            -103.33139000000001,
            20.710970000000003
          ],
          [
            -103.32740000000001,
            20.71074
          ],
          [
            -103.32719,
            20.710520000000002
          ],
          [
            -103.32696000000001,
            20.710240000000002
          ],
          [
            -103.32651000000001,
            20.710150000000002
          ],
          [
            -103.32594,
            20.71008
          ],
          [
            -103.32503000000001,
            20.708730000000003
          ],
          [
            -103.32276,
            20.707600000000003
          ],
          [
            -103.32233000000001,
            20.708340000000003
          ],
          [
            -103.31575000000001,
            20.70626
          ],
          [
            -103.31434,
            20.70587
          ],
          [
            -103.31285000000001,
            20.70539
          ],
          [
            -103.31125000000002,
            20.70069
          ],
          [
            -103.30987,
            20.69686
          ],
          [
            -103.30932000000001,
            20.69499
          ],
          [
            -103.30944000000001,
            20.694830000000003
          ],
          [
            -103.30939000000001,
            20.69468
          ],
          [
            -103.30928000000002,
            20.69463
          ],
          [
            -103.30917000000001,
            20.69462
          ],
          [
            -103.3079,
            20.69178
          ],
          [
            -103.30827000000001,
            20.69149
          ],
          [
            -103.30831,
            20.691260000000003
          ],
          [
            -103.30675000000001,
            20.690980000000003
          ],
          [
            -103.30371000000001,
            20.690340000000003
          ],
          [
            -103.30327000000001,
            20.690230000000003
          ],
          [
            -103.29552000000001,
            20.688660000000002
          ],
          [
            -103.29511000000001,
            20.688470000000002
          ],
          [
            -103.29477000000001,
            20.68805
          ],
          [
            -103.29459000000001,
            20.687620000000003
          ],
          [
            -103.29453000000001,
            20.687130000000003
          ],
          [
            -103.29478,
            20.6842
          ],
          [
            -103.29487,
            20.68401
          ],
          [
            -103.29471000000001,
            20.683950000000003
          ],
          [
            -103.29486000000001,
            20.682920000000003
          ],
          [
            -103.29501,
            20.682660000000002
          ],
          [
            -103.29479,
            20.681700000000003
          ],
          [
            -103.29443,
            20.680290000000003
          ],
          [
            -103.29318,
            20.68005
          ],
          [
            -103.28723000000001,
            20.67923
          ],
          [
            -103.28630000000001,
            20.67913
          ],
          [
            -103.28615,
            20.67519
          ],
          [
            -103.28607000000001,
            20.673830000000002
          ],
          [
            -103.28070000000001,
            20.67385
          ],
          [
            -103.27979,
            20.67389
          ],
          [
            -103.27746,
            20.674380000000003
          ],
          [
            -103.27469,
            20.67507
          ],
          [
            -103.27532000000001,
            20.672150000000002
          ],
          [
            -103.27647,
            20.666510000000002
          ],
          [
            -103.27668000000001,
            20.66534
          ],
          [
            -103.27736,
            20.66045
          ],
          [
            -103.27765000000001,
            20.660040000000002
          ],
          [
            -103.27780000000001,
            20.65841
          ],
          [
            -103.27868000000001,
            20.65287
          ],
          [
            -103.27940000000001,
            20.64851
          ],
          [
            -103.27959000000001,
            20.647940000000002
          ],
          [
            -103.28003000000001,
            20.647350000000003
          ],
          [
            -103.28095,
            20.64367
          ],
          [
            -103.27989000000001,
            20.643130000000003
          ],
          [
            -103.27850000000001,
            20.642180000000003
          ],
          [
            -103.27700000000002,
            20.640880000000003
          ],
          [
            -103.27505000000001,
            20.638070000000003
          ],
          [
            -103.27329,
            20.635630000000003
          ],
          [
            -103.27215000000001,
            20.63438
          ],
          [
            -103.27104000000001,
            20.63351
          ],
          [
            -103.26985,
            20.632810000000003
          ],
          [
            -103.26695000000001,
            20.631400000000003
          ],
          [
            -103.26645,
            20.631010000000003
          ],
          [
            -103.26638000000001,
            20.6308
          ],
          [
            -103.26611000000001,
            20.6308
          ],
          [
            -103.26593000000001,
            20.630920000000003
          ],
          [
            -103.26593000000001,
            20.631200000000003
          ],
          [
            -103.26587,
            20.63137
          ],
          [
            -103.26570000000001,
            20.63153
          ],
          [
            -103.26325000000001,
            20.63157
          ],
          [
            -103.26240000000001,
            20.631590000000003
          ],
          [
            -103.26226000000001,
            20.631700000000002
          ],
          [
            -103.26214,
            20.631670000000003
          ],
          [
            -103.26118000000001,
            20.631880000000002
          ],
          [
            -103.26092000000001,
            20.631860000000003
          ],
          [
            -103.25972,
            20.63211
          ],
          [
            -103.25867000000001,
            20.63221
          ],
          [
            -103.25565,
            20.631760000000003
          ],
          [
            -103.2552,
            20.631800000000002
          ],
          [
            -103.25393000000001,
            20.632450000000002
          ],
          [
            -103.25345000000002,
            20.632460000000002
          ],
          [
            -103.25300000000001,
            20.632450000000002
          ],
          [
            -103.25274,
            20.63258
          ],
          [
            -103.25274,
            20.631140000000002
          ]
        ]
      }
    }
  ]
}