{
  "type": "FeatureCollection",
  "features": [
    {
      "type": "Feature",
      "properties": {
        "identifier": "19-a?o=2",
        "name": "Ruta 19 A"
      },
      "geometry": {
        "type": "LineString",
        "coordinates": [
          [
            -103.25276000000001,
            20.632610000000003
          ],
          [
            -103.25306,
            20.632460000000002
          ],
          [
            -103.25353000000001,
            20.632430000000003
          ],
          [
            -103.25383000000001,
            20.632460000000002
          ],
          [
            -103.25424000000001,
            20.63231
          ],
          [
            -103.2552,
            20.631800000000002
          ],
          [
            -103.25556,
            20.63174
          ],
          [
            -103.2566,
            20.631880000000002
          ],
          [
            -103.25871000000001,
            20.63222
          ],
          [
            -103.2592,
            20.6322
          ],
          [
            -103.26088000000001,
            20.631860000000003
          ],
          [
            -103.26114000000001,
            20.631860000000003
          ],
          [
            -103.26216000000001,
            20.63166
          ],
          [
            -103.26230000000001,
            20.631690000000003
          ],
          [
            -103.26241,
            20.631580000000003
          ],
          [
            -103.26389,
            20.63156
          ],
          [
            -103.26533,
            20.631590000000003
          ],
          [
            -103.26576000000001,
            20.631500000000003
          ],
          [
            -103.26609,
            20.63137
          ],
          [
            -103.26637000000001,
            20.631300000000003
          ],
          [
            -103.26678000000001,
            20.631410000000002
          ],
          [
            -103.26959000000001,
            20.63279
          ],
          [
            -103.27028000000001,
            20.633190000000003
          ],
          [
            -103.27168,
            20.63416
          ],
          [
            -103.27271,
            20.63511
          ],
          [
            -103.27466000000001,
            20.637710000000002
          ],
          [
            -103.27640000000001,
            20.640430000000002
          ],
          [
            -103.27717000000001,
            20.641250000000003
          ],
          [
            -103.2788,
            20.64262
          ],
          [
            -103.28073,
            20.643720000000002
          ],
          [
            -103.27984000000001,
            20.64731
          ],
          [
            -103.27942,
            20.64788
          ],
          [
            -103.27933,
            20.648380000000003
          ],
          [
            -103.28132000000001,
            20.648760000000003
          ],
          [
            -103.28330000000001,
            20.649630000000002
          ],
          [
            -103.28311000000001,
            20.6505
          ],
          [
            -103.28234,
            20.654670000000003
          ],
          [
            -103.28214000000001,
            20.656350000000003
          ],
          [
            -103.28186000000001,
            20.658240000000003
          ],
          [
            -103.28156000000001,
            20.65999
          ],
          [
            -103.28150000000001,
            20.660410000000002
          ],
          [
            -103.27764,
            20.659950000000002
          ],
          [
            -103.27759,
            20.660130000000002
          ],
          [
            -103.27736,
            20.66047
          ],
          [
            -103.27697,
            20.663
          ],
          [
            -103.27669,
            20.66535
          ],
          [
            -103.27607,
            20.668550000000003
          ],
          [
            -103.27482,
            20.674500000000002
          ],
          [
            -103.27472,
            20.675060000000002
          ],
          [
            -103.27640000000001,
            20.67464
          ],
          [
            -103.27936000000001,
            20.67395
          ],
          [
            -103.28017000000001,
            20.67385
          ],
          [
            -103.28419000000001,
            20.673830000000002
          ],
          [
            -103.28471,
            20.67387
          ],
          [
            -103.28487000000001,
            20.67754
          ],
          [
            -103.28499000000001,
            20.67923
          ],
          [
            -103.28635000000001,
            20.679180000000002
          ],
          [
            -103.28884000000001,
            20.679460000000002
          ],
          [
            -103.29260000000001,
            20.67998
          ],
          [
            -103.29377000000001,
            20.680120000000002
          ],
          [
            -103.29444000000001,
            20.680300000000003
          ],
          [
            -103.29495000000001,
            20.682460000000003
          ],
          [
            -103.29497,
            20.68281
          ],
          [
            -103.29482,
            20.68297
          ],
          [
            -103.29455000000002,
            20.68514
          ],
          [
            -103.29432000000001,
            20.687320000000003
          ],
          [
            -103.29446000000002,
            20.68785
          ],
          [
            -103.2947,
            20.68832
          ],
          [
            -103.29523,
            20.688760000000002
          ],
          [
            -103.29556000000001,
            20.688930000000003
          ],
          [
            -103.30090000000001,
            20.689950000000003
          ],
          [
            -103.30365,
            20.69049
          ],
          [
            -103.30416000000001,
            20.69057
          ],
          [
            -103.30773,
            20.69123
          ],
          [
            -103.3109,
            20.69191
          ],
          [
            -103.31068,
            20.69208
          ],
          [
            -103.30932000000001,
            20.694640000000003
          ],
          [
            -103.30913000000001,
            20.694650000000003
          ],
          [
            -103.30906,
            20.694770000000002
          ],
          [
            -103.30913000000001,
            20.69497
          ],
          [
            -103.30936000000001,
            20.695010000000003
          ],
          [
            -103.30995000000001,
            20.69714
          ],
          [
            -103.31288,
            20.705450000000003
          ],
          [
            -103.31663,
            20.70653
          ],
          [
            -103.32180000000001,
            20.708160000000003
          ],
          [
            -103.32222,
            20.70735
          ],
          [
            -103.32504000000002,
            20.70868
          ],
          [
            -103.32530000000001,
            20.70833
          ],
          [
            -103.32673000000001,
            20.708350000000003
          ],
          [
            -103.32672000000001,
            20.70551
          ],
          [
            -103.32715,
            20.705710000000003
          ],
          [
            -103.32756,
            20.706020000000002
          ],
          [
            -103.32787,
            20.70616
          ],
          [
            -103.32827,
            20.70627
          ],
          [
            -103.32999000000001,
            20.707050000000002
          ],
          [
            -103.33551000000001,
            20.70973
          ],
          [
            -103.33877000000001,
            20.71129
          ],
          [
            -103.34245000000001,
            20.71179
          ],
          [
            -103.34259000000002,
            20.711820000000003
          ],
          [
            -103.34274,
            20.71177
          ],
          [
            -103.35101,
            20.712860000000003
          ],
          [
            -103.35452000000001,
            20.713310000000003
          ],
          [
            -103.35454000000001,
            20.714070000000003
          ],
          [
            -103.35436000000001,
            20.71534
          ],
          [
            -103.35437,
            20.71552
          ],
          [
            -103.35617,
            20.715790000000002
          ],
          [
            -103.35655000000001,
            20.71562
          ],
          [
            -103.35718000000001,
            20.715200000000003
          ],
          [
            -103.35849,
            20.71424
          ],
          [
            -103.36243,
            20.71301
          ],
          [
            -103.36302,
            20.71298
          ],
          [
            -103.37027,
            20.71357
          ],
          [
            -103.37092000000001,
            20.714010000000002
          ],
          [
            -103.37125,
            20.714100000000002
          ],
          [
            -103.37216000000001,
            20.71385
          ],
          [
            -103.37415000000001,
            20.713420000000003
          ],
          [
            -103.37459000000001,
            20.71336
          ],
          [
            -103.37546,
            20.71312
          ],
          [
            -103.37594000000001,
            20.71293
          ],
          [
            -103.37651000000001,
            20.713310000000003
          ],
          [
            -103.38223,
            20.716980000000003
          ],
          [
            -103.38697,
            20.719980000000003
          ],
          [
            -103.38722000000001,
            20.72024
          ],
          [
            -103.38733,
            20.72058
          ],
          [
            -103.38728,
            20.720940000000002
          ],
          [
            -103.38727000000002,
            20.721230000000002
          ],
          [
            -103.38763,
            20.72249
          ],
          [
            -103.38758000000001,
            20.72285
          ],
          [
            -103.38695000000001,
            20.725150000000003
          ],
          [
            -103.38641000000001,
            20.727040000000002
          ],
          [
            -103.38626000000001,
            20.72764
          ],
          [
            -103.38631000000001,
            20.727990000000002
          ],
          [
            -103.38659000000001,
            20.72841
          ],
          [
            -103.38699000000001,
            20.72867
          ],
          [
            -103.38905000000001,
            20.72886
          ],
          [
            -103.38891000000001,
            20.729180000000003
          ],
          [
            -103.38248000000002,
            20.73345
          ],
          [
            -103.37969000000001,
            20.73533
          ],
          [
            -103.37922,
            20.73571
          ],
          [
            -103.37909,
            20.73598
          ],
          [
            -103.37857000000001,
            20.738280000000003
          ],
          [
            -103.3785,
            20.73852
          ],
          [
            -103.37829,
            20.738650000000003
          ],
          [
            -103.37705000000001,
            20.738300000000002
          ],
          [
            -103.37705000000001,
            20.73817
          ],
          [
            -103.37712,
            20.73807
          ],
          [
            -103.3798,
            20.738840000000003
          ],
          [
            -103.38564000000001,
            20.74032
          ],
          [
            -103.38639,
            20.740450000000003
          ],
          [
            -103.38732,
            20.74052
          ],
          [
            -103.39235000000001,
            20.740370000000002
          ],
          [
            -103.39976000000001,
            20.74021
          ],
          [
            -103.39984000000001,
            20.74033
          ],
          [
            -103.40047000000001,
            20.740360000000003
          ],
          [
            -103.40087000000001,
            20.74043
          ],
          [
            -103.40133,
            20.740380000000002
          ],
          [
            -103.40479,
            20.739610000000003
          ],
          [
            -103.40499000000001,
            20.73937
          ],
          [
            -103.40493000000001,
            20.739400000000003
          ],
          [
            -103.4051,
            20.73919
          ],
          [
            -103.40476000000001,
            20.73892
          ],
          [
            -103.40463000000001,
            20.738560000000003
          ],
          [
            -103.40464000000001,
            20.738190000000003
          ],
          [
            -103.40481000000001,
            20.737840000000002
          ],
          [
            -103.40974000000001,
            20.73339
          ],
          [
            -103.41117000000001,
            20.73489
          ],
          [
            -103.41111000000001,
            20.735280000000003
          ],
          [
            -103.41128,
            20.73535
          ],
          [
            -103.41162000000001,
            20.73524
          ],
          [
            -103.41252000000001,
            20.73498
          ],
          [
            -103.41287000000001,
            20.734900000000003
          ],
          [
            -103.41305000000001,
            20.735000000000003
          ],
          [
            -103.41380000000001,
            20.735760000000003
          ],
          [
            -103.41373000000002,
            20.736250000000002
          ],
          [
            -103.41393000000001,
            20.736320000000003
          ],
          [
            -103.4141,
            20.736210000000003
          ],
          [
            -103.41587000000001,
            20.73571
          ],
          [
            -103.41591000000001,
            20.735580000000002
          ],
          [
            -103.41565000000001,
            20.73532
          ],
          [
            -103.41562,
            20.735120000000002
          ],
          [
            -103.41604000000001,
            20.73072
          ],
          [
            -103.42196000000001,
            20.730220000000003
          ],
          [
            -103.42486000000001,
            20.73001
          ],
          [
            -103.426,
            20.72999
          ],
          [
            -103.4261,
            20.729480000000002
          ],
          [
            -103.42614,
            20.729020000000002
          ],
          [
            -103.42613000000001,
            20.728340000000003
          ],
          [
            -103.42605,
            20.72791
          ],
          [
            -103.42605,
            20.72762
          ],
          [
            -103.42621000000001,
            20.72717
          ],
          [
            -103.42642000000001,
            20.72701
          ],
          [
            -103.42668,
            20.72698
          ],
          [
            -103.43077000000001,
            20.726940000000003
          ],
          [
            -103.43077000000001,
            20.7255
          ]
        ]
      }
    }
  ]
}