{
  "type": "FeatureCollection",
  "features": [
    {
      "type": "Feature",
      "properties": {
        "identifier": "200-2?o=2",
        "name": "Ruta 200"
      },
      "geometry": {
        "type": "LineString",
        "coordinates": [
          [
            -103.29596000000001,
            20.697920000000003
          ],
          [
            -103.29634000000001,
            20.69778
          ],
          [
            -103.29736000000001,
            20.697360000000003
          ],
          [
            -103.29735000000001,
            20.69735
          ],
          [
            -103.29870000000001,
            20.696810000000003
          ],
          [
            -103.30004000000001,
            20.696270000000002
          ],
          [
            -103.30079,
            20.695970000000003
          ],
          [
            -103.30161000000001,
            20.69564
          ],
          [
            -103.30314000000001,
            20.695030000000003
          ],
          [
            -103.30435000000001,
            20.694550000000003
          ],
          [
            -103.30435000000001,
            20.694560000000003
          ],
          [
            -103.30505000000001,
            20.694280000000003
          ],
          [
            -103.30551000000001,
            20.694090000000003
          ],
          [
            -103.30647,
            20.69369
          ],
          [
            -103.30676000000001,
            20.69357
          ],
          [
            -103.30780000000001,
            20.693160000000002
          ],
          [
            -103.30841000000001,
            20.69293
          ],
          [
            -103.30868000000001,
            20.69282
          ],
          [
            -103.30958000000001,
            20.69246
          ],
          [
            -103.31077,
            20.692
          ],
          [
            -103.31115000000001,
            20.69199
          ],
          [
            -103.31116000000002,
            20.69198
          ],
          [
            -103.31144,
            20.692030000000003
          ],
          [
            -103.31230000000001,
            20.69216
          ],
          [
            -103.31393000000001,
            20.69243
          ],
          [
            -103.31556,
            20.692700000000002
          ],
          [
            -103.3173,
            20.69299
          ],
          [
            -103.31762,
            20.693040000000003
          ],
          [
            -103.31939000000001,
            20.69331
          ],
          [
            -103.32137,
            20.693630000000002
          ],
          [
            -103.32275000000001,
            20.69385
          ],
          [
            -103.3234,
            20.694100000000002
          ],
          [
            -103.32343,
            20.69404
          ],
          [
            -103.32472000000001,
            20.694650000000003
          ],
          [
            -103.32579000000001,
            20.69516
          ],
          [
            -103.32684,
            20.69566
          ],
          [
            -103.32793000000001,
            20.696180000000002
          ],
          [
            -103.32793000000001,
            20.696170000000002
          ],
          [
            -103.32903,
            20.69669
          ],
          [
            -103.33015,
            20.69723
          ],
          [
            -103.33087,
            20.697570000000002
          ],
          [
            -103.33118,
            20.69773
          ],
          [
            -103.33193000000001,
            20.698040000000002
          ],
          [
            -103.33302,
            20.698510000000002
          ],
          [
            -103.33296000000001,
            20.69863
          ],
          [
            -103.33324,
            20.698770000000003
          ],
          [
            -103.33399000000001,
            20.69912
          ],
          [
            -103.33402000000001,
            20.699060000000003
          ],
          [
            -103.33446,
            20.699260000000002
          ],
          [
            -103.33500000000001,
            20.699530000000003
          ],
          [
            -103.33625,
            20.70015
          ],
          [
            -103.33896000000001,
            20.70148
          ],
          [
            -103.33954000000001,
            20.701770000000003
          ],
          [
            -103.34068,
            20.702280000000002
          ],
          [
            -103.34215,
            20.70294
          ],
          [
            -103.34358,
            20.703590000000002
          ],
          [
            -103.3452,
            20.704320000000003
          ],
          [
            -103.34617000000001,
            20.704770000000003
          ],
          [
            -103.34666000000001,
            20.705250000000003
          ],
          [
            -103.34701000000001,
            20.7055
          ],
          [
            -103.34734,
            20.705540000000003
          ],
          [
            -103.34777000000001,
            20.705460000000002
          ],
          [
            -103.34887,
            20.70598
          ],
          [
            -103.34977,
            20.70641
          ],
          [
            -103.35143000000001,
            20.706680000000002
          ],
          [
            -103.35143000000001,
            20.706690000000002
          ],
          [
            -103.35331000000001,
            20.706930000000003
          ],
          [
            -103.35459,
            20.7071
          ],
          [
            -103.35552000000001,
            20.70719
          ],
          [
            -103.35552000000001,
            20.707230000000003
          ],
          [
            -103.35660000000001,
            20.70736
          ],
          [
            -103.35660000000001,
            20.707330000000002
          ],
          [
            -103.35824000000001,
            20.70754
          ],
          [
            -103.35895000000001,
            20.70764
          ],
          [
            -103.35956,
            20.70773
          ],
          [
            -103.36074,
            20.70783
          ],
          [
            -103.36154,
            20.707700000000003
          ],
          [
            -103.36273000000001,
            20.70707
          ],
          [
            -103.36399000000002,
            20.705620000000003
          ],
          [
            -103.36437000000001,
            20.70551
          ],
          [
            -103.36599000000001,
            20.70655
          ],
          [
            -103.36600000000001,
            20.70655
          ],
          [
            -103.36654000000001,
            20.70691
          ],
          [
            -103.3674,
            20.70745
          ],
          [
            -103.36878000000002,
            20.708340000000003
          ],
          [
            -103.36902,
            20.70849
          ],
          [
            -103.37028000000001,
            20.709300000000002
          ],
          [
            -103.37048000000001,
            20.70943
          ],
          [
            -103.37049,
            20.70942
          ],
          [
            -103.37275000000001,
            20.71084
          ],
          [
            -103.37456,
            20.71205
          ],
          [
            -103.37465,
            20.712100000000003
          ],
          [
            -103.37465,
            20.712090000000003
          ],
          [
            -103.37547,
            20.71265
          ],
          [
            -103.37649,
            20.713320000000003
          ],
          [
            -103.37538,
            20.7145
          ],
          [
            -103.37537,
            20.71451
          ],
          [
            -103.37457,
            20.7176
          ],
          [
            -103.37452,
            20.718780000000002
          ],
          [
            -103.37442000000001,
            20.720750000000002
          ],
          [
            -103.37416,
            20.72314
          ],
          [
            -103.37416,
            20.7241
          ],
          [
            -103.37887,
            20.724500000000003
          ],
          [
            -103.38609000000001,
            20.72512
          ],
          [
            -103.38684,
            20.72519
          ],
          [
            -103.3863,
            20.726850000000002
          ],
          [
            -103.38626000000001,
            20.72755
          ],
          [
            -103.38624000000002,
            20.72782
          ],
          [
            -103.38663000000001,
            20.7284
          ],
          [
            -103.38768,
            20.72868
          ],
          [
            -103.3892,
            20.728730000000002
          ],
          [
            -103.38922000000001,
            20.72914
          ],
          [
            -103.38857,
            20.729380000000003
          ],
          [
            -103.38836,
            20.729470000000003
          ],
          [
            -103.38546000000001,
            20.731440000000003
          ],
          [
            -103.38060000000002,
            20.734740000000002
          ],
          [
            -103.37944,
            20.73553
          ],
          [
            -103.379,
            20.73636
          ],
          [
            -103.37897000000001,
            20.736410000000003
          ],
          [
            -103.37862000000001,
            20.738190000000003
          ],
          [
            -103.37837,
            20.73854
          ],
          [
            -103.3777,
            20.73854
          ],
          [
            -103.37697000000001,
            20.738200000000003
          ],
          [
            -103.37708,
            20.73797
          ],
          [
            -103.37774,
            20.738200000000003
          ],
          [
            -103.38068000000001,
            20.738950000000003
          ],
          [
            -103.38115,
            20.739420000000003
          ],
          [
            -103.38124,
            20.739440000000002
          ],
          [
            -103.38125000000001,
            20.739420000000003
          ],
          [
            -103.38286000000001,
            20.73986
          ],
          [
            -103.38473,
            20.740340000000003
          ],
          [
            -103.38517,
            20.74041
          ],
          [
            -103.38519000000001,
            20.7404
          ],
          [
            -103.38682000000001,
            20.74088
          ],
          [
            -103.38703000000001,
            20.74127
          ],
          [
            -103.38448000000001,
            20.751810000000003
          ],
          [
            -103.38424,
            20.752670000000002
          ],
          [
            -103.38423,
            20.75269
          ],
          [
            -103.38415,
            20.75309
          ],
          [
            -103.38518,
            20.75429
          ],
          [
            -103.38586000000001,
            20.75522
          ],
          [
            -103.38735000000001,
            20.756870000000003
          ],
          [
            -103.38754000000002,
            20.757
          ],
          [
            -103.38754000000002,
            20.757
          ],
          [
            -103.38804,
            20.75737
          ],
          [
            -103.38833000000001,
            20.757810000000003
          ],
          [
            -103.38849,
            20.7584
          ],
          [
            -103.38863,
            20.758940000000003
          ],
          [
            -103.38900000000001,
            20.759410000000003
          ],
          [
            -103.3893,
            20.75992
          ],
          [
            -103.38950000000001,
            20.76023
          ],
          [
            -103.38962000000001,
            20.760420000000003
          ],
          [
            -103.38913000000001,
            20.760720000000003
          ],
          [
            -103.3884,
            20.76122
          ],
          [
            -103.38798000000001,
            20.76152
          ],
          [
            -103.38752000000001,
            20.76181
          ],
          [
            -103.38684,
            20.76228
          ],
          [
            -103.38662000000001,
            20.762430000000002
          ],
          [
            -103.38671000000001,
            20.76237
          ],
          [
            -103.38823000000001,
            20.765210000000003
          ],
          [
            -103.38831,
            20.76518
          ],
          [
            -103.38837000000001,
            20.765310000000003
          ],
          [
            -103.38886000000001,
            20.76611
          ],
          [
            -103.39035000000001,
            20.76547
          ],
          [
            -103.39087,
            20.765300000000003
          ],
          [
            -103.39122,
            20.76528
          ],
          [
            -103.39122,
            20.7652
          ],
          [
            -103.39131,
            20.765210000000003
          ],
          [
            -103.39218000000001,
            20.76519
          ],
          [
            -103.39287,
            20.76491
          ],
          [
            -103.39287,
            20.76347
          ]
        ]
      }
    }
  ]
}