{
  "type": "FeatureCollection",
  "features": [
    {
      "type": "Feature",
      "properties": {
        "identifier": "207-2?o=2",
        "name": "Ruta 207"
      },
      "geometry": {
        "type": "LineString",
        "coordinates": [
          [
            -103.28461000000001,
            20.623230000000003
          ],
          [
            -103.28745,
            20.62414
          ],
          [
            -103.28715000000001,
            20.624470000000002
          ],
          [
            -103.28671000000001,
            20.625850000000003
          ],
          [
            -103.28676000000002,
            20.625870000000003
          ],
          [
            -103.28623,
            20.62724
          ],
          [
            -103.28661000000001,
            20.627390000000002
          ],
          [
            -103.28663,
            20.627350000000003
          ],
          [
            -103.28770000000002,
            20.62781
          ],
          [
            -103.28843,
            20.628120000000003
          ],
          [
            -103.28921000000001,
            20.62846
          ],
          [
            -103.28940000000001,
            20.62854
          ],
          [
            -103.28932,
            20.62894
          ],
          [
            -103.28895000000001,
            20.630730000000003
          ],
          [
            -103.28890000000001,
            20.63096
          ],
          [
            -103.28882000000002,
            20.63137
          ],
          [
            -103.28873000000002,
            20.63202
          ],
          [
            -103.28869,
            20.632250000000003
          ],
          [
            -103.28863000000001,
            20.63265
          ],
          [
            -103.28885000000001,
            20.63269
          ],
          [
            -103.28925000000001,
            20.63278
          ],
          [
            -103.28988000000001,
            20.632900000000003
          ],
          [
            -103.29010000000001,
            20.63293
          ],
          [
            -103.29043000000001,
            20.63297
          ],
          [
            -103.29152,
            20.63313
          ],
          [
            -103.29196,
            20.633190000000003
          ],
          [
            -103.29215,
            20.633190000000003
          ],
          [
            -103.29255,
            20.63312
          ],
          [
            -103.29268,
            20.633090000000003
          ],
          [
            -103.29301000000001,
            20.63313
          ],
          [
            -103.29328000000001,
            20.63315
          ],
          [
            -103.29350000000001,
            20.633180000000003
          ],
          [
            -103.29366,
            20.633190000000003
          ],
          [
            -103.29399000000001,
            20.63324
          ],
          [
            -103.29425,
            20.633270000000003
          ],
          [
            -103.29424,
            20.633300000000002
          ],
          [
            -103.29565000000001,
            20.6335
          ],
          [
            -103.29659000000001,
            20.633680000000002
          ],
          [
            -103.29737000000002,
            20.633840000000003
          ],
          [
            -103.29893000000001,
            20.63613
          ],
          [
            -103.29891,
            20.63614
          ],
          [
            -103.29936000000001,
            20.63682
          ],
          [
            -103.29955000000001,
            20.63709
          ],
          [
            -103.29961000000002,
            20.637050000000002
          ],
          [
            -103.30029,
            20.638050000000003
          ],
          [
            -103.30033,
            20.6381
          ],
          [
            -103.30036000000001,
            20.638150000000003
          ],
          [
            -103.30089000000001,
            20.639080000000003
          ],
          [
            -103.30102000000001,
            20.639280000000003
          ],
          [
            -103.30111000000001,
            20.63945
          ],
          [
            -103.30119,
            20.639570000000003
          ],
          [
            -103.30130000000001,
            20.6398
          ],
          [
            -103.30163,
            20.64037
          ],
          [
            -103.30194,
            20.64093
          ],
          [
            -103.30206000000001,
            20.64112
          ],
          [
            -103.30199,
            20.641160000000003
          ],
          [
            -103.30277000000001,
            20.64254
          ],
          [
            -103.30325,
            20.643420000000003
          ],
          [
            -103.30395000000001,
            20.644660000000002
          ],
          [
            -103.30393000000001,
            20.644660000000002
          ],
          [
            -103.30398000000001,
            20.64476
          ],
          [
            -103.30492000000001,
            20.646420000000003
          ],
          [
            -103.30506000000001,
            20.64665
          ],
          [
            -103.30599000000001,
            20.64834
          ],
          [
            -103.30717000000001,
            20.6491
          ],
          [
            -103.30716000000001,
            20.64911
          ],
          [
            -103.30774000000001,
            20.649510000000003
          ],
          [
            -103.30795,
            20.649630000000002
          ],
          [
            -103.30797000000001,
            20.649610000000003
          ],
          [
            -103.30946,
            20.65058
          ],
          [
            -103.30953000000001,
            20.650630000000003
          ],
          [
            -103.31048000000001,
            20.651220000000002
          ],
          [
            -103.31054,
            20.651130000000002
          ],
          [
            -103.31076,
            20.65127
          ],
          [
            -103.31118000000001,
            20.65153
          ],
          [
            -103.31129000000001,
            20.651580000000003
          ],
          [
            -103.31143,
            20.651670000000003
          ],
          [
            -103.3118,
            20.65192
          ],
          [
            -103.31232000000001,
            20.652240000000003
          ],
          [
            -103.31258000000001,
            20.65239
          ],
          [
            -103.31248000000001,
            20.652530000000002
          ],
          [
            -103.31335000000001,
            20.653090000000002
          ],
          [
            -103.31604000000002,
            20.654780000000002
          ],
          [
            -103.31614,
            20.65463
          ],
          [
            -103.31673,
            20.65502
          ],
          [
            -103.31735,
            20.6554
          ],
          [
            -103.31757,
            20.65555
          ],
          [
            -103.31759000000001,
            20.65556
          ],
          [
            -103.31596,
            20.660030000000003
          ],
          [
            -103.32134,
            20.66205
          ],
          [
            -103.32247000000001,
            20.65866
          ],
          [
            -103.32348,
            20.65934
          ],
          [
            -103.32228,
            20.662280000000003
          ],
          [
            -103.32558,
            20.663520000000002
          ],
          [
            -103.32660000000001,
            20.66131
          ],
          [
            -103.32857000000001,
            20.6626
          ],
          [
            -103.32880000000002,
            20.662740000000003
          ],
          [
            -103.32880000000002,
            20.662740000000003
          ],
          [
            -103.33071000000001,
            20.663790000000002
          ],
          [
            -103.33051,
            20.664450000000002
          ],
          [
            -103.3302,
            20.665100000000002
          ],
          [
            -103.33089000000001,
            20.66531
          ],
          [
            -103.33181,
            20.66579
          ],
          [
            -103.33166000000001,
            20.66597
          ],
          [
            -103.33117000000001,
            20.66656
          ],
          [
            -103.33109,
            20.66682
          ],
          [
            -103.33075000000001,
            20.66784
          ],
          [
            -103.33068000000002,
            20.66807
          ],
          [
            -103.33037,
            20.669020000000003
          ],
          [
            -103.33028,
            20.669240000000002
          ],
          [
            -103.33011,
            20.66965
          ],
          [
            -103.32985000000001,
            20.67032
          ],
          [
            -103.32978000000001,
            20.670540000000003
          ],
          [
            -103.32955000000001,
            20.671180000000003
          ],
          [
            -103.32947000000001,
            20.67142
          ],
          [
            -103.32922,
            20.672130000000003
          ],
          [
            -103.32914000000001,
            20.67237
          ],
          [
            -103.32866000000001,
            20.6738
          ],
          [
            -103.32858,
            20.674030000000002
          ],
          [
            -103.32809,
            20.675420000000003
          ],
          [
            -103.32801,
            20.67565
          ],
          [
            -103.32774,
            20.676450000000003
          ],
          [
            -103.32766000000001,
            20.67669
          ],
          [
            -103.32722000000001,
            20.677860000000003
          ],
          [
            -103.32714000000001,
            20.678120000000003
          ],
          [
            -103.32689,
            20.67893
          ],
          [
            -103.32681000000001,
            20.679170000000003
          ],
          [
            -103.32658,
            20.6798
          ],
          [
            -103.32650000000001,
            20.680030000000002
          ],
          [
            -103.32652,
            20.680030000000002
          ],
          [
            -103.32593000000001,
            20.68175
          ],
          [
            -103.32585,
            20.681990000000003
          ],
          [
            -103.32584000000001,
            20.681980000000003
          ],
          [
            -103.32536,
            20.68337
          ],
          [
            -103.32527,
            20.683600000000002
          ],
          [
            -103.32513,
            20.68393
          ],
          [
            -103.32505,
            20.68418
          ],
          [
            -103.32508000000001,
            20.68437
          ],
          [
            -103.32521000000001,
            20.684440000000002
          ],
          [
            -103.32521000000001,
            20.684430000000003
          ],
          [
            -103.32520000000001,
            20.684430000000003
          ],
          [
            -103.32638000000001,
            20.68466
          ],
          [
            -103.32558,
            20.686950000000003
          ],
          [
            -103.32442,
            20.690340000000003
          ],
          [
            -103.32324000000001,
            20.693810000000003
          ],
          [
            -103.32252000000001,
            20.694840000000003
          ],
          [
            -103.32193000000001,
            20.69592
          ],
          [
            -103.31908000000001,
            20.700000000000003
          ],
          [
            -103.31796000000001,
            20.699360000000002
          ],
          [
            -103.31756000000001,
            20.699140000000003
          ],
          [
            -103.31673,
            20.698670000000003
          ],
          [
            -103.31563000000001,
            20.698130000000003
          ],
          [
            -103.31488,
            20.69773
          ],
          [
            -103.3144,
            20.697390000000002
          ],
          [
            -103.31364,
            20.696990000000003
          ],
          [
            -103.31304000000002,
            20.696720000000003
          ],
          [
            -103.31238,
            20.6964
          ],
          [
            -103.31188,
            20.69609
          ],
          [
            -103.31127000000001,
            20.695800000000002
          ],
          [
            -103.31082,
            20.69554
          ],
          [
            -103.31049,
            20.695390000000003
          ],
          [
            -103.31015000000001,
            20.695220000000003
          ],
          [
            -103.30921000000001,
            20.69462
          ],
          [
            -103.30939000000001,
            20.695210000000003
          ],
          [
            -103.30994000000001,
            20.697000000000003
          ],
          [
            -103.31007000000001,
            20.697450000000003
          ],
          [
            -103.31084000000001,
            20.6995
          ],
          [
            -103.31123000000001,
            20.700560000000003
          ],
          [
            -103.31164000000001,
            20.70172
          ],
          [
            -103.3117,
            20.701870000000003
          ],
          [
            -103.31205000000001,
            20.70294
          ],
          [
            -103.31240000000001,
            20.70398
          ],
          [
            -103.31254000000001,
            20.704410000000003
          ],
          [
            -103.31298000000001,
            20.70566
          ],
          [
            -103.31298000000001,
            20.70566
          ],
          [
            -103.31331000000002,
            20.706670000000003
          ],
          [
            -103.3134,
            20.706930000000003
          ],
          [
            -103.31341,
            20.70692
          ],
          [
            -103.31374000000001,
            20.707890000000003
          ],
          [
            -103.31393000000001,
            20.708460000000002
          ],
          [
            -103.31434,
            20.709690000000002
          ],
          [
            -103.31475,
            20.710870000000003
          ],
          [
            -103.31545000000001,
            20.71115
          ],
          [
            -103.31697000000001,
            20.71159
          ],
          [
            -103.31661000000001,
            20.712680000000002
          ],
          [
            -103.31604000000002,
            20.71593
          ],
          [
            -103.31701000000001,
            20.716050000000003
          ],
          [
            -103.31840000000001,
            20.716230000000003
          ],
          [
            -103.31920000000001,
            20.71627
          ],
          [
            -103.32022,
            20.71664
          ],
          [
            -103.32121000000001,
            20.71695
          ],
          [
            -103.32138,
            20.717270000000003
          ],
          [
            -103.32444000000001,
            20.71861
          ],
          [
            -103.32770000000001,
            20.719990000000003
          ],
          [
            -103.32951000000001,
            20.72089
          ],
          [
            -103.33000000000001,
            20.72127
          ],
          [
            -103.33076000000001,
            20.721570000000003
          ],
          [
            -103.33075000000001,
            20.722150000000003
          ],
          [
            -103.33072000000001,
            20.722810000000003
          ],
          [
            -103.33031000000001,
            20.72278
          ],
          [
            -103.33017000000001,
            20.723950000000002
          ],
          [
            -103.33014000000001,
            20.725980000000003
          ],
          [
            -103.32976000000001,
            20.726300000000002
          ],
          [
            -103.32935,
            20.726470000000003
          ],
          [
            -103.32767000000001,
            20.72663
          ],
          [
            -103.32426000000001,
            20.72697
          ],
          [
            -103.32195000000002,
            20.727210000000003
          ],
          [
            -103.32049,
            20.72734
          ],
          [
            -103.32047000000001,
            20.72838
          ],
          [
            -103.32048,
            20.72888
          ],
          [
            -103.32052,
            20.72924
          ],
          [
            -103.32140000000001,
            20.72922
          ],
          [
            -103.3225,
            20.729200000000002
          ],
          [
            -103.32466000000001,
            20.729200000000002
          ],
          [
            -103.32606000000001,
            20.729200000000002
          ],
          [
            -103.32737,
            20.729200000000002
          ],
          [
            -103.32729,
            20.729870000000002
          ],
          [
            -103.3263,
            20.732310000000002
          ],
          [
            -103.32337000000001,
            20.73167
          ],
          [
            -103.32234000000001,
            20.731430000000003
          ],
          [
            -103.32214,
            20.73273
          ],
          [
            -103.32184000000001,
            20.734060000000003
          ],
          [
            -103.32166000000001,
            20.735110000000002
          ],
          [
            -103.32159000000001,
            20.73544
          ],
          [
            -103.32151,
            20.735460000000003
          ],
          [
            -103.32123000000001,
            20.73533
          ],
          [
            -103.32033000000001,
            20.734990000000003
          ],
          [
            -103.32026,
            20.735210000000002
          ],
          [
            -103.3194,
            20.734920000000002
          ],
          [
            -103.31894000000001,
            20.73616
          ],
          [
            -103.31853000000001,
            20.737280000000002
          ],
          [
            -103.31812000000001,
            20.73844
          ],
          [
            -103.31769000000001,
            20.73957
          ],
          [
            -103.31946,
            20.74001
          ],
          [
            -103.31946,
            20.738570000000003
          ]
        ]
      }
    }
  ]
}