{
  "type": "FeatureCollection",
  "features": [
    {
      "type": "Feature",
      "properties": {
        "identifier": "207-2",
        "name": "Ruta 207"
      },
      "geometry": {
        "type": "LineString",
        "coordinates": [
          [
            -103.31936,
            20.74012
          ],
          [
            -103.31859000000001,
            20.73985
          ],
          [
            -103.32035,
            20.734990000000003
          ],
          [
            -103.32052,
            20.73506
          ],
          [
            -103.32099000000001,
            20.734050000000003
          ],
          [
            -103.32188000000001,
            20.73403
          ],
          [
            -103.32218,
            20.734160000000003
          ],
          [
            -103.32367,
            20.73345
          ],
          [
            -103.32319000000001,
            20.730980000000002
          ],
          [
            -103.32474,
            20.731350000000003
          ],
          [
            -103.32463000000001,
            20.73205
          ],
          [
            -103.32629000000001,
            20.732370000000003
          ],
          [
            -103.32744000000001,
            20.729200000000002
          ],
          [
            -103.32050000000001,
            20.729290000000002
          ],
          [
            -103.32047000000001,
            20.72737
          ],
          [
            -103.32951000000001,
            20.726480000000002
          ],
          [
            -103.33018000000001,
            20.726000000000003
          ],
          [
            -103.33013000000001,
            20.72286
          ],
          [
            -103.32892000000001,
            20.72231
          ],
          [
            -103.32893000000001,
            20.720550000000003
          ],
          [
            -103.32124,
            20.71722
          ],
          [
            -103.32119,
            20.71678
          ],
          [
            -103.31943000000001,
            20.7163
          ],
          [
            -103.31606000000001,
            20.715940000000003
          ],
          [
            -103.31637,
            20.71359
          ],
          [
            -103.31660000000001,
            20.71263
          ],
          [
            -103.31523000000001,
            20.712300000000003
          ],
          [
            -103.31332,
            20.7066
          ],
          [
            -103.31006000000001,
            20.697380000000003
          ],
          [
            -103.30999000000001,
            20.69715
          ],
          [
            -103.30993000000001,
            20.69695
          ],
          [
            -103.30986000000001,
            20.69678
          ],
          [
            -103.30983,
            20.69667
          ],
          [
            -103.30975000000001,
            20.696340000000003
          ],
          [
            -103.30968000000001,
            20.696070000000002
          ],
          [
            -103.30953000000001,
            20.695580000000003
          ],
          [
            -103.30933,
            20.69497
          ],
          [
            -103.30936000000001,
            20.694940000000003
          ],
          [
            -103.30939000000001,
            20.694940000000003
          ],
          [
            -103.30942,
            20.694920000000003
          ],
          [
            -103.30945000000001,
            20.6949
          ],
          [
            -103.30955,
            20.694950000000002
          ],
          [
            -103.3096,
            20.69498
          ],
          [
            -103.30968000000001,
            20.695
          ],
          [
            -103.31302000000001,
            20.69675
          ],
          [
            -103.31481000000001,
            20.69762
          ],
          [
            -103.31641,
            20.69855
          ],
          [
            -103.31912000000001,
            20.69998
          ],
          [
            -103.31928,
            20.699820000000003
          ],
          [
            -103.31939000000001,
            20.699640000000002
          ],
          [
            -103.31951000000001,
            20.69941
          ],
          [
            -103.31965000000001,
            20.6992
          ],
          [
            -103.31979000000001,
            20.699050000000003
          ],
          [
            -103.32004,
            20.698690000000003
          ],
          [
            -103.32016000000002,
            20.69856
          ],
          [
            -103.32026,
            20.698390000000003
          ],
          [
            -103.32037000000001,
            20.698230000000002
          ],
          [
            -103.32047000000001,
            20.6981
          ],
          [
            -103.32054000000001,
            20.697940000000003
          ],
          [
            -103.32064000000001,
            20.69778
          ],
          [
            -103.32081000000001,
            20.697550000000003
          ],
          [
            -103.32088,
            20.697370000000003
          ],
          [
            -103.32094000000001,
            20.697190000000003
          ],
          [
            -103.32108000000001,
            20.697110000000002
          ],
          [
            -103.32116,
            20.69695
          ],
          [
            -103.32127000000001,
            20.696700000000003
          ],
          [
            -103.3212,
            20.696820000000002
          ],
          [
            -103.32138,
            20.696610000000003
          ],
          [
            -103.32148000000001,
            20.69648
          ],
          [
            -103.32163000000001,
            20.69622
          ],
          [
            -103.32177000000001,
            20.695970000000003
          ],
          [
            -103.32198000000001,
            20.695670000000003
          ],
          [
            -103.32219,
            20.69545
          ],
          [
            -103.32232,
            20.695200000000003
          ],
          [
            -103.32245,
            20.69499
          ],
          [
            -103.32265000000001,
            20.69482
          ],
          [
            -103.32281,
            20.694570000000002
          ],
          [
            -103.32302000000001,
            20.69421
          ],
          [
            -103.32324000000001,
            20.693810000000003
          ],
          [
            -103.32356000000001,
            20.692880000000002
          ],
          [
            -103.32359000000001,
            20.692890000000002
          ],
          [
            -103.32396000000001,
            20.69179
          ],
          [
            -103.32433,
            20.69068
          ],
          [
            -103.32433,
            20.69068
          ],
          [
            -103.32474,
            20.689510000000002
          ],
          [
            -103.32512000000001,
            20.6884
          ],
          [
            -103.3255,
            20.6873
          ],
          [
            -103.32555,
            20.687140000000003
          ],
          [
            -103.32633000000001,
            20.68478
          ],
          [
            -103.32646000000001,
            20.6844
          ],
          [
            -103.32654000000001,
            20.684410000000003
          ],
          [
            -103.32653,
            20.684420000000003
          ],
          [
            -103.32646000000001,
            20.6844
          ],
          [
            -103.32686000000001,
            20.683210000000003
          ],
          [
            -103.32704000000001,
            20.682740000000003
          ],
          [
            -103.32715,
            20.682350000000003
          ],
          [
            -103.32716,
            20.68234
          ],
          [
            -103.32771000000001,
            20.680750000000003
          ],
          [
            -103.32780000000001,
            20.680490000000002
          ],
          [
            -103.32814,
            20.67948
          ],
          [
            -103.32834000000001,
            20.67886
          ],
          [
            -103.32843000000001,
            20.678600000000003
          ],
          [
            -103.32877,
            20.67762
          ],
          [
            -103.32877,
            20.67762
          ],
          [
            -103.32923000000001,
            20.676280000000002
          ],
          [
            -103.32934,
            20.67594
          ],
          [
            -103.32954000000001,
            20.67537
          ],
          [
            -103.33007,
            20.673820000000003
          ],
          [
            -103.33007,
            20.673820000000003
          ],
          [
            -103.33061000000001,
            20.672230000000003
          ],
          [
            -103.33084000000001,
            20.671560000000003
          ],
          [
            -103.33093000000001,
            20.671310000000002
          ],
          [
            -103.33123,
            20.670440000000003
          ],
          [
            -103.33135000000001,
            20.670070000000003
          ],
          [
            -103.33168,
            20.669140000000002
          ],
          [
            -103.33202000000001,
            20.66814
          ],
          [
            -103.33343,
            20.66409
          ],
          [
            -103.33374,
            20.663690000000003
          ],
          [
            -103.33358000000001,
            20.66354
          ],
          [
            -103.33330000000001,
            20.663670000000003
          ],
          [
            -103.33291000000001,
            20.664270000000002
          ],
          [
            -103.33249,
            20.66505
          ],
          [
            -103.33224000000001,
            20.66488
          ],
          [
            -103.33073,
            20.66394
          ],
          [
            -103.33047,
            20.663770000000003
          ],
          [
            -103.32979,
            20.66328
          ],
          [
            -103.32926,
            20.662950000000002
          ],
          [
            -103.32897000000001,
            20.66281
          ],
          [
            -103.32875000000001,
            20.662570000000002
          ],
          [
            -103.32832,
            20.66244
          ],
          [
            -103.32618000000001,
            20.66113
          ],
          [
            -103.32442,
            20.65999
          ],
          [
            -103.32391000000001,
            20.65963
          ],
          [
            -103.32362,
            20.660290000000003
          ],
          [
            -103.32325,
            20.66122
          ],
          [
            -103.32187,
            20.66066
          ],
          [
            -103.32260000000001,
            20.658620000000003
          ],
          [
            -103.32062,
            20.65743
          ],
          [
            -103.32065000000001,
            20.657390000000003
          ],
          [
            -103.31415000000001,
            20.653290000000002
          ],
          [
            -103.31177000000001,
            20.6519
          ],
          [
            -103.31246,
            20.650910000000003
          ],
          [
            -103.31052000000001,
            20.64968
          ],
          [
            -103.31038000000001,
            20.65099
          ],
          [
            -103.30919000000002,
            20.650440000000003
          ],
          [
            -103.30753000000001,
            20.649230000000003
          ],
          [
            -103.30749,
            20.64928
          ],
          [
            -103.30655,
            20.648670000000003
          ],
          [
            -103.30612,
            20.648390000000003
          ],
          [
            -103.30607,
            20.647920000000003
          ],
          [
            -103.30622000000001,
            20.647460000000002
          ],
          [
            -103.30633,
            20.64665
          ],
          [
            -103.30638,
            20.64609
          ],
          [
            -103.30652,
            20.645480000000003
          ],
          [
            -103.30665,
            20.644350000000003
          ],
          [
            -103.30563000000001,
            20.644260000000003
          ],
          [
            -103.30398000000001,
            20.64479
          ],
          [
            -103.30388,
            20.64458
          ],
          [
            -103.30263000000001,
            20.64214
          ],
          [
            -103.3028,
            20.64206
          ],
          [
            -103.30203,
            20.64067
          ],
          [
            -103.30185,
            20.64076
          ],
          [
            -103.30093000000001,
            20.63913
          ],
          [
            -103.30028000000001,
            20.63792
          ],
          [
            -103.30052,
            20.637410000000003
          ],
          [
            -103.30057000000001,
            20.63698
          ],
          [
            -103.29951000000001,
            20.636870000000002
          ],
          [
            -103.29819,
            20.634970000000003
          ],
          [
            -103.29816000000001,
            20.634990000000002
          ],
          [
            -103.29737000000002,
            20.633840000000003
          ],
          [
            -103.29606000000001,
            20.633570000000002
          ],
          [
            -103.29606000000001,
            20.633560000000003
          ],
          [
            -103.29556000000001,
            20.633460000000003
          ],
          [
            -103.29546,
            20.63344
          ],
          [
            -103.29479,
            20.63334
          ],
          [
            -103.29466000000001,
            20.63332
          ],
          [
            -103.29451,
            20.633300000000002
          ],
          [
            -103.29449000000001,
            20.633390000000002
          ],
          [
            -103.29320000000001,
            20.633190000000003
          ],
          [
            -103.29269000000001,
            20.63312
          ],
          [
            -103.292,
            20.63326
          ],
          [
            -103.29167000000001,
            20.633200000000002
          ],
          [
            -103.28979000000001,
            20.63286
          ],
          [
            -103.28861,
            20.63266
          ],
          [
            -103.28867000000001,
            20.6324
          ],
          [
            -103.28867000000001,
            20.6324
          ],
          [
            -103.28869,
            20.632250000000003
          ],
          [
            -103.28882000000002,
            20.63137
          ],
          [
            -103.28890000000001,
            20.63096
          ],
          [
            -103.28895000000001,
            20.630730000000003
          ],
          [
            -103.28932,
            20.62894
          ],
          [
            -103.28940000000001,
            20.62854
          ],
          [
            -103.28921000000001,
            20.62846
          ],
          [
            -103.28916000000001,
            20.62843
          ],
          [
            -103.28917000000001,
            20.628410000000002
          ],
          [
            -103.28721,
            20.62759
          ],
          [
            -103.28719000000001,
            20.62762
          ],
          [
            -103.28635000000001,
            20.627280000000003
          ],
          [
            -103.28687000000001,
            20.626070000000002
          ],
          [
            -103.28735,
            20.62459
          ],
          [
            -103.28765000000001,
            20.62422
          ],
          [
            -103.28641,
            20.62378
          ],
          [
            -103.28688000000001,
            20.623150000000003
          ],
          [
            -103.28688000000001,
            20.62171
          ]
        ]
      }
    }
  ]
}