{
  "type": "FeatureCollection",
  "features": [
    {
      "type": "Feature",
      "properties": {
        "identifier": "24-2?o=2",
        "name": "Ruta 24"
      },
      "geometry": {
        "type": "LineString",
        "coordinates": [
          [
            -103.45914,
            20.621010000000002
          ],
          [
            -103.45948000000001,
            20.62001
          ],
          [
            -103.45907000000001,
            20.61992
          ],
          [
            -103.45719000000001,
            20.619560000000003
          ],
          [
            -103.45613,
            20.61936
          ],
          [
            -103.4543,
            20.619010000000003
          ],
          [
            -103.45341,
            20.618830000000003
          ],
          [
            -103.45305,
            20.618640000000003
          ],
          [
            -103.45139,
            20.61774
          ],
          [
            -103.45105000000001,
            20.61765
          ],
          [
            -103.45105000000001,
            20.61767
          ],
          [
            -103.44834,
            20.617050000000003
          ],
          [
            -103.44347,
            20.61589
          ],
          [
            -103.44316,
            20.615810000000003
          ],
          [
            -103.44029,
            20.615150000000003
          ],
          [
            -103.44002,
            20.615080000000003
          ],
          [
            -103.43907000000002,
            20.61486
          ],
          [
            -103.43721000000001,
            20.614430000000002
          ],
          [
            -103.43707,
            20.614400000000003
          ],
          [
            -103.43522000000002,
            20.613940000000003
          ],
          [
            -103.43303,
            20.613400000000002
          ],
          [
            -103.43255,
            20.613290000000003
          ],
          [
            -103.43076,
            20.612910000000003
          ],
          [
            -103.43042000000001,
            20.612830000000002
          ],
          [
            -103.42892,
            20.61248
          ],
          [
            -103.42861,
            20.61242
          ],
          [
            -103.42963,
            20.6109
          ],
          [
            -103.42981,
            20.61062
          ],
          [
            -103.42988000000001,
            20.610660000000003
          ],
          [
            -103.43141000000001,
            20.608210000000003
          ],
          [
            -103.43152,
            20.608040000000003
          ],
          [
            -103.43231000000002,
            20.606810000000003
          ],
          [
            -103.43292000000001,
            20.605860000000003
          ],
          [
            -103.43352,
            20.60491
          ],
          [
            -103.43406,
            20.60407
          ],
          [
            -103.43431000000001,
            20.60368
          ],
          [
            -103.43471000000001,
            20.60309
          ],
          [
            -103.43572,
            20.60161
          ],
          [
            -103.43744000000001,
            20.59908
          ],
          [
            -103.43758000000001,
            20.59887
          ],
          [
            -103.43744000000001,
            20.59878
          ],
          [
            -103.44123,
            20.59306
          ],
          [
            -103.44191000000001,
            20.59202
          ],
          [
            -103.44208,
            20.59177
          ],
          [
            -103.44275,
            20.590760000000003
          ],
          [
            -103.44386000000002,
            20.58905
          ],
          [
            -103.44494,
            20.587400000000002
          ],
          [
            -103.44547000000001,
            20.58659
          ],
          [
            -103.4457,
            20.58624
          ],
          [
            -103.44622000000001,
            20.585430000000002
          ],
          [
            -103.44727,
            20.583810000000003
          ],
          [
            -103.44764,
            20.58324
          ],
          [
            -103.44890000000001,
            20.581280000000003
          ],
          [
            -103.44900000000001,
            20.58113
          ],
          [
            -103.44914000000001,
            20.58126
          ],
          [
            -103.44889,
            20.581100000000003
          ],
          [
            -103.44825,
            20.58208
          ],
          [
            -103.44728,
            20.58357
          ],
          [
            -103.44536000000001,
            20.58658
          ],
          [
            -103.44359000000001,
            20.589270000000003
          ],
          [
            -103.44164,
            20.592160000000003
          ],
          [
            -103.4398,
            20.59497
          ],
          [
            -103.43916000000002,
            20.595930000000003
          ],
          [
            -103.43716,
            20.59899
          ],
          [
            -103.435,
            20.602220000000003
          ],
          [
            -103.43422000000001,
            20.60338
          ],
          [
            -103.43197,
            20.60689
          ],
          [
            -103.42942000000001,
            20.61081
          ],
          [
            -103.42833,
            20.612360000000002
          ],
          [
            -103.42611000000001,
            20.615810000000003
          ],
          [
            -103.42605,
            20.6158
          ],
          [
            -103.42599000000001,
            20.615830000000003
          ],
          [
            -103.42552,
            20.61654
          ],
          [
            -103.42401000000001,
            20.618830000000003
          ],
          [
            -103.42379000000001,
            20.619190000000003
          ],
          [
            -103.42288,
            20.620600000000003
          ],
          [
            -103.42237000000002,
            20.621380000000002
          ],
          [
            -103.42236000000001,
            20.62139
          ],
          [
            -103.42165000000001,
            20.62246
          ],
          [
            -103.42175,
            20.62252
          ],
          [
            -103.42085,
            20.623880000000003
          ],
          [
            -103.42080000000001,
            20.62385
          ],
          [
            -103.42012000000001,
            20.62481
          ],
          [
            -103.41963000000001,
            20.625500000000002
          ],
          [
            -103.41953000000001,
            20.625660000000003
          ],
          [
            -103.41951,
            20.62565
          ],
          [
            -103.41835,
            20.627390000000002
          ],
          [
            -103.41837000000001,
            20.6274
          ],
          [
            -103.41825000000001,
            20.627570000000002
          ],
          [
            -103.41785,
            20.62789
          ],
          [
            -103.41774000000001,
            20.628400000000003
          ],
          [
            -103.41755,
            20.628690000000002
          ],
          [
            -103.41759,
            20.62871
          ],
          [
            -103.41715,
            20.62938
          ],
          [
            -103.4167,
            20.630070000000003
          ],
          [
            -103.41611,
            20.63096
          ],
          [
            -103.41536,
            20.6321
          ],
          [
            -103.41460000000001,
            20.63324
          ],
          [
            -103.41382000000002,
            20.634430000000002
          ],
          [
            -103.41374,
            20.634390000000003
          ],
          [
            -103.4136,
            20.634490000000003
          ],
          [
            -103.41345000000001,
            20.634500000000003
          ],
          [
            -103.41335000000001,
            20.634670000000003
          ],
          [
            -103.41340000000001,
            20.634860000000003
          ],
          [
            -103.41326000000001,
            20.635160000000003
          ],
          [
            -103.41298,
            20.63558
          ],
          [
            -103.41235,
            20.6365
          ],
          [
            -103.41213,
            20.636850000000003
          ],
          [
            -103.41092,
            20.6387
          ],
          [
            -103.40976,
            20.640420000000002
          ],
          [
            -103.40905000000001,
            20.64148
          ],
          [
            -103.40881,
            20.641830000000002
          ],
          [
            -103.40751,
            20.64382
          ],
          [
            -103.40719000000001,
            20.64432
          ],
          [
            -103.40621,
            20.645880000000002
          ],
          [
            -103.40616000000001,
            20.645850000000003
          ],
          [
            -103.40614000000001,
            20.645870000000002
          ],
          [
            -103.40485000000001,
            20.6479
          ],
          [
            -103.40473000000001,
            20.64808
          ],
          [
            -103.40374000000001,
            20.64958
          ],
          [
            -103.40373000000001,
            20.64957
          ],
          [
            -103.40310000000001,
            20.650570000000002
          ],
          [
            -103.40276000000001,
            20.651110000000003
          ],
          [
            -103.40242,
            20.65152
          ],
          [
            -103.4021,
            20.65199
          ],
          [
            -103.40201,
            20.652130000000003
          ],
          [
            -103.40144000000001,
            20.65302
          ],
          [
            -103.40123000000001,
            20.653350000000003
          ],
          [
            -103.40092000000001,
            20.65381
          ],
          [
            -103.40084,
            20.653920000000003
          ],
          [
            -103.39948000000001,
            20.655990000000003
          ],
          [
            -103.39873000000001,
            20.657110000000003
          ],
          [
            -103.39849000000001,
            20.657490000000003
          ],
          [
            -103.39828000000001,
            20.65783
          ],
          [
            -103.39756000000001,
            20.658910000000002
          ],
          [
            -103.39731,
            20.659280000000003
          ],
          [
            -103.39721000000002,
            20.6594
          ],
          [
            -103.39695,
            20.65979
          ],
          [
            -103.39614,
            20.660980000000002
          ],
          [
            -103.39612000000001,
            20.66101
          ],
          [
            -103.39436,
            20.663710000000002
          ],
          [
            -103.39416000000001,
            20.66401
          ],
          [
            -103.39375000000001,
            20.66465
          ],
          [
            -103.39375000000001,
            20.66465
          ],
          [
            -103.39287,
            20.66591
          ],
          [
            -103.39218000000001,
            20.66609
          ],
          [
            -103.39203,
            20.66657
          ],
          [
            -103.39217000000001,
            20.666980000000002
          ],
          [
            -103.39207,
            20.667150000000003
          ],
          [
            -103.39075000000001,
            20.6691
          ],
          [
            -103.39065000000001,
            20.66926
          ],
          [
            -103.38983,
            20.670540000000003
          ],
          [
            -103.38949000000001,
            20.67104
          ],
          [
            -103.38845,
            20.67258
          ],
          [
            -103.388,
            20.673250000000003
          ],
          [
            -103.38751,
            20.6732
          ],
          [
            -103.38685000000001,
            20.673260000000003
          ],
          [
            -103.3863,
            20.6736
          ],
          [
            -103.3859,
            20.67386
          ],
          [
            -103.38556000000001,
            20.6735
          ],
          [
            -103.38487,
            20.67332
          ],
          [
            -103.38485000000001,
            20.67394
          ],
          [
            -103.38466000000001,
            20.67442
          ],
          [
            -103.38483000000001,
            20.674950000000003
          ],
          [
            -103.38484000000001,
            20.67584
          ],
          [
            -103.38483000000001,
            20.676460000000002
          ],
          [
            -103.38485000000001,
            20.678050000000002
          ],
          [
            -103.38468,
            20.678330000000003
          ],
          [
            -103.38411,
            20.67923
          ],
          [
            -103.38368000000001,
            20.679450000000003
          ],
          [
            -103.38368000000001,
            20.67988
          ],
          [
            -103.38321,
            20.680580000000003
          ],
          [
            -103.38249,
            20.68165
          ],
          [
            -103.38187,
            20.68259
          ],
          [
            -103.38106,
            20.683780000000002
          ],
          [
            -103.38102,
            20.683870000000002
          ],
          [
            -103.38062000000001,
            20.684520000000003
          ],
          [
            -103.37993,
            20.685560000000002
          ],
          [
            -103.37907000000001,
            20.686850000000003
          ],
          [
            -103.37885000000001,
            20.68719
          ],
          [
            -103.37881,
            20.68718
          ],
          [
            -103.37789000000001,
            20.68862
          ],
          [
            -103.37778000000002,
            20.68879
          ],
          [
            -103.37769000000002,
            20.688730000000003
          ],
          [
            -103.37653,
            20.68981
          ],
          [
            -103.37586,
            20.69144
          ],
          [
            -103.37598000000001,
            20.69151
          ],
          [
            -103.37567000000001,
            20.69197
          ],
          [
            -103.37524,
            20.692600000000002
          ],
          [
            -103.37411,
            20.694270000000003
          ],
          [
            -103.37375000000002,
            20.6948
          ],
          [
            -103.37338000000001,
            20.69534
          ],
          [
            -103.37299,
            20.695880000000002
          ],
          [
            -103.37311000000001,
            20.696420000000003
          ],
          [
            -103.37347000000001,
            20.697090000000003
          ],
          [
            -103.37349,
            20.697090000000003
          ],
          [
            -103.37387000000001,
            20.69781
          ],
          [
            -103.37425,
            20.69853
          ],
          [
            -103.37450000000001,
            20.698980000000002
          ],
          [
            -103.37458000000001,
            20.6991
          ],
          [
            -103.37471000000001,
            20.69929
          ],
          [
            -103.37478000000002,
            20.699270000000002
          ],
          [
            -103.37503000000001,
            20.69977
          ],
          [
            -103.3752,
            20.70022
          ],
          [
            -103.37541,
            20.700840000000003
          ],
          [
            -103.37573,
            20.701790000000003
          ],
          [
            -103.37582,
            20.70204
          ],
          [
            -103.37609,
            20.70289
          ],
          [
            -103.37632,
            20.703480000000003
          ],
          [
            -103.37645,
            20.70381
          ],
          [
            -103.37637000000001,
            20.70383
          ],
          [
            -103.37637000000001,
            20.703840000000003
          ],
          [
            -103.37652000000001,
            20.704230000000003
          ],
          [
            -103.37668000000001,
            20.704770000000003
          ],
          [
            -103.37682000000001,
            20.70539
          ],
          [
            -103.37686000000001,
            20.7056
          ],
          [
            -103.37686000000001,
            20.70561
          ],
          [
            -103.37696000000001,
            20.70627
          ],
          [
            -103.37702,
            20.70652
          ],
          [
            -103.37718000000001,
            20.70692
          ],
          [
            -103.37800000000001,
            20.70861
          ],
          [
            -103.37804000000001,
            20.708660000000002
          ],
          [
            -103.37811,
            20.708640000000003
          ],
          [
            -103.37815,
            20.708730000000003
          ],
          [
            -103.37841,
            20.709100000000003
          ],
          [
            -103.37865000000001,
            20.709380000000003
          ],
          [
            -103.38001000000001,
            20.710820000000002
          ],
          [
            -103.38033000000001,
            20.711170000000003
          ],
          [
            -103.38047,
            20.711370000000002
          ],
          [
            -103.38058000000001,
            20.711550000000003
          ],
          [
            -103.38099000000001,
            20.712100000000003
          ],
          [
            -103.38113000000001,
            20.712290000000003
          ],
          [
            -103.38125000000001,
            20.712480000000003
          ],
          [
            -103.38139000000001,
            20.71264
          ],
          [
            -103.38156000000001,
            20.712770000000003
          ],
          [
            -103.38166000000001,
            20.71284
          ],
          [
            -103.38187,
            20.712940000000003
          ],
          [
            -103.38211000000001,
            20.713
          ],
          [
            -103.38268000000001,
            20.7131
          ],
          [
            -103.38275,
            20.71312
          ],
          [
            -103.38298,
            20.713140000000003
          ],
          [
            -103.38343,
            20.71321
          ],
          [
            -103.38367000000001,
            20.71328
          ],
          [
            -103.38392,
            20.71339
          ],
          [
            -103.38419,
            20.71358
          ],
          [
            -103.38467000000001,
            20.713880000000003
          ],
          [
            -103.38513,
            20.714170000000003
          ],
          [
            -103.38528000000001,
            20.714260000000003
          ],
          [
            -103.38546000000001,
            20.71434
          ],
          [
            -103.38582000000001,
            20.71442
          ],
          [
            -103.3875,
            20.71488
          ],
          [
            -103.38762000000001,
            20.714930000000003
          ],
          [
            -103.38779000000001,
            20.715020000000003
          ],
          [
            -103.38791,
            20.71515
          ],
          [
            -103.38801000000001,
            20.71527
          ],
          [
            -103.38808,
            20.715400000000002
          ],
          [
            -103.38809,
            20.71543
          ],
          [
            -103.38813,
            20.71555
          ],
          [
            -103.38816000000001,
            20.715660000000003
          ],
          [
            -103.38828000000001,
            20.71611
          ],
          [
            -103.38851000000001,
            20.71693
          ],
          [
            -103.38853,
            20.71702
          ],
          [
            -103.38853,
            20.71721
          ],
          [
            -103.38850000000001,
            20.71739
          ],
          [
            -103.38835,
            20.71781
          ],
          [
            -103.38827,
            20.718040000000002
          ],
          [
            -103.38821000000002,
            20.718010000000003
          ],
          [
            -103.38788000000001,
            20.718940000000003
          ],
          [
            -103.38749000000001,
            20.71994
          ],
          [
            -103.38724,
            20.72025
          ],
          [
            -103.38733,
            20.721120000000003
          ],
          [
            -103.38773,
            20.72119
          ],
          [
            -103.38874000000001,
            20.72135
          ],
          [
            -103.38937000000001,
            20.72145
          ],
          [
            -103.39054,
            20.72165
          ],
          [
            -103.39160000000001,
            20.721850000000003
          ],
          [
            -103.39183000000001,
            20.721880000000002
          ],
          [
            -103.39328,
            20.72211
          ],
          [
            -103.39444,
            20.72231
          ],
          [
            -103.39515000000002,
            20.722440000000002
          ],
          [
            -103.39541000000001,
            20.72247
          ],
          [
            -103.3969,
            20.722710000000003
          ],
          [
            -103.39714000000001,
            20.72275
          ],
          [
            -103.39713,
            20.72278
          ],
          [
            -103.39767,
            20.72287
          ],
          [
            -103.39854000000001,
            20.723010000000002
          ],
          [
            -103.39946,
            20.723170000000003
          ],
          [
            -103.39954,
            20.72321
          ],
          [
            -103.39965000000001,
            20.72344
          ],
          [
            -103.39996000000001,
            20.724220000000003
          ],
          [
            -103.40003000000002,
            20.72436
          ],
          [
            -103.40022,
            20.72454
          ],
          [
            -103.40052000000001,
            20.72483
          ],
          [
            -103.40041000000001,
            20.7249
          ],
          [
            -103.40014000000001,
            20.72509
          ],
          [
            -103.39980000000001,
            20.7253
          ],
          [
            -103.39918000000002,
            20.72569
          ],
          [
            -103.39887,
            20.72596
          ],
          [
            -103.39902000000001,
            20.726100000000002
          ],
          [
            -103.39903000000001,
            20.726090000000003
          ],
          [
            -103.39922000000001,
            20.726280000000003
          ],
          [
            -103.39947000000001,
            20.72654
          ],
          [
            -103.39972,
            20.72679
          ],
          [
            -103.39993000000001,
            20.72697
          ],
          [
            -103.39999,
            20.727030000000003
          ],
          [
            -103.40033000000001,
            20.727390000000003
          ],
          [
            -103.40051000000001,
            20.72756
          ],
          [
            -103.40074000000001,
            20.727780000000003
          ],
          [
            -103.40094,
            20.728
          ],
          [
            -103.40114000000001,
            20.72819
          ],
          [
            -103.40153000000001,
            20.72858
          ],
          [
            -103.40216000000001,
            20.729190000000003
          ],
          [
            -103.40236,
            20.729380000000003
          ],
          [
            -103.40235000000001,
            20.729380000000003
          ],
          [
            -103.4026,
            20.729640000000003
          ],
          [
            -103.40372,
            20.73066
          ],
          [
            -103.40444000000001,
            20.73142
          ],
          [
            -103.40469,
            20.7317
          ],
          [
            -103.40695000000001,
            20.73147
          ],
          [
            -103.40878000000001,
            20.7313
          ],
          [
            -103.40975,
            20.73123
          ],
          [
            -103.40975,
            20.73123
          ],
          [
            -103.41113000000001,
            20.7311
          ],
          [
            -103.41114,
            20.731150000000003
          ],
          [
            -103.41149000000001,
            20.73113
          ],
          [
            -103.41256000000001,
            20.73104
          ],
          [
            -103.41256000000001,
            20.730990000000002
          ],
          [
            -103.41356,
            20.73092
          ],
          [
            -103.41356,
            20.730960000000003
          ],
          [
            -103.41472,
            20.730880000000003
          ],
          [
            -103.41585,
            20.73076
          ],
          [
            -103.41586000000001,
            20.730780000000003
          ],
          [
            -103.41602,
            20.730770000000003
          ],
          [
            -103.41656,
            20.73072
          ],
          [
            -103.41656,
            20.730690000000003
          ],
          [
            -103.41756000000001,
            20.730600000000003
          ],
          [
            -103.418,
            20.73056
          ],
          [
            -103.41889,
            20.730490000000003
          ],
          [
            -103.41929,
            20.73045
          ],
          [
            -103.41929,
            20.73045
          ],
          [
            -103.42087000000001,
            20.730310000000003
          ],
          [
            -103.42087000000001,
            20.730330000000002
          ],
          [
            -103.42155000000001,
            20.73028
          ],
          [
            -103.42209000000001,
            20.731450000000002
          ],
          [
            -103.42222000000001,
            20.731720000000003
          ],
          [
            -103.42263000000001,
            20.73261
          ],
          [
            -103.42321000000001,
            20.73385
          ],
          [
            -103.42351000000001,
            20.7345
          ],
          [
            -103.42414000000001,
            20.73592
          ],
          [
            -103.42447000000001,
            20.736710000000002
          ],
          [
            -103.42471,
            20.738110000000002
          ],
          [
            -103.42506,
            20.740640000000003
          ],
          [
            -103.42538,
            20.7407
          ],
          [
            -103.42729000000001,
            20.74104
          ],
          [
            -103.42829,
            20.741210000000002
          ],
          [
            -103.43061,
            20.74163
          ],
          [
            -103.43055000000001,
            20.741850000000003
          ],
          [
            -103.42980000000001,
            20.744470000000003
          ],
          [
            -103.4295,
            20.745520000000003
          ],
          [
            -103.42943000000001,
            20.745780000000003
          ],
          [
            -103.42885000000001,
            20.747750000000003
          ],
          [
            -103.42849000000001,
            20.74896
          ],
          [
            -103.42878,
            20.749100000000002
          ],
          [
            -103.43089,
            20.75024
          ],
          [
            -103.43333000000001,
            20.751520000000003
          ],
          [
            -103.43472000000001,
            20.752270000000003
          ],
          [
            -103.43628000000001,
            20.753130000000002
          ],
          [
            -103.43661,
            20.753310000000003
          ],
          [
            -103.4372,
            20.751720000000002
          ],
          [
            -103.43753000000001,
            20.750780000000002
          ],
          [
            -103.43864,
            20.75111
          ],
          [
            -103.43994,
            20.75149
          ],
          [
            -103.44029,
            20.751600000000003
          ],
          [
            -103.43977000000001,
            20.753300000000003
          ],
          [
            -103.44106000000001,
            20.75384
          ],
          [
            -103.44235,
            20.75439
          ],
          [
            -103.44231,
            20.754550000000002
          ],
          [
            -103.44227000000001,
            20.754540000000002
          ],
          [
            -103.44180000000001,
            20.756300000000003
          ],
          [
            -103.44178000000001,
            20.756300000000003
          ],
          [
            -103.44106000000001,
            20.758940000000003
          ],
          [
            -103.44098000000001,
            20.759030000000003
          ],
          [
            -103.44098000000001,
            20.75759
          ]
        ]
      }
    }
  ]
}