{
  "type": "FeatureCollection",
  "features": [
    {
      "type": "Feature",
      "properties": {
        "identifier": "258-2?o=2",
        "name": "Ruta 258"
      },
      "geometry": {
        "type": "LineString",
        "coordinates": [
          [
            -103.29548000000001,
            20.715500000000002
          ],
          [
            -103.29529000000001,
            20.71553
          ],
          [
            -103.29573,
            20.71545
          ],
          [
            -103.29547000000001,
            20.71402
          ],
          [
            -103.29513000000001,
            20.71214
          ],
          [
            -103.29512000000001,
            20.71214
          ],
          [
            -103.29496,
            20.711270000000003
          ],
          [
            -103.29496,
            20.711270000000003
          ],
          [
            -103.29474,
            20.71008
          ],
          [
            -103.29452,
            20.70889
          ],
          [
            -103.29434,
            20.70795
          ],
          [
            -103.29426000000001,
            20.70773
          ],
          [
            -103.29437000000001,
            20.707690000000003
          ],
          [
            -103.29433,
            20.70757
          ],
          [
            -103.29373000000001,
            20.70624
          ],
          [
            -103.29332000000001,
            20.705350000000003
          ],
          [
            -103.29328000000001,
            20.705240000000003
          ],
          [
            -103.29284000000001,
            20.70426
          ],
          [
            -103.29280000000001,
            20.70427
          ],
          [
            -103.29249000000002,
            20.703580000000002
          ],
          [
            -103.2925,
            20.703580000000002
          ],
          [
            -103.29247000000001,
            20.70353
          ],
          [
            -103.29151,
            20.70148
          ],
          [
            -103.29104000000001,
            20.70024
          ],
          [
            -103.29097,
            20.700270000000003
          ],
          [
            -103.29078000000001,
            20.69986
          ],
          [
            -103.29158000000001,
            20.699530000000003
          ],
          [
            -103.29344,
            20.698780000000003
          ],
          [
            -103.29372000000001,
            20.698670000000003
          ],
          [
            -103.29421,
            20.698860000000003
          ],
          [
            -103.29473000000002,
            20.698670000000003
          ],
          [
            -103.29479,
            20.698600000000003
          ],
          [
            -103.29488,
            20.69846
          ],
          [
            -103.29497,
            20.69835
          ],
          [
            -103.29488,
            20.698230000000002
          ],
          [
            -103.29545,
            20.698020000000003
          ],
          [
            -103.29682000000001,
            20.6975
          ],
          [
            -103.29818,
            20.69698
          ],
          [
            -103.29953,
            20.696460000000002
          ],
          [
            -103.30111000000001,
            20.695860000000003
          ],
          [
            -103.30243000000002,
            20.69536
          ],
          [
            -103.30386000000001,
            20.69481
          ],
          [
            -103.30483000000001,
            20.69444
          ],
          [
            -103.30611,
            20.69395
          ],
          [
            -103.30707000000001,
            20.69359
          ],
          [
            -103.30735000000001,
            20.69347
          ],
          [
            -103.30873000000001,
            20.69291
          ],
          [
            -103.31065000000001,
            20.692130000000002
          ],
          [
            -103.31385,
            20.690820000000002
          ],
          [
            -103.31688000000001,
            20.689580000000003
          ],
          [
            -103.31686,
            20.68953
          ],
          [
            -103.31841000000001,
            20.688920000000003
          ],
          [
            -103.31843,
            20.68898
          ],
          [
            -103.31975000000001,
            20.688450000000003
          ],
          [
            -103.31995,
            20.6883
          ],
          [
            -103.32113000000001,
            20.687410000000003
          ],
          [
            -103.32228,
            20.68656
          ],
          [
            -103.32359000000001,
            20.68558
          ],
          [
            -103.32384,
            20.68539
          ],
          [
            -103.32375,
            20.685290000000002
          ],
          [
            -103.32391000000001,
            20.685160000000003
          ],
          [
            -103.32502000000001,
            20.68429
          ],
          [
            -103.32525000000001,
            20.684410000000003
          ],
          [
            -103.32537,
            20.68449
          ],
          [
            -103.32579000000001,
            20.684530000000002
          ],
          [
            -103.32611000000001,
            20.68457
          ],
          [
            -103.32639,
            20.684600000000003
          ],
          [
            -103.32646000000001,
            20.6844
          ],
          [
            -103.32654000000001,
            20.684410000000003
          ],
          [
            -103.32653,
            20.684420000000003
          ],
          [
            -103.32646000000001,
            20.6844
          ],
          [
            -103.32686000000001,
            20.683210000000003
          ],
          [
            -103.32704000000001,
            20.682740000000003
          ],
          [
            -103.32715,
            20.682350000000003
          ],
          [
            -103.32716,
            20.68234
          ],
          [
            -103.32771000000001,
            20.680750000000003
          ],
          [
            -103.32780000000001,
            20.680490000000002
          ],
          [
            -103.32814,
            20.67948
          ],
          [
            -103.32814,
            20.67948
          ],
          [
            -103.32834000000001,
            20.67886
          ],
          [
            -103.32849,
            20.678440000000002
          ],
          [
            -103.32986000000001,
            20.678800000000003
          ],
          [
            -103.33245000000001,
            20.67867
          ],
          [
            -103.3332,
            20.678630000000002
          ],
          [
            -103.33344000000001,
            20.678610000000003
          ],
          [
            -103.33517,
            20.67854
          ],
          [
            -103.33617000000001,
            20.678500000000003
          ],
          [
            -103.33617000000001,
            20.67849
          ],
          [
            -103.33773000000001,
            20.678410000000003
          ],
          [
            -103.34015000000001,
            20.6783
          ],
          [
            -103.34164000000001,
            20.67827
          ],
          [
            -103.34289000000001,
            20.6782
          ],
          [
            -103.34324000000001,
            20.67819
          ],
          [
            -103.34399,
            20.67817
          ],
          [
            -103.34506,
            20.678140000000003
          ],
          [
            -103.34515,
            20.6797
          ],
          [
            -103.34543000000001,
            20.67968
          ],
          [
            -103.34543000000001,
            20.67968
          ],
          [
            -103.34621000000001,
            20.679640000000003
          ],
          [
            -103.34622,
            20.679630000000003
          ],
          [
            -103.34738000000002,
            20.6796
          ],
          [
            -103.34738000000002,
            20.679570000000002
          ],
          [
            -103.34753,
            20.679550000000003
          ],
          [
            -103.34859,
            20.679530000000003
          ],
          [
            -103.35016,
            20.6795
          ],
          [
            -103.35158000000001,
            20.679470000000002
          ],
          [
            -103.35158000000001,
            20.679450000000003
          ],
          [
            -103.35158000000001,
            20.679450000000003
          ],
          [
            -103.35263,
            20.67942
          ],
          [
            -103.35263,
            20.679460000000002
          ],
          [
            -103.35536,
            20.67941
          ],
          [
            -103.35536,
            20.6794
          ],
          [
            -103.35657,
            20.6794
          ],
          [
            -103.35657,
            20.6794
          ],
          [
            -103.35870000000001,
            20.67939
          ],
          [
            -103.35871,
            20.679380000000002
          ],
          [
            -103.36153,
            20.679360000000003
          ],
          [
            -103.36154,
            20.679360000000003
          ],
          [
            -103.36413,
            20.679350000000003
          ],
          [
            -103.36414,
            20.679350000000003
          ],
          [
            -103.36414,
            20.679350000000003
          ],
          [
            -103.36479000000001,
            20.679350000000003
          ],
          [
            -103.36649000000001,
            20.67933
          ],
          [
            -103.36759,
            20.67931
          ],
          [
            -103.36759,
            20.67932
          ],
          [
            -103.36832000000001,
            20.67932
          ],
          [
            -103.36869000000002,
            20.679270000000002
          ],
          [
            -103.36872000000001,
            20.679270000000002
          ],
          [
            -103.36879,
            20.679270000000002
          ],
          [
            -103.36904000000001,
            20.679280000000002
          ],
          [
            -103.36904000000001,
            20.679270000000002
          ],
          [
            -103.36954000000001,
            20.67931
          ],
          [
            -103.36994000000001,
            20.6793
          ],
          [
            -103.37014,
            20.6793
          ],
          [
            -103.37015000000001,
            20.67929
          ],
          [
            -103.37117,
            20.679270000000002
          ],
          [
            -103.37162000000001,
            20.67922
          ],
          [
            -103.37164000000001,
            20.67924
          ],
          [
            -103.37167000000001,
            20.679260000000003
          ],
          [
            -103.37177000000001,
            20.679260000000003
          ],
          [
            -103.37180000000001,
            20.67924
          ],
          [
            -103.37200000000001,
            20.67924
          ],
          [
            -103.37200000000001,
            20.67924
          ],
          [
            -103.37301000000001,
            20.679250000000003
          ],
          [
            -103.37301000000001,
            20.679260000000003
          ],
          [
            -103.37408,
            20.679270000000002
          ],
          [
            -103.37508000000001,
            20.67931
          ],
          [
            -103.37509000000001,
            20.67931
          ],
          [
            -103.37642000000001,
            20.679370000000002
          ],
          [
            -103.37643000000001,
            20.679380000000002
          ],
          [
            -103.37643000000001,
            20.679340000000003
          ],
          [
            -103.3773,
            20.679360000000003
          ],
          [
            -103.37959000000001,
            20.679440000000003
          ],
          [
            -103.38002,
            20.679460000000002
          ],
          [
            -103.38371000000001,
            20.6796
          ],
          [
            -103.38381000000001,
            20.679820000000003
          ],
          [
            -103.38389000000001,
            20.679830000000003
          ],
          [
            -103.38409000000001,
            20.67989
          ],
          [
            -103.38428,
            20.67977
          ],
          [
            -103.38437,
            20.67958
          ],
          [
            -103.38437,
            20.67941
          ],
          [
            -103.38429000000001,
            20.679270000000002
          ],
          [
            -103.38476000000001,
            20.678600000000003
          ],
          [
            -103.38493000000001,
            20.678340000000002
          ],
          [
            -103.38503000000001,
            20.678400000000003
          ],
          [
            -103.38559000000001,
            20.677500000000002
          ],
          [
            -103.38553,
            20.67746
          ],
          [
            -103.38647,
            20.67623
          ],
          [
            -103.38635000000001,
            20.676160000000003
          ],
          [
            -103.38693,
            20.67528
          ],
          [
            -103.38697,
            20.6753
          ],
          [
            -103.38709000000001,
            20.67511
          ],
          [
            -103.38733,
            20.674860000000002
          ],
          [
            -103.38741,
            20.674860000000002
          ],
          [
            -103.38755,
            20.67483
          ],
          [
            -103.38765000000001,
            20.674760000000003
          ],
          [
            -103.38776000000001,
            20.674660000000003
          ],
          [
            -103.38782,
            20.67451
          ],
          [
            -103.38782,
            20.67433
          ],
          [
            -103.38779000000001,
            20.67424
          ],
          [
            -103.38777,
            20.674200000000003
          ],
          [
            -103.38780000000001,
            20.67404
          ],
          [
            -103.38785000000001,
            20.673920000000003
          ],
          [
            -103.38823000000001,
            20.673360000000002
          ],
          [
            -103.38848000000002,
            20.673000000000002
          ],
          [
            -103.38846000000001,
            20.672990000000002
          ],
          [
            -103.38907,
            20.672050000000002
          ],
          [
            -103.38913000000001,
            20.67209
          ],
          [
            -103.38989000000001,
            20.67085
          ],
          [
            -103.38994000000001,
            20.67078
          ],
          [
            -103.39097000000001,
            20.66926
          ],
          [
            -103.39104,
            20.66916
          ],
          [
            -103.39218000000001,
            20.667540000000002
          ],
          [
            -103.39248,
            20.66712
          ],
          [
            -103.39300000000001,
            20.667
          ],
          [
            -103.39327000000002,
            20.66665
          ],
          [
            -103.39325000000001,
            20.66626
          ],
          [
            -103.39316000000001,
            20.666030000000003
          ],
          [
            -103.39328,
            20.665850000000002
          ],
          [
            -103.39325000000001,
            20.665840000000003
          ],
          [
            -103.39385000000001,
            20.664910000000003
          ],
          [
            -103.39433000000001,
            20.66421
          ],
          [
            -103.39433000000001,
            20.66421
          ],
          [
            -103.39518000000001,
            20.6629
          ],
          [
            -103.39518000000001,
            20.6629
          ],
          [
            -103.39522000000001,
            20.662840000000003
          ],
          [
            -103.39640000000001,
            20.66113
          ],
          [
            -103.39684000000001,
            20.66045
          ],
          [
            -103.39747000000001,
            20.65949
          ],
          [
            -103.39751000000001,
            20.65951
          ],
          [
            -103.39770000000001,
            20.65922
          ],
          [
            -103.39905,
            20.65708
          ],
          [
            -103.40022,
            20.65528
          ],
          [
            -103.40088000000002,
            20.65426
          ],
          [
            -103.40153000000001,
            20.653260000000003
          ],
          [
            -103.40146000000001,
            20.65322
          ],
          [
            -103.40174,
            20.652790000000003
          ],
          [
            -103.40185000000001,
            20.652620000000002
          ],
          [
            -103.40189000000001,
            20.65256
          ],
          [
            -103.40259,
            20.651490000000003
          ],
          [
            -103.40272,
            20.651300000000003
          ],
          [
            -103.40282,
            20.65136
          ],
          [
            -103.40356000000001,
            20.65023
          ],
          [
            -103.40369000000001,
            20.65003
          ],
          [
            -103.40445000000001,
            20.648870000000002
          ],
          [
            -103.40508000000001,
            20.6479
          ],
          [
            -103.40519,
            20.647740000000002
          ],
          [
            -103.40644,
            20.64591
          ],
          [
            -103.40667,
            20.64555
          ],
          [
            -103.40768000000001,
            20.643960000000003
          ],
          [
            -103.40790000000001,
            20.64363
          ],
          [
            -103.40938000000001,
            20.641350000000003
          ],
          [
            -103.40953,
            20.641150000000003
          ],
          [
            -103.4103,
            20.64011
          ],
          [
            -103.41049000000001,
            20.63982
          ],
          [
            -103.41035000000001,
            20.639740000000003
          ],
          [
            -103.41105,
            20.6387
          ],
          [
            -103.41108000000001,
            20.638720000000003
          ],
          [
            -103.41165000000001,
            20.637880000000003
          ],
          [
            -103.41231,
            20.636930000000003
          ],
          [
            -103.41236,
            20.636960000000002
          ],
          [
            -103.41303,
            20.63595
          ],
          [
            -103.41358000000001,
            20.63513
          ],
          [
            -103.41359000000001,
            20.63512
          ],
          [
            -103.41355000000001,
            20.635080000000002
          ],
          [
            -103.41361,
            20.634980000000002
          ],
          [
            -103.41383,
            20.634600000000002
          ],
          [
            -103.41419,
            20.634050000000002
          ],
          [
            -103.41425000000001,
            20.63408
          ],
          [
            -103.41493000000001,
            20.632980000000003
          ],
          [
            -103.41501000000001,
            20.63287
          ],
          [
            -103.41583000000001,
            20.63164
          ],
          [
            -103.41652,
            20.63062
          ],
          [
            -103.41657000000001,
            20.630640000000003
          ],
          [
            -103.41675000000001,
            20.630370000000003
          ],
          [
            -103.41697,
            20.630000000000003
          ],
          [
            -103.41698000000001,
            20.629820000000002
          ],
          [
            -103.41723,
            20.62946
          ],
          [
            -103.41775000000001,
            20.628680000000003
          ],
          [
            -103.41797000000001,
            20.628330000000002
          ],
          [
            -103.418,
            20.628290000000003
          ],
          [
            -103.41820000000001,
            20.62799
          ],
          [
            -103.41866,
            20.62731
          ],
          [
            -103.41925,
            20.626420000000003
          ],
          [
            -103.42001,
            20.625210000000003
          ],
          [
            -103.42008000000001,
            20.62524
          ],
          [
            -103.42078000000001,
            20.624170000000003
          ],
          [
            -103.42107000000001,
            20.62374
          ],
          [
            -103.42163000000001,
            20.62291
          ],
          [
            -103.42155000000001,
            20.622860000000003
          ],
          [
            -103.42249000000001,
            20.621440000000003
          ],
          [
            -103.42263000000001,
            20.62123
          ],
          [
            -103.42312000000001,
            20.62048
          ],
          [
            -103.42329000000001,
            20.620230000000003
          ],
          [
            -103.42334000000001,
            20.620260000000002
          ],
          [
            -103.42427,
            20.618660000000002
          ],
          [
            -103.42433000000001,
            20.618550000000003
          ],
          [
            -103.42525,
            20.6172
          ],
          [
            -103.42646,
            20.61542
          ],
          [
            -103.42823000000001,
            20.612830000000002
          ],
          [
            -103.42849000000001,
            20.612440000000003
          ],
          [
            -103.42943000000001,
            20.612650000000002
          ],
          [
            -103.43128000000002,
            20.61308
          ],
          [
            -103.43282,
            20.61343
          ],
          [
            -103.43429,
            20.613770000000002
          ],
          [
            -103.43574000000001,
            20.61411
          ],
          [
            -103.43774,
            20.61457
          ],
          [
            -103.43960000000001,
            20.615000000000002
          ],
          [
            -103.43997,
            20.615080000000003
          ],
          [
            -103.44055,
            20.61522
          ],
          [
            -103.44368000000001,
            20.61596
          ],
          [
            -103.44368000000001,
            20.61596
          ],
          [
            -103.45156000000001,
            20.617810000000002
          ],
          [
            -103.45339000000001,
            20.61886
          ],
          [
            -103.45485000000001,
            20.61909
          ],
          [
            -103.45645,
            20.61936
          ],
          [
            -103.45669000000001,
            20.619390000000003
          ],
          [
            -103.45776000000001,
            20.619580000000003
          ],
          [
            -103.45776000000001,
            20.61814
          ]
        ]
      }
    }
  ]
}