{
  "type": "FeatureCollection",
  "features": [
    {
      "type": "Feature",
      "properties": {
        "identifier": "258-b",
        "name": "Ruta 258 B"
      },
      "geometry": {
        "type": "LineString",
        "coordinates": [
          [
            -103.34918,
            20.68108
          ],
          [
            -103.34913,
            20.680290000000003
          ],
          [
            -103.34909,
            20.67952
          ],
          [
            -103.34905,
            20.678780000000003
          ],
          [
            -103.34827000000001,
            20.67882
          ],
          [
            -103.34754000000001,
            20.67885
          ],
          [
            -103.34668,
            20.678870000000003
          ],
          [
            -103.34590000000001,
            20.678890000000003
          ],
          [
            -103.34509000000001,
            20.678900000000002
          ],
          [
            -103.34437000000001,
            20.67893
          ],
          [
            -103.343,
            20.67904
          ],
          [
            -103.34287,
            20.67905
          ],
          [
            -103.34219,
            20.67911
          ],
          [
            -103.34190000000001,
            20.67914
          ],
          [
            -103.34176000000001,
            20.679160000000003
          ],
          [
            -103.34053000000002,
            20.679260000000003
          ],
          [
            -103.33962000000001,
            20.67931
          ],
          [
            -103.33838000000002,
            20.679370000000002
          ],
          [
            -103.33748000000001,
            20.67941
          ],
          [
            -103.33669,
            20.67943
          ],
          [
            -103.33592,
            20.679450000000003
          ],
          [
            -103.33593,
            20.68034
          ],
          [
            -103.33595000000001,
            20.681240000000003
          ],
          [
            -103.33597,
            20.682090000000002
          ],
          [
            -103.33525,
            20.68211
          ],
          [
            -103.33453000000002,
            20.68212
          ],
          [
            -103.33374,
            20.68214
          ],
          [
            -103.33294000000001,
            20.682160000000003
          ],
          [
            -103.33231,
            20.682160000000003
          ],
          [
            -103.33173000000001,
            20.68205
          ],
          [
            -103.33134000000001,
            20.681980000000003
          ],
          [
            -103.33065,
            20.68186
          ],
          [
            -103.33017000000001,
            20.68177
          ],
          [
            -103.3297,
            20.681690000000003
          ],
          [
            -103.32931,
            20.681610000000003
          ],
          [
            -103.32873000000001,
            20.681520000000003
          ],
          [
            -103.32864000000001,
            20.681790000000003
          ],
          [
            -103.32735000000001,
            20.681780000000003
          ],
          [
            -103.32591000000001,
            20.68176
          ],
          [
            -103.32536,
            20.68337
          ],
          [
            -103.32506000000001,
            20.684160000000002
          ],
          [
            -103.32343,
            20.685450000000003
          ],
          [
            -103.32037000000001,
            20.687810000000002
          ],
          [
            -103.31995,
            20.688180000000003
          ],
          [
            -103.31674000000001,
            20.68945
          ],
          [
            -103.31444,
            20.69031
          ],
          [
            -103.31353000000001,
            20.69075
          ],
          [
            -103.31219000000002,
            20.69123
          ],
          [
            -103.31083000000001,
            20.69177
          ],
          [
            -103.30882000000001,
            20.691370000000003
          ],
          [
            -103.30553,
            20.69075
          ],
          [
            -103.30366000000001,
            20.690330000000003
          ],
          [
            -103.30279,
            20.69011
          ],
          [
            -103.29882,
            20.689320000000002
          ],
          [
            -103.2963,
            20.688840000000003
          ],
          [
            -103.29537,
            20.68859
          ],
          [
            -103.29515,
            20.68844
          ],
          [
            -103.29489000000001,
            20.68821
          ],
          [
            -103.29480000000001,
            20.68806
          ],
          [
            -103.29472000000001,
            20.68796
          ],
          [
            -103.29457000000001,
            20.68757
          ],
          [
            -103.29453000000001,
            20.68711
          ],
          [
            -103.29468000000001,
            20.68577
          ],
          [
            -103.29480000000001,
            20.68439
          ],
          [
            -103.29488,
            20.68401
          ],
          [
            -103.29468000000001,
            20.683970000000002
          ],
          [
            -103.29487,
            20.68287
          ],
          [
            -103.29455000000002,
            20.68279
          ],
          [
            -103.29421,
            20.6827
          ],
          [
            -103.29353,
            20.6825
          ],
          [
            -103.29311000000001,
            20.6824
          ],
          [
            -103.29301000000001,
            20.68239
          ],
          [
            -103.29293000000001,
            20.6824
          ],
          [
            -103.29283000000001,
            20.68243
          ],
          [
            -103.29263,
            20.68252
          ],
          [
            -103.29224,
            20.6827
          ],
          [
            -103.29191,
            20.682930000000002
          ],
          [
            -103.29180000000001,
            20.683030000000002
          ],
          [
            -103.29171000000001,
            20.68316
          ],
          [
            -103.29167000000001,
            20.68325
          ],
          [
            -103.29161,
            20.68344
          ],
          [
            -103.29152,
            20.6842
          ],
          [
            -103.29147,
            20.68457
          ],
          [
            -103.29144000000001,
            20.68475
          ],
          [
            -103.29114000000001,
            20.68568
          ],
          [
            -103.29112,
            20.685740000000003
          ],
          [
            -103.29108000000001,
            20.685820000000003
          ],
          [
            -103.29101000000001,
            20.6859
          ],
          [
            -103.29091000000001,
            20.68599
          ],
          [
            -103.29079000000002,
            20.68608
          ],
          [
            -103.29063000000001,
            20.68616
          ],
          [
            -103.29052000000001,
            20.686210000000003
          ],
          [
            -103.29035,
            20.68628
          ],
          [
            -103.29020000000001,
            20.686310000000002
          ],
          [
            -103.29002000000001,
            20.68633
          ],
          [
            -103.28971000000001,
            20.686380000000003
          ],
          [
            -103.28954,
            20.686390000000003
          ],
          [
            -103.28941,
            20.686400000000003
          ],
          [
            -103.28903000000001,
            20.686580000000003
          ],
          [
            -103.28863000000001,
            20.686860000000003
          ],
          [
            -103.28822000000001,
            20.687150000000003
          ],
          [
            -103.28784,
            20.68748
          ],
          [
            -103.28746000000001,
            20.687800000000003
          ],
          [
            -103.2873,
            20.68794
          ],
          [
            -103.28721,
            20.68803
          ],
          [
            -103.28712,
            20.68815
          ],
          [
            -103.28701000000001,
            20.6883
          ],
          [
            -103.28693000000001,
            20.68843
          ],
          [
            -103.28686,
            20.688630000000003
          ],
          [
            -103.28644000000001,
            20.6898
          ],
          [
            -103.28604000000001,
            20.691000000000003
          ],
          [
            -103.28615,
            20.69105
          ],
          [
            -103.28658000000001,
            20.691180000000003
          ],
          [
            -103.28702000000001,
            20.69132
          ],
          [
            -103.28744,
            20.691450000000003
          ],
          [
            -103.28788000000002,
            20.6916
          ],
          [
            -103.28832000000001,
            20.691730000000003
          ],
          [
            -103.28877000000001,
            20.69187
          ],
          [
            -103.28923,
            20.692010000000003
          ],
          [
            -103.28880000000001,
            20.69322
          ],
          [
            -103.28865,
            20.693630000000002
          ],
          [
            -103.28811,
            20.69515
          ],
          [
            -103.28792000000001,
            20.695690000000003
          ],
          [
            -103.28770000000002,
            20.69632
          ],
          [
            -103.28709,
            20.69799
          ],
          [
            -103.2866,
            20.697840000000003
          ],
          [
            -103.28618,
            20.6977
          ],
          [
            -103.28576000000001,
            20.697570000000002
          ],
          [
            -103.2853,
            20.69742
          ],
          [
            -103.28500000000001,
            20.697370000000003
          ],
          [
            -103.28451000000001,
            20.697290000000002
          ],
          [
            -103.28429000000001,
            20.69884
          ],
          [
            -103.28420000000001,
            20.69951
          ],
          [
            -103.28415000000001,
            20.69986
          ],
          [
            -103.28414000000001,
            20.699920000000002
          ],
          [
            -103.28413,
            20.699990000000003
          ],
          [
            -103.28411000000001,
            20.70004
          ],
          [
            -103.28406000000001,
            20.70017
          ],
          [
            -103.28396000000001,
            20.70035
          ],
          [
            -103.28392000000001,
            20.70044
          ],
          [
            -103.2839,
            20.700480000000002
          ],
          [
            -103.28388000000001,
            20.700580000000002
          ],
          [
            -103.28386,
            20.701600000000003
          ],
          [
            -103.28384000000001,
            20.70267
          ],
          [
            -103.28337,
            20.70286
          ],
          [
            -103.28290000000001,
            20.70304
          ],
          [
            -103.28216,
            20.70332
          ],
          [
            -103.28156000000001,
            20.70306
          ],
          [
            -103.28079000000001,
            20.702360000000002
          ],
          [
            -103.27638,
            20.69829
          ],
          [
            -103.27274000000001,
            20.69509
          ],
          [
            -103.26378000000001,
            20.690080000000002
          ],
          [
            -103.26247000000001,
            20.689300000000003
          ],
          [
            -103.26037000000001,
            20.687630000000002
          ],
          [
            -103.25937,
            20.68699
          ],
          [
            -103.25727,
            20.686220000000002
          ],
          [
            -103.25552,
            20.68543
          ],
          [
            -103.25349000000001,
            20.68412
          ],
          [
            -103.25259000000001,
            20.68364
          ],
          [
            -103.25191000000001,
            20.68355
          ],
          [
            -103.2514,
            20.68354
          ],
          [
            -103.25108,
            20.683580000000003
          ],
          [
            -103.24799,
            20.68438
          ],
          [
            -103.24752000000001,
            20.684430000000003
          ],
          [
            -103.24724,
            20.68437
          ],
          [
            -103.24687000000002,
            20.6843
          ],
          [
            -103.24641000000001,
            20.68411
          ],
          [
            -103.24569000000001,
            20.683580000000003
          ],
          [
            -103.24554,
            20.68343
          ],
          [
            -103.24527,
            20.684240000000003
          ],
          [
            -103.24523,
            20.684430000000003
          ],
          [
            -103.24509,
            20.684700000000003
          ],
          [
            -103.24356,
            20.685840000000002
          ],
          [
            -103.24350000000001,
            20.68589
          ],
          [
            -103.24269000000001,
            20.686500000000002
          ],
          [
            -103.24263,
            20.68656
          ],
          [
            -103.23855,
            20.68956
          ],
          [
            -103.23717,
            20.688000000000002
          ],
          [
            -103.23407,
            20.680970000000002
          ],
          [
            -103.23377,
            20.678520000000002
          ],
          [
            -103.23195000000001,
            20.676190000000002
          ],
          [
            -103.23195000000001,
            20.674750000000003
          ]
        ]
      }
    }
  ]
}