{
  "type": "FeatureCollection",
  "features": [
    {
      "type": "Feature",
      "properties": {
        "identifier": "275-b-2",
        "name": "Ruta 275 B"
      },
      "geometry": {
        "type": "LineString",
        "coordinates": [
          [
            -103.34984000000001,
            20.755570000000002
          ],
          [
            -103.34671,
            20.75497
          ],
          [
            -103.34736000000001,
            20.75193
          ],
          [
            -103.34524,
            20.750770000000003
          ],
          [
            -103.34299000000001,
            20.749930000000003
          ],
          [
            -103.34277,
            20.748810000000002
          ],
          [
            -103.34475,
            20.7468
          ],
          [
            -103.34655000000001,
            20.74415
          ],
          [
            -103.34500000000001,
            20.740740000000002
          ],
          [
            -103.34196000000001,
            20.737370000000002
          ],
          [
            -103.34303000000001,
            20.732550000000003
          ],
          [
            -103.34475,
            20.728340000000003
          ],
          [
            -103.34543000000001,
            20.721510000000002
          ],
          [
            -103.34565,
            20.716250000000002
          ],
          [
            -103.34620000000001,
            20.712320000000002
          ],
          [
            -103.34663,
            20.70979
          ],
          [
            -103.34775,
            20.7006
          ],
          [
            -103.34861000000001,
            20.695120000000003
          ],
          [
            -103.34837,
            20.692970000000003
          ],
          [
            -103.3482,
            20.69131
          ],
          [
            -103.34816000000001,
            20.68906
          ],
          [
            -103.34796000000001,
            20.687330000000003
          ],
          [
            -103.34784,
            20.68542
          ],
          [
            -103.34777000000001,
            20.68281
          ],
          [
            -103.34760000000001,
            20.680300000000003
          ],
          [
            -103.34749000000001,
            20.6781
          ],
          [
            -103.34749000000001,
            20.67657
          ],
          [
            -103.34738000000002,
            20.675210000000003
          ],
          [
            -103.34726,
            20.67358
          ],
          [
            -103.34732000000001,
            20.67181
          ],
          [
            -103.34629000000001,
            20.671770000000002
          ],
          [
            -103.34434,
            20.670810000000003
          ],
          [
            -103.33996,
            20.668860000000002
          ],
          [
            -103.33526,
            20.667350000000003
          ],
          [
            -103.33307,
            20.66531
          ],
          [
            -103.33357000000001,
            20.66354
          ],
          [
            -103.33088000000001,
            20.65997
          ],
          [
            -103.32900000000001,
            20.65744
          ],
          [
            -103.32580000000002,
            20.6533
          ],
          [
            -103.32342000000001,
            20.65021
          ],
          [
            -103.32065000000001,
            20.64637
          ],
          [
            -103.3182,
            20.643040000000003
          ],
          [
            -103.31642000000001,
            20.64073
          ],
          [
            -103.31679000000001,
            20.636840000000003
          ],
          [
            -103.31816,
            20.633000000000003
          ],
          [
            -103.31432000000001,
            20.63162
          ],
          [
            -103.31101000000001,
            20.63051
          ],
          [
            -103.31106000000001,
            20.63256
          ],
          [
            -103.30717000000001,
            20.6321
          ],
          [
            -103.302,
            20.63153
          ],
          [
            -103.29797,
            20.631110000000003
          ],
          [
            -103.29741000000001,
            20.631510000000002
          ],
          [
            -103.29625000000001,
            20.63228
          ],
          [
            -103.28962000000001,
            20.62264
          ],
          [
            -103.28597,
            20.617240000000002
          ],
          [
            -103.28458,
            20.61511
          ],
          [
            -103.28587,
            20.6123
          ],
          [
            -103.28597,
            20.610370000000003
          ],
          [
            -103.28647000000001,
            20.60876
          ],
          [
            -103.28750000000001,
            20.605510000000002
          ],
          [
            -103.28956000000001,
            20.60575
          ],
          [
            -103.28938000000001,
            20.601730000000003
          ],
          [
            -103.28741000000001,
            20.601210000000002
          ],
          [
            -103.28853000000001,
            20.59992
          ],
          [
            -103.28295000000001,
            20.59964
          ],
          [
            -103.28359,
            20.595460000000003
          ],
          [
            -103.28402000000001,
            20.589720000000003
          ],
          [
            -103.28428000000001,
            20.57976
          ],
          [
            -103.28316000000001,
            20.56903
          ],
          [
            -103.28308000000001,
            20.5624
          ],
          [
            -103.28359,
            20.56208
          ],
          [
            -103.28239,
            20.55959
          ],
          [
            -103.28127,
            20.55742
          ],
          [
            -103.27958000000001,
            20.55645
          ],
          [
            -103.28063,
            20.55553
          ],
          [
            -103.28108,
            20.554190000000002
          ],
          [
            -103.28155000000001,
            20.551350000000003
          ],
          [
            -103.28108,
            20.55114
          ],
          [
            -103.28243,
            20.54726
          ],
          [
            -103.28359,
            20.544
          ],
          [
            -103.28805000000001,
            20.545160000000003
          ],
          [
            -103.28788000000002,
            20.54614
          ],
          [
            -103.28788000000002,
            20.544700000000002
          ]
        ]
      }
    }
  ]
}