{
  "type": "FeatureCollection",
  "features": [
    {
      "type": "Feature",
      "properties": {
        "identifier": "275-a-central-nueva",
        "name": "Ruta 275 A"
      },
      "geometry": {
        "type": "LineString",
        "coordinates": [
          [
            -103.24876,
            20.586650000000002
          ],
          [
            -103.25181,
            20.587570000000003
          ],
          [
            -103.25116000000001,
            20.589440000000003
          ],
          [
            -103.25089000000001,
            20.59061
          ],
          [
            -103.25043000000001,
            20.59234
          ],
          [
            -103.24960000000002,
            20.594810000000003
          ],
          [
            -103.24913000000001,
            20.596010000000003
          ],
          [
            -103.24902,
            20.59681
          ],
          [
            -103.24554,
            20.595170000000003
          ],
          [
            -103.24546000000001,
            20.598760000000002
          ],
          [
            -103.24524000000001,
            20.599510000000002
          ],
          [
            -103.2458,
            20.60312
          ],
          [
            -103.24951000000001,
            20.60407
          ],
          [
            -103.26003000000001,
            20.60567
          ],
          [
            -103.26968000000001,
            20.60848
          ],
          [
            -103.27470000000001,
            20.609930000000002
          ],
          [
            -103.27865000000001,
            20.61041
          ],
          [
            -103.28039000000001,
            20.61063
          ],
          [
            -103.28213000000001,
            20.611500000000003
          ],
          [
            -103.28294000000001,
            20.61214
          ],
          [
            -103.28423000000001,
            20.613180000000003
          ],
          [
            -103.28500000000001,
            20.61417
          ],
          [
            -103.2844,
            20.61531
          ],
          [
            -103.28537000000001,
            20.616560000000003
          ],
          [
            -103.28494,
            20.616780000000002
          ],
          [
            -103.28402000000001,
            20.61652
          ],
          [
            -103.28324,
            20.61644
          ],
          [
            -103.2826,
            20.61662
          ],
          [
            -103.28223000000001,
            20.618740000000003
          ],
          [
            -103.28166,
            20.621740000000003
          ],
          [
            -103.28161000000001,
            20.622200000000003
          ],
          [
            -103.28447000000001,
            20.622960000000003
          ],
          [
            -103.28464000000001,
            20.62208
          ],
          [
            -103.28498,
            20.620610000000003
          ],
          [
            -103.28532000000001,
            20.61923
          ],
          [
            -103.28569,
            20.61925
          ],
          [
            -103.28762,
            20.62208
          ],
          [
            -103.28659,
            20.62337
          ],
          [
            -103.28779000000002,
            20.623790000000003
          ],
          [
            -103.28706000000001,
            20.624730000000003
          ],
          [
            -103.28663,
            20.626040000000003
          ],
          [
            -103.29268,
            20.628690000000002
          ],
          [
            -103.29526000000001,
            20.63078
          ],
          [
            -103.29865000000001,
            20.63556
          ],
          [
            -103.29947000000001,
            20.63692
          ],
          [
            -103.30406,
            20.63716
          ],
          [
            -103.30721000000001,
            20.637300000000003
          ],
          [
            -103.30953000000001,
            20.63744
          ],
          [
            -103.31417,
            20.63757
          ],
          [
            -103.31672,
            20.63774
          ],
          [
            -103.31655,
            20.63953
          ],
          [
            -103.31642000000001,
            20.640620000000002
          ],
          [
            -103.31858000000001,
            20.643590000000003
          ],
          [
            -103.32075,
            20.64638
          ],
          [
            -103.3233,
            20.64983
          ],
          [
            -103.32451,
            20.651480000000003
          ],
          [
            -103.32584000000001,
            20.65333
          ],
          [
            -103.32779000000001,
            20.655880000000003
          ],
          [
            -103.32938000000001,
            20.65808
          ],
          [
            -103.33054000000001,
            20.65688
          ],
          [
            -103.33094000000001,
            20.65632
          ],
          [
            -103.33165000000001,
            20.65686
          ],
          [
            -103.33367000000001,
            20.65774
          ],
          [
            -103.33526,
            20.65839
          ],
          [
            -103.33792000000001,
            20.65931
          ],
          [
            -103.34116,
            20.66045
          ],
          [
            -103.34566000000001,
            20.66204
          ],
          [
            -103.34852000000001,
            20.66244
          ],
          [
            -103.34983000000001,
            20.662540000000003
          ],
          [
            -103.34929000000001,
            20.66391
          ],
          [
            -103.34781000000001,
            20.66824
          ],
          [
            -103.34727000000001,
            20.66983
          ],
          [
            -103.34717,
            20.67162
          ],
          [
            -103.34725,
            20.67507
          ],
          [
            -103.34744,
            20.677380000000003
          ],
          [
            -103.34783,
            20.68362
          ],
          [
            -103.34807,
            20.688080000000003
          ],
          [
            -103.34826000000001,
            20.69163
          ],
          [
            -103.34843000000001,
            20.69441
          ],
          [
            -103.34809000000001,
            20.694550000000003
          ],
          [
            -103.34765,
            20.695050000000002
          ],
          [
            -103.34776000000001,
            20.695690000000003
          ],
          [
            -103.34838,
            20.695950000000003
          ],
          [
            -103.34898000000001,
            20.69585
          ],
          [
            -103.34915000000001,
            20.695800000000002
          ],
          [
            -103.35208000000002,
            20.69759
          ],
          [
            -103.35495,
            20.699240000000003
          ],
          [
            -103.35506000000001,
            20.696810000000003
          ],
          [
            -103.35931000000001,
            20.69695
          ],
          [
            -103.36358000000001,
            20.697110000000002
          ],
          [
            -103.36779000000001,
            20.69723
          ],
          [
            -103.37103,
            20.697470000000003
          ],
          [
            -103.37103,
            20.69603
          ]
        ]
      }
    }
  ]
}