{
  "type": "FeatureCollection",
  "features": [
    {
      "type": "Feature",
      "properties": {
        "identifier": "275-f-2?o=2",
        "name": "Ruta 275 F"
      },
      "geometry": {
        "type": "LineString",
        "coordinates": [
          [
            -103.34800000000001,
            20.68654
          ],
          [
            -103.34805000000001,
            20.68739
          ],
          [
            -103.34811,
            20.688360000000003
          ],
          [
            -103.34814000000001,
            20.68908
          ],
          [
            -103.34819,
            20.690040000000003
          ],
          [
            -103.34827000000001,
            20.69152
          ],
          [
            -103.34828,
            20.69152
          ],
          [
            -103.34840000000001,
            20.6932
          ],
          [
            -103.34837,
            20.6932
          ],
          [
            -103.34839000000001,
            20.693530000000003
          ],
          [
            -103.34846,
            20.694380000000002
          ],
          [
            -103.34848000000001,
            20.69463
          ],
          [
            -103.34856,
            20.69482
          ],
          [
            -103.34873,
            20.69515
          ],
          [
            -103.34904,
            20.69557
          ],
          [
            -103.3491,
            20.695690000000003
          ],
          [
            -103.34951000000001,
            20.695980000000002
          ],
          [
            -103.3498,
            20.696160000000003
          ],
          [
            -103.35159,
            20.697290000000002
          ],
          [
            -103.35182,
            20.697450000000003
          ],
          [
            -103.35266000000001,
            20.698030000000003
          ],
          [
            -103.35287000000001,
            20.69816
          ],
          [
            -103.35406,
            20.69893
          ],
          [
            -103.35426000000001,
            20.69904
          ],
          [
            -103.35425000000001,
            20.69904
          ],
          [
            -103.35487,
            20.699430000000003
          ],
          [
            -103.35536,
            20.699730000000002
          ],
          [
            -103.35537000000001,
            20.699740000000002
          ],
          [
            -103.35537000000001,
            20.699730000000002
          ],
          [
            -103.35577,
            20.700010000000002
          ],
          [
            -103.35634,
            20.70042
          ],
          [
            -103.35652,
            20.70052
          ],
          [
            -103.35665,
            20.7006
          ],
          [
            -103.35756,
            20.701140000000002
          ],
          [
            -103.35792000000001,
            20.70137
          ],
          [
            -103.35894,
            20.70204
          ],
          [
            -103.35945000000001,
            20.702350000000003
          ],
          [
            -103.35988,
            20.702630000000003
          ],
          [
            -103.36043000000001,
            20.703000000000003
          ],
          [
            -103.36152000000001,
            20.70369
          ],
          [
            -103.36178000000001,
            20.703850000000003
          ],
          [
            -103.36238,
            20.704230000000003
          ],
          [
            -103.36261,
            20.70437
          ],
          [
            -103.36351,
            20.70494
          ],
          [
            -103.3635,
            20.704960000000003
          ],
          [
            -103.36352000000001,
            20.704970000000003
          ],
          [
            -103.36351,
            20.704980000000003
          ],
          [
            -103.36380000000001,
            20.705170000000003
          ],
          [
            -103.36674000000001,
            20.707060000000002
          ],
          [
            -103.36723,
            20.70738
          ],
          [
            -103.36901,
            20.7085
          ],
          [
            -103.36902,
            20.70849
          ],
          [
            -103.37028000000001,
            20.709300000000002
          ],
          [
            -103.37048000000001,
            20.70943
          ],
          [
            -103.37049,
            20.70942
          ],
          [
            -103.37275000000001,
            20.71084
          ],
          [
            -103.37456,
            20.71205
          ],
          [
            -103.37465,
            20.712100000000003
          ],
          [
            -103.37464000000001,
            20.712100000000003
          ],
          [
            -103.37493,
            20.712300000000003
          ],
          [
            -103.37513000000001,
            20.712400000000002
          ],
          [
            -103.37564,
            20.712750000000003
          ],
          [
            -103.37645,
            20.713230000000003
          ],
          [
            -103.37809000000001,
            20.714280000000002
          ],
          [
            -103.37811,
            20.7143
          ],
          [
            -103.37812000000001,
            20.7143
          ],
          [
            -103.38042000000002,
            20.715780000000002
          ],
          [
            -103.38042000000002,
            20.715790000000002
          ],
          [
            -103.38275,
            20.71725
          ],
          [
            -103.38297000000001,
            20.71739
          ],
          [
            -103.38375,
            20.717910000000003
          ],
          [
            -103.38396,
            20.718040000000002
          ],
          [
            -103.38499,
            20.718690000000002
          ],
          [
            -103.38575,
            20.71918
          ],
          [
            -103.38686000000001,
            20.719910000000002
          ],
          [
            -103.38701,
            20.72004
          ],
          [
            -103.38701,
            20.72004
          ],
          [
            -103.38701,
            20.72005
          ],
          [
            -103.38701,
            20.72005
          ],
          [
            -103.38716000000001,
            20.720180000000003
          ],
          [
            -103.38723,
            20.720280000000002
          ],
          [
            -103.38731000000001,
            20.720450000000003
          ],
          [
            -103.38734000000001,
            20.720560000000003
          ],
          [
            -103.38727000000002,
            20.721020000000003
          ],
          [
            -103.38725000000001,
            20.72115
          ],
          [
            -103.38737,
            20.72116
          ],
          [
            -103.38847000000001,
            20.721290000000003
          ],
          [
            -103.38834000000001,
            20.721970000000002
          ],
          [
            -103.38819000000001,
            20.72241
          ],
          [
            -103.38808,
            20.72276
          ],
          [
            -103.38778,
            20.722720000000002
          ],
          [
            -103.38769,
            20.722720000000002
          ],
          [
            -103.38771000000001,
            20.722530000000003
          ],
          [
            -103.38768,
            20.72231
          ],
          [
            -103.38754000000002,
            20.72181
          ],
          [
            -103.38743000000001,
            20.72183
          ],
          [
            -103.38734000000001,
            20.72184
          ],
          [
            -103.38748000000001,
            20.722250000000003
          ],
          [
            -103.38749000000001,
            20.722260000000002
          ],
          [
            -103.38762000000001,
            20.72222
          ],
          [
            -103.38762000000001,
            20.722240000000003
          ],
          [
            -103.38765000000001,
            20.72237
          ],
          [
            -103.38766000000001,
            20.722530000000003
          ],
          [
            -103.38765000000001,
            20.722720000000002
          ],
          [
            -103.38761000000001,
            20.722890000000003
          ],
          [
            -103.38743000000001,
            20.72353
          ],
          [
            -103.38724,
            20.724220000000003
          ],
          [
            -103.38721000000001,
            20.724210000000003
          ],
          [
            -103.38711,
            20.72456
          ],
          [
            -103.38674,
            20.725900000000003
          ],
          [
            -103.3867,
            20.725890000000003
          ],
          [
            -103.3862,
            20.72765
          ],
          [
            -103.38678,
            20.728540000000002
          ],
          [
            -103.38725000000001,
            20.72876
          ],
          [
            -103.38791,
            20.728810000000003
          ],
          [
            -103.38977000000001,
            20.72896
          ],
          [
            -103.39022000000001,
            20.729000000000003
          ],
          [
            -103.39117,
            20.729650000000003
          ],
          [
            -103.39121000000002,
            20.7296
          ],
          [
            -103.39266,
            20.73065
          ],
          [
            -103.39368,
            20.73139
          ],
          [
            -103.39381,
            20.73149
          ],
          [
            -103.39493,
            20.732280000000003
          ],
          [
            -103.39545000000001,
            20.732650000000003
          ],
          [
            -103.39691,
            20.73373
          ],
          [
            -103.39691,
            20.73373
          ],
          [
            -103.39916000000001,
            20.735380000000003
          ],
          [
            -103.39916000000001,
            20.735390000000002
          ],
          [
            -103.39977,
            20.73581
          ],
          [
            -103.40126000000001,
            20.73692
          ],
          [
            -103.4016,
            20.737160000000003
          ],
          [
            -103.4016,
            20.737160000000003
          ],
          [
            -103.4016,
            20.737160000000003
          ],
          [
            -103.40452,
            20.739230000000003
          ],
          [
            -103.40457,
            20.73927
          ],
          [
            -103.40478,
            20.739420000000003
          ],
          [
            -103.40681000000001,
            20.74104
          ],
          [
            -103.40689,
            20.740940000000002
          ],
          [
            -103.4081,
            20.74181
          ],
          [
            -103.40821000000001,
            20.741880000000002
          ],
          [
            -103.40816000000001,
            20.741940000000003
          ],
          [
            -103.40921,
            20.74277
          ],
          [
            -103.41051,
            20.7438
          ],
          [
            -103.41099000000001,
            20.744190000000003
          ],
          [
            -103.41242000000001,
            20.745160000000002
          ],
          [
            -103.41534000000001,
            20.74718
          ],
          [
            -103.41533000000001,
            20.747190000000003
          ],
          [
            -103.41844,
            20.749370000000003
          ],
          [
            -103.41845,
            20.749380000000002
          ],
          [
            -103.41853,
            20.749280000000002
          ],
          [
            -103.42028,
            20.750570000000003
          ],
          [
            -103.42057000000001,
            20.750780000000002
          ],
          [
            -103.42478000000001,
            20.75392
          ],
          [
            -103.42492000000001,
            20.75402
          ],
          [
            -103.42491000000001,
            20.75403
          ],
          [
            -103.42500000000001,
            20.75411
          ],
          [
            -103.42708,
            20.75561
          ],
          [
            -103.42938000000001,
            20.75728
          ],
          [
            -103.43050000000001,
            20.758100000000002
          ],
          [
            -103.43140000000001,
            20.758750000000003
          ],
          [
            -103.43162000000001,
            20.758920000000003
          ],
          [
            -103.43401000000001,
            20.760640000000002
          ],
          [
            -103.43492,
            20.761290000000002
          ],
          [
            -103.43493000000001,
            20.761280000000003
          ],
          [
            -103.43702,
            20.762780000000003
          ],
          [
            -103.43749000000001,
            20.76313
          ],
          [
            -103.43908,
            20.764290000000003
          ],
          [
            -103.44079,
            20.76555
          ],
          [
            -103.43902000000001,
            20.76426
          ],
          [
            -103.4397,
            20.764760000000003
          ],
          [
            -103.44081000000001,
            20.765530000000002
          ],
          [
            -103.44079,
            20.76555
          ],
          [
            -103.44282000000001,
            20.767030000000002
          ],
          [
            -103.44073,
            20.765500000000003
          ],
          [
            -103.44246000000001,
            20.76678
          ],
          [
            -103.44283000000001,
            20.76705
          ],
          [
            -103.44406000000001,
            20.76799
          ],
          [
            -103.44408000000001,
            20.767970000000002
          ],
          [
            -103.44458,
            20.768330000000002
          ],
          [
            -103.44635000000001,
            20.769620000000003
          ],
          [
            -103.44629,
            20.76969
          ],
          [
            -103.44646,
            20.769830000000002
          ],
          [
            -103.44914000000001,
            20.77174
          ],
          [
            -103.45208000000001,
            20.773860000000003
          ],
          [
            -103.4492,
            20.77166
          ],
          [
            -103.44993000000001,
            20.77221
          ],
          [
            -103.45212000000001,
            20.77381
          ],
          [
            -103.45254000000001,
            20.774120000000003
          ],
          [
            -103.45341,
            20.77473
          ],
          [
            -103.45637,
            20.776870000000002
          ],
          [
            -103.45666000000001,
            20.777070000000002
          ],
          [
            -103.46226000000001,
            20.78112
          ],
          [
            -103.46292000000001,
            20.78161
          ],
          [
            -103.46317,
            20.78178
          ],
          [
            -103.46724,
            20.78477
          ],
          [
            -103.47272000000001,
            20.788790000000002
          ],
          [
            -103.47293,
            20.78894
          ],
          [
            -103.47294000000001,
            20.78893
          ],
          [
            -103.47667000000001,
            20.79194
          ],
          [
            -103.47705,
            20.79351
          ],
          [
            -103.47705,
            20.795540000000003
          ],
          [
            -103.47703000000001,
            20.79654
          ],
          [
            -103.47701,
            20.797530000000002
          ],
          [
            -103.47697000000001,
            20.799200000000003
          ],
          [
            -103.47737000000001,
            20.799220000000002
          ],
          [
            -103.47996,
            20.79941
          ],
          [
            -103.48115000000001,
            20.799490000000002
          ],
          [
            -103.48208000000001,
            20.799560000000003
          ],
          [
            -103.4825,
            20.7996
          ],
          [
            -103.48654,
            20.80001
          ],
          [
            -103.48691000000001,
            20.800120000000003
          ],
          [
            -103.48908000000002,
            20.800800000000002
          ],
          [
            -103.49087000000002,
            20.801360000000003
          ],
          [
            -103.49259,
            20.801550000000002
          ],
          [
            -103.49417000000001,
            20.801720000000003
          ],
          [
            -103.49529000000001,
            20.80185
          ],
          [
            -103.49717000000001,
            20.799740000000003
          ],
          [
            -103.49780000000001,
            20.79904
          ],
          [
            -103.49805,
            20.798710000000003
          ],
          [
            -103.49908,
            20.797320000000003
          ],
          [
            -103.49991000000001,
            20.796210000000002
          ],
          [
            -103.49991000000001,
            20.794770000000003
          ]
        ]
      }
    }
  ]
}