{
  "type": "FeatureCollection",
  "features": [
    {
      "type": "Feature",
      "properties": {
        "identifier": "275-via-tonaltecas",
        "name": "Ruta 275 Vía Tonaltecas"
      },
      "geometry": {
        "type": "LineString",
        "coordinates": [
          [
            -103.43835000000001,
            20.757990000000003
          ],
          [
            -103.43724,
            20.757240000000003
          ],
          [
            -103.43505,
            20.755550000000003
          ],
          [
            -103.43475000000001,
            20.755450000000003
          ],
          [
            -103.43456,
            20.755190000000002
          ],
          [
            -103.43321,
            20.754160000000002
          ],
          [
            -103.43223,
            20.75337
          ],
          [
            -103.43312,
            20.75137
          ],
          [
            -103.42857000000001,
            20.748890000000003
          ],
          [
            -103.43078000000001,
            20.741580000000003
          ],
          [
            -103.42709,
            20.74088
          ],
          [
            -103.42698000000001,
            20.74096
          ],
          [
            -103.42515,
            20.740660000000002
          ],
          [
            -103.42506,
            20.7402
          ],
          [
            -103.42511,
            20.740000000000002
          ],
          [
            -103.42502,
            20.739790000000003
          ],
          [
            -103.42453,
            20.73677
          ],
          [
            -103.42444,
            20.736500000000003
          ],
          [
            -103.42275000000001,
            20.7327
          ],
          [
            -103.42162,
            20.730150000000002
          ],
          [
            -103.41917000000001,
            20.730330000000002
          ],
          [
            -103.41335000000001,
            20.730870000000003
          ],
          [
            -103.40829000000001,
            20.73128
          ],
          [
            -103.40462000000001,
            20.731640000000002
          ],
          [
            -103.40041000000001,
            20.727510000000002
          ],
          [
            -103.39883,
            20.72594
          ],
          [
            -103.40050000000001,
            20.72481
          ],
          [
            -103.40070000000001,
            20.72484
          ],
          [
            -103.40013,
            20.72426
          ],
          [
            -103.39959,
            20.723110000000002
          ],
          [
            -103.39795000000001,
            20.722790000000003
          ],
          [
            -103.39298000000001,
            20.721970000000002
          ],
          [
            -103.38898,
            20.72128
          ],
          [
            -103.38746,
            20.72105
          ],
          [
            -103.38742,
            20.72091
          ],
          [
            -103.3875,
            20.72052
          ],
          [
            -103.38741,
            20.72024
          ],
          [
            -103.38706,
            20.71978
          ],
          [
            -103.38677000000001,
            20.71966
          ],
          [
            -103.37663,
            20.713220000000003
          ],
          [
            -103.37616000000001,
            20.712850000000003
          ],
          [
            -103.36605000000002,
            20.706390000000003
          ],
          [
            -103.36297,
            20.70445
          ],
          [
            -103.36256,
            20.704140000000002
          ],
          [
            -103.35730000000001,
            20.70081
          ],
          [
            -103.34949,
            20.69582
          ],
          [
            -103.34915000000001,
            20.69556
          ],
          [
            -103.34904,
            20.69557
          ],
          [
            -103.34861000000001,
            20.69499
          ],
          [
            -103.34845000000001,
            20.694490000000002
          ],
          [
            -103.34839000000001,
            20.69341
          ],
          [
            -103.34766,
            20.68119
          ],
          [
            -103.34754000000001,
            20.678440000000002
          ],
          [
            -103.34716,
            20.672900000000002
          ],
          [
            -103.34720000000002,
            20.671670000000002
          ],
          [
            -103.34617000000001,
            20.67164
          ],
          [
            -103.34461,
            20.67089
          ],
          [
            -103.34373000000001,
            20.670340000000003
          ],
          [
            -103.34183,
            20.66954
          ],
          [
            -103.33861,
            20.66832
          ],
          [
            -103.33534,
            20.667160000000003
          ],
          [
            -103.33347,
            20.665570000000002
          ],
          [
            -103.33302,
            20.665290000000002
          ],
          [
            -103.33345000000001,
            20.6641
          ],
          [
            -103.33379000000001,
            20.663680000000003
          ],
          [
            -103.33370000000001,
            20.66347
          ],
          [
            -103.33346,
            20.663480000000003
          ],
          [
            -103.33169000000001,
            20.66118
          ],
          [
            -103.33036000000001,
            20.65933
          ],
          [
            -103.32858,
            20.6569
          ],
          [
            -103.32390000000001,
            20.65068
          ],
          [
            -103.31841000000001,
            20.64316
          ],
          [
            -103.31645,
            20.64039
          ],
          [
            -103.31672,
            20.638050000000003
          ],
          [
            -103.3169,
            20.636840000000003
          ],
          [
            -103.31391,
            20.636650000000003
          ],
          [
            -103.30826,
            20.63644
          ],
          [
            -103.30509,
            20.63635
          ],
          [
            -103.30328000000002,
            20.636380000000003
          ],
          [
            -103.30312,
            20.63645
          ],
          [
            -103.30189000000001,
            20.636360000000003
          ],
          [
            -103.30090000000001,
            20.63616
          ],
          [
            -103.29896000000001,
            20.635910000000003
          ],
          [
            -103.29882,
            20.63598
          ],
          [
            -103.2985,
            20.63548
          ],
          [
            -103.29671,
            20.63296
          ],
          [
            -103.29528,
            20.631050000000002
          ],
          [
            -103.29514,
            20.6308
          ],
          [
            -103.29398,
            20.629540000000002
          ],
          [
            -103.29263,
            20.62713
          ],
          [
            -103.29099000000001,
            20.6247
          ],
          [
            -103.28882000000002,
            20.62161
          ],
          [
            -103.28677,
            20.61861
          ],
          [
            -103.2856,
            20.617040000000003
          ],
          [
            -103.28508000000001,
            20.616290000000003
          ],
          [
            -103.28426,
            20.61501
          ],
          [
            -103.28420000000001,
            20.6155
          ],
          [
            -103.28403000000002,
            20.61597
          ],
          [
            -103.28378000000001,
            20.61617
          ],
          [
            -103.28341,
            20.616310000000002
          ],
          [
            -103.28284000000001,
            20.61632
          ],
          [
            -103.28163,
            20.616410000000002
          ],
          [
            -103.28074000000001,
            20.61653
          ],
          [
            -103.27284,
            20.617030000000003
          ],
          [
            -103.27262,
            20.61711
          ],
          [
            -103.26465,
            20.61766
          ],
          [
            -103.26349,
            20.61745
          ],
          [
            -103.26304,
            20.617620000000002
          ],
          [
            -103.26224,
            20.61843
          ],
          [
            -103.26186000000001,
            20.618570000000002
          ],
          [
            -103.26137000000001,
            20.6185
          ],
          [
            -103.26027,
            20.61795
          ],
          [
            -103.25828000000001,
            20.61813
          ],
          [
            -103.24992,
            20.618720000000003
          ],
          [
            -103.24722000000001,
            20.61889
          ],
          [
            -103.24458000000001,
            20.61909
          ],
          [
            -103.24418000000001,
            20.61923
          ],
          [
            -103.24389000000001,
            20.619500000000002
          ],
          [
            -103.23841,
            20.6182
          ],
          [
            -103.23751000000001,
            20.621360000000003
          ],
          [
            -103.23653,
            20.62487
          ],
          [
            -103.23591,
            20.626820000000002
          ],
          [
            -103.24083,
            20.627950000000002
          ],
          [
            -103.24282000000001,
            20.628490000000003
          ],
          [
            -103.24496,
            20.62911
          ],
          [
            -103.24522,
            20.62809
          ],
          [
            -103.24635,
            20.62844
          ],
          [
            -103.24639,
            20.62864
          ],
          [
            -103.24639,
            20.627200000000002
          ]
        ]
      }
    }
  ]
}