{
  "type": "FeatureCollection",
  "features": [
    {
      "type": "Feature",
      "properties": {
        "identifier": "320-via-1?o=2",
        "name": "Ruta 320 A"
      },
      "geometry": {
        "type": "LineString",
        "coordinates": [
          [
            -103.43109000000001,
            20.72697
          ],
          [
            -103.43102,
            20.72697
          ],
          [
            -103.43099000000001,
            20.727690000000003
          ],
          [
            -103.43097,
            20.7282
          ],
          [
            -103.43096000000001,
            20.728810000000003
          ],
          [
            -103.43096000000001,
            20.728820000000002
          ],
          [
            -103.43095000000001,
            20.72943
          ],
          [
            -103.43095000000001,
            20.729550000000003
          ],
          [
            -103.43088,
            20.729660000000003
          ],
          [
            -103.4308,
            20.729750000000003
          ],
          [
            -103.43073000000001,
            20.7298
          ],
          [
            -103.43061,
            20.729860000000002
          ],
          [
            -103.42865,
            20.7299
          ],
          [
            -103.42838,
            20.7299
          ],
          [
            -103.42772000000001,
            20.7299
          ],
          [
            -103.42540000000001,
            20.729920000000003
          ],
          [
            -103.42435,
            20.729950000000002
          ],
          [
            -103.42383000000001,
            20.72997
          ],
          [
            -103.42330000000001,
            20.730020000000003
          ],
          [
            -103.42279,
            20.73007
          ],
          [
            -103.42251,
            20.73008
          ],
          [
            -103.42222000000001,
            20.730110000000003
          ],
          [
            -103.42149,
            20.73017
          ],
          [
            -103.42175,
            20.73073
          ],
          [
            -103.42211,
            20.731540000000003
          ],
          [
            -103.42209000000001,
            20.731740000000002
          ],
          [
            -103.42208000000001,
            20.73175
          ],
          [
            -103.42211,
            20.731540000000003
          ],
          [
            -103.42234,
            20.73205
          ],
          [
            -103.42334000000001,
            20.7343
          ],
          [
            -103.42368,
            20.73507
          ],
          [
            -103.42433000000001,
            20.73648
          ],
          [
            -103.42434000000002,
            20.73648
          ],
          [
            -103.42442000000001,
            20.73673
          ],
          [
            -103.42492000000001,
            20.73986
          ],
          [
            -103.42504000000001,
            20.74057
          ],
          [
            -103.42527000000001,
            20.742050000000003
          ],
          [
            -103.42554000000001,
            20.7438
          ],
          [
            -103.42567000000001,
            20.744580000000003
          ],
          [
            -103.42550000000001,
            20.744590000000002
          ],
          [
            -103.42535000000001,
            20.744600000000002
          ],
          [
            -103.42497,
            20.74463
          ],
          [
            -103.42317000000001,
            20.744570000000003
          ],
          [
            -103.42268000000001,
            20.74455
          ],
          [
            -103.42216,
            20.74453
          ],
          [
            -103.42155000000001,
            20.74452
          ],
          [
            -103.42155000000001,
            20.74452
          ],
          [
            -103.42111000000001,
            20.74452
          ],
          [
            -103.42061000000001,
            20.74415
          ],
          [
            -103.41925,
            20.743170000000003
          ],
          [
            -103.41925,
            20.743160000000003
          ],
          [
            -103.41802000000001,
            20.742310000000003
          ],
          [
            -103.41723,
            20.74182
          ],
          [
            -103.41693000000001,
            20.74161
          ],
          [
            -103.41675000000001,
            20.741480000000003
          ],
          [
            -103.41674,
            20.741480000000003
          ],
          [
            -103.41651,
            20.74133
          ],
          [
            -103.41596000000001,
            20.740830000000003
          ],
          [
            -103.41586000000001,
            20.7408
          ],
          [
            -103.41571,
            20.74068
          ],
          [
            -103.41553,
            20.740550000000002
          ],
          [
            -103.41478000000001,
            20.73996
          ],
          [
            -103.41447000000001,
            20.739790000000003
          ],
          [
            -103.41414,
            20.739680000000003
          ],
          [
            -103.41374,
            20.739510000000003
          ],
          [
            -103.41318000000001,
            20.73928
          ],
          [
            -103.41304000000001,
            20.73917
          ],
          [
            -103.41271,
            20.738860000000003
          ],
          [
            -103.41168,
            20.737830000000002
          ],
          [
            -103.41151,
            20.737730000000003
          ],
          [
            -103.41151,
            20.737720000000003
          ],
          [
            -103.41123,
            20.73761
          ],
          [
            -103.41068000000001,
            20.73742
          ],
          [
            -103.41065,
            20.737450000000003
          ],
          [
            -103.4106,
            20.73767
          ],
          [
            -103.41049000000001,
            20.737920000000003
          ],
          [
            -103.41038,
            20.738180000000003
          ],
          [
            -103.41003,
            20.738960000000002
          ],
          [
            -103.40988000000002,
            20.73919
          ],
          [
            -103.40969000000001,
            20.73938
          ],
          [
            -103.40931,
            20.739610000000003
          ],
          [
            -103.40878000000001,
            20.739800000000002
          ],
          [
            -103.40876000000002,
            20.739790000000003
          ],
          [
            -103.40871000000001,
            20.73977
          ],
          [
            -103.40863,
            20.73977
          ],
          [
            -103.40858000000001,
            20.739780000000003
          ],
          [
            -103.40851,
            20.73985
          ],
          [
            -103.40847000000001,
            20.739900000000002
          ],
          [
            -103.40847000000001,
            20.739970000000003
          ],
          [
            -103.40836,
            20.740090000000002
          ],
          [
            -103.40786000000001,
            20.740620000000003
          ],
          [
            -103.4077,
            20.740810000000003
          ],
          [
            -103.40755000000001,
            20.74098
          ],
          [
            -103.40721,
            20.741370000000003
          ],
          [
            -103.40613,
            20.74268
          ],
          [
            -103.40612,
            20.742690000000003
          ],
          [
            -103.4043,
            20.744870000000002
          ],
          [
            -103.40331,
            20.745970000000003
          ],
          [
            -103.40317,
            20.74611
          ],
          [
            -103.4033,
            20.7462
          ],
          [
            -103.40309,
            20.746450000000003
          ],
          [
            -103.40267000000001,
            20.746650000000002
          ],
          [
            -103.40239000000001,
            20.74669
          ],
          [
            -103.40230000000001,
            20.74667
          ],
          [
            -103.40061000000001,
            20.74631
          ],
          [
            -103.40033000000001,
            20.746250000000003
          ],
          [
            -103.40034000000001,
            20.746190000000002
          ],
          [
            -103.39895000000001,
            20.745900000000002
          ],
          [
            -103.39817000000001,
            20.745730000000002
          ],
          [
            -103.39715000000001,
            20.745520000000003
          ],
          [
            -103.39603000000001,
            20.74529
          ],
          [
            -103.39602000000001,
            20.74529
          ],
          [
            -103.3944,
            20.744950000000003
          ],
          [
            -103.39385000000001,
            20.744860000000003
          ],
          [
            -103.39340000000001,
            20.744760000000003
          ],
          [
            -103.39332,
            20.74471
          ],
          [
            -103.39325000000001,
            20.74463
          ],
          [
            -103.39324,
            20.744560000000003
          ],
          [
            -103.39326000000001,
            20.744020000000003
          ],
          [
            -103.39330000000001,
            20.743360000000003
          ],
          [
            -103.39330000000001,
            20.742690000000003
          ],
          [
            -103.39329000000001,
            20.742620000000002
          ],
          [
            -103.39323,
            20.742520000000003
          ],
          [
            -103.39316000000001,
            20.742500000000003
          ],
          [
            -103.3931,
            20.74249
          ],
          [
            -103.39301,
            20.74249
          ],
          [
            -103.39286000000001,
            20.742520000000003
          ],
          [
            -103.39210000000001,
            20.74275
          ],
          [
            -103.39151000000001,
            20.74293
          ],
          [
            -103.39049000000001,
            20.743170000000003
          ],
          [
            -103.39025000000001,
            20.743260000000003
          ],
          [
            -103.39011,
            20.74341
          ],
          [
            -103.38940000000001,
            20.74416
          ],
          [
            -103.38909000000001,
            20.74416
          ],
          [
            -103.38851000000001,
            20.74418
          ],
          [
            -103.38849,
            20.742240000000002
          ],
          [
            -103.38848000000002,
            20.74087
          ],
          [
            -103.38873000000001,
            20.74087
          ],
          [
            -103.38921,
            20.74089
          ],
          [
            -103.38982000000001,
            20.740840000000002
          ],
          [
            -103.39057000000001,
            20.74079
          ],
          [
            -103.39106000000001,
            20.740640000000003
          ],
          [
            -103.39153,
            20.740550000000002
          ],
          [
            -103.39201000000001,
            20.740530000000003
          ],
          [
            -103.39251,
            20.740530000000003
          ],
          [
            -103.39265,
            20.74052
          ],
          [
            -103.39276000000001,
            20.740460000000002
          ],
          [
            -103.39282000000001,
            20.740370000000002
          ],
          [
            -103.39281000000001,
            20.740250000000003
          ],
          [
            -103.39277000000001,
            20.740160000000003
          ],
          [
            -103.39271000000001,
            20.74011
          ],
          [
            -103.39263000000001,
            20.740080000000003
          ],
          [
            -103.39155000000001,
            20.7401
          ],
          [
            -103.39087,
            20.74001
          ],
          [
            -103.39071000000001,
            20.73996
          ],
          [
            -103.39067000000001,
            20.73994
          ],
          [
            -103.38972000000001,
            20.739970000000003
          ],
          [
            -103.38969,
            20.739980000000003
          ],
          [
            -103.38913000000001,
            20.74003
          ],
          [
            -103.38849,
            20.74011
          ],
          [
            -103.38772,
            20.74014
          ],
          [
            -103.38701,
            20.740340000000003
          ],
          [
            -103.38662000000001,
            20.740350000000003
          ],
          [
            -103.38589,
            20.740250000000003
          ],
          [
            -103.38294,
            20.739510000000003
          ],
          [
            -103.38027000000001,
            20.738770000000002
          ],
          [
            -103.37981,
            20.738650000000003
          ],
          [
            -103.37847000000001,
            20.738290000000003
          ],
          [
            -103.37735,
            20.73798
          ],
          [
            -103.37735,
            20.73799
          ],
          [
            -103.37535000000001,
            20.737450000000003
          ],
          [
            -103.37471000000001,
            20.737260000000003
          ],
          [
            -103.37330000000001,
            20.73691
          ],
          [
            -103.37151000000001,
            20.73644
          ],
          [
            -103.36759,
            20.73545
          ],
          [
            -103.36693000000001,
            20.73524
          ],
          [
            -103.36667000000001,
            20.73517
          ],
          [
            -103.36489,
            20.7347
          ],
          [
            -103.36418,
            20.73448
          ],
          [
            -103.36361000000001,
            20.734370000000002
          ],
          [
            -103.36318000000001,
            20.734250000000003
          ],
          [
            -103.36285000000001,
            20.734170000000002
          ],
          [
            -103.36261,
            20.7341
          ],
          [
            -103.36233000000001,
            20.733990000000002
          ],
          [
            -103.36203,
            20.73394
          ],
          [
            -103.36160000000001,
            20.73384
          ],
          [
            -103.36045000000001,
            20.733420000000002
          ],
          [
            -103.35861000000001,
            20.732940000000003
          ],
          [
            -103.35835,
            20.73288
          ],
          [
            -103.35659000000001,
            20.732400000000002
          ],
          [
            -103.35641000000001,
            20.732360000000003
          ],
          [
            -103.35527,
            20.73206
          ],
          [
            -103.35375,
            20.731620000000003
          ],
          [
            -103.35375,
            20.731610000000003
          ],
          [
            -103.35348,
            20.731540000000003
          ],
          [
            -103.35217000000002,
            20.731060000000003
          ],
          [
            -103.35219000000001,
            20.73101
          ],
          [
            -103.35138,
            20.730710000000002
          ],
          [
            -103.35135000000001,
            20.73076
          ],
          [
            -103.35032000000001,
            20.730390000000003
          ],
          [
            -103.34894000000001,
            20.729860000000002
          ],
          [
            -103.34702000000001,
            20.729170000000003
          ],
          [
            -103.34661000000001,
            20.729010000000002
          ],
          [
            -103.34599000000001,
            20.72879
          ],
          [
            -103.34459000000001,
            20.728240000000003
          ],
          [
            -103.34306000000001,
            20.72764
          ],
          [
            -103.34288000000001,
            20.72757
          ],
          [
            -103.34287,
            20.72757
          ],
          [
            -103.34135,
            20.727030000000003
          ],
          [
            -103.34085,
            20.726850000000002
          ],
          [
            -103.34,
            20.72654
          ],
          [
            -103.33905000000001,
            20.726190000000003
          ],
          [
            -103.33889,
            20.72612
          ],
          [
            -103.33893,
            20.72603
          ],
          [
            -103.33590000000001,
            20.724950000000003
          ],
          [
            -103.33210000000001,
            20.7236
          ],
          [
            -103.32819,
            20.72222
          ],
          [
            -103.32824000000001,
            20.72209
          ],
          [
            -103.32708000000001,
            20.72166
          ],
          [
            -103.32581,
            20.721200000000003
          ],
          [
            -103.32459000000001,
            20.720730000000003
          ],
          [
            -103.32393,
            20.720540000000003
          ],
          [
            -103.32346000000001,
            20.72049
          ],
          [
            -103.32337000000001,
            20.72049
          ],
          [
            -103.32304,
            20.7205
          ],
          [
            -103.32276,
            20.720540000000003
          ],
          [
            -103.32035,
            20.72119
          ],
          [
            -103.31994,
            20.72127
          ],
          [
            -103.31942000000001,
            20.721310000000003
          ],
          [
            -103.31912000000001,
            20.72134
          ],
          [
            -103.3187,
            20.721310000000003
          ],
          [
            -103.31848000000001,
            20.72128
          ],
          [
            -103.31818000000001,
            20.72124
          ],
          [
            -103.31748,
            20.721030000000003
          ],
          [
            -103.31701000000001,
            20.720850000000002
          ],
          [
            -103.31641,
            20.720560000000003
          ],
          [
            -103.31616000000001,
            20.72043
          ],
          [
            -103.31623,
            20.720290000000002
          ],
          [
            -103.31120000000001,
            20.717830000000003
          ],
          [
            -103.31111000000001,
            20.71798
          ],
          [
            -103.30829000000001,
            20.716620000000002
          ],
          [
            -103.30714,
            20.716050000000003
          ],
          [
            -103.30680000000001,
            20.715880000000002
          ],
          [
            -103.3054,
            20.715210000000003
          ],
          [
            -103.30314000000001,
            20.71411
          ],
          [
            -103.30216000000001,
            20.71366
          ],
          [
            -103.30104000000001,
            20.71311
          ],
          [
            -103.30079,
            20.713
          ],
          [
            -103.30031000000001,
            20.71281
          ],
          [
            -103.29974000000001,
            20.71264
          ],
          [
            -103.29917,
            20.71252
          ],
          [
            -103.29860000000001,
            20.712470000000003
          ],
          [
            -103.29807000000001,
            20.712470000000003
          ],
          [
            -103.29767000000001,
            20.712470000000003
          ],
          [
            -103.29728000000001,
            20.71246
          ],
          [
            -103.29641000000001,
            20.71245
          ],
          [
            -103.29584000000001,
            20.71243
          ],
          [
            -103.29518,
            20.71242
          ],
          [
            -103.29512000000001,
            20.71215
          ],
          [
            -103.29512000000001,
            20.71214
          ],
          [
            -103.29496,
            20.711270000000003
          ],
          [
            -103.29496,
            20.711270000000003
          ],
          [
            -103.29474,
            20.71008
          ],
          [
            -103.29474,
            20.71008
          ],
          [
            -103.29456,
            20.70915
          ],
          [
            -103.29435000000001,
            20.70796
          ],
          [
            -103.29425,
            20.70749
          ],
          [
            -103.29382000000001,
            20.706480000000003
          ],
          [
            -103.29372000000001,
            20.70624
          ],
          [
            -103.29352000000002,
            20.705820000000003
          ],
          [
            -103.29292000000001,
            20.704520000000002
          ],
          [
            -103.29282,
            20.70426
          ],
          [
            -103.29278000000001,
            20.70418
          ],
          [
            -103.29243000000001,
            20.703460000000003
          ],
          [
            -103.29185000000001,
            20.702160000000003
          ],
          [
            -103.29100000000001,
            20.70025
          ],
          [
            -103.29084,
            20.699910000000003
          ],
          [
            -103.29072000000001,
            20.69967
          ],
          [
            -103.29038000000001,
            20.698890000000002
          ],
          [
            -103.29032000000001,
            20.69856
          ],
          [
            -103.29035,
            20.69827
          ],
          [
            -103.29052000000001,
            20.697740000000003
          ],
          [
            -103.29054000000001,
            20.697670000000002
          ],
          [
            -103.29090000000001,
            20.696630000000003
          ],
          [
            -103.2912,
            20.69581
          ],
          [
            -103.29149000000001,
            20.695010000000003
          ],
          [
            -103.29203000000001,
            20.693530000000003
          ],
          [
            -103.29203000000001,
            20.693530000000003
          ],
          [
            -103.29217000000001,
            20.69311
          ],
          [
            -103.29220000000001,
            20.69311
          ],
          [
            -103.29224,
            20.69311
          ],
          [
            -103.29228,
            20.69311
          ],
          [
            -103.29234000000001,
            20.693060000000003
          ],
          [
            -103.29238000000001,
            20.693
          ],
          [
            -103.29237,
            20.69293
          ],
          [
            -103.29233,
            20.692860000000003
          ],
          [
            -103.29226000000001,
            20.69283
          ],
          [
            -103.29266000000001,
            20.691750000000003
          ],
          [
            -103.29275000000001,
            20.69149
          ],
          [
            -103.29316000000001,
            20.69027
          ],
          [
            -103.2933,
            20.68993
          ],
          [
            -103.29329000000001,
            20.68994
          ],
          [
            -103.29359000000001,
            20.689120000000003
          ],
          [
            -103.29369000000001,
            20.688860000000002
          ],
          [
            -103.29381000000001,
            20.688550000000003
          ],
          [
            -103.29479,
            20.688740000000003
          ],
          [
            -103.29693,
            20.68916
          ],
          [
            -103.29696000000001,
            20.68917
          ],
          [
            -103.29885,
            20.68953
          ],
          [
            -103.29885,
            20.688090000000003
          ]
        ]
      }
    }
  ]
}