{
  "type": "FeatureCollection",
  "features": [
    {
      "type": "Feature",
      "properties": {
        "identifier": "321-2?o=2",
        "name": "Ruta 321"
      },
      "geometry": {
        "type": "LineString",
        "coordinates": [
          [
            -103.29638000000001,
            20.719800000000003
          ],
          [
            -103.29740000000001,
            20.71997
          ],
          [
            -103.29767000000001,
            20.719990000000003
          ],
          [
            -103.29767000000001,
            20.720000000000002
          ],
          [
            -103.29864,
            20.72012
          ],
          [
            -103.29865000000001,
            20.72012
          ],
          [
            -103.29865000000001,
            20.72012
          ],
          [
            -103.29976,
            20.720260000000003
          ],
          [
            -103.29999000000001,
            20.72031
          ],
          [
            -103.30045000000001,
            20.72044
          ],
          [
            -103.30068000000001,
            20.720540000000003
          ],
          [
            -103.30107000000001,
            20.720640000000003
          ],
          [
            -103.30180000000001,
            20.720840000000003
          ],
          [
            -103.30222,
            20.72096
          ],
          [
            -103.30387,
            20.72128
          ],
          [
            -103.30592000000001,
            20.72166
          ],
          [
            -103.30716000000001,
            20.721880000000002
          ],
          [
            -103.30799,
            20.722040000000003
          ],
          [
            -103.3088,
            20.72219
          ],
          [
            -103.30994000000001,
            20.72241
          ],
          [
            -103.31023,
            20.722440000000002
          ],
          [
            -103.31057000000001,
            20.722430000000003
          ],
          [
            -103.31075000000001,
            20.72237
          ],
          [
            -103.31104,
            20.72221
          ],
          [
            -103.31132000000001,
            20.721950000000003
          ],
          [
            -103.31163000000001,
            20.72171
          ],
          [
            -103.31194,
            20.72153
          ],
          [
            -103.31222000000001,
            20.721410000000002
          ],
          [
            -103.31249000000001,
            20.721320000000002
          ],
          [
            -103.31282,
            20.72127
          ],
          [
            -103.31305,
            20.72126
          ],
          [
            -103.31326000000001,
            20.72127
          ],
          [
            -103.31361000000001,
            20.721320000000002
          ],
          [
            -103.31396000000001,
            20.72143
          ],
          [
            -103.31419000000001,
            20.72155
          ],
          [
            -103.31450000000001,
            20.72175
          ],
          [
            -103.31475,
            20.721950000000003
          ],
          [
            -103.31546,
            20.72265
          ],
          [
            -103.31617000000001,
            20.723370000000003
          ],
          [
            -103.31633000000001,
            20.72342
          ],
          [
            -103.31639000000001,
            20.72344
          ],
          [
            -103.31641,
            20.72335
          ],
          [
            -103.31647000000001,
            20.723170000000003
          ],
          [
            -103.31651000000001,
            20.72303
          ],
          [
            -103.31693000000001,
            20.721580000000003
          ],
          [
            -103.31721,
            20.72097
          ],
          [
            -103.3173,
            20.72078
          ],
          [
            -103.31727000000001,
            20.720750000000002
          ],
          [
            -103.31710000000001,
            20.7207
          ],
          [
            -103.31689000000001,
            20.72058
          ],
          [
            -103.31675000000001,
            20.72052
          ],
          [
            -103.31373,
            20.71908
          ],
          [
            -103.31164000000001,
            20.71805
          ],
          [
            -103.31120000000001,
            20.717820000000003
          ],
          [
            -103.31120000000001,
            20.717830000000003
          ],
          [
            -103.30754,
            20.716050000000003
          ],
          [
            -103.30537000000001,
            20.715000000000003
          ],
          [
            -103.30446,
            20.714550000000003
          ],
          [
            -103.30310000000001,
            20.71392
          ],
          [
            -103.3019,
            20.71338
          ],
          [
            -103.30189000000001,
            20.71338
          ],
          [
            -103.30044000000001,
            20.712680000000002
          ],
          [
            -103.29984,
            20.71253
          ],
          [
            -103.29915000000001,
            20.712380000000003
          ],
          [
            -103.29859,
            20.71233
          ],
          [
            -103.29785000000001,
            20.71234
          ],
          [
            -103.29734,
            20.71235
          ],
          [
            -103.29704000000001,
            20.71237
          ],
          [
            -103.29705000000001,
            20.71245
          ],
          [
            -103.29641000000001,
            20.71245
          ],
          [
            -103.29601000000001,
            20.71244
          ],
          [
            -103.29518,
            20.71242
          ],
          [
            -103.29512000000001,
            20.71215
          ],
          [
            -103.29512000000001,
            20.71214
          ],
          [
            -103.29496,
            20.711270000000003
          ],
          [
            -103.29496,
            20.711270000000003
          ],
          [
            -103.29478,
            20.710340000000002
          ],
          [
            -103.29474,
            20.71008
          ],
          [
            -103.29456,
            20.70915
          ],
          [
            -103.29452,
            20.70889
          ],
          [
            -103.29432000000001,
            20.707780000000003
          ],
          [
            -103.29431000000001,
            20.707700000000003
          ],
          [
            -103.29425,
            20.70749
          ],
          [
            -103.29410000000001,
            20.707140000000003
          ],
          [
            -103.29371,
            20.70625
          ],
          [
            -103.29371,
            20.70624
          ],
          [
            -103.29325000000001,
            20.705260000000003
          ],
          [
            -103.29325000000001,
            20.705250000000003
          ],
          [
            -103.29320000000001,
            20.705170000000003
          ],
          [
            -103.29278000000001,
            20.70418
          ],
          [
            -103.29282,
            20.70427
          ],
          [
            -103.29281,
            20.70427
          ],
          [
            -103.29262000000001,
            20.70383
          ],
          [
            -103.29229000000001,
            20.70315
          ],
          [
            -103.29171000000001,
            20.70184
          ],
          [
            -103.29110000000001,
            20.70052
          ],
          [
            -103.29099000000001,
            20.70026
          ],
          [
            -103.29081000000001,
            20.69985
          ],
          [
            -103.29043000000001,
            20.69903
          ],
          [
            -103.29035,
            20.69874
          ],
          [
            -103.29032000000001,
            20.69856
          ],
          [
            -103.29033000000001,
            20.69838
          ],
          [
            -103.29041000000001,
            20.69806
          ],
          [
            -103.29070000000002,
            20.69726
          ],
          [
            -103.2917,
            20.69759
          ],
          [
            -103.29196,
            20.697660000000003
          ],
          [
            -103.29196,
            20.697660000000003
          ],
          [
            -103.29220000000001,
            20.69773
          ],
          [
            -103.29242,
            20.69712
          ],
          [
            -103.29252000000001,
            20.69686
          ],
          [
            -103.29262000000001,
            20.69658
          ],
          [
            -103.2929,
            20.695780000000003
          ],
          [
            -103.29308,
            20.695220000000003
          ],
          [
            -103.29318,
            20.694740000000003
          ],
          [
            -103.29345,
            20.694740000000003
          ],
          [
            -103.29345,
            20.694740000000003
          ],
          [
            -103.2942,
            20.694740000000003
          ],
          [
            -103.29455000000002,
            20.694740000000003
          ],
          [
            -103.29464000000002,
            20.694740000000003
          ],
          [
            -103.29506,
            20.694750000000003
          ],
          [
            -103.29627,
            20.694730000000003
          ],
          [
            -103.29654000000001,
            20.694730000000003
          ],
          [
            -103.29688,
            20.694730000000003
          ],
          [
            -103.29759000000001,
            20.69472
          ],
          [
            -103.29804000000001,
            20.69462
          ],
          [
            -103.29886,
            20.694290000000002
          ],
          [
            -103.29910000000001,
            20.694190000000003
          ],
          [
            -103.29911000000001,
            20.694190000000003
          ],
          [
            -103.30067000000001,
            20.69357
          ],
          [
            -103.30067000000001,
            20.69356
          ],
          [
            -103.30321,
            20.69256
          ],
          [
            -103.30361,
            20.692390000000003
          ],
          [
            -103.30486,
            20.69189
          ],
          [
            -103.30586000000001,
            20.6915
          ],
          [
            -103.30586000000001,
            20.6915
          ],
          [
            -103.30594,
            20.691470000000002
          ],
          [
            -103.30635000000001,
            20.69131
          ],
          [
            -103.30648000000001,
            20.69142
          ],
          [
            -103.30671000000001,
            20.691560000000003
          ],
          [
            -103.30717000000001,
            20.691750000000003
          ],
          [
            -103.30725000000001,
            20.69151
          ],
          [
            -103.30768,
            20.690250000000002
          ],
          [
            -103.30769000000001,
            20.690240000000003
          ],
          [
            -103.30768,
            20.690240000000003
          ],
          [
            -103.30783000000001,
            20.68981
          ],
          [
            -103.30808,
            20.68909
          ],
          [
            -103.30817,
            20.688830000000003
          ],
          [
            -103.30842000000001,
            20.688070000000003
          ],
          [
            -103.30852,
            20.687810000000002
          ],
          [
            -103.30878000000001,
            20.687040000000003
          ],
          [
            -103.30887000000001,
            20.686780000000002
          ],
          [
            -103.30912000000001,
            20.686010000000003
          ],
          [
            -103.30922000000001,
            20.685740000000003
          ],
          [
            -103.30961,
            20.684600000000003
          ],
          [
            -103.30969,
            20.68436
          ],
          [
            -103.30995000000001,
            20.683570000000003
          ],
          [
            -103.31004000000001,
            20.683320000000002
          ],
          [
            -103.31030000000001,
            20.682550000000003
          ],
          [
            -103.31040000000002,
            20.682280000000002
          ],
          [
            -103.31066000000001,
            20.681510000000003
          ],
          [
            -103.31075000000001,
            20.681250000000002
          ],
          [
            -103.31088000000001,
            20.680860000000003
          ],
          [
            -103.31101000000001,
            20.680480000000003
          ],
          [
            -103.31110000000001,
            20.680220000000002
          ],
          [
            -103.31136000000001,
            20.679450000000003
          ],
          [
            -103.31145000000001,
            20.679180000000002
          ],
          [
            -103.31153,
            20.67894
          ],
          [
            -103.31171,
            20.678410000000003
          ],
          [
            -103.3118,
            20.678150000000002
          ],
          [
            -103.31207,
            20.677380000000003
          ],
          [
            -103.31216,
            20.677120000000002
          ],
          [
            -103.31243,
            20.676340000000003
          ],
          [
            -103.31252,
            20.676090000000002
          ],
          [
            -103.31277000000001,
            20.675310000000003
          ],
          [
            -103.31286000000001,
            20.675060000000002
          ],
          [
            -103.31287,
            20.675060000000002
          ],
          [
            -103.31357000000001,
            20.672980000000003
          ],
          [
            -103.31358,
            20.672970000000003
          ],
          [
            -103.31358,
            20.672980000000003
          ],
          [
            -103.31384000000001,
            20.6722
          ],
          [
            -103.31393000000001,
            20.671960000000002
          ],
          [
            -103.31419000000001,
            20.671190000000003
          ],
          [
            -103.31428000000001,
            20.670930000000002
          ],
          [
            -103.31455000000001,
            20.670150000000003
          ],
          [
            -103.31464000000001,
            20.669890000000002
          ],
          [
            -103.31489,
            20.669120000000003
          ],
          [
            -103.31498,
            20.668860000000002
          ],
          [
            -103.31525,
            20.668100000000003
          ],
          [
            -103.31534,
            20.667830000000002
          ],
          [
            -103.31561,
            20.667050000000003
          ],
          [
            -103.3157,
            20.666790000000002
          ],
          [
            -103.31597000000001,
            20.666020000000003
          ],
          [
            -103.31606000000001,
            20.665770000000002
          ],
          [
            -103.31632,
            20.665000000000003
          ],
          [
            -103.31641,
            20.66477
          ],
          [
            -103.31639000000001,
            20.66477
          ],
          [
            -103.31639000000001,
            20.66477
          ],
          [
            -103.31652000000001,
            20.664430000000003
          ],
          [
            -103.31741000000001,
            20.664730000000002
          ],
          [
            -103.31821000000001,
            20.664990000000003
          ],
          [
            -103.31822000000001,
            20.664990000000003
          ],
          [
            -103.31856,
            20.665100000000002
          ],
          [
            -103.31913000000002,
            20.665290000000002
          ],
          [
            -103.32094000000001,
            20.6659
          ],
          [
            -103.32129,
            20.666020000000003
          ],
          [
            -103.32276,
            20.666500000000003
          ],
          [
            -103.32276,
            20.666500000000003
          ],
          [
            -103.32363000000001,
            20.666790000000002
          ],
          [
            -103.32364000000001,
            20.666790000000002
          ],
          [
            -103.32459000000001,
            20.6671
          ],
          [
            -103.32458000000001,
            20.66712
          ],
          [
            -103.3255,
            20.66741
          ],
          [
            -103.32641000000001,
            20.6677
          ],
          [
            -103.32642000000001,
            20.6677
          ],
          [
            -103.32759000000001,
            20.668090000000003
          ],
          [
            -103.32759000000001,
            20.668090000000003
          ],
          [
            -103.32772000000001,
            20.66814
          ],
          [
            -103.32837,
            20.66833
          ],
          [
            -103.32897000000001,
            20.66853
          ],
          [
            -103.32896000000001,
            20.66854
          ],
          [
            -103.33025,
            20.66897
          ],
          [
            -103.33025,
            20.668960000000002
          ],
          [
            -103.33025,
            20.66897
          ],
          [
            -103.33129000000001,
            20.669320000000003
          ],
          [
            -103.33158,
            20.669410000000003
          ],
          [
            -103.33167,
            20.669140000000002
          ],
          [
            -103.33168,
            20.669140000000002
          ],
          [
            -103.33165000000001,
            20.669130000000003
          ],
          [
            -103.33209000000001,
            20.66794
          ],
          [
            -103.33239,
            20.66713
          ],
          [
            -103.33238000000001,
            20.66713
          ],
          [
            -103.3324,
            20.667050000000003
          ],
          [
            -103.33298,
            20.665360000000003
          ],
          [
            -103.33333,
            20.664420000000003
          ],
          [
            -103.33340000000001,
            20.66421
          ],
          [
            -103.33373,
            20.66374
          ],
          [
            -103.33374,
            20.663680000000003
          ],
          [
            -103.33372000000001,
            20.663590000000003
          ],
          [
            -103.33368000000002,
            20.66355
          ],
          [
            -103.33366000000001,
            20.66354
          ],
          [
            -103.33371000000001,
            20.66335
          ],
          [
            -103.33374,
            20.66327
          ],
          [
            -103.33374,
            20.66327
          ],
          [
            -103.33380000000001,
            20.66307
          ],
          [
            -103.33404,
            20.66233
          ],
          [
            -103.33418,
            20.661830000000002
          ],
          [
            -103.33418,
            20.661820000000002
          ],
          [
            -103.33452000000001,
            20.66063
          ],
          [
            -103.33452000000001,
            20.66063
          ],
          [
            -103.33452000000001,
            20.66063
          ],
          [
            -103.33500000000001,
            20.65894
          ],
          [
            -103.33502000000001,
            20.658920000000002
          ],
          [
            -103.33506000000001,
            20.65884
          ],
          [
            -103.33509000000001,
            20.658800000000003
          ],
          [
            -103.33513,
            20.65867
          ],
          [
            -103.33523000000001,
            20.65866
          ],
          [
            -103.33532000000001,
            20.658630000000002
          ],
          [
            -103.3354,
            20.65859
          ],
          [
            -103.33547000000002,
            20.6585
          ],
          [
            -103.33649000000001,
            20.658820000000002
          ],
          [
            -103.33677000000002,
            20.658920000000002
          ],
          [
            -103.33677000000002,
            20.658920000000002
          ],
          [
            -103.33677000000002,
            20.65893
          ],
          [
            -103.33794,
            20.659360000000003
          ],
          [
            -103.33961000000001,
            20.659920000000003
          ],
          [
            -103.33961000000001,
            20.659930000000003
          ],
          [
            -103.34202,
            20.66073
          ],
          [
            -103.34229,
            20.66082
          ],
          [
            -103.34415000000001,
            20.66149
          ],
          [
            -103.34444,
            20.66158
          ],
          [
            -103.34561000000001,
            20.661990000000003
          ],
          [
            -103.34816000000001,
            20.662380000000002
          ],
          [
            -103.34816000000001,
            20.662380000000002
          ],
          [
            -103.34862000000001,
            20.662470000000003
          ],
          [
            -103.34881000000001,
            20.662560000000003
          ],
          [
            -103.34909,
            20.662560000000003
          ],
          [
            -103.34971,
            20.66262
          ],
          [
            -103.34973000000001,
            20.66281
          ],
          [
            -103.34952000000001,
            20.66335
          ],
          [
            -103.34943000000001,
            20.66362
          ],
          [
            -103.34943000000001,
            20.66362
          ],
          [
            -103.34916000000001,
            20.664450000000002
          ],
          [
            -103.34878,
            20.665570000000002
          ],
          [
            -103.34867000000001,
            20.6659
          ],
          [
            -103.34855,
            20.66627
          ],
          [
            -103.34805000000001,
            20.6677
          ],
          [
            -103.34787000000001,
            20.668180000000003
          ],
          [
            -103.34785000000001,
            20.668280000000003
          ],
          [
            -103.34809000000001,
            20.668370000000003
          ],
          [
            -103.34827000000001,
            20.66843
          ],
          [
            -103.34898000000001,
            20.66872
          ],
          [
            -103.3495,
            20.668860000000002
          ],
          [
            -103.34951000000001,
            20.668850000000003
          ],
          [
            -103.34975000000001,
            20.668930000000003
          ],
          [
            -103.35003,
            20.66898
          ],
          [
            -103.35108000000001,
            20.66919
          ],
          [
            -103.35136000000001,
            20.669230000000002
          ],
          [
            -103.35139000000001,
            20.669230000000002
          ],
          [
            -103.35139000000001,
            20.669230000000002
          ],
          [
            -103.35177,
            20.669300000000003
          ],
          [
            -103.35172000000001,
            20.67029
          ],
          [
            -103.35171000000001,
            20.67051
          ],
          [
            -103.35168,
            20.671190000000003
          ],
          [
            -103.35162000000001,
            20.67211
          ],
          [
            -103.35161000000001,
            20.67236
          ],
          [
            -103.35157000000001,
            20.67303
          ],
          [
            -103.35154000000001,
            20.673520000000003
          ],
          [
            -103.35153000000001,
            20.67378
          ],
          [
            -103.35153000000001,
            20.67378
          ],
          [
            -103.3515,
            20.674480000000003
          ],
          [
            -103.3515,
            20.674480000000003
          ],
          [
            -103.35149000000001,
            20.674480000000003
          ],
          [
            -103.35143000000001,
            20.67601
          ],
          [
            -103.35143000000001,
            20.67601
          ],
          [
            -103.35142,
            20.67613
          ],
          [
            -103.35140000000001,
            20.67689
          ],
          [
            -103.35139000000001,
            20.67752
          ],
          [
            -103.35138,
            20.67764
          ],
          [
            -103.35133,
            20.678970000000003
          ],
          [
            -103.35132000000002,
            20.67901
          ],
          [
            -103.35125000000001,
            20.680020000000003
          ],
          [
            -103.35124,
            20.680470000000003
          ],
          [
            -103.35121000000001,
            20.68213
          ],
          [
            -103.35122000000001,
            20.68213
          ],
          [
            -103.35119,
            20.68258
          ],
          [
            -103.35119,
            20.68352
          ],
          [
            -103.35118000000001,
            20.683680000000003
          ],
          [
            -103.35118000000001,
            20.68438
          ],
          [
            -103.35117000000001,
            20.68494
          ],
          [
            -103.35116000000001,
            20.68513
          ],
          [
            -103.35112000000001,
            20.68646
          ],
          [
            -103.35111,
            20.686470000000003
          ],
          [
            -103.35111,
            20.687050000000003
          ],
          [
            -103.35109000000001,
            20.687990000000003
          ],
          [
            -103.35108000000001,
            20.68869
          ],
          [
            -103.35107,
            20.68896
          ],
          [
            -103.35021,
            20.689010000000003
          ],
          [
            -103.35021,
            20.689010000000003
          ],
          [
            -103.35021,
            20.68899
          ],
          [
            -103.34961000000001,
            20.689020000000003
          ],
          [
            -103.34863000000001,
            20.689040000000002
          ],
          [
            -103.34863000000001,
            20.68907
          ],
          [
            -103.34728000000001,
            20.689100000000003
          ],
          [
            -103.34651000000001,
            20.689120000000003
          ],
          [
            -103.34623,
            20.689110000000003
          ],
          [
            -103.34605,
            20.689110000000003
          ],
          [
            -103.34573,
            20.689110000000003
          ],
          [
            -103.34537,
            20.68906
          ],
          [
            -103.34505000000001,
            20.68952
          ],
          [
            -103.34504000000001,
            20.68952
          ],
          [
            -103.34406000000001,
            20.690890000000003
          ],
          [
            -103.34297000000001,
            20.692410000000002
          ],
          [
            -103.3426,
            20.69293
          ],
          [
            -103.34253000000001,
            20.69292
          ],
          [
            -103.34246,
            20.69293
          ],
          [
            -103.34239000000001,
            20.692960000000003
          ],
          [
            -103.34235000000001,
            20.69301
          ],
          [
            -103.34233,
            20.693040000000003
          ],
          [
            -103.34232000000002,
            20.693070000000002
          ],
          [
            -103.34147000000002,
            20.69311
          ],
          [
            -103.34119000000001,
            20.69311
          ],
          [
            -103.34068,
            20.69313
          ],
          [
            -103.33992,
            20.693260000000002
          ],
          [
            -103.33928,
            20.693440000000002
          ],
          [
            -103.33927000000001,
            20.693440000000002
          ],
          [
            -103.33872000000001,
            20.69366
          ],
          [
            -103.33799,
            20.69404
          ],
          [
            -103.33777,
            20.694180000000003
          ],
          [
            -103.33776,
            20.694190000000003
          ],
          [
            -103.33745,
            20.69441
          ],
          [
            -103.33711000000001,
            20.69471
          ],
          [
            -103.33705,
            20.694770000000002
          ],
          [
            -103.33703000000001,
            20.69479
          ],
          [
            -103.33667000000001,
            20.695200000000003
          ],
          [
            -103.33648000000001,
            20.69534
          ],
          [
            -103.33630000000001,
            20.69544
          ],
          [
            -103.33601,
            20.69553
          ],
          [
            -103.33567000000001,
            20.69555
          ],
          [
            -103.33546000000001,
            20.695500000000003
          ],
          [
            -103.33521,
            20.69544
          ],
          [
            -103.33485,
            20.69527
          ],
          [
            -103.33484000000001,
            20.69527
          ],
          [
            -103.33377000000002,
            20.694770000000002
          ],
          [
            -103.33377000000002,
            20.694760000000002
          ],
          [
            -103.33338,
            20.694560000000003
          ],
          [
            -103.33338,
            20.69454
          ],
          [
            -103.33337,
            20.694460000000003
          ],
          [
            -103.33333,
            20.6944
          ],
          [
            -103.33327000000001,
            20.69435
          ],
          [
            -103.33319,
            20.69433
          ],
          [
            -103.33311,
            20.69433
          ],
          [
            -103.33304000000001,
            20.694360000000003
          ],
          [
            -103.33299000000001,
            20.69441
          ],
          [
            -103.33297,
            20.69444
          ],
          [
            -103.33271,
            20.69431
          ],
          [
            -103.33180000000002,
            20.69388
          ],
          [
            -103.33144000000001,
            20.693700000000003
          ],
          [
            -103.33144000000001,
            20.693700000000003
          ],
          [
            -103.33067000000001,
            20.693340000000003
          ],
          [
            -103.32982000000001,
            20.69293
          ],
          [
            -103.32948,
            20.692770000000003
          ],
          [
            -103.32867,
            20.69237
          ],
          [
            -103.32787,
            20.69199
          ],
          [
            -103.32762000000001,
            20.691860000000002
          ],
          [
            -103.32655000000001,
            20.691350000000003
          ],
          [
            -103.32546,
            20.690830000000002
          ],
          [
            -103.32545,
            20.690820000000002
          ],
          [
            -103.32419,
            20.69021
          ],
          [
            -103.32419,
            20.6902
          ],
          [
            -103.3234,
            20.689770000000003
          ],
          [
            -103.32304,
            20.689570000000003
          ],
          [
            -103.32291000000001,
            20.68946
          ],
          [
            -103.32284000000001,
            20.689390000000003
          ],
          [
            -103.32271000000001,
            20.68928
          ],
          [
            -103.32251000000001,
            20.689120000000003
          ],
          [
            -103.32022,
            20.689120000000003
          ],
          [
            -103.31999,
            20.688740000000003
          ],
          [
            -103.31999,
            20.688740000000003
          ],
          [
            -103.31997000000001,
            20.688730000000003
          ],
          [
            -103.31967,
            20.688260000000003
          ],
          [
            -103.31942000000001,
            20.688350000000003
          ],
          [
            -103.31941,
            20.688360000000003
          ],
          [
            -103.31808000000001,
            20.68887
          ],
          [
            -103.31655,
            20.689500000000002
          ],
          [
            -103.31631,
            20.689590000000003
          ],
          [
            -103.3147,
            20.690240000000003
          ],
          [
            -103.31338000000001,
            20.69076
          ],
          [
            -103.31337,
            20.69077
          ],
          [
            -103.31286000000001,
            20.69097
          ],
          [
            -103.31274,
            20.69096
          ],
          [
            -103.31252,
            20.69105
          ],
          [
            -103.31119000000001,
            20.691570000000002
          ],
          [
            -103.31119000000001,
            20.691580000000002
          ],
          [
            -103.31077,
            20.691740000000003
          ],
          [
            -103.31066000000001,
            20.69171
          ],
          [
            -103.30988,
            20.691560000000003
          ],
          [
            -103.30883000000001,
            20.691360000000003
          ],
          [
            -103.30882000000001,
            20.691360000000003
          ],
          [
            -103.30834000000002,
            20.691260000000003
          ],
          [
            -103.30834000000002,
            20.691190000000002
          ],
          [
            -103.30832000000001,
            20.69103
          ],
          [
            -103.30831,
            20.69096
          ],
          [
            -103.30827000000001,
            20.69085
          ],
          [
            -103.30824000000001,
            20.690810000000003
          ],
          [
            -103.30827000000001,
            20.690790000000003
          ],
          [
            -103.30827000000001,
            20.690790000000003
          ],
          [
            -103.30824000000001,
            20.690810000000003
          ],
          [
            -103.30811000000001,
            20.690700000000003
          ],
          [
            -103.30801000000001,
            20.690620000000003
          ],
          [
            -103.30777,
            20.690530000000003
          ],
          [
            -103.30733000000001,
            20.690440000000002
          ],
          [
            -103.30733000000001,
            20.690440000000002
          ],
          [
            -103.30701,
            20.69037
          ],
          [
            -103.30683,
            20.6904
          ],
          [
            -103.30667000000001,
            20.690440000000002
          ],
          [
            -103.30653000000001,
            20.690510000000003
          ],
          [
            -103.30644000000001,
            20.690610000000003
          ],
          [
            -103.30637000000002,
            20.690720000000002
          ],
          [
            -103.30631000000001,
            20.690890000000003
          ],
          [
            -103.30630000000001,
            20.69097
          ],
          [
            -103.30633,
            20.691260000000003
          ],
          [
            -103.30635000000001,
            20.69131
          ],
          [
            -103.30594,
            20.691470000000002
          ],
          [
            -103.30536000000001,
            20.69169
          ],
          [
            -103.30535,
            20.6917
          ],
          [
            -103.30379,
            20.692330000000002
          ],
          [
            -103.30335000000001,
            20.692500000000003
          ],
          [
            -103.30137,
            20.69329
          ],
          [
            -103.30041000000001,
            20.69367
          ],
          [
            -103.29860000000001,
            20.6944
          ],
          [
            -103.29823,
            20.694550000000003
          ],
          [
            -103.29782,
            20.69468
          ],
          [
            -103.29747,
            20.694730000000003
          ],
          [
            -103.29599,
            20.694740000000003
          ],
          [
            -103.29599,
            20.694740000000003
          ],
          [
            -103.29506,
            20.694750000000003
          ],
          [
            -103.29438,
            20.694740000000003
          ],
          [
            -103.29351000000001,
            20.694740000000003
          ],
          [
            -103.29318,
            20.694740000000003
          ],
          [
            -103.29308,
            20.695220000000003
          ],
          [
            -103.29291,
            20.69573
          ],
          [
            -103.29262000000001,
            20.69658
          ],
          [
            -103.29254,
            20.696800000000003
          ],
          [
            -103.29253000000001,
            20.696800000000003
          ],
          [
            -103.29234000000001,
            20.69735
          ],
          [
            -103.29234000000001,
            20.69735
          ],
          [
            -103.29220000000001,
            20.69773
          ],
          [
            -103.2917,
            20.69759
          ],
          [
            -103.29144000000001,
            20.6975
          ],
          [
            -103.29144000000001,
            20.6975
          ],
          [
            -103.29143,
            20.6975
          ],
          [
            -103.29070000000002,
            20.69726
          ],
          [
            -103.29054000000001,
            20.697670000000002
          ],
          [
            -103.29052000000001,
            20.697740000000003
          ],
          [
            -103.29035,
            20.69827
          ],
          [
            -103.29032000000001,
            20.69856
          ],
          [
            -103.29038000000001,
            20.698890000000002
          ],
          [
            -103.29072000000001,
            20.69967
          ],
          [
            -103.29094,
            20.70014
          ],
          [
            -103.29095000000001,
            20.70014
          ],
          [
            -103.29214,
            20.702810000000003
          ],
          [
            -103.29243000000001,
            20.703460000000003
          ],
          [
            -103.29255,
            20.70369
          ],
          [
            -103.29256000000001,
            20.70369
          ],
          [
            -103.29287000000001,
            20.704400000000003
          ],
          [
            -103.29287000000001,
            20.704400000000003
          ],
          [
            -103.29292000000001,
            20.704520000000002
          ],
          [
            -103.29336,
            20.70549
          ],
          [
            -103.29337000000001,
            20.70548
          ],
          [
            -103.29377000000001,
            20.706370000000003
          ],
          [
            -103.29381000000001,
            20.706470000000003
          ],
          [
            -103.2942,
            20.70737
          ],
          [
            -103.29425,
            20.70749
          ],
          [
            -103.29435000000001,
            20.70796
          ],
          [
            -103.2946,
            20.709390000000003
          ],
          [
            -103.29461,
            20.709400000000002
          ],
          [
            -103.29483,
            20.710590000000003
          ],
          [
            -103.29484000000001,
            20.710590000000003
          ],
          [
            -103.29505,
            20.71178
          ],
          [
            -103.29506,
            20.71178
          ],
          [
            -103.29504000000001,
            20.71178
          ],
          [
            -103.29514,
            20.712310000000002
          ],
          [
            -103.29524,
            20.71283
          ],
          [
            -103.29526000000001,
            20.71283
          ],
          [
            -103.29548000000001,
            20.71402
          ],
          [
            -103.29548000000001,
            20.71403
          ],
          [
            -103.29553000000001,
            20.714280000000002
          ],
          [
            -103.29642000000001,
            20.71414
          ],
          [
            -103.29726000000001,
            20.713990000000003
          ],
          [
            -103.2973,
            20.71423
          ],
          [
            -103.29731000000001,
            20.71423
          ],
          [
            -103.29734,
            20.714540000000003
          ],
          [
            -103.29744000000001,
            20.715190000000003
          ],
          [
            -103.29744000000001,
            20.715690000000002
          ],
          [
            -103.29744000000001,
            20.716050000000003
          ],
          [
            -103.29734,
            20.716260000000002
          ],
          [
            -103.29733,
            20.716260000000002
          ],
          [
            -103.29728000000001,
            20.71636
          ],
          [
            -103.29688,
            20.71715
          ],
          [
            -103.29665000000001,
            20.71786
          ],
          [
            -103.29664000000001,
            20.71786
          ],
          [
            -103.29648,
            20.71835
          ],
          [
            -103.29605000000001,
            20.71956
          ],
          [
            -103.29605000000001,
            20.718120000000003
          ]
        ]
      }
    }
  ]
}