{
  "type": "FeatureCollection",
  "features": [
    {
      "type": "Feature",
      "properties": {
        "identifier": "358-via-1",
        "name": "Ruta 358 Vía 1"
      },
      "geometry": {
        "type": "LineString",
        "coordinates": [
          [
            -103.35489000000001,
            20.613860000000003
          ],
          [
            -103.35442,
            20.613770000000002
          ],
          [
            -103.35423000000002,
            20.613760000000003
          ],
          [
            -103.35406,
            20.613760000000003
          ],
          [
            -103.35392,
            20.6138
          ],
          [
            -103.35347,
            20.613930000000003
          ],
          [
            -103.35328000000001,
            20.613930000000003
          ],
          [
            -103.35305000000001,
            20.613850000000003
          ],
          [
            -103.35312,
            20.614030000000003
          ],
          [
            -103.35311000000002,
            20.61418
          ],
          [
            -103.35276,
            20.61466
          ],
          [
            -103.35234000000001,
            20.615270000000002
          ],
          [
            -103.35224000000001,
            20.61557
          ],
          [
            -103.35215000000001,
            20.61571
          ],
          [
            -103.35217000000002,
            20.615820000000003
          ],
          [
            -103.35236,
            20.616400000000002
          ],
          [
            -103.35221000000001,
            20.61671
          ],
          [
            -103.35144000000001,
            20.617410000000003
          ],
          [
            -103.35126000000001,
            20.61773
          ],
          [
            -103.35156,
            20.61784
          ],
          [
            -103.35175000000001,
            20.61804
          ],
          [
            -103.35219000000001,
            20.61871
          ],
          [
            -103.35237000000001,
            20.61889
          ],
          [
            -103.35264000000001,
            20.61906
          ],
          [
            -103.35308,
            20.619210000000002
          ],
          [
            -103.35355000000001,
            20.61916
          ],
          [
            -103.35407000000001,
            20.619020000000003
          ],
          [
            -103.35510000000001,
            20.61868
          ],
          [
            -103.35637000000001,
            20.61794
          ],
          [
            -103.35684,
            20.617630000000002
          ],
          [
            -103.35721000000001,
            20.617630000000002
          ],
          [
            -103.35801000000001,
            20.61804
          ],
          [
            -103.35916,
            20.618750000000002
          ],
          [
            -103.35957,
            20.619760000000003
          ],
          [
            -103.35979,
            20.62011
          ],
          [
            -103.36006,
            20.620350000000002
          ],
          [
            -103.36076000000001,
            20.620600000000003
          ],
          [
            -103.36294000000001,
            20.620420000000003
          ],
          [
            -103.36463,
            20.620440000000002
          ],
          [
            -103.3661,
            20.62019
          ],
          [
            -103.3679,
            20.620150000000002
          ],
          [
            -103.36991,
            20.620690000000003
          ],
          [
            -103.37066000000002,
            20.621100000000002
          ],
          [
            -103.37147,
            20.62151
          ],
          [
            -103.37217000000001,
            20.62181
          ],
          [
            -103.37249000000001,
            20.62102
          ],
          [
            -103.37318,
            20.61944
          ],
          [
            -103.37375000000002,
            20.61803
          ],
          [
            -103.37987000000001,
            20.62179
          ],
          [
            -103.38477,
            20.62489
          ],
          [
            -103.38482,
            20.62472
          ],
          [
            -103.38541000000001,
            20.623900000000003
          ],
          [
            -103.38597000000001,
            20.62303
          ],
          [
            -103.3875,
            20.619470000000003
          ],
          [
            -103.38793000000001,
            20.61971
          ],
          [
            -103.39210000000001,
            20.62216
          ],
          [
            -103.39275,
            20.622580000000003
          ],
          [
            -103.39482000000001,
            20.62376
          ],
          [
            -103.39552,
            20.6212
          ],
          [
            -103.39913000000001,
            20.618930000000002
          ],
          [
            -103.40024000000001,
            20.6183
          ],
          [
            -103.40071,
            20.61795
          ],
          [
            -103.40121,
            20.617700000000003
          ],
          [
            -103.40174,
            20.61736
          ],
          [
            -103.40235000000001,
            20.617040000000003
          ],
          [
            -103.40322,
            20.618000000000002
          ],
          [
            -103.40375,
            20.61843
          ],
          [
            -103.40486000000001,
            20.61917
          ],
          [
            -103.40589000000001,
            20.619600000000002
          ],
          [
            -103.4064,
            20.619690000000002
          ],
          [
            -103.4072,
            20.620050000000003
          ],
          [
            -103.40767000000001,
            20.6203
          ],
          [
            -103.40898000000001,
            20.6212
          ],
          [
            -103.40902000000001,
            20.62142
          ],
          [
            -103.41186,
            20.62102
          ],
          [
            -103.41194000000002,
            20.62094
          ],
          [
            -103.41326000000001,
            20.62169
          ],
          [
            -103.41547000000001,
            20.623060000000002
          ],
          [
            -103.41463,
            20.624390000000002
          ],
          [
            -103.41399000000001,
            20.62537
          ],
          [
            -103.41389000000001,
            20.62535
          ],
          [
            -103.41382000000002,
            20.62537
          ],
          [
            -103.41374,
            20.625480000000003
          ],
          [
            -103.41413000000001,
            20.625680000000003
          ],
          [
            -103.41743000000001,
            20.62762
          ],
          [
            -103.41781,
            20.62799
          ],
          [
            -103.41786,
            20.62815
          ],
          [
            -103.41817,
            20.62835
          ],
          [
            -103.41837000000001,
            20.62826
          ],
          [
            -103.42002000000001,
            20.628960000000003
          ],
          [
            -103.42148,
            20.629330000000003
          ],
          [
            -103.42256,
            20.62976
          ],
          [
            -103.42256,
            20.629890000000003
          ],
          [
            -103.42261,
            20.630000000000003
          ],
          [
            -103.42268000000001,
            20.630090000000003
          ],
          [
            -103.42280000000001,
            20.630100000000002
          ],
          [
            -103.42295000000001,
            20.630090000000003
          ],
          [
            -103.42304000000001,
            20.63005
          ],
          [
            -103.42365000000001,
            20.630660000000002
          ],
          [
            -103.42576000000001,
            20.63407
          ],
          [
            -103.4166,
            20.63992
          ],
          [
            -103.41268000000001,
            20.642500000000002
          ],
          [
            -103.40905000000001,
            20.644730000000003
          ],
          [
            -103.40727000000001,
            20.6458
          ],
          [
            -103.40655000000001,
            20.646220000000003
          ],
          [
            -103.40631,
            20.64599
          ],
          [
            -103.40616000000001,
            20.64589
          ],
          [
            -103.40476000000001,
            20.648000000000003
          ],
          [
            -103.40240000000001,
            20.65171
          ],
          [
            -103.40045,
            20.654660000000003
          ],
          [
            -103.39885000000001,
            20.657010000000003
          ],
          [
            -103.39896,
            20.65707
          ],
          [
            -103.40122000000001,
            20.65367
          ],
          [
            -103.40259,
            20.65452
          ],
          [
            -103.40266000000001,
            20.654670000000003
          ],
          [
            -103.40273,
            20.654760000000003
          ],
          [
            -103.40298000000001,
            20.65492
          ],
          [
            -103.40318,
            20.65501
          ],
          [
            -103.4033,
            20.65503
          ],
          [
            -103.40337000000001,
            20.65501
          ],
          [
            -103.40343000000001,
            20.654960000000003
          ],
          [
            -103.40347000000001,
            20.654860000000003
          ],
          [
            -103.40812000000001,
            20.654570000000003
          ],
          [
            -103.40823,
            20.654680000000003
          ],
          [
            -103.40838000000001,
            20.654690000000002
          ],
          [
            -103.40849000000001,
            20.65463
          ],
          [
            -103.40851,
            20.65455
          ],
          [
            -103.41218,
            20.65434
          ],
          [
            -103.41235,
            20.654470000000003
          ],
          [
            -103.41253,
            20.654420000000002
          ],
          [
            -103.41257,
            20.654320000000002
          ],
          [
            -103.41899000000001,
            20.656940000000002
          ],
          [
            -103.41544,
            20.65828
          ],
          [
            -103.41408000000001,
            20.65876
          ],
          [
            -103.40696000000001,
            20.6614
          ],
          [
            -103.40863,
            20.66531
          ],
          [
            -103.40895,
            20.666
          ],
          [
            -103.40956000000001,
            20.66804
          ],
          [
            -103.40978000000001,
            20.669
          ],
          [
            -103.40982000000001,
            20.670070000000003
          ],
          [
            -103.40975,
            20.67235
          ],
          [
            -103.40965000000001,
            20.6732
          ],
          [
            -103.40912,
            20.6761
          ],
          [
            -103.40273,
            20.674740000000003
          ],
          [
            -103.40262000000001,
            20.67548
          ],
          [
            -103.40267000000001,
            20.67567
          ],
          [
            -103.40248000000001,
            20.6781
          ],
          [
            -103.40248000000001,
            20.676660000000002
          ]
        ]
      }
    }
  ]
}