{
  "type": "FeatureCollection",
  "features": [
    {
      "type": "Feature",
      "properties": {
        "identifier": "360-via-ea",
        "name": "Ruta 360 Vía Esteban Alatorre"
      },
      "geometry": {
        "type": "LineString",
        "coordinates": [
          [
            -103.2622,
            20.68926
          ],
          [
            -103.2626,
            20.68952
          ],
          [
            -103.26323000000001,
            20.689960000000003
          ],
          [
            -103.26439,
            20.690640000000002
          ],
          [
            -103.26682000000001,
            20.692020000000003
          ],
          [
            -103.26787,
            20.692600000000002
          ],
          [
            -103.26796,
            20.692420000000002
          ],
          [
            -103.26802,
            20.69188
          ],
          [
            -103.26806,
            20.690630000000002
          ],
          [
            -103.26805,
            20.690260000000002
          ],
          [
            -103.26803000000001,
            20.68974
          ],
          [
            -103.26793,
            20.689400000000003
          ],
          [
            -103.26757,
            20.68869
          ],
          [
            -103.26732000000001,
            20.68777
          ],
          [
            -103.2673,
            20.68721
          ],
          [
            -103.26880000000001,
            20.687230000000003
          ],
          [
            -103.26935,
            20.687260000000002
          ],
          [
            -103.27214000000001,
            20.687410000000003
          ],
          [
            -103.27516000000001,
            20.687520000000003
          ],
          [
            -103.27641000000001,
            20.68755
          ],
          [
            -103.27694000000001,
            20.687720000000002
          ],
          [
            -103.27744000000001,
            20.68796
          ],
          [
            -103.27853,
            20.68841
          ],
          [
            -103.27871,
            20.68785
          ],
          [
            -103.27894,
            20.6873
          ],
          [
            -103.27923000000001,
            20.68684
          ],
          [
            -103.27961,
            20.686310000000002
          ],
          [
            -103.27969,
            20.68626
          ],
          [
            -103.28026000000001,
            20.685940000000002
          ],
          [
            -103.28246000000001,
            20.684710000000003
          ],
          [
            -103.28378000000001,
            20.68391
          ],
          [
            -103.28378000000001,
            20.68381
          ],
          [
            -103.28406000000001,
            20.68354
          ],
          [
            -103.28427,
            20.68336
          ],
          [
            -103.28538,
            20.6827
          ],
          [
            -103.28608000000001,
            20.682270000000003
          ],
          [
            -103.28638000000001,
            20.68224
          ],
          [
            -103.28647000000001,
            20.68177
          ],
          [
            -103.28654,
            20.681320000000003
          ],
          [
            -103.28644000000001,
            20.68005
          ],
          [
            -103.28634000000001,
            20.67921
          ],
          [
            -103.28629000000001,
            20.678310000000003
          ],
          [
            -103.28620000000001,
            20.67629
          ],
          [
            -103.28612000000001,
            20.674660000000003
          ],
          [
            -103.28607000000001,
            20.673830000000002
          ],
          [
            -103.28645,
            20.67219
          ],
          [
            -103.28709,
            20.67227
          ],
          [
            -103.28758,
            20.67227
          ],
          [
            -103.29128000000001,
            20.67238
          ],
          [
            -103.29259,
            20.672400000000003
          ],
          [
            -103.29321,
            20.67247
          ],
          [
            -103.29385,
            20.67246
          ],
          [
            -103.29564,
            20.672490000000003
          ],
          [
            -103.29611000000001,
            20.67257
          ],
          [
            -103.29828,
            20.67322
          ],
          [
            -103.2994,
            20.673560000000002
          ],
          [
            -103.30032000000001,
            20.6738
          ],
          [
            -103.30116000000001,
            20.67408
          ],
          [
            -103.30170000000001,
            20.67427
          ],
          [
            -103.30199,
            20.674310000000002
          ],
          [
            -103.30227000000001,
            20.674460000000003
          ],
          [
            -103.30473,
            20.6752
          ],
          [
            -103.30746,
            20.67602
          ],
          [
            -103.31022000000002,
            20.676830000000002
          ],
          [
            -103.31209000000001,
            20.677400000000002
          ],
          [
            -103.31299000000001,
            20.677670000000003
          ],
          [
            -103.31389000000001,
            20.677950000000003
          ],
          [
            -103.31484,
            20.67821
          ],
          [
            -103.31573,
            20.67848
          ],
          [
            -103.31664,
            20.67876
          ],
          [
            -103.31757,
            20.67903
          ],
          [
            -103.31847,
            20.67932
          ],
          [
            -103.32114000000001,
            20.68014
          ],
          [
            -103.32211000000001,
            20.68042
          ],
          [
            -103.32204000000002,
            20.680760000000003
          ],
          [
            -103.32483,
            20.68072
          ],
          [
            -103.32770000000001,
            20.680760000000003
          ],
          [
            -103.32898,
            20.68071
          ],
          [
            -103.33035000000001,
            20.680950000000003
          ],
          [
            -103.33175000000001,
            20.68121
          ],
          [
            -103.3323,
            20.6813
          ],
          [
            -103.33475000000001,
            20.681250000000002
          ],
          [
            -103.33777,
            20.681220000000003
          ],
          [
            -103.33848,
            20.681220000000003
          ],
          [
            -103.33905000000001,
            20.681140000000003
          ],
          [
            -103.33965,
            20.681150000000002
          ],
          [
            -103.34038000000001,
            20.681150000000002
          ],
          [
            -103.3404,
            20.68156
          ],
          [
            -103.34039000000001,
            20.682250000000003
          ],
          [
            -103.34041,
            20.68364
          ],
          [
            -103.34047000000001,
            20.68373
          ],
          [
            -103.34008000000001,
            20.68492
          ],
          [
            -103.34171,
            20.68483
          ],
          [
            -103.34462,
            20.684710000000003
          ],
          [
            -103.34628000000001,
            20.684610000000003
          ],
          [
            -103.34788,
            20.684530000000002
          ],
          [
            -103.34861000000001,
            20.68447
          ],
          [
            -103.35025,
            20.684350000000002
          ],
          [
            -103.35119,
            20.68439
          ],
          [
            -103.35388,
            20.684510000000003
          ],
          [
            -103.35721000000001,
            20.68458
          ],
          [
            -103.36146000000001,
            20.68476
          ],
          [
            -103.36258000000001,
            20.684790000000003
          ],
          [
            -103.36417,
            20.68485
          ],
          [
            -103.36554000000001,
            20.684910000000002
          ],
          [
            -103.36634000000001,
            20.68492
          ],
          [
            -103.36684000000001,
            20.684900000000003
          ],
          [
            -103.36743000000001,
            20.684880000000003
          ],
          [
            -103.36812,
            20.68492
          ],
          [
            -103.36812,
            20.683480000000003
          ]
        ]
      }
    }
  ]
}