{
  "type": "FeatureCollection",
  "features": [
    {
      "type": "Feature",
      "properties": {
        "identifier": "37-2?o=2",
        "name": "Ruta 37"
      },
      "geometry": {
        "type": "LineString",
        "coordinates": [
          [
            -103.40972000000001,
            20.68739
          ],
          [
            -103.41202000000001,
            20.686950000000003
          ],
          [
            -103.41425000000001,
            20.68637
          ],
          [
            -103.41414,
            20.686100000000003
          ],
          [
            -103.41315,
            20.68384
          ],
          [
            -103.41300000000001,
            20.68243
          ],
          [
            -103.41287000000001,
            20.681700000000003
          ],
          [
            -103.41264000000001,
            20.681610000000003
          ],
          [
            -103.41090000000001,
            20.680960000000002
          ],
          [
            -103.40964000000001,
            20.680490000000002
          ],
          [
            -103.40849000000001,
            20.68007
          ],
          [
            -103.40849000000001,
            20.680770000000003
          ],
          [
            -103.40822000000001,
            20.680760000000003
          ],
          [
            -103.40722000000001,
            20.680750000000003
          ],
          [
            -103.40710000000001,
            20.679270000000002
          ],
          [
            -103.40753000000001,
            20.677770000000002
          ],
          [
            -103.40695000000001,
            20.677760000000003
          ],
          [
            -103.40523,
            20.677760000000003
          ],
          [
            -103.40523,
            20.677860000000003
          ],
          [
            -103.40453000000001,
            20.677860000000003
          ],
          [
            -103.40220000000001,
            20.678140000000003
          ],
          [
            -103.40220000000001,
            20.6781
          ],
          [
            -103.4003,
            20.678330000000003
          ],
          [
            -103.40013,
            20.67836
          ],
          [
            -103.39892,
            20.67846
          ],
          [
            -103.39772,
            20.67857
          ],
          [
            -103.39772,
            20.678590000000003
          ],
          [
            -103.39764000000001,
            20.678600000000003
          ],
          [
            -103.39585000000001,
            20.67876
          ],
          [
            -103.39585000000001,
            20.67873
          ],
          [
            -103.39449,
            20.67885
          ],
          [
            -103.3935,
            20.67894
          ],
          [
            -103.39257,
            20.67932
          ],
          [
            -103.39179000000001,
            20.679360000000003
          ],
          [
            -103.38932000000001,
            20.67948
          ],
          [
            -103.38779000000001,
            20.679560000000002
          ],
          [
            -103.3871,
            20.6796
          ],
          [
            -103.38550000000001,
            20.67952
          ],
          [
            -103.38411,
            20.679460000000002
          ],
          [
            -103.38393,
            20.679460000000002
          ],
          [
            -103.3833,
            20.68061
          ],
          [
            -103.38329,
            20.68063
          ],
          [
            -103.38324000000001,
            20.680600000000002
          ],
          [
            -103.3824,
            20.681820000000002
          ],
          [
            -103.38245,
            20.68186
          ],
          [
            -103.38197000000001,
            20.682560000000002
          ],
          [
            -103.38161000000001,
            20.682560000000002
          ],
          [
            -103.38036000000001,
            20.682530000000003
          ],
          [
            -103.37902000000001,
            20.6825
          ],
          [
            -103.37734,
            20.682460000000003
          ],
          [
            -103.37644,
            20.682450000000003
          ],
          [
            -103.37519,
            20.68242
          ],
          [
            -103.37356000000001,
            20.68239
          ],
          [
            -103.37319000000001,
            20.682370000000002
          ],
          [
            -103.37160000000002,
            20.68231
          ],
          [
            -103.37048000000001,
            20.682270000000003
          ],
          [
            -103.36921000000001,
            20.68222
          ],
          [
            -103.36822000000001,
            20.682180000000002
          ],
          [
            -103.36796000000001,
            20.682180000000002
          ],
          [
            -103.3661,
            20.68215
          ],
          [
            -103.36583,
            20.68214
          ],
          [
            -103.36444,
            20.682090000000002
          ],
          [
            -103.36213000000001,
            20.68203
          ],
          [
            -103.36095,
            20.681980000000003
          ],
          [
            -103.35995000000001,
            20.68195
          ],
          [
            -103.35923000000001,
            20.68193
          ],
          [
            -103.35895000000001,
            20.68193
          ],
          [
            -103.35528000000001,
            20.68193
          ],
          [
            -103.35526000000002,
            20.683870000000002
          ],
          [
            -103.35495,
            20.683860000000003
          ],
          [
            -103.35377000000001,
            20.6838
          ],
          [
            -103.35367000000001,
            20.683790000000002
          ],
          [
            -103.35222,
            20.68374
          ],
          [
            -103.35223,
            20.68345
          ],
          [
            -103.35225000000001,
            20.68345
          ],
          [
            -103.35226000000002,
            20.68248
          ],
          [
            -103.35226000000002,
            20.68248
          ],
          [
            -103.35227,
            20.681900000000002
          ],
          [
            -103.34766,
            20.68193
          ],
          [
            -103.34501,
            20.68194
          ],
          [
            -103.34447000000002,
            20.68195
          ],
          [
            -103.34315000000001,
            20.681970000000003
          ],
          [
            -103.34128000000001,
            20.682010000000002
          ],
          [
            -103.34037000000001,
            20.68203
          ],
          [
            -103.33947,
            20.68205
          ],
          [
            -103.33794,
            20.682080000000003
          ],
          [
            -103.33646,
            20.68211
          ],
          [
            -103.33426000000001,
            20.68215
          ],
          [
            -103.33266,
            20.682180000000002
          ],
          [
            -103.33226,
            20.682180000000002
          ],
          [
            -103.33146,
            20.68202
          ],
          [
            -103.33038,
            20.681810000000002
          ],
          [
            -103.32904,
            20.681540000000002
          ],
          [
            -103.32873000000001,
            20.68137
          ],
          [
            -103.32858,
            20.68173
          ],
          [
            -103.32708000000001,
            20.68174
          ],
          [
            -103.32708000000001,
            20.68177
          ],
          [
            -103.32599,
            20.68177
          ],
          [
            -103.32563,
            20.68174
          ],
          [
            -103.32424,
            20.68165
          ],
          [
            -103.3229,
            20.68157
          ],
          [
            -103.32185000000001,
            20.681510000000003
          ],
          [
            -103.32149000000001,
            20.68139
          ],
          [
            -103.31965000000001,
            20.68083
          ],
          [
            -103.31874,
            20.68055
          ],
          [
            -103.31719000000001,
            20.68008
          ],
          [
            -103.31694,
            20.680000000000003
          ],
          [
            -103.31510000000002,
            20.679440000000003
          ],
          [
            -103.31329000000001,
            20.678890000000003
          ],
          [
            -103.31237,
            20.678610000000003
          ],
          [
            -103.31179,
            20.678430000000002
          ],
          [
            -103.31145000000001,
            20.678330000000003
          ],
          [
            -103.30961,
            20.677780000000002
          ],
          [
            -103.30868000000001,
            20.677490000000002
          ],
          [
            -103.30805000000001,
            20.677300000000002
          ],
          [
            -103.30683,
            20.676940000000002
          ],
          [
            -103.305,
            20.67638
          ],
          [
            -103.30434000000001,
            20.676180000000002
          ],
          [
            -103.30318000000001,
            20.67583
          ],
          [
            -103.30226,
            20.67555
          ],
          [
            -103.30157000000001,
            20.67535
          ],
          [
            -103.30132,
            20.67527
          ],
          [
            -103.29981000000001,
            20.67482
          ],
          [
            -103.29794000000001,
            20.67427
          ],
          [
            -103.29795000000001,
            20.67423
          ],
          [
            -103.29745000000001,
            20.674090000000003
          ],
          [
            -103.29703,
            20.674010000000003
          ],
          [
            -103.29694,
            20.674010000000003
          ],
          [
            -103.29655000000001,
            20.674000000000003
          ],
          [
            -103.29627,
            20.673990000000003
          ],
          [
            -103.29626,
            20.674020000000002
          ],
          [
            -103.29548000000001,
            20.67396
          ],
          [
            -103.29461,
            20.673930000000002
          ],
          [
            -103.29332000000001,
            20.67389
          ],
          [
            -103.29203000000001,
            20.67385
          ],
          [
            -103.29162000000001,
            20.673830000000002
          ],
          [
            -103.29075,
            20.673840000000002
          ],
          [
            -103.28960000000001,
            20.67385
          ],
          [
            -103.28805000000001,
            20.67385
          ],
          [
            -103.28771,
            20.67386
          ],
          [
            -103.28702000000001,
            20.673840000000002
          ],
          [
            -103.28581000000001,
            20.673810000000003
          ],
          [
            -103.28537000000001,
            20.6738
          ],
          [
            -103.28444,
            20.673820000000003
          ],
          [
            -103.28341,
            20.673840000000002
          ],
          [
            -103.28204000000001,
            20.67387
          ],
          [
            -103.28177000000001,
            20.67388
          ],
          [
            -103.27977000000001,
            20.673920000000003
          ],
          [
            -103.27811000000001,
            20.67425
          ],
          [
            -103.27811000000001,
            20.67425
          ],
          [
            -103.27755,
            20.674370000000003
          ],
          [
            -103.27653000000001,
            20.67462
          ],
          [
            -103.27521000000002,
            20.674940000000003
          ],
          [
            -103.27521000000002,
            20.674950000000003
          ],
          [
            -103.27473,
            20.67507
          ],
          [
            -103.27388,
            20.67529
          ],
          [
            -103.27351,
            20.67539
          ],
          [
            -103.27313000000001,
            20.676340000000003
          ],
          [
            -103.27286000000001,
            20.677010000000003
          ],
          [
            -103.27250000000001,
            20.67782
          ],
          [
            -103.27157000000001,
            20.678500000000003
          ],
          [
            -103.27137,
            20.67864
          ],
          [
            -103.27033000000002,
            20.6794
          ],
          [
            -103.27004000000001,
            20.67949
          ],
          [
            -103.26891,
            20.67986
          ],
          [
            -103.26831000000001,
            20.679640000000003
          ],
          [
            -103.26792,
            20.67923
          ],
          [
            -103.26771000000001,
            20.67902
          ],
          [
            -103.26696000000001,
            20.678320000000003
          ],
          [
            -103.26493,
            20.67764
          ],
          [
            -103.26490000000001,
            20.6777
          ],
          [
            -103.26372,
            20.677300000000002
          ],
          [
            -103.26345,
            20.67727
          ],
          [
            -103.26346000000001,
            20.677210000000002
          ],
          [
            -103.26234000000001,
            20.67708
          ],
          [
            -103.26126000000001,
            20.67696
          ],
          [
            -103.25985000000001,
            20.67699
          ],
          [
            -103.25886000000001,
            20.677020000000002
          ],
          [
            -103.25888,
            20.67726
          ],
          [
            -103.25888,
            20.67582
          ]
        ]
      }
    }
  ]
}