{
  "type": "FeatureCollection",
  "features": [
    {
      "type": "Feature",
      "properties": {
        "identifier": "380-3?o=2",
        "name": "Ruta 380"
      },
      "geometry": {
        "type": "LineString",
        "coordinates": [
          [
            -103.28783000000001,
            20.599770000000003
          ],
          [
            -103.28784,
            20.59974
          ],
          [
            -103.2882,
            20.59947
          ],
          [
            -103.28960000000001,
            20.598460000000003
          ],
          [
            -103.29036,
            20.597810000000003
          ],
          [
            -103.29128000000001,
            20.597150000000003
          ],
          [
            -103.29213000000001,
            20.596760000000003
          ],
          [
            -103.29267000000002,
            20.59645
          ],
          [
            -103.29333000000001,
            20.59643
          ],
          [
            -103.29384,
            20.59646
          ],
          [
            -103.29436000000001,
            20.59646
          ],
          [
            -103.29521000000001,
            20.596590000000003
          ],
          [
            -103.29878000000001,
            20.59684
          ],
          [
            -103.30217,
            20.59699
          ],
          [
            -103.30422000000002,
            20.59711
          ],
          [
            -103.30446,
            20.5971
          ],
          [
            -103.30568000000001,
            20.59694
          ],
          [
            -103.30646000000002,
            20.59664
          ],
          [
            -103.30694000000001,
            20.596580000000003
          ],
          [
            -103.31003000000001,
            20.596030000000003
          ],
          [
            -103.31542,
            20.594910000000002
          ],
          [
            -103.31575000000001,
            20.59484
          ],
          [
            -103.31594000000001,
            20.59477
          ],
          [
            -103.31651000000001,
            20.59449
          ],
          [
            -103.31668,
            20.59437
          ],
          [
            -103.32022,
            20.59156
          ],
          [
            -103.32212000000001,
            20.590300000000003
          ],
          [
            -103.32333000000001,
            20.589540000000003
          ],
          [
            -103.33141,
            20.585140000000003
          ],
          [
            -103.33419,
            20.58369
          ],
          [
            -103.33568000000001,
            20.582890000000003
          ],
          [
            -103.33696,
            20.582120000000003
          ],
          [
            -103.34391000000001,
            20.57833
          ],
          [
            -103.34694,
            20.576700000000002
          ],
          [
            -103.34776000000001,
            20.576230000000002
          ],
          [
            -103.34832000000002,
            20.57609
          ],
          [
            -103.34890000000001,
            20.576040000000003
          ],
          [
            -103.34955000000001,
            20.576040000000003
          ],
          [
            -103.35349000000001,
            20.57636
          ],
          [
            -103.35783,
            20.57665
          ],
          [
            -103.35913000000001,
            20.57682
          ],
          [
            -103.3597,
            20.57691
          ],
          [
            -103.3618,
            20.57747
          ],
          [
            -103.36242000000001,
            20.5777
          ],
          [
            -103.36321000000001,
            20.57794
          ],
          [
            -103.36615,
            20.57862
          ],
          [
            -103.37009,
            20.57963
          ],
          [
            -103.37107,
            20.57992
          ],
          [
            -103.37164000000001,
            20.58011
          ],
          [
            -103.37243000000001,
            20.580430000000003
          ],
          [
            -103.37485000000001,
            20.581670000000003
          ],
          [
            -103.37682000000001,
            20.582990000000002
          ],
          [
            -103.37783,
            20.583550000000002
          ],
          [
            -103.37902000000001,
            20.58417
          ],
          [
            -103.38116000000001,
            20.585420000000003
          ],
          [
            -103.38159,
            20.585710000000002
          ],
          [
            -103.38194000000001,
            20.586080000000003
          ],
          [
            -103.38229000000001,
            20.58648
          ],
          [
            -103.38347,
            20.58799
          ],
          [
            -103.38483000000001,
            20.58952
          ],
          [
            -103.38706,
            20.592180000000003
          ],
          [
            -103.39237000000001,
            20.598470000000002
          ],
          [
            -103.39580000000001,
            20.6016
          ],
          [
            -103.40041000000001,
            20.60575
          ],
          [
            -103.40085,
            20.60613
          ],
          [
            -103.40129,
            20.60647
          ],
          [
            -103.40172000000001,
            20.60675
          ],
          [
            -103.40196,
            20.606900000000003
          ],
          [
            -103.40220000000001,
            20.607010000000002
          ],
          [
            -103.40276000000001,
            20.607280000000003
          ],
          [
            -103.40337000000001,
            20.60752
          ],
          [
            -103.40725,
            20.60844
          ],
          [
            -103.41780000000001,
            20.611
          ],
          [
            -103.42159000000001,
            20.611890000000002
          ],
          [
            -103.42321000000001,
            20.612450000000003
          ],
          [
            -103.42468000000001,
            20.613400000000002
          ],
          [
            -103.42659,
            20.614510000000003
          ],
          [
            -103.42693000000001,
            20.614690000000003
          ],
          [
            -103.42753,
            20.615060000000003
          ],
          [
            -103.42789,
            20.6153
          ],
          [
            -103.42822000000001,
            20.6156
          ],
          [
            -103.42843,
            20.615830000000003
          ],
          [
            -103.42858000000001,
            20.61604
          ],
          [
            -103.42871000000001,
            20.61623
          ],
          [
            -103.42897,
            20.616670000000003
          ],
          [
            -103.42961000000001,
            20.617880000000003
          ],
          [
            -103.43322,
            20.624540000000003
          ],
          [
            -103.43392000000001,
            20.625860000000003
          ],
          [
            -103.43433,
            20.626710000000003
          ],
          [
            -103.43518,
            20.62871
          ],
          [
            -103.44340000000001,
            20.64846
          ],
          [
            -103.44770000000001,
            20.658720000000002
          ],
          [
            -103.45148,
            20.667820000000003
          ],
          [
            -103.45176000000001,
            20.66845
          ],
          [
            -103.45192000000002,
            20.66879
          ],
          [
            -103.4522,
            20.66925
          ],
          [
            -103.45259000000001,
            20.66976
          ],
          [
            -103.45433000000001,
            20.671850000000003
          ],
          [
            -103.45463000000001,
            20.67227
          ],
          [
            -103.45485000000001,
            20.672700000000003
          ],
          [
            -103.45497,
            20.672990000000002
          ],
          [
            -103.45506,
            20.673270000000002
          ],
          [
            -103.45513000000001,
            20.673710000000003
          ],
          [
            -103.45517000000001,
            20.67416
          ],
          [
            -103.45526000000001,
            20.68672
          ],
          [
            -103.45566000000001,
            20.69406
          ],
          [
            -103.45561000000001,
            20.694560000000003
          ],
          [
            -103.45556,
            20.69478
          ],
          [
            -103.45549000000001,
            20.695020000000003
          ],
          [
            -103.45526000000001,
            20.695500000000003
          ],
          [
            -103.45504000000001,
            20.69584
          ],
          [
            -103.45196000000001,
            20.699640000000002
          ],
          [
            -103.44614000000001,
            20.70691
          ],
          [
            -103.44597,
            20.70711
          ],
          [
            -103.44565000000001,
            20.707420000000003
          ],
          [
            -103.44526,
            20.707710000000002
          ],
          [
            -103.44502000000001,
            20.707870000000003
          ],
          [
            -103.44443000000001,
            20.708160000000003
          ],
          [
            -103.43277,
            20.713510000000003
          ],
          [
            -103.43051000000001,
            20.714530000000003
          ],
          [
            -103.43004,
            20.71479
          ],
          [
            -103.42955,
            20.715120000000002
          ],
          [
            -103.42882,
            20.715750000000003
          ],
          [
            -103.42845000000001,
            20.7161
          ],
          [
            -103.41893,
            20.72472
          ],
          [
            -103.41797000000001,
            20.725610000000003
          ],
          [
            -103.41598,
            20.727410000000003
          ],
          [
            -103.41545,
            20.727880000000003
          ],
          [
            -103.41508,
            20.72785
          ],
          [
            -103.41290000000001,
            20.72982
          ],
          [
            -103.41098000000001,
            20.731630000000003
          ],
          [
            -103.40649,
            20.735660000000003
          ],
          [
            -103.40474,
            20.73722
          ],
          [
            -103.40419000000001,
            20.73769
          ],
          [
            -103.40392000000001,
            20.737740000000002
          ],
          [
            -103.40332000000001,
            20.7378
          ],
          [
            -103.40251,
            20.737640000000003
          ],
          [
            -103.40139,
            20.736800000000002
          ],
          [
            -103.40200000000002,
            20.737260000000003
          ],
          [
            -103.40206,
            20.738380000000003
          ],
          [
            -103.40214,
            20.7391
          ],
          [
            -103.40209000000002,
            20.73935
          ],
          [
            -103.40192,
            20.739590000000003
          ],
          [
            -103.40164000000001,
            20.73977
          ],
          [
            -103.40142,
            20.73994
          ],
          [
            -103.40115000000002,
            20.7401
          ],
          [
            -103.39948000000001,
            20.740150000000003
          ],
          [
            -103.38742,
            20.74042
          ],
          [
            -103.38666,
            20.74041
          ],
          [
            -103.38605000000001,
            20.740340000000003
          ],
          [
            -103.38563,
            20.740260000000003
          ],
          [
            -103.37858000000001,
            20.738370000000003
          ],
          [
            -103.37525000000001,
            20.737440000000003
          ],
          [
            -103.37036,
            20.73626
          ],
          [
            -103.36789,
            20.73561
          ],
          [
            -103.36321000000001,
            20.734250000000003
          ],
          [
            -103.35340000000001,
            20.73159
          ],
          [
            -103.34756,
            20.72941
          ],
          [
            -103.34349,
            20.72791
          ],
          [
            -103.34034000000001,
            20.726760000000002
          ],
          [
            -103.33697000000001,
            20.7255
          ],
          [
            -103.33587000000001,
            20.725060000000003
          ],
          [
            -103.33341000000001,
            20.724210000000003
          ],
          [
            -103.33070000000001,
            20.723170000000003
          ],
          [
            -103.32708000000001,
            20.721850000000003
          ],
          [
            -103.32568,
            20.72128
          ],
          [
            -103.32418000000001,
            20.72071
          ],
          [
            -103.32378000000001,
            20.72059
          ],
          [
            -103.32320000000001,
            20.720560000000003
          ],
          [
            -103.32274000000001,
            20.72062
          ],
          [
            -103.32202000000001,
            20.720850000000002
          ],
          [
            -103.32086000000001,
            20.72118
          ],
          [
            -103.32058,
            20.72124
          ],
          [
            -103.31977,
            20.72135
          ],
          [
            -103.31868000000001,
            20.72137
          ],
          [
            -103.31774000000001,
            20.72119
          ],
          [
            -103.31704,
            20.721010000000003
          ],
          [
            -103.31127000000001,
            20.718290000000003
          ],
          [
            -103.31015000000001,
            20.717720000000003
          ],
          [
            -103.30522,
            20.715300000000003
          ],
          [
            -103.30255000000001,
            20.71396
          ],
          [
            -103.30204,
            20.71374
          ],
          [
            -103.30067000000001,
            20.71302
          ],
          [
            -103.30016,
            20.712770000000003
          ],
          [
            -103.29948,
            20.71262
          ],
          [
            -103.29777000000001,
            20.712490000000003
          ],
          [
            -103.29611000000001,
            20.71251
          ],
          [
            -103.29519,
            20.712490000000003
          ],
          [
            -103.29398,
            20.71246
          ],
          [
            -103.29348,
            20.712470000000003
          ],
          [
            -103.28886000000001,
            20.71237
          ],
          [
            -103.28847,
            20.712310000000002
          ],
          [
            -103.28829,
            20.71226
          ],
          [
            -103.28793,
            20.71207
          ],
          [
            -103.28771,
            20.71187
          ],
          [
            -103.28757,
            20.7117
          ],
          [
            -103.28746000000001,
            20.71151
          ],
          [
            -103.28739,
            20.71133
          ],
          [
            -103.28670000000001,
            20.708540000000003
          ],
          [
            -103.28654,
            20.70784
          ],
          [
            -103.28644000000001,
            20.707500000000003
          ],
          [
            -103.28629000000001,
            20.706760000000003
          ],
          [
            -103.28602000000001,
            20.7056
          ],
          [
            -103.28584000000001,
            20.7051
          ],
          [
            -103.28576000000001,
            20.70495
          ],
          [
            -103.28545000000001,
            20.704500000000003
          ],
          [
            -103.28521,
            20.70426
          ],
          [
            -103.28494,
            20.704040000000003
          ],
          [
            -103.28466,
            20.703860000000002
          ],
          [
            -103.28446000000001,
            20.703760000000003
          ],
          [
            -103.28414000000001,
            20.703650000000003
          ],
          [
            -103.28387000000001,
            20.703580000000002
          ],
          [
            -103.28352000000001,
            20.70354
          ],
          [
            -103.28198,
            20.703390000000002
          ],
          [
            -103.28150000000001,
            20.70313
          ],
          [
            -103.27981000000001,
            20.701610000000002
          ],
          [
            -103.27541000000001,
            20.69761
          ],
          [
            -103.27289,
            20.69538
          ],
          [
            -103.27153000000001,
            20.6945
          ],
          [
            -103.27006000000002,
            20.693720000000003
          ],
          [
            -103.26612000000002,
            20.691470000000002
          ],
          [
            -103.26376,
            20.690160000000002
          ],
          [
            -103.26252000000001,
            20.689400000000003
          ],
          [
            -103.26187,
            20.688930000000003
          ],
          [
            -103.26064000000001,
            20.687900000000003
          ],
          [
            -103.25942,
            20.687060000000002
          ],
          [
            -103.25635000000001,
            20.6859
          ],
          [
            -103.25566,
            20.68552
          ],
          [
            -103.25349000000001,
            20.68412
          ],
          [
            -103.25259000000001,
            20.68364
          ],
          [
            -103.25191000000001,
            20.68355
          ],
          [
            -103.2514,
            20.68354
          ],
          [
            -103.25108,
            20.683580000000003
          ],
          [
            -103.24799,
            20.68438
          ],
          [
            -103.24752000000001,
            20.684430000000003
          ],
          [
            -103.24687000000002,
            20.6843
          ],
          [
            -103.24641000000001,
            20.68411
          ],
          [
            -103.24569000000001,
            20.683580000000003
          ],
          [
            -103.24544,
            20.68334
          ],
          [
            -103.24443000000001,
            20.682250000000003
          ],
          [
            -103.23959,
            20.67733
          ],
          [
            -103.23832,
            20.67594
          ],
          [
            -103.23766,
            20.67498
          ],
          [
            -103.23733000000001,
            20.67432
          ],
          [
            -103.23693000000002,
            20.673430000000003
          ],
          [
            -103.23473000000001,
            20.66843
          ],
          [
            -103.23244000000001,
            20.66329
          ],
          [
            -103.23227000000001,
            20.6628
          ],
          [
            -103.23212000000001,
            20.66221
          ],
          [
            -103.23207000000001,
            20.66175
          ],
          [
            -103.23209000000001,
            20.660670000000003
          ],
          [
            -103.23221000000001,
            20.660120000000003
          ],
          [
            -103.23377,
            20.655230000000003
          ],
          [
            -103.23454000000001,
            20.65274
          ],
          [
            -103.23721,
            20.64439
          ],
          [
            -103.23745000000001,
            20.643880000000003
          ],
          [
            -103.23798000000001,
            20.643210000000003
          ],
          [
            -103.23833,
            20.6429
          ],
          [
            -103.24223,
            20.640410000000003
          ],
          [
            -103.24267,
            20.64009
          ],
          [
            -103.24291000000001,
            20.6398
          ],
          [
            -103.24311,
            20.63933
          ],
          [
            -103.24346000000001,
            20.63635
          ],
          [
            -103.24367000000001,
            20.63409
          ],
          [
            -103.24390000000001,
            20.632630000000002
          ],
          [
            -103.24409000000001,
            20.63204
          ],
          [
            -103.24589,
            20.626050000000003
          ],
          [
            -103.24652,
            20.62402
          ],
          [
            -103.24700000000001,
            20.622390000000003
          ],
          [
            -103.24762000000001,
            20.62039
          ],
          [
            -103.24807000000001,
            20.61879
          ],
          [
            -103.25243,
            20.618530000000003
          ],
          [
            -103.25537000000001,
            20.61831
          ],
          [
            -103.26015000000001,
            20.617990000000002
          ],
          [
            -103.2604,
            20.617990000000002
          ],
          [
            -103.26131000000001,
            20.618460000000002
          ],
          [
            -103.26164000000001,
            20.618550000000003
          ],
          [
            -103.26186000000001,
            20.618550000000003
          ],
          [
            -103.26213000000001,
            20.6185
          ],
          [
            -103.26235000000001,
            20.618360000000003
          ],
          [
            -103.26299,
            20.61765
          ],
          [
            -103.26329000000001,
            20.61748
          ],
          [
            -103.26373000000001,
            20.61748
          ],
          [
            -103.26469,
            20.61766
          ],
          [
            -103.26769,
            20.61747
          ],
          [
            -103.26836000000002,
            20.6174
          ],
          [
            -103.27233000000001,
            20.617140000000003
          ],
          [
            -103.27262,
            20.6171
          ],
          [
            -103.27279000000001,
            20.617140000000003
          ],
          [
            -103.27316,
            20.617130000000003
          ],
          [
            -103.2767,
            20.61691
          ],
          [
            -103.27860000000001,
            20.616760000000003
          ],
          [
            -103.28000000000002,
            20.61671
          ],
          [
            -103.28091,
            20.616660000000003
          ],
          [
            -103.28188000000002,
            20.61673
          ],
          [
            -103.28245000000001,
            20.616680000000002
          ],
          [
            -103.2826,
            20.61663
          ],
          [
            -103.28271000000001,
            20.61653
          ],
          [
            -103.28307000000001,
            20.616470000000003
          ],
          [
            -103.28340000000001,
            20.61644
          ],
          [
            -103.28428000000001,
            20.61654
          ],
          [
            -103.28488000000002,
            20.61663
          ],
          [
            -103.28509000000001,
            20.616600000000002
          ],
          [
            -103.2852,
            20.61651
          ],
          [
            -103.28528000000001,
            20.61618
          ],
          [
            -103.28483000000001,
            20.61552
          ],
          [
            -103.28449,
            20.61505
          ],
          [
            -103.28518000000001,
            20.61391
          ],
          [
            -103.28551,
            20.613300000000002
          ],
          [
            -103.28556,
            20.613090000000003
          ],
          [
            -103.28573000000002,
            20.611970000000003
          ],
          [
            -103.28590000000001,
            20.610560000000003
          ],
          [
            -103.28598000000001,
            20.610200000000003
          ],
          [
            -103.28733000000001,
            20.606630000000003
          ],
          [
            -103.28745,
            20.60527
          ],
          [
            -103.28772000000001,
            20.60534
          ],
          [
            -103.28880000000001,
            20.60553
          ],
          [
            -103.28946,
            20.60567
          ],
          [
            -103.28948000000001,
            20.605400000000003
          ],
          [
            -103.28943000000001,
            20.604670000000002
          ],
          [
            -103.28928,
            20.603250000000003
          ],
          [
            -103.28928,
            20.60311
          ],
          [
            -103.28918,
            20.60217
          ],
          [
            -103.28913000000001,
            20.60152
          ],
          [
            -103.28915,
            20.601750000000003
          ],
          [
            -103.28851,
            20.601550000000003
          ],
          [
            -103.28785,
            20.60141
          ],
          [
            -103.28761000000002,
            20.60132
          ],
          [
            -103.28751000000001,
            20.601180000000003
          ],
          [
            -103.28748,
            20.60103
          ],
          [
            -103.28751000000001,
            20.60088
          ],
          [
            -103.28761000000002,
            20.600730000000002
          ],
          [
            -103.28774000000001,
            20.60059
          ],
          [
            -103.28814000000001,
            20.60031
          ],
          [
            -103.28844000000001,
            20.600160000000002
          ],
          [
            -103.28859000000001,
            20.600060000000003
          ],
          [
            -103.28868000000001,
            20.59994
          ],
          [
            -103.28865,
            20.599860000000003
          ],
          [
            -103.28851,
            20.59983
          ],
          [
            -103.28831000000001,
            20.59984
          ],
          [
            -103.28794,
            20.59982
          ],
          [
            -103.28783000000001,
            20.599770000000003
          ],
          [
            -103.28783000000001,
            20.59833
          ]
        ]
      }
    }
  ]
}