{
  "type": "FeatureCollection",
  "features": [
    {
      "type": "Feature",
      "properties": {
        "identifier": "45-a-via-tetlan",
        "name": "Ruta 45 A Vía Tetlán"
      },
      "geometry": {
        "type": "LineString",
        "coordinates": [
          [
            -103.35577,
            20.67272
          ],
          [
            -103.35356,
            20.67275
          ],
          [
            -103.35247000000001,
            20.672780000000003
          ],
          [
            -103.34958,
            20.672800000000002
          ],
          [
            -103.34551,
            20.672890000000002
          ],
          [
            -103.34524,
            20.672870000000003
          ],
          [
            -103.34441000000001,
            20.67265
          ],
          [
            -103.34372,
            20.67244
          ],
          [
            -103.34341,
            20.672320000000003
          ],
          [
            -103.34328000000001,
            20.67258
          ],
          [
            -103.34264,
            20.67227
          ],
          [
            -103.34140000000001,
            20.67163
          ],
          [
            -103.3405,
            20.67133
          ],
          [
            -103.34085,
            20.670170000000002
          ],
          [
            -103.33807,
            20.66918
          ],
          [
            -103.33503,
            20.668000000000003
          ],
          [
            -103.33117000000001,
            20.66656
          ],
          [
            -103.33040000000001,
            20.666310000000003
          ],
          [
            -103.32660000000001,
            20.66497
          ],
          [
            -103.32570000000001,
            20.664630000000002
          ],
          [
            -103.32463000000001,
            20.664260000000002
          ],
          [
            -103.32149000000001,
            20.66315
          ],
          [
            -103.31922,
            20.662360000000003
          ],
          [
            -103.31833,
            20.66203
          ],
          [
            -103.31660000000001,
            20.661430000000003
          ],
          [
            -103.31564,
            20.66112
          ],
          [
            -103.31672,
            20.65792
          ],
          [
            -103.31053000000001,
            20.654680000000003
          ],
          [
            -103.30993000000001,
            20.65773
          ],
          [
            -103.30988,
            20.658890000000003
          ],
          [
            -103.30988,
            20.659000000000002
          ],
          [
            -103.30646000000002,
            20.65753
          ],
          [
            -103.30568000000001,
            20.65718
          ],
          [
            -103.3023,
            20.655900000000003
          ],
          [
            -103.30205000000001,
            20.655800000000003
          ],
          [
            -103.29963000000001,
            20.65493
          ],
          [
            -103.29791,
            20.65428
          ],
          [
            -103.29708000000001,
            20.653940000000002
          ],
          [
            -103.29444000000001,
            20.652990000000003
          ],
          [
            -103.29421,
            20.65332
          ],
          [
            -103.29361000000002,
            20.657300000000003
          ],
          [
            -103.28815,
            20.656560000000002
          ],
          [
            -103.28451000000001,
            20.656090000000003
          ],
          [
            -103.28315,
            20.65586
          ],
          [
            -103.28121,
            20.655690000000003
          ],
          [
            -103.27824000000001,
            20.65546
          ],
          [
            -103.27804,
            20.656910000000003
          ],
          [
            -103.27787000000001,
            20.65793
          ],
          [
            -103.27773,
            20.65913
          ],
          [
            -103.27774000000001,
            20.65921
          ],
          [
            -103.27765000000001,
            20.66
          ],
          [
            -103.26969000000001,
            20.65906
          ],
          [
            -103.26987000000001,
            20.657610000000002
          ],
          [
            -103.26965000000001,
            20.65752
          ],
          [
            -103.26937000000001,
            20.65752
          ],
          [
            -103.26877,
            20.65733
          ],
          [
            -103.26864,
            20.657310000000003
          ],
          [
            -103.26759000000001,
            20.65726
          ],
          [
            -103.26753000000001,
            20.657210000000003
          ],
          [
            -103.26743,
            20.65724
          ],
          [
            -103.26696000000001,
            20.65726
          ],
          [
            -103.26496,
            20.657220000000002
          ],
          [
            -103.26492,
            20.65718
          ],
          [
            -103.26499000000001,
            20.656650000000003
          ],
          [
            -103.26317,
            20.65649
          ],
          [
            -103.26087000000001,
            20.65633
          ],
          [
            -103.26094,
            20.65549
          ],
          [
            -103.26103,
            20.6536
          ],
          [
            -103.25977,
            20.653470000000002
          ],
          [
            -103.25857,
            20.65339
          ],
          [
            -103.25776,
            20.653370000000002
          ],
          [
            -103.25594000000001,
            20.653270000000003
          ],
          [
            -103.25146000000001,
            20.65312
          ],
          [
            -103.25145,
            20.653070000000003
          ],
          [
            -103.25147000000001,
            20.65293
          ],
          [
            -103.25067000000001,
            20.65284
          ],
          [
            -103.24983,
            20.65278
          ],
          [
            -103.24960000000002,
            20.652800000000003
          ],
          [
            -103.24938,
            20.652890000000003
          ],
          [
            -103.24926,
            20.652990000000003
          ],
          [
            -103.24836,
            20.653640000000003
          ],
          [
            -103.24797000000001,
            20.653850000000002
          ],
          [
            -103.24739000000001,
            20.65426
          ],
          [
            -103.24734000000001,
            20.65435
          ],
          [
            -103.24713000000001,
            20.65399
          ],
          [
            -103.24741,
            20.651500000000002
          ],
          [
            -103.24741,
            20.650060000000003
          ]
        ]
      }
    }
  ]
}