{
  "type": "FeatureCollection",
  "features": [
    {
      "type": "Feature",
      "properties": {
        "identifier": "45-via-nuevo-zalatitan",
        "name": "Ruta 45 Vía Nuevo Zalatitán"
      },
      "geometry": {
        "type": "LineString",
        "coordinates": [
          [
            -103.35220000000001,
            20.672780000000003
          ],
          [
            -103.35159,
            20.672780000000003
          ],
          [
            -103.35045000000001,
            20.672790000000003
          ],
          [
            -103.35045000000001,
            20.672790000000003
          ],
          [
            -103.35045000000001,
            20.672790000000003
          ],
          [
            -103.34845000000001,
            20.672810000000002
          ],
          [
            -103.34845000000001,
            20.67274
          ],
          [
            -103.34691000000001,
            20.672770000000003
          ],
          [
            -103.34692000000001,
            20.672890000000002
          ],
          [
            -103.34653000000002,
            20.67292
          ],
          [
            -103.34524,
            20.67284
          ],
          [
            -103.34499000000001,
            20.672770000000003
          ],
          [
            -103.34499000000001,
            20.67284
          ],
          [
            -103.34331,
            20.672600000000003
          ],
          [
            -103.34297000000001,
            20.672430000000002
          ],
          [
            -103.34169000000001,
            20.6718
          ],
          [
            -103.34171,
            20.671760000000003
          ],
          [
            -103.34140000000001,
            20.67161
          ],
          [
            -103.33955,
            20.67097
          ],
          [
            -103.33844,
            20.67059
          ],
          [
            -103.33773000000001,
            20.670350000000003
          ],
          [
            -103.33771000000002,
            20.670440000000003
          ],
          [
            -103.33737,
            20.67189
          ],
          [
            -103.33724000000001,
            20.672420000000002
          ],
          [
            -103.33692,
            20.672320000000003
          ],
          [
            -103.3361,
            20.67209
          ],
          [
            -103.3353,
            20.671860000000002
          ],
          [
            -103.33453000000002,
            20.671650000000003
          ],
          [
            -103.33356,
            20.671380000000003
          ],
          [
            -103.33135000000001,
            20.67076
          ],
          [
            -103.33114,
            20.670710000000003
          ],
          [
            -103.32964000000001,
            20.670250000000003
          ],
          [
            -103.32959000000001,
            20.67023
          ],
          [
            -103.32856000000001,
            20.66994
          ],
          [
            -103.32831,
            20.670620000000003
          ],
          [
            -103.32735000000001,
            20.673530000000003
          ],
          [
            -103.32707,
            20.67348
          ],
          [
            -103.32598000000002,
            20.673250000000003
          ],
          [
            -103.32571000000002,
            20.67319
          ],
          [
            -103.32570000000001,
            20.67319
          ],
          [
            -103.32468000000001,
            20.672970000000003
          ],
          [
            -103.3246,
            20.67321
          ],
          [
            -103.32452,
            20.673450000000003
          ],
          [
            -103.32454000000001,
            20.673460000000002
          ],
          [
            -103.32421000000001,
            20.674460000000003
          ],
          [
            -103.32418000000001,
            20.67445
          ],
          [
            -103.32417000000001,
            20.674460000000003
          ],
          [
            -103.32389,
            20.67527
          ],
          [
            -103.32271000000001,
            20.67492
          ],
          [
            -103.32271000000001,
            20.67491
          ],
          [
            -103.32181000000001,
            20.674660000000003
          ],
          [
            -103.32089,
            20.674370000000003
          ],
          [
            -103.32089,
            20.67436
          ],
          [
            -103.31996000000001,
            20.674090000000003
          ],
          [
            -103.31995,
            20.674090000000003
          ],
          [
            -103.31814000000001,
            20.673530000000003
          ],
          [
            -103.31813000000001,
            20.673530000000003
          ],
          [
            -103.31720000000001,
            20.673240000000003
          ],
          [
            -103.31720000000001,
            20.67323
          ],
          [
            -103.31541000000001,
            20.672690000000003
          ],
          [
            -103.31541000000001,
            20.672680000000003
          ],
          [
            -103.31450000000001,
            20.672400000000003
          ],
          [
            -103.31449,
            20.672420000000002
          ],
          [
            -103.31378000000001,
            20.672210000000003
          ],
          [
            -103.31267000000001,
            20.671840000000003
          ],
          [
            -103.31176,
            20.67154
          ],
          [
            -103.31175,
            20.671560000000003
          ],
          [
            -103.31109000000001,
            20.671370000000003
          ],
          [
            -103.31083000000001,
            20.671290000000003
          ],
          [
            -103.31085,
            20.67126
          ],
          [
            -103.30902,
            20.670710000000003
          ],
          [
            -103.30766000000001,
            20.67031
          ],
          [
            -103.30743000000001,
            20.670250000000003
          ],
          [
            -103.30627000000001,
            20.669900000000002
          ],
          [
            -103.30626000000001,
            20.66991
          ],
          [
            -103.30534000000002,
            20.66965
          ],
          [
            -103.30534000000002,
            20.66964
          ],
          [
            -103.30469000000001,
            20.66946
          ],
          [
            -103.30380000000001,
            20.669140000000002
          ],
          [
            -103.30354000000001,
            20.66906
          ],
          [
            -103.30353000000001,
            20.66906
          ],
          [
            -103.30263000000001,
            20.66879
          ],
          [
            -103.30236000000001,
            20.668750000000003
          ],
          [
            -103.30236000000001,
            20.668740000000003
          ],
          [
            -103.30128,
            20.66861
          ],
          [
            -103.30056,
            20.668480000000002
          ],
          [
            -103.30014000000001,
            20.668480000000002
          ],
          [
            -103.29988,
            20.668460000000003
          ],
          [
            -103.29960000000001,
            20.66843
          ],
          [
            -103.29960000000001,
            20.66842
          ],
          [
            -103.29780000000001,
            20.66823
          ],
          [
            -103.29780000000001,
            20.66822
          ],
          [
            -103.29732000000001,
            20.668180000000003
          ],
          [
            -103.29684,
            20.668120000000002
          ],
          [
            -103.29637000000001,
            20.667990000000003
          ],
          [
            -103.29637000000001,
            20.66797
          ],
          [
            -103.29473000000002,
            20.66775
          ],
          [
            -103.29325000000001,
            20.667550000000002
          ],
          [
            -103.29194000000001,
            20.66738
          ],
          [
            -103.29165,
            20.667330000000003
          ],
          [
            -103.29024000000001,
            20.66711
          ],
          [
            -103.28869,
            20.666880000000003
          ],
          [
            -103.28714000000001,
            20.66664
          ],
          [
            -103.28675000000001,
            20.666590000000003
          ],
          [
            -103.28541000000001,
            20.66665
          ],
          [
            -103.28445,
            20.666510000000002
          ],
          [
            -103.28237000000001,
            20.666230000000002
          ],
          [
            -103.28074000000001,
            20.66601
          ],
          [
            -103.2797,
            20.665850000000002
          ],
          [
            -103.27837000000001,
            20.665650000000003
          ],
          [
            -103.27837000000001,
            20.66562
          ],
          [
            -103.27801000000001,
            20.665570000000002
          ],
          [
            -103.27746,
            20.6655
          ],
          [
            -103.27717000000001,
            20.665450000000003
          ],
          [
            -103.27717000000001,
            20.665480000000002
          ],
          [
            -103.27666,
            20.66543
          ],
          [
            -103.27705,
            20.662540000000003
          ],
          [
            -103.27725000000001,
            20.66185
          ],
          [
            -103.27736,
            20.660410000000002
          ],
          [
            -103.27761000000001,
            20.66
          ],
          [
            -103.27694000000001,
            20.659860000000002
          ],
          [
            -103.27284,
            20.65943
          ],
          [
            -103.27078,
            20.659200000000002
          ],
          [
            -103.26971,
            20.65905
          ],
          [
            -103.26972,
            20.658790000000003
          ],
          [
            -103.26987000000001,
            20.657580000000003
          ],
          [
            -103.26967,
            20.65754
          ],
          [
            -103.26956000000001,
            20.65745
          ],
          [
            -103.26879000000001,
            20.657290000000003
          ],
          [
            -103.26754000000001,
            20.657200000000003
          ],
          [
            -103.26753000000001,
            20.657510000000002
          ],
          [
            -103.26758000000001,
            20.65791
          ],
          [
            -103.26779,
            20.65897
          ],
          [
            -103.26816000000001,
            20.659840000000003
          ],
          [
            -103.26771000000001,
            20.663870000000003
          ],
          [
            -103.26744000000001,
            20.66467
          ],
          [
            -103.26548000000001,
            20.66704
          ],
          [
            -103.26396000000001,
            20.667810000000003
          ],
          [
            -103.26369000000001,
            20.668660000000003
          ],
          [
            -103.26411,
            20.669700000000002
          ],
          [
            -103.2642,
            20.670450000000002
          ],
          [
            -103.26315000000001,
            20.67039
          ],
          [
            -103.26218000000001,
            20.670330000000003
          ],
          [
            -103.26066,
            20.670180000000002
          ],
          [
            -103.26065000000001,
            20.67019
          ],
          [
            -103.26033000000001,
            20.67107
          ],
          [
            -103.26033000000001,
            20.671110000000002
          ],
          [
            -103.26026,
            20.671760000000003
          ],
          [
            -103.25657000000001,
            20.671770000000002
          ],
          [
            -103.25667000000001,
            20.672220000000003
          ],
          [
            -103.25683000000001,
            20.67217
          ],
          [
            -103.25712000000001,
            20.67312
          ],
          [
            -103.25743000000001,
            20.67416
          ],
          [
            -103.25760000000001,
            20.675710000000002
          ],
          [
            -103.25764000000001,
            20.67624
          ],
          [
            -103.25764000000001,
            20.67714
          ],
          [
            -103.25770000000001,
            20.67868
          ],
          [
            -103.25786000000001,
            20.680560000000003
          ],
          [
            -103.25799,
            20.68212
          ],
          [
            -103.25819000000001,
            20.68429
          ],
          [
            -103.25819000000001,
            20.682850000000002
          ]
        ]
      }
    }
  ]
}