{
  "type": "FeatureCollection",
  "features": [
    {
      "type": "Feature",
      "properties": {
        "identifier": "45-via-vallarta?o=2",
        "name": "Ruta 45 Vía Vallarta"
      },
      "geometry": {
        "type": "LineString",
        "coordinates": [
          [
            -103.44914000000001,
            20.666310000000003
          ],
          [
            -103.44927000000001,
            20.66681
          ],
          [
            -103.44927000000001,
            20.66758
          ],
          [
            -103.44969,
            20.668020000000002
          ],
          [
            -103.4504,
            20.67029
          ],
          [
            -103.45027,
            20.670370000000002
          ],
          [
            -103.45022,
            20.67049
          ],
          [
            -103.45024000000001,
            20.670620000000003
          ],
          [
            -103.45045,
            20.67087
          ],
          [
            -103.45064,
            20.67219
          ],
          [
            -103.45097000000001,
            20.67427
          ],
          [
            -103.45093000000001,
            20.67436
          ],
          [
            -103.45074000000001,
            20.67454
          ],
          [
            -103.45068,
            20.674770000000002
          ],
          [
            -103.45070000000001,
            20.67499
          ],
          [
            -103.44779000000001,
            20.677290000000003
          ],
          [
            -103.44784000000001,
            20.677500000000002
          ],
          [
            -103.45002000000001,
            20.67924
          ],
          [
            -103.45105000000001,
            20.680030000000002
          ],
          [
            -103.45182000000001,
            20.681150000000002
          ],
          [
            -103.45263000000001,
            20.682660000000002
          ],
          [
            -103.44891000000001,
            20.68438
          ],
          [
            -103.44873000000001,
            20.68431
          ],
          [
            -103.44855000000001,
            20.68429
          ],
          [
            -103.44835,
            20.684330000000003
          ],
          [
            -103.44537000000001,
            20.682010000000002
          ],
          [
            -103.44539,
            20.681800000000003
          ],
          [
            -103.44536000000001,
            20.68159
          ],
          [
            -103.44520000000001,
            20.681420000000003
          ],
          [
            -103.44505000000001,
            20.68137
          ],
          [
            -103.44487000000001,
            20.681340000000002
          ],
          [
            -103.44470000000001,
            20.681410000000003
          ],
          [
            -103.44459,
            20.681510000000003
          ],
          [
            -103.44455,
            20.681600000000003
          ],
          [
            -103.44452000000001,
            20.681810000000002
          ],
          [
            -103.44458,
            20.681970000000003
          ],
          [
            -103.44481,
            20.68214
          ],
          [
            -103.44466000000001,
            20.683690000000002
          ],
          [
            -103.44455,
            20.683980000000002
          ],
          [
            -103.44437,
            20.68431
          ],
          [
            -103.44421000000001,
            20.684520000000003
          ],
          [
            -103.44405,
            20.68464
          ],
          [
            -103.44269000000001,
            20.685280000000002
          ],
          [
            -103.43978000000001,
            20.68306
          ],
          [
            -103.43913,
            20.68262
          ],
          [
            -103.43809,
            20.68233
          ],
          [
            -103.43028000000001,
            20.68065
          ],
          [
            -103.42914,
            20.68042
          ],
          [
            -103.42450000000001,
            20.67941
          ],
          [
            -103.42218000000001,
            20.678890000000003
          ],
          [
            -103.41719,
            20.677840000000003
          ],
          [
            -103.41465000000001,
            20.6762
          ],
          [
            -103.41390000000001,
            20.675600000000003
          ],
          [
            -103.41317000000001,
            20.67516
          ],
          [
            -103.41310000000001,
            20.675140000000003
          ],
          [
            -103.41304000000001,
            20.675140000000003
          ],
          [
            -103.41294,
            20.67519
          ],
          [
            -103.41289,
            20.67526
          ],
          [
            -103.41286000000001,
            20.675400000000003
          ],
          [
            -103.41289,
            20.67547
          ],
          [
            -103.41396,
            20.67613
          ],
          [
            -103.41403000000001,
            20.676250000000003
          ],
          [
            -103.41408000000001,
            20.676360000000003
          ],
          [
            -103.4141,
            20.67649
          ],
          [
            -103.41404000000001,
            20.67679
          ],
          [
            -103.41395000000001,
            20.676930000000002
          ],
          [
            -103.41377000000001,
            20.67705
          ],
          [
            -103.41103000000001,
            20.67651
          ],
          [
            -103.40315000000001,
            20.67488
          ],
          [
            -103.40091000000001,
            20.674470000000003
          ],
          [
            -103.40032000000001,
            20.67442
          ],
          [
            -103.39738000000001,
            20.674390000000002
          ],
          [
            -103.39709,
            20.67445
          ],
          [
            -103.39354,
            20.674460000000003
          ],
          [
            -103.39171,
            20.67441
          ],
          [
            -103.38879000000001,
            20.674460000000003
          ],
          [
            -103.38876,
            20.67425
          ],
          [
            -103.38869000000001,
            20.674000000000003
          ],
          [
            -103.38858,
            20.67376
          ],
          [
            -103.38841000000001,
            20.673550000000002
          ],
          [
            -103.38821000000002,
            20.67339
          ],
          [
            -103.38793000000001,
            20.673250000000003
          ],
          [
            -103.38775000000001,
            20.67319
          ],
          [
            -103.38737,
            20.67312
          ],
          [
            -103.38723,
            20.67313
          ],
          [
            -103.38684,
            20.67322
          ],
          [
            -103.38586000000001,
            20.673820000000003
          ],
          [
            -103.38563,
            20.6736
          ],
          [
            -103.38550000000001,
            20.6735
          ],
          [
            -103.38532000000001,
            20.6734
          ],
          [
            -103.38514,
            20.673340000000003
          ],
          [
            -103.38498000000001,
            20.67331
          ],
          [
            -103.37747,
            20.67329
          ],
          [
            -103.37725,
            20.673460000000002
          ],
          [
            -103.37708,
            20.6735
          ],
          [
            -103.37618,
            20.673520000000003
          ],
          [
            -103.37374000000001,
            20.67359
          ],
          [
            -103.37259,
            20.673640000000002
          ],
          [
            -103.37163000000001,
            20.673640000000002
          ],
          [
            -103.37056000000001,
            20.67368
          ],
          [
            -103.36722,
            20.67376
          ],
          [
            -103.36503,
            20.67385
          ],
          [
            -103.36067000000001,
            20.67396
          ],
          [
            -103.36045000000001,
            20.673990000000003
          ],
          [
            -103.36014000000002,
            20.67398
          ],
          [
            -103.35854,
            20.674010000000003
          ],
          [
            -103.35643,
            20.674090000000003
          ],
          [
            -103.35473,
            20.674180000000003
          ],
          [
            -103.35353,
            20.674180000000003
          ],
          [
            -103.3515,
            20.67424
          ],
          [
            -103.35144000000001,
            20.67501
          ],
          [
            -103.35145000000001,
            20.67576
          ],
          [
            -103.35139000000001,
            20.67648
          ],
          [
            -103.35139000000001,
            20.67727
          ],
          [
            -103.35132000000002,
            20.678700000000003
          ],
          [
            -103.35128,
            20.680210000000002
          ],
          [
            -103.35119,
            20.68187
          ],
          [
            -103.35034,
            20.68186
          ],
          [
            -103.34923,
            20.681900000000002
          ],
          [
            -103.34529,
            20.68193
          ],
          [
            -103.34216,
            20.682000000000002
          ],
          [
            -103.34203000000001,
            20.68213
          ],
          [
            -103.34177000000001,
            20.682460000000003
          ],
          [
            -103.34103,
            20.68299
          ],
          [
            -103.34089,
            20.683120000000002
          ],
          [
            -103.34079000000001,
            20.68325
          ],
          [
            -103.34044000000002,
            20.683780000000002
          ],
          [
            -103.34031,
            20.684060000000002
          ],
          [
            -103.34006000000001,
            20.684900000000003
          ],
          [
            -103.34007000000001,
            20.685080000000003
          ],
          [
            -103.33991,
            20.685370000000002
          ],
          [
            -103.33972000000001,
            20.685560000000002
          ],
          [
            -103.33942,
            20.685940000000002
          ],
          [
            -103.33542000000001,
            20.686210000000003
          ],
          [
            -103.33511000000001,
            20.686310000000002
          ],
          [
            -103.33495,
            20.686400000000003
          ],
          [
            -103.33477,
            20.686590000000002
          ],
          [
            -103.33451000000001,
            20.6869
          ],
          [
            -103.33431,
            20.68708
          ],
          [
            -103.33412000000001,
            20.68722
          ],
          [
            -103.33392,
            20.687340000000003
          ],
          [
            -103.33371000000001,
            20.687420000000003
          ],
          [
            -103.33322000000001,
            20.68765
          ],
          [
            -103.33308000000001,
            20.68774
          ],
          [
            -103.33282000000001,
            20.687990000000003
          ],
          [
            -103.33252,
            20.688370000000003
          ],
          [
            -103.33224000000001,
            20.688630000000003
          ],
          [
            -103.33186,
            20.688930000000003
          ],
          [
            -103.33149,
            20.68915
          ],
          [
            -103.3314,
            20.68925
          ],
          [
            -103.33117000000001,
            20.68962
          ],
          [
            -103.33056,
            20.68937
          ],
          [
            -103.32700000000001,
            20.687620000000003
          ],
          [
            -103.32558,
            20.686940000000003
          ],
          [
            -103.32544000000001,
            20.68739
          ],
          [
            -103.32519,
            20.688080000000003
          ],
          [
            -103.32463000000001,
            20.689760000000003
          ],
          [
            -103.32442,
            20.690320000000003
          ],
          [
            -103.32406,
            20.69149
          ],
          [
            -103.32366,
            20.692580000000003
          ],
          [
            -103.32349,
            20.693140000000003
          ],
          [
            -103.32324000000001,
            20.69388
          ],
          [
            -103.32304,
            20.694090000000003
          ],
          [
            -103.32251000000001,
            20.694950000000002
          ],
          [
            -103.32194000000001,
            20.695790000000002
          ],
          [
            -103.32164,
            20.696260000000002
          ],
          [
            -103.32139000000001,
            20.696620000000003
          ],
          [
            -103.32134,
            20.696730000000002
          ],
          [
            -103.31979000000001,
            20.695880000000002
          ],
          [
            -103.31491000000001,
            20.693330000000003
          ],
          [
            -103.31271000000001,
            20.692970000000003
          ],
          [
            -103.31192000000001,
            20.692870000000003
          ],
          [
            -103.31049,
            20.69263
          ],
          [
            -103.3101,
            20.69331
          ],
          [
            -103.30982,
            20.693720000000003
          ],
          [
            -103.30981000000001,
            20.693810000000003
          ],
          [
            -103.30954000000001,
            20.69422
          ],
          [
            -103.30934,
            20.694640000000003
          ],
          [
            -103.30921000000001,
            20.69462
          ],
          [
            -103.30908000000001,
            20.69472
          ],
          [
            -103.30905000000001,
            20.694830000000003
          ],
          [
            -103.30911,
            20.694950000000002
          ],
          [
            -103.30917000000001,
            20.69498
          ],
          [
            -103.30902,
            20.69557
          ],
          [
            -103.30854000000001,
            20.69724
          ],
          [
            -103.30829000000001,
            20.698030000000003
          ],
          [
            -103.30781,
            20.699720000000003
          ],
          [
            -103.30762000000001,
            20.70052
          ],
          [
            -103.30726000000001,
            20.70186
          ],
          [
            -103.30947,
            20.702540000000003
          ],
          [
            -103.30824000000001,
            20.70597
          ],
          [
            -103.30824000000001,
            20.704530000000002
          ]
        ]
      }
    }
  ]
}