{
  "type": "FeatureCollection",
  "features": [
    {
      "type": "Feature",
      "properties": {
        "identifier": "50-a?o=2",
        "name": "Ruta 50 A"
      },
      "geometry": {
        "type": "LineString",
        "coordinates": [
          [
            -103.35226000000002,
            20.682740000000003
          ],
          [
            -103.35238000000001,
            20.678700000000003
          ],
          [
            -103.35236,
            20.678060000000002
          ],
          [
            -103.35242000000001,
            20.677860000000003
          ],
          [
            -103.35238000000001,
            20.67751
          ],
          [
            -103.35239000000001,
            20.67717
          ],
          [
            -103.35235000000002,
            20.676450000000003
          ],
          [
            -103.35233000000001,
            20.676360000000003
          ],
          [
            -103.35235000000002,
            20.67574
          ],
          [
            -103.35237000000001,
            20.67566
          ],
          [
            -103.35238000000001,
            20.674870000000002
          ],
          [
            -103.35243000000001,
            20.674200000000003
          ],
          [
            -103.35247000000001,
            20.672780000000003
          ],
          [
            -103.35254,
            20.671200000000002
          ],
          [
            -103.35256000000001,
            20.670090000000002
          ],
          [
            -103.35262,
            20.669220000000003
          ],
          [
            -103.35286,
            20.668480000000002
          ],
          [
            -103.35286,
            20.66841
          ],
          [
            -103.35358000000001,
            20.66608
          ],
          [
            -103.35476000000001,
            20.6624
          ],
          [
            -103.35510000000001,
            20.66148
          ],
          [
            -103.35531,
            20.661260000000002
          ],
          [
            -103.35536,
            20.661
          ],
          [
            -103.35544,
            20.66094
          ],
          [
            -103.35598,
            20.659660000000002
          ],
          [
            -103.35612,
            20.65923
          ],
          [
            -103.35660000000001,
            20.65821
          ],
          [
            -103.3571,
            20.657100000000003
          ],
          [
            -103.35709000000001,
            20.65698
          ],
          [
            -103.35981000000001,
            20.650530000000003
          ],
          [
            -103.36077,
            20.648280000000003
          ],
          [
            -103.36250000000001,
            20.644340000000003
          ],
          [
            -103.36739000000001,
            20.63288
          ],
          [
            -103.36768000000001,
            20.63219
          ],
          [
            -103.36782000000001,
            20.631800000000002
          ],
          [
            -103.36833000000001,
            20.630560000000003
          ],
          [
            -103.36961000000001,
            20.627560000000003
          ],
          [
            -103.37028000000001,
            20.62781
          ],
          [
            -103.37213000000001,
            20.62852
          ],
          [
            -103.37494000000001,
            20.629540000000002
          ],
          [
            -103.37735,
            20.630470000000003
          ],
          [
            -103.3798,
            20.63138
          ],
          [
            -103.38226,
            20.625580000000003
          ],
          [
            -103.38238000000001,
            20.62536
          ],
          [
            -103.38284,
            20.625410000000002
          ],
          [
            -103.38340000000001,
            20.62553
          ],
          [
            -103.38437,
            20.625780000000002
          ],
          [
            -103.38481,
            20.624840000000003
          ],
          [
            -103.38482,
            20.62472
          ],
          [
            -103.38541000000001,
            20.623900000000003
          ],
          [
            -103.38572,
            20.623430000000003
          ],
          [
            -103.38649000000001,
            20.62394
          ],
          [
            -103.38718000000001,
            20.622850000000003
          ],
          [
            -103.38771000000001,
            20.62208
          ],
          [
            -103.38811000000001,
            20.62143
          ],
          [
            -103.38889,
            20.620230000000003
          ],
          [
            -103.38998000000001,
            20.6185
          ],
          [
            -103.39009000000001,
            20.6184
          ],
          [
            -103.39024,
            20.61839
          ],
          [
            -103.39048000000001,
            20.61841
          ],
          [
            -103.39053000000001,
            20.61833
          ],
          [
            -103.39081,
            20.618180000000002
          ],
          [
            -103.39151000000001,
            20.61426
          ],
          [
            -103.39158,
            20.614240000000002
          ],
          [
            -103.39164000000001,
            20.614220000000003
          ],
          [
            -103.39168000000001,
            20.61417
          ],
          [
            -103.39170000000001,
            20.61411
          ],
          [
            -103.39324,
            20.61438
          ],
          [
            -103.39330000000001,
            20.61426
          ],
          [
            -103.39371000000001,
            20.613200000000003
          ],
          [
            -103.39413,
            20.612240000000003
          ],
          [
            -103.39448,
            20.611530000000002
          ],
          [
            -103.39415000000001,
            20.61082
          ],
          [
            -103.39387,
            20.610460000000003
          ],
          [
            -103.39324,
            20.61008
          ],
          [
            -103.39318000000002,
            20.60977
          ],
          [
            -103.39308000000001,
            20.60884
          ],
          [
            -103.39283,
            20.608060000000002
          ],
          [
            -103.39243,
            20.6075
          ],
          [
            -103.39262000000001,
            20.60744
          ],
          [
            -103.39371000000001,
            20.607000000000003
          ],
          [
            -103.39523000000001,
            20.60713
          ],
          [
            -103.39592,
            20.60723
          ],
          [
            -103.39620000000001,
            20.607280000000003
          ],
          [
            -103.39697000000001,
            20.60491
          ],
          [
            -103.39726,
            20.604550000000003
          ],
          [
            -103.39721000000002,
            20.60434
          ],
          [
            -103.3953,
            20.603810000000003
          ],
          [
            -103.39513000000001,
            20.60423
          ],
          [
            -103.39486000000001,
            20.604170000000003
          ],
          [
            -103.39468000000001,
            20.605120000000003
          ],
          [
            -103.39349000000001,
            20.60473
          ],
          [
            -103.39118,
            20.60415
          ],
          [
            -103.39079000000001,
            20.60404
          ],
          [
            -103.39149,
            20.601020000000002
          ],
          [
            -103.39179000000001,
            20.59954
          ],
          [
            -103.38943,
            20.599050000000002
          ],
          [
            -103.38896000000001,
            20.59896
          ],
          [
            -103.38877000000001,
            20.596790000000002
          ],
          [
            -103.38872,
            20.59607
          ],
          [
            -103.38872,
            20.594630000000002
          ]
        ]
      }
    }
  ]
}