{
  "type": "FeatureCollection",
  "features": [
    {
      "type": "Feature",
      "properties": {
        "identifier": "500-2?o=2",
        "name": "Ruta 500"
      },
      "geometry": {
        "type": "LineString",
        "coordinates": [
          [
            -103.38484000000001,
            20.676720000000003
          ],
          [
            -103.37744,
            20.67667
          ],
          [
            -103.37372,
            20.676660000000002
          ],
          [
            -103.37167000000001,
            20.676820000000003
          ],
          [
            -103.36878000000002,
            20.67686
          ],
          [
            -103.36231000000001,
            20.67699
          ],
          [
            -103.35937000000001,
            20.677090000000003
          ],
          [
            -103.35480000000001,
            20.67717
          ],
          [
            -103.35052,
            20.677290000000003
          ],
          [
            -103.34753,
            20.677410000000002
          ],
          [
            -103.34437000000001,
            20.677410000000002
          ],
          [
            -103.34069000000001,
            20.677590000000002
          ],
          [
            -103.33146,
            20.67779
          ],
          [
            -103.32874000000001,
            20.677860000000003
          ],
          [
            -103.32724,
            20.67792
          ],
          [
            -103.32657,
            20.6798
          ],
          [
            -103.32594,
            20.68177
          ],
          [
            -103.32511000000001,
            20.684150000000002
          ],
          [
            -103.32153000000001,
            20.68691
          ],
          [
            -103.31969000000001,
            20.688290000000002
          ],
          [
            -103.31369000000001,
            20.69067
          ],
          [
            -103.31093000000001,
            20.691750000000003
          ],
          [
            -103.30654000000001,
            20.69349
          ],
          [
            -103.30481,
            20.694200000000002
          ],
          [
            -103.29971,
            20.69622
          ],
          [
            -103.29698,
            20.697290000000002
          ],
          [
            -103.29477000000001,
            20.698220000000003
          ],
          [
            -103.29424,
            20.69801
          ],
          [
            -103.29400000000001,
            20.698580000000003
          ],
          [
            -103.29400000000001,
            20.69714
          ]
        ]
      }
    }
  ]
}