{
  "type": "FeatureCollection",
  "features": [
    {
      "type": "Feature",
      "properties": {
        "identifier": "500-2",
        "name": "Ruta 500"
      },
      "geometry": {
        "type": "LineString",
        "coordinates": [
          [
            -103.29400000000001,
            20.698580000000003
          ],
          [
            -103.29468000000001,
            20.69885
          ],
          [
            -103.29488,
            20.69827
          ],
          [
            -103.29707,
            20.69735
          ],
          [
            -103.29981000000001,
            20.6963
          ],
          [
            -103.30653000000001,
            20.69359
          ],
          [
            -103.30846000000001,
            20.692890000000002
          ],
          [
            -103.31119000000001,
            20.691850000000002
          ],
          [
            -103.31369000000001,
            20.69067
          ],
          [
            -103.31969000000001,
            20.688290000000002
          ],
          [
            -103.32153000000001,
            20.68691
          ],
          [
            -103.32511000000001,
            20.684150000000002
          ],
          [
            -103.32709000000001,
            20.682730000000003
          ],
          [
            -103.32842000000001,
            20.67892
          ],
          [
            -103.32960000000001,
            20.67882
          ],
          [
            -103.33138000000001,
            20.678780000000003
          ],
          [
            -103.33494,
            20.678520000000002
          ],
          [
            -103.34438000000002,
            20.6782
          ],
          [
            -103.34751000000001,
            20.678160000000002
          ],
          [
            -103.35045000000001,
            20.677960000000002
          ],
          [
            -103.35241,
            20.678040000000003
          ],
          [
            -103.35243000000001,
            20.67511
          ],
          [
            -103.35648,
            20.67488
          ],
          [
            -103.35938,
            20.674860000000002
          ],
          [
            -103.36236000000001,
            20.67472
          ],
          [
            -103.36618000000001,
            20.674680000000002
          ],
          [
            -103.36867000000001,
            20.674560000000003
          ],
          [
            -103.37174,
            20.674560000000003
          ],
          [
            -103.37382000000001,
            20.67444
          ],
          [
            -103.37740000000001,
            20.674480000000003
          ],
          [
            -103.38470000000001,
            20.67452
          ],
          [
            -103.38484000000001,
            20.676720000000003
          ],
          [
            -103.38484000000001,
            20.67528
          ]
        ]
      }
    }
  ]
}