{
  "type": "FeatureCollection",
  "features": [
    {
      "type": "Feature",
      "properties": {
        "identifier": "51-a-miramar-guadalupe",
        "name": "Ruta 51 A Miramar – Guadalupe"
      },
      "geometry": {
        "type": "LineString",
        "coordinates": [
          [
            -103.47600000000001,
            20.63782
          ],
          [
            -103.47602,
            20.63776
          ],
          [
            -103.47552,
            20.63765
          ],
          [
            -103.47460000000001,
            20.637330000000002
          ],
          [
            -103.47431,
            20.637220000000003
          ],
          [
            -103.47417000000002,
            20.63707
          ],
          [
            -103.47407000000001,
            20.636930000000003
          ],
          [
            -103.47401,
            20.63699
          ],
          [
            -103.47329,
            20.63643
          ],
          [
            -103.47223000000001,
            20.635540000000002
          ],
          [
            -103.47158,
            20.63511
          ],
          [
            -103.47145,
            20.635070000000002
          ],
          [
            -103.47116000000001,
            20.63501
          ],
          [
            -103.47005000000001,
            20.63484
          ],
          [
            -103.46899,
            20.634670000000003
          ],
          [
            -103.46908,
            20.634220000000003
          ],
          [
            -103.46932000000001,
            20.63312
          ],
          [
            -103.46843000000001,
            20.63295
          ],
          [
            -103.46554,
            20.63237
          ],
          [
            -103.46482,
            20.632230000000003
          ],
          [
            -103.46349000000001,
            20.631950000000003
          ],
          [
            -103.4629,
            20.631870000000003
          ],
          [
            -103.46206000000001,
            20.63171
          ],
          [
            -103.46035,
            20.63136
          ],
          [
            -103.46029000000001,
            20.631770000000003
          ],
          [
            -103.46041000000001,
            20.632360000000002
          ],
          [
            -103.46055000000001,
            20.632700000000003
          ],
          [
            -103.46074000000002,
            20.63314
          ],
          [
            -103.46045000000001,
            20.634980000000002
          ],
          [
            -103.46020000000001,
            20.63641
          ],
          [
            -103.46013,
            20.637230000000002
          ],
          [
            -103.46019000000001,
            20.637600000000003
          ],
          [
            -103.46067000000001,
            20.639020000000002
          ],
          [
            -103.46131000000001,
            20.64065
          ],
          [
            -103.46096000000001,
            20.642100000000003
          ],
          [
            -103.45962000000002,
            20.64188
          ],
          [
            -103.45931,
            20.641820000000003
          ],
          [
            -103.45836000000001,
            20.6417
          ],
          [
            -103.45681,
            20.64148
          ],
          [
            -103.45592,
            20.64129
          ],
          [
            -103.45469000000001,
            20.641060000000003
          ],
          [
            -103.45386,
            20.64091
          ],
          [
            -103.45327,
            20.640790000000003
          ],
          [
            -103.45269,
            20.640680000000003
          ],
          [
            -103.45182000000001,
            20.6446
          ],
          [
            -103.45231000000001,
            20.644660000000002
          ],
          [
            -103.45199000000001,
            20.6492
          ],
          [
            -103.44957000000001,
            20.64899
          ],
          [
            -103.44432,
            20.648670000000003
          ],
          [
            -103.44374,
            20.648560000000003
          ],
          [
            -103.44355,
            20.648590000000002
          ],
          [
            -103.44352,
            20.64749
          ],
          [
            -103.44156000000001,
            20.642850000000003
          ],
          [
            -103.44036000000001,
            20.639830000000003
          ],
          [
            -103.43982000000001,
            20.638820000000003
          ],
          [
            -103.43934,
            20.63763
          ],
          [
            -103.43921,
            20.637520000000002
          ],
          [
            -103.43909000000001,
            20.637510000000002
          ],
          [
            -103.43888000000001,
            20.637600000000003
          ],
          [
            -103.43879000000001,
            20.63785
          ],
          [
            -103.43978000000001,
            20.6402
          ],
          [
            -103.44015,
            20.640770000000003
          ],
          [
            -103.44104000000002,
            20.64298
          ],
          [
            -103.44079,
            20.6431
          ],
          [
            -103.44075000000001,
            20.64318
          ],
          [
            -103.44059000000001,
            20.64525
          ],
          [
            -103.43776000000001,
            20.644640000000003
          ],
          [
            -103.43281,
            20.64382
          ],
          [
            -103.43271000000001,
            20.646240000000002
          ],
          [
            -103.43271000000001,
            20.64676
          ],
          [
            -103.43268,
            20.64686
          ],
          [
            -103.43254,
            20.64973
          ],
          [
            -103.43188,
            20.659550000000003
          ],
          [
            -103.43100000000001,
            20.660690000000002
          ],
          [
            -103.43078000000001,
            20.6609
          ],
          [
            -103.43033000000001,
            20.66113
          ],
          [
            -103.42969000000001,
            20.66128
          ],
          [
            -103.41761000000001,
            20.66316
          ],
          [
            -103.41653000000001,
            20.66363
          ],
          [
            -103.41619000000001,
            20.663700000000002
          ],
          [
            -103.41518,
            20.663860000000003
          ],
          [
            -103.41086000000001,
            20.664730000000002
          ],
          [
            -103.40336,
            20.6661
          ],
          [
            -103.40326,
            20.665920000000003
          ],
          [
            -103.40307000000001,
            20.665770000000002
          ],
          [
            -103.40262000000001,
            20.6657
          ],
          [
            -103.40229000000001,
            20.665840000000003
          ],
          [
            -103.40217000000001,
            20.665950000000002
          ],
          [
            -103.40204000000001,
            20.66626
          ],
          [
            -103.39695,
            20.66638
          ],
          [
            -103.39502,
            20.66634
          ],
          [
            -103.39373,
            20.666400000000003
          ],
          [
            -103.38955000000001,
            20.66638
          ],
          [
            -103.38517,
            20.666510000000002
          ],
          [
            -103.38476000000001,
            20.666510000000002
          ],
          [
            -103.38469,
            20.66637
          ],
          [
            -103.38443000000001,
            20.666320000000002
          ],
          [
            -103.38428,
            20.666400000000003
          ],
          [
            -103.38421000000001,
            20.66653
          ],
          [
            -103.38421000000001,
            20.666670000000003
          ],
          [
            -103.38428,
            20.66682
          ],
          [
            -103.38453000000001,
            20.666880000000003
          ],
          [
            -103.38475000000001,
            20.668840000000003
          ],
          [
            -103.38472,
            20.668940000000003
          ],
          [
            -103.38473,
            20.669960000000003
          ],
          [
            -103.38436000000002,
            20.670070000000003
          ],
          [
            -103.38405,
            20.670330000000003
          ],
          [
            -103.38237000000001,
            20.6704
          ],
          [
            -103.37622,
            20.67086
          ],
          [
            -103.37619000000001,
            20.671270000000003
          ],
          [
            -103.37154000000001,
            20.671390000000002
          ],
          [
            -103.37037000000001,
            20.67136
          ],
          [
            -103.36605000000002,
            20.671480000000003
          ],
          [
            -103.3661,
            20.67314
          ],
          [
            -103.36555000000001,
            20.67314
          ],
          [
            -103.36171,
            20.67161
          ],
          [
            -103.35936000000001,
            20.671550000000003
          ],
          [
            -103.35929,
            20.671590000000002
          ],
          [
            -103.35341000000001,
            20.671480000000003
          ],
          [
            -103.34840000000001,
            20.67124
          ],
          [
            -103.34816000000001,
            20.671190000000003
          ],
          [
            -103.34723000000001,
            20.67079
          ],
          [
            -103.34723000000001,
            20.67038
          ],
          [
            -103.34723000000001,
            20.668940000000003
          ]
        ]
      }
    }
  ]
}