{
  "type": "FeatureCollection",
  "features": [
    {
      "type": "Feature",
      "properties": {
        "identifier": "52-2?o=2",
        "name": "Ruta 52"
      },
      "geometry": {
        "type": "LineString",
        "coordinates": [
          [
            -103.33014000000001,
            20.765120000000003
          ],
          [
            -103.33013000000001,
            20.765130000000003
          ],
          [
            -103.33016,
            20.76509
          ],
          [
            -103.33023000000001,
            20.765030000000003
          ],
          [
            -103.33028,
            20.764940000000003
          ],
          [
            -103.33076000000001,
            20.76432
          ],
          [
            -103.33101,
            20.76397
          ],
          [
            -103.33115000000001,
            20.76376
          ],
          [
            -103.33177,
            20.762970000000003
          ],
          [
            -103.33196000000001,
            20.76283
          ],
          [
            -103.33216,
            20.762680000000003
          ],
          [
            -103.33241000000001,
            20.762500000000003
          ],
          [
            -103.33254000000001,
            20.762410000000003
          ],
          [
            -103.33259000000001,
            20.762230000000002
          ],
          [
            -103.33272000000001,
            20.761760000000002
          ],
          [
            -103.33278000000001,
            20.76152
          ],
          [
            -103.33285000000001,
            20.761200000000002
          ],
          [
            -103.33285000000001,
            20.760990000000003
          ],
          [
            -103.3327,
            20.76066
          ],
          [
            -103.33246000000001,
            20.7602
          ],
          [
            -103.33238000000001,
            20.760060000000003
          ],
          [
            -103.33234,
            20.75993
          ],
          [
            -103.33213,
            20.75956
          ],
          [
            -103.33201000000001,
            20.759300000000003
          ],
          [
            -103.33177,
            20.758840000000003
          ],
          [
            -103.33168,
            20.7587
          ],
          [
            -103.33175000000001,
            20.75871
          ],
          [
            -103.33193000000001,
            20.75822
          ],
          [
            -103.33258000000001,
            20.758470000000003
          ],
          [
            -103.33325,
            20.758730000000003
          ],
          [
            -103.3336,
            20.75888
          ],
          [
            -103.33451000000001,
            20.759230000000002
          ],
          [
            -103.33517,
            20.759490000000003
          ],
          [
            -103.33663000000001,
            20.760140000000003
          ],
          [
            -103.33666000000001,
            20.760160000000003
          ],
          [
            -103.3374,
            20.76048
          ],
          [
            -103.33767,
            20.75937
          ],
          [
            -103.3379,
            20.75816
          ],
          [
            -103.33792000000001,
            20.758000000000003
          ],
          [
            -103.33806000000001,
            20.757170000000002
          ],
          [
            -103.33821,
            20.75627
          ],
          [
            -103.3383,
            20.755560000000003
          ],
          [
            -103.33843,
            20.75524
          ],
          [
            -103.33851000000001,
            20.75503
          ],
          [
            -103.33882000000001,
            20.754070000000002
          ],
          [
            -103.33894000000001,
            20.75384
          ],
          [
            -103.33916,
            20.75338
          ],
          [
            -103.33923000000001,
            20.75319
          ],
          [
            -103.33934,
            20.752840000000003
          ],
          [
            -103.33952000000001,
            20.752370000000003
          ],
          [
            -103.33957000000001,
            20.75215
          ],
          [
            -103.33958000000001,
            20.75212
          ],
          [
            -103.33963000000001,
            20.75186
          ],
          [
            -103.33972000000001,
            20.7515
          ],
          [
            -103.33977,
            20.75139
          ],
          [
            -103.3387,
            20.751250000000002
          ],
          [
            -103.3388,
            20.75063
          ],
          [
            -103.33889,
            20.75047
          ],
          [
            -103.33895000000001,
            20.750220000000002
          ],
          [
            -103.33898,
            20.750030000000002
          ],
          [
            -103.33907,
            20.749470000000002
          ],
          [
            -103.33965,
            20.7495
          ],
          [
            -103.33990000000001,
            20.7495
          ],
          [
            -103.34073000000001,
            20.74952
          ],
          [
            -103.34098,
            20.74952
          ],
          [
            -103.34154000000001,
            20.749540000000003
          ],
          [
            -103.34224,
            20.749470000000002
          ],
          [
            -103.34277,
            20.74949
          ],
          [
            -103.34292,
            20.749470000000002
          ],
          [
            -103.34291,
            20.74924
          ],
          [
            -103.34282,
            20.74924
          ],
          [
            -103.34281000000001,
            20.749070000000003
          ],
          [
            -103.34285000000001,
            20.74875
          ],
          [
            -103.34291,
            20.74849
          ],
          [
            -103.34292,
            20.74846
          ],
          [
            -103.34296,
            20.74836
          ],
          [
            -103.34304,
            20.74811
          ],
          [
            -103.34322,
            20.74782
          ],
          [
            -103.34326000000001,
            20.747750000000003
          ],
          [
            -103.34334000000001,
            20.747660000000003
          ],
          [
            -103.34329000000001,
            20.74763
          ],
          [
            -103.34381,
            20.74707
          ],
          [
            -103.34503000000001,
            20.746170000000003
          ],
          [
            -103.34562000000001,
            20.74566
          ],
          [
            -103.34612000000001,
            20.74474
          ],
          [
            -103.34627,
            20.7448
          ],
          [
            -103.34632,
            20.7447
          ],
          [
            -103.34645,
            20.744300000000003
          ],
          [
            -103.34646000000001,
            20.74405
          ],
          [
            -103.3465,
            20.74361
          ],
          [
            -103.34646000000001,
            20.74324
          ],
          [
            -103.34645,
            20.743080000000003
          ],
          [
            -103.34625000000001,
            20.74255
          ],
          [
            -103.34603000000001,
            20.742050000000003
          ],
          [
            -103.34582,
            20.741760000000003
          ],
          [
            -103.34567000000001,
            20.741560000000003
          ],
          [
            -103.34568,
            20.74155
          ],
          [
            -103.34500000000001,
            20.740740000000002
          ],
          [
            -103.34465,
            20.740380000000002
          ],
          [
            -103.34388000000001,
            20.739630000000002
          ],
          [
            -103.34385,
            20.73965
          ],
          [
            -103.34294000000001,
            20.73873
          ],
          [
            -103.34256,
            20.738280000000003
          ],
          [
            -103.34240000000001,
            20.738000000000003
          ],
          [
            -103.3422,
            20.737550000000002
          ],
          [
            -103.34206,
            20.73714
          ],
          [
            -103.34204000000001,
            20.736890000000002
          ],
          [
            -103.34202,
            20.73664
          ],
          [
            -103.34200000000001,
            20.73656
          ],
          [
            -103.34202,
            20.73635
          ],
          [
            -103.34206,
            20.73599
          ],
          [
            -103.34217000000001,
            20.73562
          ],
          [
            -103.34226000000001,
            20.73536
          ],
          [
            -103.34238,
            20.73497
          ],
          [
            -103.34247,
            20.73466
          ],
          [
            -103.34258000000001,
            20.7343
          ],
          [
            -103.34277,
            20.733710000000002
          ],
          [
            -103.34324000000001,
            20.73226
          ],
          [
            -103.34326000000001,
            20.732180000000003
          ],
          [
            -103.34366000000001,
            20.73095
          ],
          [
            -103.34376,
            20.730680000000003
          ],
          [
            -103.34406000000001,
            20.729830000000003
          ],
          [
            -103.34421,
            20.729380000000003
          ],
          [
            -103.3443,
            20.72913
          ],
          [
            -103.34452,
            20.728440000000003
          ],
          [
            -103.34466,
            20.72803
          ],
          [
            -103.34468000000001,
            20.727970000000003
          ],
          [
            -103.34492,
            20.72725
          ],
          [
            -103.34500000000001,
            20.727030000000003
          ],
          [
            -103.34497,
            20.727020000000003
          ],
          [
            -103.34497,
            20.727020000000003
          ],
          [
            -103.34514000000001,
            20.726470000000003
          ],
          [
            -103.34521000000001,
            20.726190000000003
          ],
          [
            -103.34529,
            20.72585
          ],
          [
            -103.34535000000001,
            20.72549
          ],
          [
            -103.34538,
            20.725160000000002
          ],
          [
            -103.34539000000001,
            20.724950000000003
          ],
          [
            -103.34544000000001,
            20.724960000000003
          ],
          [
            -103.34544000000001,
            20.72475
          ],
          [
            -103.34545000000001,
            20.723940000000002
          ],
          [
            -103.34544000000001,
            20.7234
          ],
          [
            -103.34545000000001,
            20.722330000000003
          ],
          [
            -103.34538,
            20.722330000000003
          ],
          [
            -103.34539000000001,
            20.721140000000002
          ],
          [
            -103.34544000000001,
            20.721140000000002
          ],
          [
            -103.34544000000001,
            20.72089
          ],
          [
            -103.34545000000001,
            20.720080000000003
          ],
          [
            -103.34546,
            20.71948
          ],
          [
            -103.34550000000002,
            20.7188
          ],
          [
            -103.34553000000001,
            20.718210000000003
          ],
          [
            -103.34559,
            20.7178
          ],
          [
            -103.34574,
            20.716510000000003
          ],
          [
            -103.34579000000001,
            20.71618
          ],
          [
            -103.34596,
            20.71477
          ],
          [
            -103.34608000000001,
            20.71385
          ],
          [
            -103.34609,
            20.71373
          ],
          [
            -103.34623,
            20.712400000000002
          ],
          [
            -103.34625000000001,
            20.712210000000002
          ],
          [
            -103.34629000000001,
            20.711940000000002
          ],
          [
            -103.34655000000001,
            20.709850000000003
          ],
          [
            -103.34659,
            20.709590000000002
          ],
          [
            -103.34688000000001,
            20.70718
          ],
          [
            -103.34698,
            20.7066
          ],
          [
            -103.34702000000001,
            20.706300000000002
          ],
          [
            -103.34704,
            20.706300000000002
          ],
          [
            -103.34726,
            20.704420000000002
          ],
          [
            -103.34743,
            20.70304
          ],
          [
            -103.34750000000001,
            20.70304
          ],
          [
            -103.34764000000001,
            20.70193
          ],
          [
            -103.34766,
            20.701790000000003
          ],
          [
            -103.34783,
            20.70015
          ],
          [
            -103.34784,
            20.699990000000003
          ],
          [
            -103.34809000000001,
            20.698210000000003
          ],
          [
            -103.34813000000001,
            20.697930000000003
          ],
          [
            -103.34831000000001,
            20.69639
          ],
          [
            -103.34839000000001,
            20.69611
          ],
          [
            -103.34859,
            20.69601
          ],
          [
            -103.34879000000001,
            20.695980000000002
          ],
          [
            -103.34906000000001,
            20.6959
          ],
          [
            -103.34928000000001,
            20.695690000000003
          ],
          [
            -103.34935000000002,
            20.695500000000003
          ],
          [
            -103.34935000000002,
            20.69525
          ],
          [
            -103.34934000000001,
            20.69498
          ],
          [
            -103.34924000000001,
            20.69469
          ],
          [
            -103.34944000000002,
            20.69459
          ],
          [
            -103.34963,
            20.6945
          ],
          [
            -103.35008,
            20.69431
          ],
          [
            -103.35059000000001,
            20.69422
          ],
          [
            -103.35165,
            20.69415
          ],
          [
            -103.35167000000001,
            20.69387
          ],
          [
            -103.35168,
            20.69387
          ],
          [
            -103.35168,
            20.69387
          ],
          [
            -103.35172000000001,
            20.69331
          ],
          [
            -103.35180000000001,
            20.693160000000002
          ],
          [
            -103.35181000000001,
            20.69292
          ],
          [
            -103.35182,
            20.69291
          ],
          [
            -103.35174,
            20.6929
          ],
          [
            -103.35188000000001,
            20.691170000000003
          ],
          [
            -103.35196,
            20.689500000000002
          ],
          [
            -103.35198000000001,
            20.6889
          ],
          [
            -103.3508,
            20.68897
          ],
          [
            -103.3508,
            20.68898
          ],
          [
            -103.34970000000001,
            20.68906
          ],
          [
            -103.34863000000001,
            20.68906
          ],
          [
            -103.34863000000001,
            20.689040000000002
          ],
          [
            -103.34815,
            20.68905
          ],
          [
            -103.34808000000001,
            20.68785
          ],
          [
            -103.34808000000001,
            20.68785
          ],
          [
            -103.34801,
            20.686960000000003
          ],
          [
            -103.34797,
            20.686030000000002
          ],
          [
            -103.34807,
            20.686020000000003
          ],
          [
            -103.34796000000001,
            20.684220000000003
          ],
          [
            -103.34776000000001,
            20.680840000000003
          ],
          [
            -103.34769000000001,
            20.680850000000003
          ],
          [
            -103.34767000000001,
            20.68034
          ],
          [
            -103.34751000000001,
            20.67808
          ],
          [
            -103.34749000000001,
            20.677390000000003
          ],
          [
            -103.34744,
            20.67657
          ],
          [
            -103.34735,
            20.67582
          ],
          [
            -103.3473,
            20.674870000000002
          ],
          [
            -103.34726,
            20.67436
          ],
          [
            -103.34724000000001,
            20.6736
          ],
          [
            -103.34751000000001,
            20.6736
          ],
          [
            -103.34796000000001,
            20.6736
          ],
          [
            -103.34877,
            20.673550000000002
          ],
          [
            -103.34876000000001,
            20.67332
          ],
          [
            -103.34876000000001,
            20.67188
          ]
        ]
      }
    }
  ]
}