{
  "type": "FeatureCollection",
  "features": [
    {
      "type": "Feature",
      "properties": {
        "identifier": "52-c-via-guayabitos?o=2",
        "name": "Ruta 52 C Vía Guayabitos"
      },
      "geometry": {
        "type": "LineString",
        "coordinates": [
          [
            -103.33297,
            20.68446
          ],
          [
            -103.33304000000001,
            20.684520000000003
          ],
          [
            -103.33351,
            20.684990000000003
          ],
          [
            -103.33380000000001,
            20.684990000000003
          ],
          [
            -103.33458,
            20.684970000000003
          ],
          [
            -103.33456000000001,
            20.684060000000002
          ],
          [
            -103.33455000000001,
            20.683200000000003
          ],
          [
            -103.33526,
            20.683200000000003
          ],
          [
            -103.33600000000001,
            20.68318
          ],
          [
            -103.33675000000001,
            20.68318
          ],
          [
            -103.33753000000002,
            20.68317
          ],
          [
            -103.33848,
            20.68316
          ],
          [
            -103.33909000000001,
            20.68315
          ],
          [
            -103.33975000000001,
            20.68314
          ],
          [
            -103.3404,
            20.683120000000002
          ],
          [
            -103.34089,
            20.683120000000002
          ],
          [
            -103.34161,
            20.68309
          ],
          [
            -103.34246,
            20.68306
          ],
          [
            -103.34346000000001,
            20.683010000000003
          ],
          [
            -103.34439,
            20.68297
          ],
          [
            -103.34534000000001,
            20.682920000000003
          ],
          [
            -103.34614,
            20.68288
          ],
          [
            -103.3468,
            20.682840000000002
          ],
          [
            -103.3478,
            20.6828
          ],
          [
            -103.34852000000001,
            20.682750000000002
          ],
          [
            -103.34928000000001,
            20.68271
          ],
          [
            -103.35000000000001,
            20.68267
          ],
          [
            -103.3503,
            20.682650000000002
          ],
          [
            -103.35075,
            20.68268
          ],
          [
            -103.35122000000001,
            20.68271
          ],
          [
            -103.35226000000002,
            20.682740000000003
          ],
          [
            -103.35229000000001,
            20.68187
          ],
          [
            -103.35232,
            20.681050000000003
          ],
          [
            -103.35234000000001,
            20.680210000000002
          ],
          [
            -103.35235000000002,
            20.67943
          ],
          [
            -103.35238000000001,
            20.678700000000003
          ],
          [
            -103.35241,
            20.678030000000003
          ],
          [
            -103.35242000000001,
            20.677860000000003
          ],
          [
            -103.35245,
            20.67725
          ],
          [
            -103.35239000000001,
            20.67717
          ],
          [
            -103.35235000000002,
            20.676450000000003
          ],
          [
            -103.35233000000001,
            20.676360000000003
          ],
          [
            -103.35235000000002,
            20.67574
          ],
          [
            -103.35237000000001,
            20.67566
          ],
          [
            -103.35238000000001,
            20.675
          ],
          [
            -103.35243000000001,
            20.6749
          ],
          [
            -103.35243000000001,
            20.674200000000003
          ],
          [
            -103.35245,
            20.67351
          ],
          [
            -103.35247000000001,
            20.672780000000003
          ],
          [
            -103.3525,
            20.672140000000002
          ],
          [
            -103.35253,
            20.67145
          ],
          [
            -103.35254,
            20.671200000000002
          ],
          [
            -103.35259,
            20.670070000000003
          ],
          [
            -103.35262,
            20.669320000000003
          ],
          [
            -103.35262,
            20.669220000000003
          ],
          [
            -103.35286,
            20.668480000000002
          ],
          [
            -103.35286,
            20.66841
          ],
          [
            -103.35310000000001,
            20.667630000000003
          ],
          [
            -103.35333000000001,
            20.66691
          ],
          [
            -103.35358000000001,
            20.66608
          ],
          [
            -103.35387000000001,
            20.66516
          ],
          [
            -103.35421000000001,
            20.66409
          ],
          [
            -103.35426000000001,
            20.664060000000003
          ],
          [
            -103.35439000000001,
            20.66366
          ],
          [
            -103.35453000000001,
            20.663210000000003
          ],
          [
            -103.35478,
            20.662450000000003
          ],
          [
            -103.37133000000001,
            20.623520000000003
          ],
          [
            -103.37165,
            20.62246
          ],
          [
            -103.37282,
            20.61992
          ],
          [
            -103.37421,
            20.616560000000003
          ],
          [
            -103.37442000000001,
            20.616100000000003
          ],
          [
            -103.37453000000001,
            20.615190000000002
          ],
          [
            -103.37506,
            20.613210000000002
          ],
          [
            -103.37536000000001,
            20.61221
          ],
          [
            -103.37722000000001,
            20.60557
          ],
          [
            -103.37745000000001,
            20.604760000000002
          ],
          [
            -103.3789,
            20.599790000000002
          ],
          [
            -103.37895,
            20.599590000000003
          ],
          [
            -103.37927,
            20.599500000000003
          ],
          [
            -103.37975,
            20.59946
          ],
          [
            -103.37983000000001,
            20.59946
          ],
          [
            -103.38012,
            20.59935
          ],
          [
            -103.38033000000001,
            20.59928
          ],
          [
            -103.38090000000001,
            20.59909
          ],
          [
            -103.3815,
            20.5989
          ],
          [
            -103.382,
            20.598740000000003
          ],
          [
            -103.38213,
            20.59863
          ],
          [
            -103.38225000000001,
            20.59853
          ],
          [
            -103.38278000000001,
            20.598550000000003
          ],
          [
            -103.38319000000001,
            20.598560000000003
          ],
          [
            -103.38335000000001,
            20.598560000000003
          ],
          [
            -103.38389000000001,
            20.5986
          ],
          [
            -103.38434000000001,
            20.59863
          ],
          [
            -103.38475000000001,
            20.598650000000003
          ],
          [
            -103.38482,
            20.598660000000002
          ],
          [
            -103.38535,
            20.59872
          ],
          [
            -103.38553,
            20.598750000000003
          ],
          [
            -103.38591000000001,
            20.59878
          ],
          [
            -103.38654000000001,
            20.598830000000003
          ],
          [
            -103.38689000000001,
            20.598850000000002
          ],
          [
            -103.38741,
            20.5989
          ],
          [
            -103.38763,
            20.598920000000003
          ],
          [
            -103.3879,
            20.598940000000002
          ],
          [
            -103.38811000000001,
            20.59896
          ],
          [
            -103.38841000000001,
            20.59898
          ],
          [
            -103.38865000000001,
            20.599
          ],
          [
            -103.3889,
            20.599020000000003
          ],
          [
            -103.3889,
            20.59758
          ]
        ]
      }
    }
  ]
}