{
  "type": "FeatureCollection",
  "features": [
    {
      "type": "Feature",
      "properties": {
        "identifier": "54-2",
        "name": "Ruta 54"
      },
      "geometry": {
        "type": "LineString",
        "coordinates": [
          [
            -103.35107,
            20.59552
          ],
          [
            -103.35094000000001,
            20.595740000000003
          ],
          [
            -103.35086000000001,
            20.596490000000003
          ],
          [
            -103.35079,
            20.59691
          ],
          [
            -103.35075,
            20.5971
          ],
          [
            -103.3507,
            20.597340000000003
          ],
          [
            -103.35056,
            20.59805
          ],
          [
            -103.35056,
            20.59805
          ],
          [
            -103.35051000000001,
            20.598280000000003
          ],
          [
            -103.35032000000001,
            20.59833
          ],
          [
            -103.35021,
            20.59831
          ],
          [
            -103.35022000000001,
            20.5984
          ],
          [
            -103.35050000000001,
            20.599780000000003
          ],
          [
            -103.35021,
            20.599770000000003
          ],
          [
            -103.34880000000001,
            20.59974
          ],
          [
            -103.34880000000001,
            20.59973
          ],
          [
            -103.34763000000001,
            20.59972
          ],
          [
            -103.34691000000001,
            20.599690000000002
          ],
          [
            -103.34715000000001,
            20.600890000000003
          ],
          [
            -103.34750000000001,
            20.60265
          ],
          [
            -103.34773000000001,
            20.60378
          ],
          [
            -103.34747000000002,
            20.603820000000002
          ],
          [
            -103.34746000000001,
            20.603820000000002
          ],
          [
            -103.34722000000001,
            20.60387
          ],
          [
            -103.34746000000001,
            20.60414
          ],
          [
            -103.34772000000001,
            20.60443
          ],
          [
            -103.34812000000001,
            20.60482
          ],
          [
            -103.34811,
            20.604830000000003
          ],
          [
            -103.34825000000001,
            20.60497
          ],
          [
            -103.34843000000001,
            20.60516
          ],
          [
            -103.34845000000001,
            20.605210000000003
          ],
          [
            -103.34848000000001,
            20.605310000000003
          ],
          [
            -103.34849000000001,
            20.605390000000003
          ],
          [
            -103.34849000000001,
            20.60547
          ],
          [
            -103.34842,
            20.60564
          ],
          [
            -103.34808000000001,
            20.60592
          ],
          [
            -103.34748,
            20.60642
          ],
          [
            -103.34742000000001,
            20.60647
          ],
          [
            -103.34713,
            20.6065
          ],
          [
            -103.34709000000001,
            20.606520000000003
          ],
          [
            -103.34679000000001,
            20.606440000000003
          ],
          [
            -103.34667,
            20.606430000000003
          ],
          [
            -103.34626000000002,
            20.60649
          ],
          [
            -103.34613,
            20.60651
          ],
          [
            -103.34628000000001,
            20.607370000000003
          ],
          [
            -103.34639000000001,
            20.60798
          ],
          [
            -103.34651000000001,
            20.60866
          ],
          [
            -103.34662,
            20.60913
          ],
          [
            -103.34661000000001,
            20.60914
          ],
          [
            -103.34686,
            20.60967
          ],
          [
            -103.34691000000001,
            20.609800000000003
          ],
          [
            -103.34694,
            20.60985
          ],
          [
            -103.34696000000001,
            20.609910000000003
          ],
          [
            -103.34694,
            20.610200000000003
          ],
          [
            -103.34692000000001,
            20.610380000000003
          ],
          [
            -103.34693000000001,
            20.61063
          ],
          [
            -103.34697000000001,
            20.6108
          ],
          [
            -103.34704,
            20.61088
          ],
          [
            -103.34708,
            20.610940000000003
          ],
          [
            -103.34716,
            20.61101
          ],
          [
            -103.34734,
            20.6111
          ],
          [
            -103.34804000000001,
            20.611510000000003
          ],
          [
            -103.34858000000001,
            20.61183
          ],
          [
            -103.34943000000001,
            20.61231
          ],
          [
            -103.34943000000001,
            20.61232
          ],
          [
            -103.35016,
            20.612730000000003
          ],
          [
            -103.35035,
            20.61285
          ],
          [
            -103.35035,
            20.61286
          ],
          [
            -103.35050000000001,
            20.613000000000003
          ],
          [
            -103.35055000000001,
            20.61307
          ],
          [
            -103.35059000000001,
            20.613180000000003
          ],
          [
            -103.35062,
            20.613300000000002
          ],
          [
            -103.35061,
            20.61355
          ],
          [
            -103.35045000000001,
            20.6139
          ],
          [
            -103.35052,
            20.61409
          ],
          [
            -103.35053,
            20.614140000000003
          ],
          [
            -103.35059000000001,
            20.61426
          ],
          [
            -103.35069000000001,
            20.614320000000003
          ],
          [
            -103.35098,
            20.614520000000002
          ],
          [
            -103.35103000000001,
            20.614630000000002
          ],
          [
            -103.35103000000001,
            20.61464
          ],
          [
            -103.35108000000001,
            20.614790000000003
          ],
          [
            -103.35111,
            20.614970000000003
          ],
          [
            -103.3511,
            20.615180000000002
          ],
          [
            -103.35103000000001,
            20.615360000000003
          ],
          [
            -103.35063000000001,
            20.61596
          ],
          [
            -103.35054000000001,
            20.61604
          ],
          [
            -103.35031000000001,
            20.61618
          ],
          [
            -103.35022000000001,
            20.61627
          ],
          [
            -103.35006000000001,
            20.616470000000003
          ],
          [
            -103.34985,
            20.61681
          ],
          [
            -103.34984000000001,
            20.6169
          ],
          [
            -103.34981,
            20.61702
          ],
          [
            -103.34981,
            20.617140000000003
          ],
          [
            -103.34984000000001,
            20.61738
          ],
          [
            -103.35000000000001,
            20.617590000000003
          ],
          [
            -103.35010000000001,
            20.617690000000003
          ],
          [
            -103.35028000000001,
            20.617810000000002
          ],
          [
            -103.35073000000001,
            20.61812
          ],
          [
            -103.35088,
            20.6183
          ],
          [
            -103.35123000000002,
            20.61774
          ],
          [
            -103.35127000000001,
            20.61775
          ],
          [
            -103.35127000000001,
            20.61775
          ],
          [
            -103.35139000000001,
            20.617790000000003
          ],
          [
            -103.35146,
            20.61783
          ],
          [
            -103.35159,
            20.61793
          ],
          [
            -103.35210000000001,
            20.618630000000003
          ],
          [
            -103.35226000000002,
            20.618830000000003
          ],
          [
            -103.35238000000001,
            20.618930000000002
          ],
          [
            -103.35251000000001,
            20.619000000000003
          ],
          [
            -103.35252000000001,
            20.619000000000003
          ],
          [
            -103.35275000000001,
            20.619120000000002
          ],
          [
            -103.35289,
            20.61916
          ],
          [
            -103.35306000000001,
            20.61916
          ],
          [
            -103.35358000000001,
            20.619100000000003
          ],
          [
            -103.35398,
            20.619000000000003
          ],
          [
            -103.35444000000001,
            20.618840000000002
          ],
          [
            -103.35448000000001,
            20.618840000000002
          ],
          [
            -103.35468,
            20.618830000000003
          ],
          [
            -103.35451,
            20.620050000000003
          ],
          [
            -103.35448000000001,
            20.62021
          ],
          [
            -103.35476000000001,
            20.620260000000002
          ],
          [
            -103.35475000000001,
            20.62027
          ],
          [
            -103.35557000000001,
            20.620430000000002
          ],
          [
            -103.35653,
            20.62065
          ],
          [
            -103.35654000000001,
            20.62065
          ],
          [
            -103.35833000000001,
            20.620980000000003
          ],
          [
            -103.35891000000001,
            20.621080000000003
          ],
          [
            -103.36008000000001,
            20.621270000000003
          ],
          [
            -103.36009000000001,
            20.621280000000002
          ],
          [
            -103.36107000000001,
            20.621470000000002
          ],
          [
            -103.36172,
            20.62159
          ],
          [
            -103.36235,
            20.62171
          ],
          [
            -103.36323,
            20.621840000000002
          ],
          [
            -103.36311,
            20.62209
          ],
          [
            -103.36311,
            20.62209
          ],
          [
            -103.36282000000001,
            20.62275
          ],
          [
            -103.36263000000001,
            20.62319
          ],
          [
            -103.36252,
            20.623440000000002
          ],
          [
            -103.3622,
            20.624180000000003
          ],
          [
            -103.3622,
            20.624180000000003
          ],
          [
            -103.36165000000001,
            20.62556
          ],
          [
            -103.36164000000001,
            20.625600000000002
          ],
          [
            -103.36094000000001,
            20.62725
          ],
          [
            -103.36071000000001,
            20.62781
          ],
          [
            -103.36051,
            20.62827
          ],
          [
            -103.36024,
            20.628880000000002
          ],
          [
            -103.35995000000001,
            20.62959
          ],
          [
            -103.35984,
            20.62985
          ],
          [
            -103.35954000000001,
            20.630560000000003
          ],
          [
            -103.35943,
            20.6308
          ],
          [
            -103.35943,
            20.63088
          ],
          [
            -103.35944,
            20.6309
          ],
          [
            -103.35937000000001,
            20.631030000000003
          ],
          [
            -103.35937000000001,
            20.631040000000002
          ],
          [
            -103.35893000000002,
            20.632060000000003
          ],
          [
            -103.35885,
            20.632250000000003
          ],
          [
            -103.35790000000001,
            20.63454
          ],
          [
            -103.35717000000001,
            20.636270000000003
          ],
          [
            -103.35716000000001,
            20.636280000000003
          ],
          [
            -103.35611000000002,
            20.63875
          ],
          [
            -103.35635,
            20.638830000000002
          ],
          [
            -103.35635,
            20.638830000000002
          ],
          [
            -103.35888000000001,
            20.63979
          ],
          [
            -103.36137000000001,
            20.64073
          ],
          [
            -103.36137000000001,
            20.64074
          ],
          [
            -103.36241000000001,
            20.641150000000003
          ],
          [
            -103.36366000000001,
            20.6416
          ],
          [
            -103.36357000000001,
            20.641830000000002
          ],
          [
            -103.36351,
            20.641810000000003
          ],
          [
            -103.36237000000001,
            20.644550000000002
          ],
          [
            -103.36241000000001,
            20.64457
          ],
          [
            -103.36144,
            20.64684
          ],
          [
            -103.36101000000001,
            20.64768
          ],
          [
            -103.36104,
            20.64768
          ],
          [
            -103.36103000000001,
            20.64769
          ],
          [
            -103.36032,
            20.64937
          ],
          [
            -103.35969000000001,
            20.649130000000003
          ],
          [
            -103.35657,
            20.64796
          ],
          [
            -103.35424,
            20.647080000000003
          ],
          [
            -103.3537,
            20.646880000000003
          ],
          [
            -103.35342000000001,
            20.646780000000003
          ],
          [
            -103.35314000000001,
            20.64667
          ],
          [
            -103.35315000000001,
            20.646520000000002
          ],
          [
            -103.35315000000001,
            20.646410000000003
          ],
          [
            -103.35312,
            20.646310000000003
          ],
          [
            -103.35308,
            20.646220000000003
          ],
          [
            -103.35307,
            20.646140000000003
          ],
          [
            -103.35306000000001,
            20.64602
          ],
          [
            -103.35294,
            20.64599
          ],
          [
            -103.35276,
            20.646050000000002
          ],
          [
            -103.35269000000001,
            20.646120000000003
          ],
          [
            -103.35261000000001,
            20.64618
          ],
          [
            -103.35266000000001,
            20.64664
          ],
          [
            -103.35266000000001,
            20.64665
          ],
          [
            -103.35267,
            20.646700000000003
          ],
          [
            -103.35234000000001,
            20.647360000000003
          ],
          [
            -103.35192,
            20.64834
          ],
          [
            -103.35182,
            20.648580000000003
          ],
          [
            -103.35181000000001,
            20.648580000000003
          ],
          [
            -103.35130000000001,
            20.64983
          ],
          [
            -103.35115,
            20.650180000000002
          ],
          [
            -103.35049000000001,
            20.65173
          ],
          [
            -103.35037000000001,
            20.651850000000003
          ],
          [
            -103.35025,
            20.65191
          ],
          [
            -103.35025,
            20.65189
          ],
          [
            -103.35024000000001,
            20.6519
          ],
          [
            -103.34902000000001,
            20.65258
          ],
          [
            -103.34902000000001,
            20.65258
          ],
          [
            -103.34758000000001,
            20.65341
          ],
          [
            -103.34757,
            20.65342
          ],
          [
            -103.34621000000001,
            20.65415
          ],
          [
            -103.34607000000001,
            20.654210000000003
          ],
          [
            -103.34602000000001,
            20.654220000000002
          ],
          [
            -103.34595,
            20.654290000000003
          ],
          [
            -103.34592,
            20.654400000000003
          ],
          [
            -103.34593000000001,
            20.654470000000003
          ],
          [
            -103.34598000000001,
            20.65452
          ],
          [
            -103.34609,
            20.654580000000003
          ],
          [
            -103.34617000000001,
            20.654580000000003
          ],
          [
            -103.34622,
            20.65456
          ],
          [
            -103.34639000000001,
            20.65463
          ],
          [
            -103.34649,
            20.654670000000003
          ],
          [
            -103.34698,
            20.65503
          ],
          [
            -103.34750000000001,
            20.655410000000003
          ],
          [
            -103.34750000000001,
            20.655420000000003
          ],
          [
            -103.34891,
            20.656450000000003
          ],
          [
            -103.34914,
            20.6566
          ],
          [
            -103.34938000000001,
            20.656740000000003
          ],
          [
            -103.34970000000001,
            20.65688
          ],
          [
            -103.35054000000001,
            20.65718
          ],
          [
            -103.35055000000001,
            20.65718
          ],
          [
            -103.35055000000001,
            20.65718
          ],
          [
            -103.35105000000001,
            20.65736
          ],
          [
            -103.35367000000001,
            20.65839
          ],
          [
            -103.35362,
            20.658620000000003
          ],
          [
            -103.35360000000001,
            20.658620000000003
          ],
          [
            -103.35346000000001,
            20.659170000000003
          ],
          [
            -103.35314000000001,
            20.66062
          ],
          [
            -103.35317,
            20.66062
          ],
          [
            -103.35316,
            20.66063
          ],
          [
            -103.35285,
            20.661990000000003
          ],
          [
            -103.35285,
            20.661990000000003
          ],
          [
            -103.35259,
            20.663020000000003
          ],
          [
            -103.35173,
            20.66289
          ],
          [
            -103.35058000000001,
            20.662750000000003
          ],
          [
            -103.35032000000001,
            20.66271
          ],
          [
            -103.34971,
            20.66262
          ],
          [
            -103.34973000000001,
            20.66281
          ],
          [
            -103.34953,
            20.663320000000002
          ],
          [
            -103.34943000000001,
            20.66362
          ],
          [
            -103.34945,
            20.66363
          ],
          [
            -103.34942000000001,
            20.663690000000003
          ],
          [
            -103.34916000000001,
            20.664460000000002
          ],
          [
            -103.34915000000001,
            20.664450000000002
          ],
          [
            -103.34895,
            20.66512
          ],
          [
            -103.34881000000001,
            20.6656
          ],
          [
            -103.34867000000001,
            20.665920000000003
          ],
          [
            -103.34864,
            20.66589
          ],
          [
            -103.34856,
            20.666110000000003
          ],
          [
            -103.3481,
            20.667520000000003
          ],
          [
            -103.34784,
            20.668290000000002
          ],
          [
            -103.34777000000001,
            20.66851
          ],
          [
            -103.34778000000001,
            20.66852
          ],
          [
            -103.34759000000001,
            20.669030000000003
          ],
          [
            -103.34753,
            20.669230000000002
          ],
          [
            -103.34736000000001,
            20.669710000000002
          ],
          [
            -103.34726,
            20.669980000000002
          ],
          [
            -103.34724000000001,
            20.67085
          ],
          [
            -103.34722000000001,
            20.671270000000003
          ],
          [
            -103.34722000000001,
            20.67152
          ],
          [
            -103.34721,
            20.6717
          ],
          [
            -103.34720000000002,
            20.672520000000002
          ],
          [
            -103.34719000000001,
            20.67285
          ],
          [
            -103.34723000000001,
            20.67361
          ],
          [
            -103.34726,
            20.67385
          ],
          [
            -103.34729000000002,
            20.67434
          ],
          [
            -103.3473,
            20.674590000000002
          ],
          [
            -103.34732000000001,
            20.67516
          ],
          [
            -103.34738000000002,
            20.67585
          ],
          [
            -103.34740000000001,
            20.676090000000002
          ],
          [
            -103.34739,
            20.676090000000002
          ],
          [
            -103.34739,
            20.6761
          ],
          [
            -103.34748,
            20.677390000000003
          ],
          [
            -103.34750000000001,
            20.67808
          ],
          [
            -103.34753,
            20.678340000000002
          ],
          [
            -103.34751000000001,
            20.678340000000002
          ],
          [
            -103.34760000000001,
            20.680300000000003
          ],
          [
            -103.34763000000001,
            20.680590000000002
          ],
          [
            -103.34765,
            20.680590000000002
          ],
          [
            -103.34765,
            20.681140000000003
          ],
          [
            -103.3477,
            20.681880000000003
          ],
          [
            -103.34772000000001,
            20.68214
          ],
          [
            -103.34776000000001,
            20.68277
          ],
          [
            -103.34778000000001,
            20.683570000000003
          ],
          [
            -103.34782000000001,
            20.68382
          ],
          [
            -103.34859,
            20.683780000000002
          ],
          [
            -103.34862000000001,
            20.684440000000002
          ],
          [
            -103.34868,
            20.685350000000003
          ],
          [
            -103.34815,
            20.6854
          ],
          [
            -103.34794000000001,
            20.68541
          ],
          [
            -103.34795000000001,
            20.685640000000003
          ],
          [
            -103.34795000000001,
            20.685650000000003
          ],
          [
            -103.34803000000001,
            20.687050000000003
          ],
          [
            -103.34811,
            20.688360000000003
          ],
          [
            -103.34815,
            20.688360000000003
          ],
          [
            -103.34816000000001,
            20.689030000000002
          ],
          [
            -103.34821000000001,
            20.690040000000003
          ],
          [
            -103.34821000000001,
            20.690040000000003
          ],
          [
            -103.34823000000002,
            20.690530000000003
          ],
          [
            -103.34828,
            20.69152
          ],
          [
            -103.34828,
            20.69152
          ],
          [
            -103.34832000000002,
            20.69226
          ],
          [
            -103.34833,
            20.69226
          ],
          [
            -103.34835000000001,
            20.692590000000003
          ],
          [
            -103.34837,
            20.692960000000003
          ],
          [
            -103.34836000000001,
            20.693510000000003
          ],
          [
            -103.34839000000001,
            20.69377
          ],
          [
            -103.34846,
            20.694380000000002
          ],
          [
            -103.34845000000001,
            20.694380000000002
          ],
          [
            -103.34822000000001,
            20.694460000000003
          ],
          [
            -103.34789,
            20.694650000000003
          ],
          [
            -103.34773000000001,
            20.694850000000002
          ],
          [
            -103.34762,
            20.69515
          ],
          [
            -103.34760000000001,
            20.695490000000003
          ],
          [
            -103.34771,
            20.695680000000003
          ],
          [
            -103.34796000000001,
            20.69592
          ],
          [
            -103.34805000000001,
            20.696050000000003
          ],
          [
            -103.34807,
            20.69622
          ],
          [
            -103.34791000000001,
            20.69782
          ],
          [
            -103.34775,
            20.699050000000003
          ],
          [
            -103.34767000000001,
            20.699630000000003
          ],
          [
            -103.34766,
            20.69976
          ],
          [
            -103.34757,
            20.7005
          ],
          [
            -103.3477,
            20.70051
          ],
          [
            -103.34751000000001,
            20.702060000000003
          ],
          [
            -103.34738000000002,
            20.702060000000003
          ],
          [
            -103.34734,
            20.70239
          ],
          [
            -103.34722000000001,
            20.70238
          ],
          [
            -103.34734,
            20.70239
          ],
          [
            -103.34733000000001,
            20.70249
          ],
          [
            -103.34746000000001,
            20.7025
          ],
          [
            -103.34741000000001,
            20.70286
          ],
          [
            -103.34732000000001,
            20.703580000000002
          ],
          [
            -103.34726,
            20.703750000000003
          ],
          [
            -103.34726,
            20.70382
          ],
          [
            -103.34717,
            20.70381
          ],
          [
            -103.34716,
            20.70382
          ],
          [
            -103.34687000000001,
            20.70626
          ],
          [
            -103.34687000000001,
            20.70626
          ],
          [
            -103.34683000000001,
            20.70672
          ],
          [
            -103.34676,
            20.707420000000003
          ],
          [
            -103.34673000000001,
            20.707420000000003
          ],
          [
            -103.34668,
            20.707790000000003
          ],
          [
            -103.34638000000001,
            20.71009
          ],
          [
            -103.34638000000001,
            20.71009
          ],
          [
            -103.3461,
            20.71244
          ],
          [
            -103.3461,
            20.71244
          ],
          [
            -103.34599000000001,
            20.71329
          ],
          [
            -103.34608000000001,
            20.713610000000003
          ],
          [
            -103.34602000000001,
            20.71403
          ],
          [
            -103.34587,
            20.71534
          ],
          [
            -103.34577,
            20.715960000000003
          ],
          [
            -103.34576000000001,
            20.716150000000003
          ],
          [
            -103.34574,
            20.71627
          ],
          [
            -103.34568,
            20.71639
          ],
          [
            -103.34549000000001,
            20.71805
          ],
          [
            -103.34540000000001,
            20.718030000000002
          ],
          [
            -103.34539000000001,
            20.718290000000003
          ],
          [
            -103.34538,
            20.71834
          ],
          [
            -103.34531000000001,
            20.719340000000003
          ],
          [
            -103.34530000000001,
            20.72119
          ],
          [
            -103.34531000000001,
            20.72119
          ],
          [
            -103.34530000000001,
            20.721410000000002
          ],
          [
            -103.3452,
            20.72146
          ],
          [
            -103.3451,
            20.721490000000003
          ],
          [
            -103.34506,
            20.721500000000002
          ],
          [
            -103.34473000000001,
            20.721860000000003
          ],
          [
            -103.34453,
            20.722
          ],
          [
            -103.34452,
            20.72201
          ],
          [
            -103.34425,
            20.72222
          ],
          [
            -103.34409000000001,
            20.72228
          ],
          [
            -103.34351000000001,
            20.72259
          ],
          [
            -103.34351000000001,
            20.72259
          ],
          [
            -103.34270000000001,
            20.72302
          ],
          [
            -103.34215,
            20.72331
          ],
          [
            -103.34192,
            20.72343
          ],
          [
            -103.34174,
            20.7235
          ],
          [
            -103.34100000000001,
            20.72368
          ],
          [
            -103.34018,
            20.72396
          ],
          [
            -103.34014,
            20.72397
          ],
          [
            -103.33882000000001,
            20.724410000000002
          ],
          [
            -103.3388,
            20.724420000000002
          ],
          [
            -103.33763,
            20.72485
          ],
          [
            -103.33728,
            20.72509
          ],
          [
            -103.3371,
            20.725260000000002
          ],
          [
            -103.33697000000001,
            20.72539
          ],
          [
            -103.33687,
            20.72559
          ],
          [
            -103.33672000000001,
            20.725820000000002
          ],
          [
            -103.33638,
            20.7264
          ],
          [
            -103.33626000000001,
            20.7266
          ],
          [
            -103.33614000000001,
            20.72698
          ],
          [
            -103.33613000000001,
            20.727210000000003
          ],
          [
            -103.33613000000001,
            20.72784
          ],
          [
            -103.33606,
            20.728150000000003
          ],
          [
            -103.33606,
            20.728250000000003
          ],
          [
            -103.33607,
            20.728330000000003
          ],
          [
            -103.33616,
            20.72849
          ],
          [
            -103.33622000000001,
            20.72856
          ],
          [
            -103.33619,
            20.728630000000003
          ],
          [
            -103.33581000000001,
            20.729190000000003
          ],
          [
            -103.33579,
            20.729280000000003
          ],
          [
            -103.33584,
            20.729470000000003
          ],
          [
            -103.33566,
            20.72979
          ],
          [
            -103.33528000000001,
            20.73037
          ],
          [
            -103.33503,
            20.730770000000003
          ],
          [
            -103.33491000000001,
            20.73094
          ],
          [
            -103.33488000000001,
            20.73093
          ],
          [
            -103.33464000000001,
            20.730970000000003
          ],
          [
            -103.33463,
            20.730980000000002
          ],
          [
            -103.33384000000001,
            20.73112
          ],
          [
            -103.33366000000001,
            20.731170000000002
          ],
          [
            -103.33359000000002,
            20.73121
          ],
          [
            -103.33347,
            20.73139
          ],
          [
            -103.33346,
            20.7314
          ],
          [
            -103.33277000000001,
            20.732470000000003
          ],
          [
            -103.33277000000001,
            20.732470000000003
          ],
          [
            -103.33252,
            20.73288
          ],
          [
            -103.33226,
            20.733400000000003
          ],
          [
            -103.33214000000001,
            20.733700000000002
          ],
          [
            -103.33207,
            20.733970000000003
          ],
          [
            -103.33192000000001,
            20.734440000000003
          ],
          [
            -103.33129000000001,
            20.735860000000002
          ],
          [
            -103.33128,
            20.735860000000002
          ],
          [
            -103.33097000000001,
            20.736710000000002
          ],
          [
            -103.33072000000001,
            20.73733
          ],
          [
            -103.33059000000002,
            20.737710000000003
          ],
          [
            -103.33059000000002,
            20.73627
          ]
        ]
      }
    }
  ]
}