{
  "type": "FeatureCollection",
  "features": [
    {
      "type": "Feature",
      "properties": {
        "identifier": "55-3",
        "name": "Ruta 55"
      },
      "geometry": {
        "type": "LineString",
        "coordinates": [
          [
            -103.23042000000001,
            20.640600000000003
          ],
          [
            -103.23047000000001,
            20.64158
          ],
          [
            -103.23011000000001,
            20.64197
          ],
          [
            -103.23017000000002,
            20.64317
          ],
          [
            -103.23038000000001,
            20.64347
          ],
          [
            -103.23016000000001,
            20.64441
          ],
          [
            -103.22731,
            20.644090000000002
          ],
          [
            -103.22737000000001,
            20.645000000000003
          ],
          [
            -103.22742000000001,
            20.64608
          ],
          [
            -103.22758,
            20.648210000000002
          ],
          [
            -103.227,
            20.651870000000002
          ],
          [
            -103.23460000000001,
            20.65274
          ],
          [
            -103.23645,
            20.646990000000002
          ],
          [
            -103.23725,
            20.644550000000002
          ],
          [
            -103.23784,
            20.64345
          ],
          [
            -103.23896,
            20.6426
          ],
          [
            -103.24096000000002,
            20.64129
          ],
          [
            -103.2424,
            20.64037
          ],
          [
            -103.24318000000001,
            20.63941
          ],
          [
            -103.24377000000001,
            20.63415
          ],
          [
            -103.24398000000001,
            20.632610000000003
          ],
          [
            -103.24428,
            20.631680000000003
          ],
          [
            -103.24467000000001,
            20.630070000000003
          ],
          [
            -103.2454,
            20.627850000000002
          ],
          [
            -103.24598,
            20.626060000000003
          ],
          [
            -103.24796,
            20.62666
          ],
          [
            -103.25014,
            20.627170000000003
          ],
          [
            -103.25099,
            20.62638
          ],
          [
            -103.25130000000001,
            20.626240000000003
          ],
          [
            -103.25195000000001,
            20.626340000000003
          ],
          [
            -103.25471,
            20.62695
          ],
          [
            -103.25517,
            20.62703
          ],
          [
            -103.25560000000002,
            20.62724
          ],
          [
            -103.25578,
            20.627350000000003
          ],
          [
            -103.25627000000001,
            20.628120000000003
          ],
          [
            -103.25666000000001,
            20.628690000000002
          ],
          [
            -103.25710000000001,
            20.62911
          ],
          [
            -103.25755000000001,
            20.629260000000002
          ],
          [
            -103.25792000000001,
            20.629260000000002
          ],
          [
            -103.25942,
            20.62902
          ],
          [
            -103.26118000000001,
            20.62875
          ],
          [
            -103.2616,
            20.62874
          ],
          [
            -103.26183,
            20.62874
          ],
          [
            -103.2629,
            20.629320000000003
          ],
          [
            -103.26593000000001,
            20.630930000000003
          ],
          [
            -103.2659,
            20.631050000000002
          ],
          [
            -103.26592000000001,
            20.631200000000003
          ],
          [
            -103.26608,
            20.63134
          ],
          [
            -103.26627,
            20.631320000000002
          ],
          [
            -103.26662,
            20.63134
          ],
          [
            -103.26751,
            20.63181
          ],
          [
            -103.26914000000001,
            20.63256
          ],
          [
            -103.27034,
            20.633210000000002
          ],
          [
            -103.27162000000001,
            20.634130000000003
          ],
          [
            -103.27251000000001,
            20.634900000000002
          ],
          [
            -103.27358000000001,
            20.63614
          ],
          [
            -103.27503000000002,
            20.638330000000003
          ],
          [
            -103.27628000000001,
            20.64018
          ],
          [
            -103.27665,
            20.64066
          ],
          [
            -103.27722000000001,
            20.641260000000003
          ],
          [
            -103.2779,
            20.64188
          ],
          [
            -103.27942,
            20.64301
          ],
          [
            -103.28037,
            20.64356
          ],
          [
            -103.28144,
            20.64401
          ],
          [
            -103.2827,
            20.64433
          ],
          [
            -103.28407000000001,
            20.6446
          ],
          [
            -103.28468000000001,
            20.6447
          ],
          [
            -103.28562000000001,
            20.6447
          ],
          [
            -103.28647000000001,
            20.64451
          ],
          [
            -103.28767,
            20.64424
          ],
          [
            -103.28805000000001,
            20.64422
          ],
          [
            -103.28930000000001,
            20.6443
          ],
          [
            -103.29114000000001,
            20.644470000000002
          ],
          [
            -103.29624000000001,
            20.64506
          ],
          [
            -103.3002,
            20.645500000000002
          ],
          [
            -103.30085000000001,
            20.645580000000002
          ],
          [
            -103.30076000000001,
            20.646310000000003
          ],
          [
            -103.30062000000001,
            20.647190000000002
          ],
          [
            -103.30037000000002,
            20.65004
          ],
          [
            -103.30069,
            20.651030000000002
          ],
          [
            -103.30210000000001,
            20.65042
          ],
          [
            -103.30456000000001,
            20.64911
          ],
          [
            -103.30636000000001,
            20.64817
          ],
          [
            -103.3109,
            20.64592
          ],
          [
            -103.31499000000001,
            20.6474
          ],
          [
            -103.31988000000001,
            20.649060000000002
          ],
          [
            -103.32296000000001,
            20.650090000000002
          ],
          [
            -103.32317,
            20.65021
          ],
          [
            -103.32331,
            20.650350000000003
          ],
          [
            -103.32365000000001,
            20.650370000000002
          ],
          [
            -103.32414000000001,
            20.651100000000003
          ],
          [
            -103.32457000000001,
            20.65165
          ],
          [
            -103.32513,
            20.6524
          ],
          [
            -103.32628000000001,
            20.653940000000002
          ],
          [
            -103.32711,
            20.655040000000003
          ],
          [
            -103.32879000000001,
            20.65726
          ],
          [
            -103.32948,
            20.65819
          ],
          [
            -103.33090000000001,
            20.656350000000003
          ],
          [
            -103.33174000000001,
            20.65697
          ],
          [
            -103.3349,
            20.6583
          ],
          [
            -103.3357,
            20.658540000000002
          ],
          [
            -103.33979000000001,
            20.65999
          ],
          [
            -103.34345,
            20.661260000000002
          ],
          [
            -103.34578,
            20.66204
          ],
          [
            -103.3485,
            20.662450000000003
          ],
          [
            -103.3486,
            20.6625
          ],
          [
            -103.34883,
            20.66261
          ],
          [
            -103.349,
            20.662570000000002
          ],
          [
            -103.34973000000001,
            20.662650000000003
          ],
          [
            -103.35028000000001,
            20.661170000000002
          ],
          [
            -103.35063000000001,
            20.660310000000003
          ],
          [
            -103.3515,
            20.65837
          ],
          [
            -103.35182,
            20.65771
          ],
          [
            -103.35307,
            20.658170000000002
          ],
          [
            -103.35542000000001,
            20.659070000000003
          ],
          [
            -103.35872,
            20.66027
          ],
          [
            -103.36258000000001,
            20.661730000000002
          ],
          [
            -103.36634000000001,
            20.66318
          ],
          [
            -103.36645000000001,
            20.663030000000003
          ],
          [
            -103.36672000000002,
            20.662740000000003
          ],
          [
            -103.36766000000001,
            20.66028
          ],
          [
            -103.36823000000001,
            20.65868
          ],
          [
            -103.36871000000001,
            20.65752
          ],
          [
            -103.36975000000001,
            20.65508
          ],
          [
            -103.37007000000001,
            20.65436
          ],
          [
            -103.37177000000001,
            20.653650000000003
          ],
          [
            -103.37213000000001,
            20.653250000000003
          ],
          [
            -103.37495000000001,
            20.654760000000003
          ],
          [
            -103.37978000000001,
            20.657410000000002
          ],
          [
            -103.38333000000002,
            20.65925
          ],
          [
            -103.38328000000001,
            20.65942
          ],
          [
            -103.38331000000001,
            20.65971
          ],
          [
            -103.38341000000001,
            20.65987
          ],
          [
            -103.38368000000001,
            20.660020000000003
          ],
          [
            -103.38399000000001,
            20.660010000000003
          ],
          [
            -103.38429000000001,
            20.659840000000003
          ],
          [
            -103.38445000000002,
            20.659560000000003
          ],
          [
            -103.38447000000001,
            20.65931
          ],
          [
            -103.38439000000001,
            20.65914
          ],
          [
            -103.38582000000001,
            20.658320000000003
          ],
          [
            -103.38759,
            20.65737
          ],
          [
            -103.38772,
            20.65725
          ],
          [
            -103.38947,
            20.656200000000002
          ],
          [
            -103.3927,
            20.65434
          ],
          [
            -103.39609000000002,
            20.65236
          ],
          [
            -103.39835000000001,
            20.651100000000003
          ],
          [
            -103.39885000000001,
            20.65079
          ],
          [
            -103.39894000000001,
            20.65079
          ],
          [
            -103.40050000000001,
            20.64986
          ],
          [
            -103.40347000000001,
            20.64815
          ],
          [
            -103.40440000000001,
            20.6476
          ],
          [
            -103.40469,
            20.64757
          ],
          [
            -103.40485000000001,
            20.647740000000002
          ],
          [
            -103.40506,
            20.647840000000002
          ],
          [
            -103.40544000000001,
            20.64789
          ],
          [
            -103.40576000000001,
            20.647820000000003
          ],
          [
            -103.40613,
            20.64757
          ],
          [
            -103.40643000000001,
            20.647190000000002
          ],
          [
            -103.40655000000001,
            20.646870000000003
          ],
          [
            -103.40658,
            20.64637
          ],
          [
            -103.40861000000001,
            20.645180000000003
          ],
          [
            -103.41219000000001,
            20.64298
          ],
          [
            -103.4166,
            20.640150000000002
          ],
          [
            -103.41901000000001,
            20.63858
          ],
          [
            -103.41937000000001,
            20.63915
          ],
          [
            -103.41957000000001,
            20.6398
          ],
          [
            -103.41966000000001,
            20.640700000000002
          ],
          [
            -103.41981000000001,
            20.641440000000003
          ],
          [
            -103.42021000000001,
            20.64241
          ],
          [
            -103.42085,
            20.644370000000002
          ],
          [
            -103.42104,
            20.645200000000003
          ],
          [
            -103.42117,
            20.6461
          ],
          [
            -103.42127,
            20.64628
          ],
          [
            -103.42175,
            20.646980000000003
          ],
          [
            -103.42199000000001,
            20.647380000000002
          ],
          [
            -103.42211,
            20.64789
          ],
          [
            -103.42240000000001,
            20.65014
          ],
          [
            -103.42244000000001,
            20.650640000000003
          ],
          [
            -103.42237000000002,
            20.651320000000002
          ],
          [
            -103.42265,
            20.653550000000003
          ],
          [
            -103.42290000000001,
            20.65558
          ],
          [
            -103.42302000000001,
            20.656730000000003
          ],
          [
            -103.42322000000001,
            20.65802
          ],
          [
            -103.42322000000001,
            20.65658
          ]
        ]
      }
    }
  ]
}