{
  "type": "FeatureCollection",
  "features": [
    {
      "type": "Feature",
      "properties": {
        "identifier": "603-b",
        "name": "Ruta 603 B"
      },
      "geometry": {
        "type": "LineString",
        "coordinates": [
          [
            -103.30384000000001,
            20.717910000000003
          ],
          [
            -103.30416000000001,
            20.71687
          ],
          [
            -103.30445,
            20.71591
          ],
          [
            -103.30550000000001,
            20.71537
          ],
          [
            -103.31026000000001,
            20.717840000000002
          ],
          [
            -103.31045,
            20.71714
          ],
          [
            -103.31054,
            20.716810000000002
          ],
          [
            -103.31065000000001,
            20.715960000000003
          ],
          [
            -103.31065000000001,
            20.71591
          ],
          [
            -103.31121,
            20.71601
          ],
          [
            -103.31151000000001,
            20.71433
          ],
          [
            -103.31153,
            20.71421
          ],
          [
            -103.31024000000001,
            20.71405
          ],
          [
            -103.30979,
            20.71387
          ],
          [
            -103.30985000000001,
            20.71374
          ],
          [
            -103.30852,
            20.713310000000003
          ],
          [
            -103.30851000000001,
            20.7133
          ],
          [
            -103.30782,
            20.713050000000003
          ],
          [
            -103.30744000000001,
            20.71281
          ],
          [
            -103.30728,
            20.71271
          ],
          [
            -103.30708000000001,
            20.71255
          ],
          [
            -103.30685000000001,
            20.712300000000003
          ],
          [
            -103.30668000000001,
            20.712110000000003
          ],
          [
            -103.30668000000001,
            20.712100000000003
          ],
          [
            -103.30666000000001,
            20.712130000000002
          ],
          [
            -103.30636000000001,
            20.711830000000003
          ],
          [
            -103.30775000000001,
            20.711170000000003
          ],
          [
            -103.30768,
            20.71103
          ],
          [
            -103.30847000000001,
            20.710620000000002
          ],
          [
            -103.30874000000001,
            20.710500000000003
          ],
          [
            -103.30981000000001,
            20.70999
          ],
          [
            -103.31004000000001,
            20.709880000000002
          ],
          [
            -103.31093000000001,
            20.70944
          ],
          [
            -103.31137000000001,
            20.70923
          ],
          [
            -103.31266000000001,
            20.708620000000003
          ],
          [
            -103.31289000000001,
            20.7085
          ],
          [
            -103.31362000000001,
            20.70814
          ],
          [
            -103.31362000000001,
            20.708160000000003
          ],
          [
            -103.31367,
            20.7082
          ],
          [
            -103.31379000000001,
            20.70823
          ],
          [
            -103.31391,
            20.708180000000002
          ],
          [
            -103.31397000000001,
            20.70811
          ],
          [
            -103.31395,
            20.70801
          ],
          [
            -103.31387000000001,
            20.70793
          ],
          [
            -103.31401000000001,
            20.707710000000002
          ],
          [
            -103.31401000000001,
            20.707700000000003
          ],
          [
            -103.31460000000001,
            20.70682
          ],
          [
            -103.31526000000001,
            20.705830000000002
          ],
          [
            -103.31635000000001,
            20.70419
          ],
          [
            -103.3164,
            20.70411
          ],
          [
            -103.31721,
            20.702900000000003
          ],
          [
            -103.31811,
            20.70154
          ],
          [
            -103.31827000000001,
            20.70129
          ],
          [
            -103.31913000000002,
            20.699990000000003
          ],
          [
            -103.31946,
            20.699540000000002
          ],
          [
            -103.31949,
            20.69951
          ],
          [
            -103.31968,
            20.699630000000003
          ],
          [
            -103.32007000000002,
            20.699050000000003
          ],
          [
            -103.32123000000001,
            20.69959
          ],
          [
            -103.32222,
            20.701300000000003
          ],
          [
            -103.32297000000001,
            20.700930000000003
          ],
          [
            -103.32352,
            20.700660000000003
          ],
          [
            -103.32408000000001,
            20.700280000000003
          ],
          [
            -103.32466000000001,
            20.699350000000003
          ],
          [
            -103.32479000000001,
            20.69875
          ],
          [
            -103.32489000000001,
            20.698790000000002
          ],
          [
            -103.32648,
            20.69957
          ],
          [
            -103.32700000000001,
            20.699820000000003
          ],
          [
            -103.32719,
            20.69735
          ],
          [
            -103.32788000000001,
            20.696160000000003
          ],
          [
            -103.32962,
            20.69293
          ],
          [
            -103.33131,
            20.6898
          ],
          [
            -103.33127,
            20.6898
          ],
          [
            -103.33213,
            20.6888
          ],
          [
            -103.33303000000001,
            20.687900000000003
          ],
          [
            -103.33468,
            20.686570000000003
          ],
          [
            -103.33468,
            20.68608
          ],
          [
            -103.33467,
            20.684720000000002
          ],
          [
            -103.33467,
            20.6838
          ],
          [
            -103.33466000000001,
            20.683300000000003
          ],
          [
            -103.33555000000001,
            20.683280000000003
          ],
          [
            -103.33702000000001,
            20.68324
          ],
          [
            -103.33736,
            20.68324
          ],
          [
            -103.33875,
            20.683210000000003
          ],
          [
            -103.34002000000001,
            20.68318
          ],
          [
            -103.34116,
            20.68316
          ],
          [
            -103.34116,
            20.683120000000002
          ],
          [
            -103.34161,
            20.68309
          ],
          [
            -103.34246,
            20.68306
          ],
          [
            -103.34274,
            20.683040000000002
          ],
          [
            -103.34346000000001,
            20.683010000000003
          ],
          [
            -103.34374000000001,
            20.68299
          ],
          [
            -103.34439,
            20.68297
          ],
          [
            -103.34534000000001,
            20.682920000000003
          ],
          [
            -103.34562000000001,
            20.6829
          ],
          [
            -103.34614,
            20.68288
          ],
          [
            -103.3468,
            20.682830000000003
          ],
          [
            -103.3478,
            20.6828
          ],
          [
            -103.34852000000001,
            20.682740000000003
          ],
          [
            -103.34928000000001,
            20.68271
          ],
          [
            -103.35000000000001,
            20.68267
          ],
          [
            -103.3503,
            20.682650000000002
          ],
          [
            -103.35057,
            20.682660000000002
          ],
          [
            -103.35057,
            20.681220000000003
          ]
        ]
      }
    }
  ]
}