{
  "type": "FeatureCollection",
  "features": [
    {
      "type": "Feature",
      "properties": {
        "identifier": "603-a-via-huentitan-el-alto",
        "name": "Ruta 603 A Vía Huentitán el Alto"
      },
      "geometry": {
        "type": "LineString",
        "coordinates": [
          [
            -103.34641,
            20.673630000000003
          ],
          [
            -103.34644000000002,
            20.674390000000002
          ],
          [
            -103.34568,
            20.67442
          ],
          [
            -103.34483,
            20.67442
          ],
          [
            -103.34222000000001,
            20.67451
          ],
          [
            -103.34212000000001,
            20.674680000000002
          ],
          [
            -103.33538000000001,
            20.67282
          ],
          [
            -103.33506000000001,
            20.673730000000003
          ],
          [
            -103.33346,
            20.678610000000003
          ],
          [
            -103.33318000000001,
            20.679550000000003
          ],
          [
            -103.32658,
            20.6798
          ],
          [
            -103.32509,
            20.68418
          ],
          [
            -103.32484000000001,
            20.68438
          ],
          [
            -103.32544000000001,
            20.684500000000003
          ],
          [
            -103.32637000000001,
            20.68466
          ],
          [
            -103.32558,
            20.686940000000003
          ],
          [
            -103.32544000000001,
            20.68739
          ],
          [
            -103.32519,
            20.688080000000003
          ],
          [
            -103.32444000000001,
            20.690340000000003
          ],
          [
            -103.32423000000001,
            20.69093
          ],
          [
            -103.32406,
            20.69149
          ],
          [
            -103.32366,
            20.692580000000003
          ],
          [
            -103.32349,
            20.693140000000003
          ],
          [
            -103.32324000000001,
            20.69388
          ],
          [
            -103.32194000000001,
            20.695790000000002
          ],
          [
            -103.32139000000001,
            20.69665
          ],
          [
            -103.31991000000001,
            20.698860000000003
          ],
          [
            -103.31983000000001,
            20.698960000000003
          ],
          [
            -103.31916000000001,
            20.699990000000003
          ],
          [
            -103.31706000000001,
            20.703110000000002
          ],
          [
            -103.31388000000001,
            20.707900000000002
          ],
          [
            -103.31378000000001,
            20.707890000000003
          ],
          [
            -103.31369000000001,
            20.70793
          ],
          [
            -103.31363,
            20.707970000000003
          ],
          [
            -103.31359,
            20.70805
          ],
          [
            -103.31359,
            20.70814
          ],
          [
            -103.31361000000001,
            20.708170000000003
          ],
          [
            -103.31069000000001,
            20.709570000000003
          ],
          [
            -103.30852,
            20.710620000000002
          ],
          [
            -103.30641000000001,
            20.711630000000003
          ],
          [
            -103.30637000000002,
            20.711560000000002
          ],
          [
            -103.30629,
            20.711530000000003
          ],
          [
            -103.30618000000001,
            20.711530000000003
          ],
          [
            -103.30613000000001,
            20.711550000000003
          ],
          [
            -103.30608000000001,
            20.71159
          ],
          [
            -103.30604000000001,
            20.711650000000002
          ],
          [
            -103.30603,
            20.711730000000003
          ],
          [
            -103.30606,
            20.7118
          ],
          [
            -103.29738,
            20.71599
          ],
          [
            -103.29693,
            20.71702
          ],
          [
            -103.29669000000001,
            20.717640000000003
          ],
          [
            -103.29577,
            20.72024
          ],
          [
            -103.29402,
            20.722250000000003
          ],
          [
            -103.29260000000001,
            20.72387
          ],
          [
            -103.29226000000001,
            20.72466
          ],
          [
            -103.29220000000001,
            20.725440000000003
          ],
          [
            -103.29221000000001,
            20.725890000000003
          ],
          [
            -103.29217000000001,
            20.726100000000002
          ],
          [
            -103.29217000000001,
            20.72624
          ],
          [
            -103.29217000000001,
            20.724800000000002
          ]
        ]
      }
    }
  ]
}