{
  "type": "FeatureCollection",
  "features": [
    {
      "type": "Feature",
      "properties": {
        "identifier": "604-a",
        "name": "Ruta 604 A"
      },
      "geometry": {
        "type": "LineString",
        "coordinates": [
          [
            -103.28181000000001,
            20.62564
          ],
          [
            -103.28178000000001,
            20.625780000000002
          ],
          [
            -103.28144,
            20.6276
          ],
          [
            -103.28143000000001,
            20.627830000000003
          ],
          [
            -103.28136,
            20.62818
          ],
          [
            -103.28117,
            20.62874
          ],
          [
            -103.28106000000001,
            20.629160000000002
          ],
          [
            -103.28094000000002,
            20.629810000000003
          ],
          [
            -103.28082,
            20.63014
          ],
          [
            -103.28073,
            20.6304
          ],
          [
            -103.28065000000001,
            20.6306
          ],
          [
            -103.28051,
            20.63107
          ],
          [
            -103.28043000000001,
            20.631320000000002
          ],
          [
            -103.28037,
            20.631500000000003
          ],
          [
            -103.28035000000001,
            20.631580000000003
          ],
          [
            -103.28025000000001,
            20.6319
          ],
          [
            -103.28013000000001,
            20.63231
          ],
          [
            -103.28001,
            20.632710000000003
          ],
          [
            -103.27991000000002,
            20.63307
          ],
          [
            -103.27989000000001,
            20.63315
          ],
          [
            -103.27979,
            20.633450000000003
          ],
          [
            -103.27971000000001,
            20.633660000000003
          ],
          [
            -103.27956,
            20.634130000000003
          ],
          [
            -103.27950000000001,
            20.63437
          ],
          [
            -103.27942,
            20.63462
          ],
          [
            -103.27928000000001,
            20.63503
          ],
          [
            -103.27915000000002,
            20.63547
          ],
          [
            -103.27908000000001,
            20.63569
          ],
          [
            -103.27907,
            20.635730000000002
          ],
          [
            -103.27893,
            20.63613
          ],
          [
            -103.27824000000001,
            20.63791
          ],
          [
            -103.27795,
            20.63858
          ],
          [
            -103.27797000000001,
            20.63858
          ],
          [
            -103.27793000000001,
            20.63868
          ],
          [
            -103.27729000000001,
            20.640310000000003
          ],
          [
            -103.27717000000001,
            20.640320000000003
          ],
          [
            -103.27684,
            20.640510000000003
          ],
          [
            -103.27684,
            20.640520000000002
          ],
          [
            -103.27663000000001,
            20.64065
          ],
          [
            -103.27703000000001,
            20.641070000000003
          ],
          [
            -103.27755,
            20.641540000000003
          ],
          [
            -103.27804,
            20.641990000000003
          ],
          [
            -103.27919000000001,
            20.642850000000003
          ],
          [
            -103.27977000000001,
            20.64224
          ],
          [
            -103.28012000000001,
            20.64186
          ],
          [
            -103.28022000000001,
            20.641730000000003
          ],
          [
            -103.28089000000001,
            20.64055
          ],
          [
            -103.28109,
            20.640040000000003
          ],
          [
            -103.28116000000001,
            20.63932
          ],
          [
            -103.28124000000001,
            20.639010000000003
          ],
          [
            -103.28138000000001,
            20.638820000000003
          ],
          [
            -103.2826,
            20.63755
          ],
          [
            -103.2827,
            20.637400000000003
          ],
          [
            -103.28327,
            20.63671
          ],
          [
            -103.28347000000001,
            20.63672
          ],
          [
            -103.2836,
            20.636740000000003
          ],
          [
            -103.28378000000001,
            20.636660000000003
          ],
          [
            -103.28382,
            20.6367
          ],
          [
            -103.28482000000001,
            20.637020000000003
          ],
          [
            -103.28531000000001,
            20.63719
          ],
          [
            -103.28557,
            20.637310000000003
          ],
          [
            -103.28581000000001,
            20.637420000000002
          ],
          [
            -103.28638000000001,
            20.637690000000003
          ],
          [
            -103.28675000000001,
            20.63783
          ],
          [
            -103.28698000000001,
            20.637880000000003
          ],
          [
            -103.28710000000001,
            20.637880000000003
          ],
          [
            -103.28726,
            20.63792
          ],
          [
            -103.28742000000001,
            20.63794
          ],
          [
            -103.28766,
            20.637960000000003
          ],
          [
            -103.28787000000001,
            20.637980000000002
          ],
          [
            -103.28819000000001,
            20.63802
          ],
          [
            -103.28835000000001,
            20.63804
          ],
          [
            -103.28843,
            20.638050000000003
          ],
          [
            -103.28881000000001,
            20.638070000000003
          ],
          [
            -103.28908000000001,
            20.6381
          ],
          [
            -103.28934000000001,
            20.63814
          ],
          [
            -103.28994,
            20.63822
          ],
          [
            -103.29009,
            20.638240000000003
          ],
          [
            -103.29008,
            20.63849
          ],
          [
            -103.29005000000001,
            20.63879
          ],
          [
            -103.29004,
            20.63888
          ],
          [
            -103.29048,
            20.638900000000003
          ],
          [
            -103.29100000000001,
            20.638910000000003
          ],
          [
            -103.29127000000001,
            20.638910000000003
          ],
          [
            -103.29138,
            20.638910000000003
          ],
          [
            -103.29182000000002,
            20.638910000000003
          ],
          [
            -103.29174,
            20.63969
          ],
          [
            -103.29173000000002,
            20.639750000000003
          ],
          [
            -103.29172000000001,
            20.639930000000003
          ],
          [
            -103.29167000000001,
            20.64047
          ],
          [
            -103.29164000000002,
            20.640880000000003
          ],
          [
            -103.29162000000001,
            20.64104
          ],
          [
            -103.29159000000001,
            20.641280000000002
          ],
          [
            -103.29138,
            20.6427
          ],
          [
            -103.29154000000001,
            20.64271
          ],
          [
            -103.29205,
            20.642750000000003
          ],
          [
            -103.29193000000001,
            20.64357
          ],
          [
            -103.29178,
            20.644440000000003
          ],
          [
            -103.29135000000001,
            20.64439
          ],
          [
            -103.29027,
            20.64429
          ],
          [
            -103.29023000000001,
            20.64467
          ],
          [
            -103.29021,
            20.64485
          ],
          [
            -103.29017,
            20.64527
          ],
          [
            -103.29012,
            20.64571
          ],
          [
            -103.29009,
            20.645940000000003
          ],
          [
            -103.29006000000001,
            20.646140000000003
          ],
          [
            -103.29001000000001,
            20.64657
          ],
          [
            -103.28996000000001,
            20.646990000000002
          ],
          [
            -103.28994,
            20.64724
          ],
          [
            -103.2899,
            20.64751
          ],
          [
            -103.28984000000001,
            20.64759
          ],
          [
            -103.28977,
            20.647720000000003
          ],
          [
            -103.28974000000001,
            20.647830000000003
          ],
          [
            -103.28971000000001,
            20.64799
          ],
          [
            -103.28966000000001,
            20.64844
          ],
          [
            -103.28964,
            20.648690000000002
          ],
          [
            -103.28962000000001,
            20.648860000000003
          ],
          [
            -103.28956000000001,
            20.6493
          ],
          [
            -103.28951,
            20.64974
          ],
          [
            -103.28946,
            20.650160000000003
          ],
          [
            -103.28941,
            20.6506
          ],
          [
            -103.28938000000001,
            20.650840000000002
          ],
          [
            -103.28932,
            20.651300000000003
          ],
          [
            -103.28921000000001,
            20.65219
          ],
          [
            -103.28918,
            20.652430000000003
          ],
          [
            -103.28907000000001,
            20.653270000000003
          ],
          [
            -103.28904000000001,
            20.65353
          ],
          [
            -103.28901,
            20.653740000000003
          ],
          [
            -103.28892,
            20.65436
          ],
          [
            -103.28944000000001,
            20.65445
          ],
          [
            -103.29077000000001,
            20.654680000000003
          ],
          [
            -103.29153000000001,
            20.65481
          ],
          [
            -103.29231000000001,
            20.654950000000003
          ],
          [
            -103.29308,
            20.65508
          ],
          [
            -103.29393,
            20.65521
          ],
          [
            -103.29390000000001,
            20.65546
          ],
          [
            -103.29385,
            20.65574
          ],
          [
            -103.29377000000001,
            20.656270000000003
          ],
          [
            -103.29369000000001,
            20.65677
          ],
          [
            -103.29361000000002,
            20.657300000000003
          ],
          [
            -103.29352000000002,
            20.657860000000003
          ],
          [
            -103.29344,
            20.658430000000003
          ],
          [
            -103.29341000000001,
            20.65868
          ],
          [
            -103.29336,
            20.658990000000003
          ],
          [
            -103.29327,
            20.659560000000003
          ],
          [
            -103.29324000000001,
            20.65981
          ],
          [
            -103.29319000000001,
            20.660120000000003
          ],
          [
            -103.29310000000001,
            20.660680000000003
          ],
          [
            -103.29306000000001,
            20.66092
          ],
          [
            -103.29298000000001,
            20.6614
          ],
          [
            -103.29294,
            20.66177
          ],
          [
            -103.29285,
            20.662190000000002
          ],
          [
            -103.29279000000001,
            20.662660000000002
          ],
          [
            -103.29275000000001,
            20.66296
          ],
          [
            -103.29271000000001,
            20.663220000000003
          ],
          [
            -103.29263,
            20.663770000000003
          ],
          [
            -103.29260000000001,
            20.664060000000003
          ],
          [
            -103.29245,
            20.66404
          ],
          [
            -103.29242,
            20.66428
          ],
          [
            -103.29238000000001,
            20.66459
          ],
          [
            -103.29232,
            20.665000000000003
          ],
          [
            -103.29227,
            20.66531
          ],
          [
            -103.29221000000001,
            20.665560000000003
          ],
          [
            -103.29211000000001,
            20.66589
          ],
          [
            -103.29191,
            20.66732
          ],
          [
            -103.29189000000001,
            20.667550000000002
          ],
          [
            -103.29186000000001,
            20.667720000000003
          ],
          [
            -103.29185000000001,
            20.667820000000003
          ],
          [
            -103.29184000000001,
            20.667910000000003
          ],
          [
            -103.29185000000001,
            20.66797
          ],
          [
            -103.29186000000001,
            20.66804
          ],
          [
            -103.29187,
            20.668100000000003
          ],
          [
            -103.29189000000001,
            20.66816
          ],
          [
            -103.29191,
            20.66823
          ],
          [
            -103.29192,
            20.668290000000002
          ],
          [
            -103.29193000000001,
            20.66834
          ],
          [
            -103.29193000000001,
            20.668380000000003
          ],
          [
            -103.29193000000001,
            20.668480000000002
          ],
          [
            -103.29191,
            20.668640000000003
          ],
          [
            -103.29188,
            20.66889
          ],
          [
            -103.29185000000001,
            20.6691
          ],
          [
            -103.29178,
            20.66957
          ],
          [
            -103.29175000000001,
            20.66982
          ],
          [
            -103.29171000000001,
            20.67003
          ],
          [
            -103.29165,
            20.670520000000003
          ],
          [
            -103.29162000000001,
            20.67077
          ],
          [
            -103.29157000000001,
            20.67104
          ],
          [
            -103.29131000000001,
            20.67237
          ],
          [
            -103.29127000000001,
            20.672610000000002
          ],
          [
            -103.29102,
            20.67385
          ],
          [
            -103.29098,
            20.674100000000003
          ],
          [
            -103.2908,
            20.67498
          ],
          [
            -103.29109000000001,
            20.67498
          ],
          [
            -103.29144000000001,
            20.67499
          ],
          [
            -103.29204000000001,
            20.675
          ],
          [
            -103.29215,
            20.675
          ],
          [
            -103.29227,
            20.67501
          ],
          [
            -103.29236,
            20.67501
          ],
          [
            -103.29239000000001,
            20.67502
          ],
          [
            -103.29252000000001,
            20.675040000000003
          ],
          [
            -103.29261000000001,
            20.6751
          ],
          [
            -103.29271000000001,
            20.675140000000003
          ],
          [
            -103.29282,
            20.675210000000003
          ],
          [
            -103.29299,
            20.675330000000002
          ],
          [
            -103.29320000000001,
            20.67554
          ],
          [
            -103.29348,
            20.675780000000003
          ],
          [
            -103.29352000000002,
            20.675800000000002
          ],
          [
            -103.29375,
            20.67593
          ],
          [
            -103.29382000000001,
            20.675980000000003
          ],
          [
            -103.29399000000001,
            20.676060000000003
          ],
          [
            -103.29447,
            20.676150000000003
          ],
          [
            -103.29475000000001,
            20.6762
          ],
          [
            -103.29503000000001,
            20.676260000000003
          ],
          [
            -103.29490000000001,
            20.67671
          ],
          [
            -103.29468000000001,
            20.677390000000003
          ],
          [
            -103.29446000000002,
            20.678240000000002
          ],
          [
            -103.29441000000001,
            20.67849
          ],
          [
            -103.29434,
            20.678790000000003
          ],
          [
            -103.29419000000001,
            20.679340000000003
          ],
          [
            -103.29421,
            20.67976
          ],
          [
            -103.29433,
            20.68034
          ],
          [
            -103.29472000000001,
            20.68043
          ],
          [
            -103.29508000000001,
            20.68053
          ],
          [
            -103.29520000000001,
            20.680090000000003
          ],
          [
            -103.29528,
            20.679820000000003
          ],
          [
            -103.29535000000001,
            20.679530000000003
          ],
          [
            -103.2964,
            20.67971
          ],
          [
            -103.29666,
            20.679750000000002
          ],
          [
            -103.29729,
            20.67986
          ],
          [
            -103.29782,
            20.67995
          ],
          [
            -103.29818,
            20.68004
          ],
          [
            -103.2985,
            20.680110000000003
          ],
          [
            -103.29888000000001,
            20.68025
          ],
          [
            -103.29913,
            20.680320000000002
          ],
          [
            -103.29979,
            20.68053
          ],
          [
            -103.30006,
            20.68061
          ],
          [
            -103.3007,
            20.68081
          ],
          [
            -103.30162000000001,
            20.68108
          ],
          [
            -103.30189000000001,
            20.681160000000002
          ],
          [
            -103.30254000000001,
            20.68136
          ],
          [
            -103.30345000000001,
            20.681610000000003
          ],
          [
            -103.30372000000001,
            20.681700000000003
          ],
          [
            -103.30437,
            20.681900000000002
          ],
          [
            -103.30529000000001,
            20.682180000000002
          ],
          [
            -103.30554000000001,
            20.682250000000003
          ],
          [
            -103.30624,
            20.682460000000003
          ],
          [
            -103.30651,
            20.682530000000003
          ],
          [
            -103.30716000000001,
            20.682740000000003
          ],
          [
            -103.30743000000001,
            20.68281
          ],
          [
            -103.30811000000001,
            20.683020000000003
          ],
          [
            -103.30836000000001,
            20.68309
          ],
          [
            -103.30904000000001,
            20.683300000000003
          ],
          [
            -103.30928000000002,
            20.68336
          ],
          [
            -103.30995000000001,
            20.683570000000003
          ],
          [
            -103.31022000000002,
            20.68365
          ],
          [
            -103.31086,
            20.683850000000003
          ],
          [
            -103.31178000000001,
            20.684130000000003
          ],
          [
            -103.31205000000001,
            20.6842
          ],
          [
            -103.31269,
            20.6844
          ],
          [
            -103.31277000000001,
            20.68418
          ],
          [
            -103.31302000000001,
            20.684250000000002
          ],
          [
            -103.31361000000001,
            20.684430000000003
          ],
          [
            -103.31370000000001,
            20.684410000000003
          ],
          [
            -103.31398000000002,
            20.684420000000003
          ],
          [
            -103.31468000000001,
            20.68448
          ],
          [
            -103.31495000000001,
            20.684510000000003
          ],
          [
            -103.31502,
            20.684520000000003
          ],
          [
            -103.31517000000001,
            20.68456
          ],
          [
            -103.31532000000001,
            20.684600000000003
          ],
          [
            -103.31563000000001,
            20.684690000000003
          ],
          [
            -103.31571000000001,
            20.684710000000003
          ],
          [
            -103.31585000000001,
            20.684800000000003
          ],
          [
            -103.31601,
            20.684890000000003
          ],
          [
            -103.31614,
            20.684990000000003
          ],
          [
            -103.31624000000001,
            20.685090000000002
          ],
          [
            -103.31634000000001,
            20.685180000000003
          ],
          [
            -103.31641,
            20.685270000000003
          ],
          [
            -103.31648000000001,
            20.685370000000002
          ],
          [
            -103.31659,
            20.6856
          ],
          [
            -103.31683000000001,
            20.685450000000003
          ],
          [
            -103.31738000000001,
            20.68511
          ],
          [
            -103.31739,
            20.68512
          ],
          [
            -103.3174,
            20.68513
          ],
          [
            -103.31741000000001,
            20.68514
          ],
          [
            -103.31743,
            20.685160000000003
          ],
          [
            -103.31745000000001,
            20.685160000000003
          ],
          [
            -103.31747000000001,
            20.685170000000003
          ],
          [
            -103.31751000000001,
            20.685170000000003
          ],
          [
            -103.31753,
            20.685170000000003
          ],
          [
            -103.31756000000001,
            20.685160000000003
          ],
          [
            -103.31758,
            20.68522
          ],
          [
            -103.31799000000001,
            20.68578
          ],
          [
            -103.31813000000001,
            20.68599
          ],
          [
            -103.31830000000001,
            20.68627
          ],
          [
            -103.31861,
            20.686760000000003
          ],
          [
            -103.31877000000001,
            20.686980000000002
          ],
          [
            -103.31893000000001,
            20.687240000000003
          ],
          [
            -103.31926000000001,
            20.68775
          ],
          [
            -103.31941,
            20.68795
          ],
          [
            -103.31951000000001,
            20.68812
          ],
          [
            -103.31957000000001,
            20.68832
          ],
          [
            -103.32024000000001,
            20.68933
          ],
          [
            -103.32091000000001,
            20.690360000000002
          ],
          [
            -103.32166000000001,
            20.69152
          ],
          [
            -103.32202000000001,
            20.69208
          ],
          [
            -103.32220000000001,
            20.692330000000002
          ],
          [
            -103.32260000000001,
            20.69291
          ],
          [
            -103.32278000000001,
            20.69319
          ],
          [
            -103.32308,
            20.69368
          ],
          [
            -103.32315000000001,
            20.693910000000002
          ],
          [
            -103.32343,
            20.69404
          ],
          [
            -103.3234,
            20.694100000000002
          ],
          [
            -103.32387000000001,
            20.694290000000002
          ],
          [
            -103.32471000000001,
            20.694670000000002
          ],
          [
            -103.32579000000001,
            20.69516
          ],
          [
            -103.32612,
            20.695310000000003
          ],
          [
            -103.32684,
            20.69566
          ],
          [
            -103.32792,
            20.69619
          ],
          [
            -103.32831,
            20.69638
          ],
          [
            -103.32954000000001,
            20.697000000000003
          ],
          [
            -103.32956000000001,
            20.69696
          ],
          [
            -103.33138000000001,
            20.69781
          ],
          [
            -103.33246000000001,
            20.698320000000002
          ],
          [
            -103.33402000000001,
            20.699060000000003
          ],
          [
            -103.33399000000001,
            20.69912
          ],
          [
            -103.33497000000001,
            20.69959
          ],
          [
            -103.33558000000001,
            20.699890000000003
          ],
          [
            -103.33623000000001,
            20.700200000000002
          ],
          [
            -103.33623000000001,
            20.700190000000003
          ],
          [
            -103.33653000000001,
            20.700360000000003
          ],
          [
            -103.33895000000001,
            20.701500000000003
          ],
          [
            -103.33892,
            20.70155
          ],
          [
            -103.34066000000001,
            20.702330000000003
          ],
          [
            -103.34189,
            20.70289
          ],
          [
            -103.34213000000001,
            20.702990000000003
          ],
          [
            -103.34357000000001,
            20.70362
          ],
          [
            -103.34519,
            20.704330000000002
          ],
          [
            -103.34618,
            20.704770000000003
          ],
          [
            -103.34672,
            20.7054
          ],
          [
            -103.34811,
            20.70568
          ],
          [
            -103.34885000000001,
            20.706020000000002
          ],
          [
            -103.34985,
            20.706490000000002
          ],
          [
            -103.35143000000001,
            20.706690000000002
          ],
          [
            -103.35144000000001,
            20.706670000000003
          ],
          [
            -103.3525,
            20.706850000000003
          ],
          [
            -103.35257000000001,
            20.706860000000002
          ],
          [
            -103.35373000000001,
            20.706950000000003
          ],
          [
            -103.35373000000001,
            20.70701
          ],
          [
            -103.35552000000001,
            20.707230000000003
          ],
          [
            -103.35552000000001,
            20.70719
          ],
          [
            -103.35556000000001,
            20.7072
          ],
          [
            -103.35660000000001,
            20.707340000000002
          ],
          [
            -103.35849,
            20.707610000000003
          ],
          [
            -103.35965,
            20.707780000000003
          ],
          [
            -103.35965,
            20.70774
          ],
          [
            -103.35988,
            20.70777
          ],
          [
            -103.36099000000002,
            20.707780000000003
          ],
          [
            -103.36113,
            20.707790000000003
          ],
          [
            -103.36136,
            20.707800000000002
          ],
          [
            -103.36151000000001,
            20.70776
          ],
          [
            -103.36165000000001,
            20.707700000000003
          ],
          [
            -103.36173000000001,
            20.70767
          ],
          [
            -103.36185,
            20.707610000000003
          ],
          [
            -103.36197000000001,
            20.70757
          ],
          [
            -103.36215000000001,
            20.70749
          ],
          [
            -103.36231000000001,
            20.707400000000003
          ],
          [
            -103.36308000000001,
            20.707890000000003
          ],
          [
            -103.36329,
            20.70802
          ],
          [
            -103.36392000000001,
            20.70842
          ],
          [
            -103.36419000000001,
            20.70859
          ],
          [
            -103.36424000000001,
            20.708730000000003
          ],
          [
            -103.36430000000001,
            20.70888
          ],
          [
            -103.36441,
            20.70904
          ],
          [
            -103.36454,
            20.70918
          ],
          [
            -103.36466000000001,
            20.709280000000003
          ],
          [
            -103.36477000000001,
            20.709370000000003
          ],
          [
            -103.36497000000001,
            20.709490000000002
          ],
          [
            -103.36511,
            20.70955
          ],
          [
            -103.36537000000001,
            20.70963
          ],
          [
            -103.36551000000001,
            20.709650000000003
          ],
          [
            -103.36567000000001,
            20.709660000000003
          ],
          [
            -103.36581000000001,
            20.709670000000003
          ],
          [
            -103.36592,
            20.709660000000003
          ],
          [
            -103.36607000000001,
            20.70964
          ],
          [
            -103.36619,
            20.70962
          ],
          [
            -103.36630000000001,
            20.709580000000003
          ],
          [
            -103.36642,
            20.70955
          ],
          [
            -103.36657000000001,
            20.70952
          ],
          [
            -103.36749,
            20.709670000000003
          ],
          [
            -103.36811,
            20.709770000000002
          ],
          [
            -103.36838,
            20.70981
          ],
          [
            -103.36999,
            20.71009
          ],
          [
            -103.36996,
            20.71067
          ],
          [
            -103.36994000000001,
            20.71115
          ],
          [
            -103.36992000000001,
            20.711720000000003
          ],
          [
            -103.36794,
            20.71141
          ],
          [
            -103.3679,
            20.71169
          ],
          [
            -103.36785,
            20.712010000000003
          ],
          [
            -103.36777000000001,
            20.71254
          ],
          [
            -103.36774000000001,
            20.712860000000003
          ],
          [
            -103.36775000000002,
            20.7131
          ],
          [
            -103.36777000000001,
            20.713240000000003
          ],
          [
            -103.36782000000001,
            20.71337
          ],
          [
            -103.36822000000001,
            20.7134
          ],
          [
            -103.36822000000001,
            20.713420000000003
          ],
          [
            -103.37018,
            20.71357
          ],
          [
            -103.37091000000001,
            20.71405
          ],
          [
            -103.37128000000001,
            20.71412
          ],
          [
            -103.37329000000001,
            20.713600000000003
          ],
          [
            -103.37341,
            20.71396
          ],
          [
            -103.37328000000001,
            20.713610000000003
          ],
          [
            -103.37417,
            20.713410000000003
          ],
          [
            -103.37455000000001,
            20.71337
          ],
          [
            -103.37532,
            20.71318
          ],
          [
            -103.37582,
            20.712850000000003
          ],
          [
            -103.37647000000001,
            20.71284
          ],
          [
            -103.37668000000001,
            20.712870000000002
          ],
          [
            -103.3777,
            20.713220000000003
          ],
          [
            -103.3781,
            20.71339
          ],
          [
            -103.37813000000001,
            20.71339
          ],
          [
            -103.37814,
            20.71336
          ],
          [
            -103.37816000000001,
            20.71337
          ],
          [
            -103.37840000000001,
            20.71339
          ],
          [
            -103.37863000000002,
            20.71337
          ],
          [
            -103.37886,
            20.713310000000003
          ],
          [
            -103.37932,
            20.713150000000002
          ],
          [
            -103.37962,
            20.713030000000003
          ],
          [
            -103.38004000000001,
            20.7128
          ],
          [
            -103.38106,
            20.712020000000003
          ],
          [
            -103.38103000000001,
            20.712020000000003
          ],
          [
            -103.38103000000001,
            20.71058
          ]
        ]
      }
    }
  ]
}