{
  "type": "FeatureCollection",
  "features": [
    {
      "type": "Feature",
      "properties": {
        "identifier": "605-2?o=2",
        "name": "Ruta 605"
      },
      "geometry": {
        "type": "LineString",
        "coordinates": [
          [
            -103.34551,
            20.685560000000002
          ],
          [
            -103.34359,
            20.68568
          ],
          [
            -103.34097000000001,
            20.68586
          ],
          [
            -103.33542000000001,
            20.686210000000003
          ],
          [
            -103.33511000000001,
            20.686310000000002
          ],
          [
            -103.33495,
            20.686400000000003
          ],
          [
            -103.33477,
            20.686590000000002
          ],
          [
            -103.33460000000001,
            20.68634
          ],
          [
            -103.33351,
            20.684990000000003
          ],
          [
            -103.33297,
            20.68446
          ],
          [
            -103.33292,
            20.684500000000003
          ],
          [
            -103.33254000000001,
            20.68411
          ],
          [
            -103.33211000000001,
            20.683590000000002
          ],
          [
            -103.32827,
            20.68286
          ],
          [
            -103.32705000000001,
            20.682650000000002
          ],
          [
            -103.32599,
            20.683400000000002
          ],
          [
            -103.32064000000001,
            20.68759
          ],
          [
            -103.31999,
            20.688170000000003
          ],
          [
            -103.31753,
            20.689130000000002
          ],
          [
            -103.31479,
            20.690170000000002
          ],
          [
            -103.31342000000001,
            20.690800000000003
          ],
          [
            -103.31236000000001,
            20.691180000000003
          ],
          [
            -103.31108,
            20.69168
          ],
          [
            -103.31085,
            20.691750000000003
          ],
          [
            -103.30745,
            20.691100000000002
          ],
          [
            -103.30371000000001,
            20.69037
          ],
          [
            -103.3032,
            20.6902
          ],
          [
            -103.29610000000001,
            20.68879
          ],
          [
            -103.29543000000001,
            20.688640000000003
          ],
          [
            -103.29504000000001,
            20.6884
          ],
          [
            -103.29474,
            20.688010000000002
          ],
          [
            -103.29431000000001,
            20.68825
          ],
          [
            -103.29431000000001,
            20.694960000000002
          ],
          [
            -103.29428000000001,
            20.69798
          ],
          [
            -103.29410000000001,
            20.69807
          ],
          [
            -103.29397,
            20.698240000000002
          ],
          [
            -103.29391000000001,
            20.69846
          ],
          [
            -103.29395000000001,
            20.698610000000002
          ],
          [
            -103.29411,
            20.69876
          ],
          [
            -103.29427000000001,
            20.69885
          ],
          [
            -103.29439,
            20.69884
          ],
          [
            -103.29458000000001,
            20.698800000000002
          ],
          [
            -103.29472000000001,
            20.698710000000002
          ],
          [
            -103.29480000000001,
            20.69902
          ],
          [
            -103.29491,
            20.699730000000002
          ],
          [
            -103.29505,
            20.700850000000003
          ],
          [
            -103.29577,
            20.7057
          ],
          [
            -103.29710000000001,
            20.712670000000003
          ],
          [
            -103.29197,
            20.71251
          ],
          [
            -103.28853000000001,
            20.71245
          ],
          [
            -103.28792000000001,
            20.71218
          ],
          [
            -103.28745,
            20.71176
          ],
          [
            -103.28689000000001,
            20.70974
          ],
          [
            -103.28580000000001,
            20.705270000000002
          ],
          [
            -103.28551,
            20.704770000000003
          ],
          [
            -103.28493,
            20.704130000000003
          ],
          [
            -103.28398000000001,
            20.70371
          ],
          [
            -103.28195000000001,
            20.70351
          ],
          [
            -103.28145,
            20.703290000000003
          ],
          [
            -103.27297000000002,
            20.695580000000003
          ],
          [
            -103.27205000000001,
            20.69497
          ],
          [
            -103.26599,
            20.691540000000003
          ],
          [
            -103.26241,
            20.689410000000002
          ],
          [
            -103.26068000000001,
            20.688080000000003
          ],
          [
            -103.26,
            20.687520000000003
          ],
          [
            -103.25878,
            20.686860000000003
          ],
          [
            -103.25704,
            20.68628
          ],
          [
            -103.25592,
            20.68577
          ],
          [
            -103.25412000000001,
            20.684620000000002
          ],
          [
            -103.25398000000001,
            20.68448
          ],
          [
            -103.25259000000001,
            20.68364
          ],
          [
            -103.25191000000001,
            20.68355
          ],
          [
            -103.2514,
            20.68354
          ],
          [
            -103.25108,
            20.683580000000003
          ],
          [
            -103.24799,
            20.68438
          ],
          [
            -103.24752000000001,
            20.684430000000003
          ],
          [
            -103.24687000000002,
            20.6843
          ],
          [
            -103.24641000000001,
            20.68411
          ],
          [
            -103.24569000000001,
            20.683580000000003
          ],
          [
            -103.24544,
            20.68334
          ],
          [
            -103.24443000000001,
            20.682250000000003
          ],
          [
            -103.23959,
            20.67733
          ],
          [
            -103.23832,
            20.67594
          ],
          [
            -103.23766,
            20.67498
          ],
          [
            -103.23733000000001,
            20.67432
          ],
          [
            -103.23473000000001,
            20.66843
          ],
          [
            -103.23244000000001,
            20.66329
          ],
          [
            -103.23227000000001,
            20.6628
          ],
          [
            -103.23212000000001,
            20.66221
          ],
          [
            -103.23207000000001,
            20.66175
          ],
          [
            -103.23209000000001,
            20.660670000000003
          ],
          [
            -103.23221000000001,
            20.660120000000003
          ],
          [
            -103.23606000000001,
            20.64797
          ],
          [
            -103.23721,
            20.64439
          ],
          [
            -103.23745000000001,
            20.643880000000003
          ],
          [
            -103.23798000000001,
            20.643210000000003
          ],
          [
            -103.23833,
            20.6429
          ],
          [
            -103.24223,
            20.640410000000003
          ],
          [
            -103.24267,
            20.64009
          ],
          [
            -103.24291000000001,
            20.6398
          ],
          [
            -103.24311,
            20.63933
          ],
          [
            -103.24346000000001,
            20.63635
          ],
          [
            -103.24367000000001,
            20.63409
          ],
          [
            -103.24390000000001,
            20.632630000000002
          ],
          [
            -103.24409000000001,
            20.63204
          ],
          [
            -103.24553,
            20.627260000000003
          ],
          [
            -103.23757,
            20.62544
          ],
          [
            -103.23387000000001,
            20.62462
          ],
          [
            -103.23257000000001,
            20.6245
          ],
          [
            -103.23124000000001,
            20.624440000000003
          ],
          [
            -103.23123000000001,
            20.62637
          ],
          [
            -103.23122000000001,
            20.626720000000002
          ],
          [
            -103.23117,
            20.627370000000003
          ],
          [
            -103.23042000000001,
            20.6274
          ],
          [
            -103.23043000000001,
            20.62967
          ],
          [
            -103.23150000000001,
            20.6296
          ],
          [
            -103.23192,
            20.62959
          ],
          [
            -103.23191000000001,
            20.63003
          ],
          [
            -103.23163000000001,
            20.631310000000003
          ],
          [
            -103.23141000000001,
            20.632520000000003
          ],
          [
            -103.22930000000001,
            20.63229
          ],
          [
            -103.22923000000002,
            20.632250000000003
          ],
          [
            -103.22923000000002,
            20.63081
          ]
        ]
      }
    }
  ]
}