{
  "type": "FeatureCollection",
  "features": [
    {
      "type": "Feature",
      "properties": {
        "identifier": "605-2",
        "name": "Ruta 605"
      },
      "geometry": {
        "type": "LineString",
        "coordinates": [
          [
            -103.22923000000002,
            20.632250000000003
          ],
          [
            -103.22930000000001,
            20.63229
          ],
          [
            -103.23141000000001,
            20.632520000000003
          ],
          [
            -103.23163000000001,
            20.631310000000003
          ],
          [
            -103.23191000000001,
            20.63003
          ],
          [
            -103.23192,
            20.62959
          ],
          [
            -103.23150000000001,
            20.6296
          ],
          [
            -103.23043000000001,
            20.62967
          ],
          [
            -103.23042000000001,
            20.6274
          ],
          [
            -103.23117,
            20.627370000000003
          ],
          [
            -103.23122000000001,
            20.626720000000002
          ],
          [
            -103.23123000000001,
            20.62637
          ],
          [
            -103.23124000000001,
            20.624440000000003
          ],
          [
            -103.23257000000001,
            20.6245
          ],
          [
            -103.23387000000001,
            20.62462
          ],
          [
            -103.23643000000001,
            20.62519
          ],
          [
            -103.23593000000001,
            20.626810000000003
          ],
          [
            -103.23758000000001,
            20.627180000000003
          ],
          [
            -103.24016,
            20.6278
          ],
          [
            -103.24145000000001,
            20.628120000000003
          ],
          [
            -103.24496,
            20.629070000000002
          ],
          [
            -103.24403000000001,
            20.632060000000003
          ],
          [
            -103.24404000000001,
            20.63232
          ],
          [
            -103.24386000000001,
            20.632920000000002
          ],
          [
            -103.24374,
            20.63381
          ],
          [
            -103.24316,
            20.639090000000003
          ],
          [
            -103.24304000000001,
            20.63963
          ],
          [
            -103.24275000000002,
            20.64007
          ],
          [
            -103.23819,
            20.64302
          ],
          [
            -103.23763000000001,
            20.643690000000003
          ],
          [
            -103.2373,
            20.644270000000002
          ],
          [
            -103.23573,
            20.649040000000003
          ],
          [
            -103.23425,
            20.653760000000002
          ],
          [
            -103.23244000000001,
            20.659380000000002
          ],
          [
            -103.23212000000001,
            20.66064
          ],
          [
            -103.23205000000002,
            20.66185
          ],
          [
            -103.23232,
            20.662920000000003
          ],
          [
            -103.23388000000001,
            20.666490000000003
          ],
          [
            -103.23703,
            20.67361
          ],
          [
            -103.23776000000001,
            20.675140000000003
          ],
          [
            -103.23842,
            20.676070000000003
          ],
          [
            -103.24351000000001,
            20.681350000000002
          ],
          [
            -103.24564000000001,
            20.68362
          ],
          [
            -103.24629,
            20.6841
          ],
          [
            -103.24741,
            20.684410000000003
          ],
          [
            -103.24867,
            20.684260000000002
          ],
          [
            -103.251,
            20.683600000000002
          ],
          [
            -103.25197000000001,
            20.68356
          ],
          [
            -103.25286000000001,
            20.6838
          ],
          [
            -103.25373,
            20.684260000000002
          ],
          [
            -103.25395,
            20.684450000000002
          ],
          [
            -103.25446000000001,
            20.684700000000003
          ],
          [
            -103.25612000000001,
            20.685740000000003
          ],
          [
            -103.25718,
            20.68617
          ],
          [
            -103.25858000000001,
            20.68664
          ],
          [
            -103.25919,
            20.686880000000002
          ],
          [
            -103.26028000000001,
            20.68758
          ],
          [
            -103.26209000000001,
            20.689030000000002
          ],
          [
            -103.26288000000001,
            20.689580000000003
          ],
          [
            -103.26612000000002,
            20.69134
          ],
          [
            -103.27260000000001,
            20.695
          ],
          [
            -103.27313000000001,
            20.695400000000003
          ],
          [
            -103.27684,
            20.69873
          ],
          [
            -103.27998000000001,
            20.701620000000002
          ],
          [
            -103.28120000000001,
            20.70278
          ],
          [
            -103.28181000000001,
            20.703180000000003
          ],
          [
            -103.28232000000001,
            20.70336
          ],
          [
            -103.28374000000001,
            20.70351
          ],
          [
            -103.28456000000001,
            20.70372
          ],
          [
            -103.28526000000001,
            20.70416
          ],
          [
            -103.28579,
            20.704800000000002
          ],
          [
            -103.28609,
            20.70552
          ],
          [
            -103.28703,
            20.709400000000002
          ],
          [
            -103.28754,
            20.711380000000002
          ],
          [
            -103.28774000000001,
            20.711750000000002
          ],
          [
            -103.28827000000001,
            20.71216
          ],
          [
            -103.28884000000001,
            20.712290000000003
          ],
          [
            -103.29679,
            20.71243
          ],
          [
            -103.29705000000001,
            20.712470000000003
          ],
          [
            -103.29660000000001,
            20.710050000000003
          ],
          [
            -103.29593000000001,
            20.7066
          ],
          [
            -103.29577,
            20.7057
          ],
          [
            -103.29505,
            20.700850000000003
          ],
          [
            -103.29491,
            20.699730000000002
          ],
          [
            -103.29480000000001,
            20.69902
          ],
          [
            -103.29477000000001,
            20.69873
          ],
          [
            -103.29485000000001,
            20.69855
          ],
          [
            -103.29486000000001,
            20.69835
          ],
          [
            -103.29481000000001,
            20.698220000000003
          ],
          [
            -103.29474,
            20.698130000000003
          ],
          [
            -103.29462000000001,
            20.698040000000002
          ],
          [
            -103.29445000000001,
            20.69798
          ],
          [
            -103.29441000000001,
            20.69769
          ],
          [
            -103.29438,
            20.697110000000002
          ],
          [
            -103.29441000000001,
            20.69592
          ],
          [
            -103.29443,
            20.69469
          ],
          [
            -103.29438,
            20.692970000000003
          ],
          [
            -103.29440000000001,
            20.691200000000002
          ],
          [
            -103.29437000000001,
            20.69056
          ],
          [
            -103.29439,
            20.689880000000002
          ],
          [
            -103.29445000000001,
            20.68933
          ],
          [
            -103.29471000000001,
            20.6888
          ],
          [
            -103.30256000000001,
            20.69029
          ],
          [
            -103.3036,
            20.69047
          ],
          [
            -103.31103,
            20.69197
          ],
          [
            -103.31221000000001,
            20.691390000000002
          ],
          [
            -103.31988000000001,
            20.688290000000002
          ],
          [
            -103.32491,
            20.68436
          ],
          [
            -103.32632000000001,
            20.68467
          ],
          [
            -103.32713000000001,
            20.682650000000002
          ],
          [
            -103.32827,
            20.68286
          ],
          [
            -103.33211000000001,
            20.683590000000002
          ],
          [
            -103.33231,
            20.68384
          ],
          [
            -103.33231,
            20.683230000000002
          ],
          [
            -103.33296000000001,
            20.68325
          ],
          [
            -103.33375000000001,
            20.683190000000003
          ],
          [
            -103.33457000000001,
            20.683220000000002
          ],
          [
            -103.33527000000001,
            20.683200000000003
          ],
          [
            -103.33598,
            20.68316
          ],
          [
            -103.33603000000001,
            20.68496
          ],
          [
            -103.33676000000001,
            20.68496
          ],
          [
            -103.33718,
            20.68494
          ],
          [
            -103.34006000000001,
            20.684900000000003
          ],
          [
            -103.34091000000001,
            20.68487
          ],
          [
            -103.34546,
            20.68464
          ],
          [
            -103.34551,
            20.685560000000002
          ],
          [
            -103.34551,
            20.68412
          ]
        ]
      }
    }
  ]
}