{
  "type": "FeatureCollection",
  "features": [
    {
      "type": "Feature",
      "properties": {
        "identifier": "608-2",
        "name": "Ruta 608"
      },
      "geometry": {
        "type": "LineString",
        "coordinates": [
          [
            -103.21459000000002,
            20.665450000000003
          ],
          [
            -103.21802000000001,
            20.667720000000003
          ],
          [
            -103.22141,
            20.669870000000003
          ],
          [
            -103.22213,
            20.670270000000002
          ],
          [
            -103.22288,
            20.67049
          ],
          [
            -103.22353000000001,
            20.670540000000003
          ],
          [
            -103.22568000000001,
            20.6703
          ],
          [
            -103.23425,
            20.669
          ],
          [
            -103.23466,
            20.66897
          ],
          [
            -103.23478000000001,
            20.669
          ],
          [
            -103.23486000000001,
            20.66906
          ],
          [
            -103.23518000000001,
            20.66946
          ],
          [
            -103.23693000000002,
            20.673430000000003
          ],
          [
            -103.23733000000001,
            20.67432
          ],
          [
            -103.23766,
            20.67498
          ],
          [
            -103.23832,
            20.67594
          ],
          [
            -103.23959,
            20.67733
          ],
          [
            -103.24443000000001,
            20.682250000000003
          ],
          [
            -103.24544,
            20.68334
          ],
          [
            -103.24569000000001,
            20.683580000000003
          ],
          [
            -103.24641000000001,
            20.68411
          ],
          [
            -103.24687000000002,
            20.6843
          ],
          [
            -103.24752000000001,
            20.684430000000003
          ],
          [
            -103.24799,
            20.68438
          ],
          [
            -103.25108,
            20.683580000000003
          ],
          [
            -103.25209000000001,
            20.68356
          ],
          [
            -103.25273000000001,
            20.68372
          ],
          [
            -103.25395,
            20.68446
          ],
          [
            -103.25406000000001,
            20.684600000000003
          ],
          [
            -103.25607000000001,
            20.68586
          ],
          [
            -103.25776,
            20.686510000000002
          ],
          [
            -103.25858000000001,
            20.686770000000003
          ],
          [
            -103.25936000000002,
            20.68709
          ],
          [
            -103.26008,
            20.68759
          ],
          [
            -103.26091000000001,
            20.688270000000003
          ],
          [
            -103.26193,
            20.68905
          ],
          [
            -103.26293000000001,
            20.68975
          ],
          [
            -103.26586,
            20.691480000000002
          ],
          [
            -103.26946000000001,
            20.69347
          ],
          [
            -103.27142,
            20.69461
          ],
          [
            -103.27270000000001,
            20.695390000000003
          ],
          [
            -103.27304000000001,
            20.69565
          ],
          [
            -103.27835,
            20.70045
          ],
          [
            -103.281,
            20.70288
          ],
          [
            -103.28151000000001,
            20.703300000000002
          ],
          [
            -103.28200000000001,
            20.703500000000002
          ],
          [
            -103.28371000000001,
            20.703680000000002
          ],
          [
            -103.28419000000001,
            20.7038
          ],
          [
            -103.28482000000001,
            20.70407
          ],
          [
            -103.28538,
            20.70458
          ],
          [
            -103.28576000000001,
            20.70519
          ],
          [
            -103.28729000000001,
            20.711260000000003
          ],
          [
            -103.28741000000001,
            20.711630000000003
          ],
          [
            -103.28770000000002,
            20.712020000000003
          ],
          [
            -103.28824,
            20.71235
          ],
          [
            -103.28893000000001,
            20.71246
          ],
          [
            -103.29710000000001,
            20.71261
          ],
          [
            -103.29689,
            20.711650000000002
          ],
          [
            -103.29660000000001,
            20.710050000000003
          ],
          [
            -103.29593000000001,
            20.7066
          ],
          [
            -103.29577,
            20.7057
          ],
          [
            -103.29505,
            20.700850000000003
          ],
          [
            -103.29491,
            20.699730000000002
          ],
          [
            -103.29480000000001,
            20.69902
          ],
          [
            -103.29477000000001,
            20.69873
          ],
          [
            -103.29485000000001,
            20.69855
          ],
          [
            -103.29486000000001,
            20.69835
          ],
          [
            -103.30878000000001,
            20.692790000000002
          ],
          [
            -103.31595000000002,
            20.689880000000002
          ],
          [
            -103.31995,
            20.688280000000002
          ],
          [
            -103.32488000000001,
            20.6844
          ],
          [
            -103.32635,
            20.684690000000003
          ],
          [
            -103.32735000000001,
            20.681780000000003
          ],
          [
            -103.32770000000001,
            20.680760000000003
          ],
          [
            -103.32889000000002,
            20.68074
          ],
          [
            -103.32898,
            20.6807
          ],
          [
            -103.3323,
            20.6813
          ],
          [
            -103.33451000000001,
            20.68127
          ],
          [
            -103.3345,
            20.68037
          ],
          [
            -103.33469000000001,
            20.6795
          ],
          [
            -103.33525,
            20.67651
          ],
          [
            -103.33526,
            20.67629
          ],
          [
            -103.33559000000001,
            20.67492
          ],
          [
            -103.33692,
            20.670080000000002
          ],
          [
            -103.33752000000001,
            20.668000000000003
          ],
          [
            -103.33806000000001,
            20.666230000000002
          ],
          [
            -103.33926000000001,
            20.666600000000003
          ],
          [
            -103.3404,
            20.662840000000003
          ],
          [
            -103.34283,
            20.66364
          ],
          [
            -103.34522000000001,
            20.66447
          ],
          [
            -103.34522000000001,
            20.663030000000003
          ]
        ]
      }
    }
  ]
}