{
  "type": "FeatureCollection",
  "features": [
    {
      "type": "Feature",
      "properties": {
        "identifier": "61-2",
        "name": "Ruta 61"
      },
      "geometry": {
        "type": "LineString",
        "coordinates": [
          [
            -103.32993,
            20.54785
          ],
          [
            -103.33044000000001,
            20.54979
          ],
          [
            -103.33080000000001,
            20.55122
          ],
          [
            -103.33120000000001,
            20.55291
          ],
          [
            -103.33152000000001,
            20.554080000000003
          ],
          [
            -103.33156000000001,
            20.554260000000003
          ],
          [
            -103.33200000000001,
            20.555940000000003
          ],
          [
            -103.33208,
            20.55628
          ],
          [
            -103.33211000000001,
            20.55645
          ],
          [
            -103.33214000000001,
            20.55667
          ],
          [
            -103.33218000000001,
            20.55703
          ],
          [
            -103.33224000000001,
            20.558220000000002
          ],
          [
            -103.33226,
            20.558480000000003
          ],
          [
            -103.3323,
            20.55929
          ],
          [
            -103.33237000000001,
            20.56058
          ],
          [
            -103.33248,
            20.56236
          ],
          [
            -103.33250000000001,
            20.56285
          ],
          [
            -103.33260000000001,
            20.56539
          ],
          [
            -103.33266,
            20.56644
          ],
          [
            -103.33269000000001,
            20.567220000000002
          ],
          [
            -103.33274000000002,
            20.568330000000003
          ],
          [
            -103.33279,
            20.568630000000002
          ],
          [
            -103.33300000000001,
            20.56953
          ],
          [
            -103.33305000000001,
            20.569750000000003
          ],
          [
            -103.33331000000001,
            20.57103
          ],
          [
            -103.33344000000001,
            20.57179
          ],
          [
            -103.33346,
            20.57205
          ],
          [
            -103.33346,
            20.57206
          ],
          [
            -103.33346,
            20.57224
          ],
          [
            -103.33342,
            20.572460000000003
          ],
          [
            -103.33335000000001,
            20.5727
          ],
          [
            -103.33312000000001,
            20.57327
          ],
          [
            -103.33275,
            20.57456
          ],
          [
            -103.33275,
            20.57456
          ],
          [
            -103.33217,
            20.57639
          ],
          [
            -103.33216,
            20.576400000000003
          ],
          [
            -103.33183000000001,
            20.577540000000003
          ],
          [
            -103.33182000000001,
            20.577540000000003
          ],
          [
            -103.33154,
            20.578670000000002
          ],
          [
            -103.33145,
            20.5793
          ],
          [
            -103.33145,
            20.579520000000002
          ],
          [
            -103.3315,
            20.579800000000002
          ],
          [
            -103.33151000000001,
            20.579810000000002
          ],
          [
            -103.33152000000001,
            20.57992
          ],
          [
            -103.33149,
            20.58003
          ],
          [
            -103.33167,
            20.581190000000003
          ],
          [
            -103.33172,
            20.581480000000003
          ],
          [
            -103.33172,
            20.581480000000003
          ],
          [
            -103.33195,
            20.58293
          ],
          [
            -103.33215000000001,
            20.58417
          ],
          [
            -103.33219000000001,
            20.584490000000002
          ],
          [
            -103.3323,
            20.585140000000003
          ],
          [
            -103.33256000000002,
            20.586930000000002
          ],
          [
            -103.33291000000001,
            20.589160000000003
          ],
          [
            -103.33315,
            20.59073
          ],
          [
            -103.33372000000001,
            20.594420000000003
          ],
          [
            -103.33373,
            20.594420000000003
          ],
          [
            -103.33398000000001,
            20.596020000000003
          ],
          [
            -103.33408000000001,
            20.596770000000003
          ],
          [
            -103.33412000000001,
            20.597
          ],
          [
            -103.33411000000001,
            20.597
          ],
          [
            -103.33411000000001,
            20.59701
          ],
          [
            -103.33423,
            20.597720000000002
          ],
          [
            -103.33438000000001,
            20.59815
          ],
          [
            -103.33481,
            20.59926
          ],
          [
            -103.33488000000001,
            20.59943
          ],
          [
            -103.33489,
            20.59943
          ],
          [
            -103.33593,
            20.601950000000002
          ],
          [
            -103.33594000000001,
            20.601960000000002
          ],
          [
            -103.33593,
            20.601960000000002
          ],
          [
            -103.33615,
            20.602510000000002
          ],
          [
            -103.33701,
            20.604650000000003
          ],
          [
            -103.3371,
            20.604930000000003
          ],
          [
            -103.33717000000001,
            20.60501
          ],
          [
            -103.33719,
            20.60509
          ],
          [
            -103.33720000000001,
            20.6051
          ],
          [
            -103.33724000000001,
            20.605220000000003
          ],
          [
            -103.3374,
            20.605590000000003
          ],
          [
            -103.33758,
            20.60601
          ],
          [
            -103.33774000000001,
            20.60628
          ],
          [
            -103.33828000000001,
            20.606990000000003
          ],
          [
            -103.33873000000001,
            20.607670000000002
          ],
          [
            -103.33899000000001,
            20.60809
          ],
          [
            -103.33900000000001,
            20.60809
          ],
          [
            -103.3391,
            20.60825
          ],
          [
            -103.33921000000001,
            20.60807
          ],
          [
            -103.33940000000001,
            20.60772
          ],
          [
            -103.33950000000002,
            20.607580000000002
          ],
          [
            -103.3396,
            20.6075
          ],
          [
            -103.33969,
            20.607460000000003
          ],
          [
            -103.33972000000001,
            20.60742
          ],
          [
            -103.33982,
            20.60754
          ],
          [
            -103.33992,
            20.60769
          ],
          [
            -103.34001,
            20.607850000000003
          ],
          [
            -103.34008000000001,
            20.608040000000003
          ],
          [
            -103.34019,
            20.608400000000003
          ],
          [
            -103.34034000000001,
            20.60892
          ],
          [
            -103.34036,
            20.609
          ],
          [
            -103.3405,
            20.609260000000003
          ],
          [
            -103.34054,
            20.6094
          ],
          [
            -103.34055000000001,
            20.609450000000002
          ],
          [
            -103.34060000000001,
            20.609830000000002
          ],
          [
            -103.34062000000002,
            20.61004
          ],
          [
            -103.34071,
            20.61034
          ],
          [
            -103.34100000000001,
            20.611240000000002
          ],
          [
            -103.34101000000001,
            20.611250000000002
          ],
          [
            -103.34151000000001,
            20.61267
          ],
          [
            -103.34171,
            20.61323
          ],
          [
            -103.34250000000002,
            20.61514
          ],
          [
            -103.34290000000001,
            20.615830000000003
          ],
          [
            -103.34344000000002,
            20.616580000000003
          ],
          [
            -103.34460000000001,
            20.61822
          ],
          [
            -103.34491000000001,
            20.61861
          ],
          [
            -103.34537,
            20.619280000000003
          ],
          [
            -103.3456,
            20.61973
          ],
          [
            -103.34575000000001,
            20.620060000000002
          ],
          [
            -103.34595,
            20.62067
          ],
          [
            -103.34602000000001,
            20.62084
          ],
          [
            -103.34614,
            20.621180000000003
          ],
          [
            -103.34614,
            20.621180000000003
          ],
          [
            -103.34685,
            20.62319
          ],
          [
            -103.34696000000001,
            20.62355
          ],
          [
            -103.34696000000001,
            20.62357
          ],
          [
            -103.34721,
            20.62424
          ],
          [
            -103.34728000000001,
            20.624470000000002
          ],
          [
            -103.34684000000001,
            20.62458
          ],
          [
            -103.34651000000001,
            20.624660000000002
          ],
          [
            -103.34592,
            20.62477
          ],
          [
            -103.34500000000001,
            20.62489
          ],
          [
            -103.34488,
            20.62496
          ],
          [
            -103.34501,
            20.625780000000002
          ],
          [
            -103.34509000000001,
            20.6265
          ],
          [
            -103.34513000000001,
            20.626710000000003
          ],
          [
            -103.3452,
            20.627260000000003
          ],
          [
            -103.34524,
            20.62741
          ],
          [
            -103.34534000000001,
            20.627560000000003
          ],
          [
            -103.34581000000001,
            20.628130000000002
          ],
          [
            -103.34591,
            20.628390000000003
          ],
          [
            -103.34592,
            20.628410000000002
          ],
          [
            -103.34597000000001,
            20.628690000000002
          ],
          [
            -103.34603000000001,
            20.6291
          ],
          [
            -103.34605,
            20.6292
          ],
          [
            -103.34615000000001,
            20.62919
          ],
          [
            -103.34729000000002,
            20.629070000000002
          ],
          [
            -103.34738000000002,
            20.629060000000003
          ],
          [
            -103.34776000000001,
            20.62884
          ],
          [
            -103.34801,
            20.628670000000003
          ],
          [
            -103.34814000000001,
            20.628590000000003
          ],
          [
            -103.34864,
            20.62844
          ],
          [
            -103.34887,
            20.62843
          ],
          [
            -103.349,
            20.62846
          ],
          [
            -103.35009000000001,
            20.628870000000003
          ],
          [
            -103.35036000000001,
            20.628960000000003
          ],
          [
            -103.35286,
            20.629910000000002
          ],
          [
            -103.35287000000001,
            20.629910000000002
          ],
          [
            -103.35536,
            20.630850000000002
          ],
          [
            -103.35635,
            20.631220000000003
          ],
          [
            -103.35911000000002,
            20.632270000000002
          ],
          [
            -103.36042,
            20.63277
          ],
          [
            -103.36043000000001,
            20.63277
          ],
          [
            -103.36391,
            20.63407
          ],
          [
            -103.36540000000001,
            20.63464
          ],
          [
            -103.36540000000001,
            20.63465
          ],
          [
            -103.36774000000001,
            20.63551
          ],
          [
            -103.36799,
            20.6356
          ],
          [
            -103.36899000000001,
            20.63597
          ],
          [
            -103.37173000000001,
            20.637020000000003
          ],
          [
            -103.37173000000001,
            20.637030000000003
          ],
          [
            -103.37395000000001,
            20.637860000000003
          ],
          [
            -103.37466,
            20.63813
          ],
          [
            -103.37626,
            20.638730000000002
          ],
          [
            -103.37626,
            20.638730000000002
          ],
          [
            -103.37642000000001,
            20.638800000000003
          ],
          [
            -103.37580000000001,
            20.63961
          ],
          [
            -103.37567000000001,
            20.639760000000003
          ],
          [
            -103.37551,
            20.639930000000003
          ],
          [
            -103.37455000000001,
            20.640970000000003
          ],
          [
            -103.37441000000001,
            20.64112
          ],
          [
            -103.3734,
            20.642300000000002
          ],
          [
            -103.37313,
            20.64261
          ],
          [
            -103.37321000000001,
            20.64271
          ],
          [
            -103.37346000000001,
            20.6429
          ],
          [
            -103.37345,
            20.64291
          ],
          [
            -103.37356000000001,
            20.64299
          ],
          [
            -103.37381,
            20.64307
          ],
          [
            -103.37423000000001,
            20.64309
          ],
          [
            -103.37505,
            20.643130000000003
          ],
          [
            -103.37571000000001,
            20.64329
          ],
          [
            -103.37613,
            20.64348
          ],
          [
            -103.37654,
            20.643700000000003
          ],
          [
            -103.37674000000001,
            20.64386
          ],
          [
            -103.37674000000001,
            20.643870000000003
          ],
          [
            -103.37781000000001,
            20.64469
          ],
          [
            -103.37781000000001,
            20.6447
          ],
          [
            -103.37837,
            20.645110000000003
          ],
          [
            -103.379,
            20.64562
          ],
          [
            -103.37901000000001,
            20.64562
          ],
          [
            -103.37938000000001,
            20.645940000000003
          ],
          [
            -103.37967,
            20.646230000000003
          ],
          [
            -103.37989,
            20.64656
          ],
          [
            -103.3799,
            20.64656
          ],
          [
            -103.38004000000001,
            20.646800000000002
          ],
          [
            -103.38029,
            20.64731
          ],
          [
            -103.38045000000001,
            20.64776
          ],
          [
            -103.38057,
            20.64826
          ],
          [
            -103.38061,
            20.64892
          ],
          [
            -103.38061,
            20.64893
          ],
          [
            -103.38062000000001,
            20.65051
          ],
          [
            -103.38061,
            20.651030000000002
          ],
          [
            -103.38062000000001,
            20.65181
          ],
          [
            -103.38061,
            20.65255
          ],
          [
            -103.38060000000002,
            20.65277
          ],
          [
            -103.38053000000001,
            20.654210000000003
          ],
          [
            -103.38050000000001,
            20.65453
          ],
          [
            -103.38042000000002,
            20.655250000000002
          ],
          [
            -103.38034,
            20.65641
          ],
          [
            -103.38033000000001,
            20.65642
          ],
          [
            -103.38025,
            20.657110000000003
          ],
          [
            -103.38013000000001,
            20.657310000000003
          ],
          [
            -103.38000000000001,
            20.65754
          ],
          [
            -103.37993,
            20.657660000000003
          ],
          [
            -103.37981,
            20.657590000000003
          ],
          [
            -103.37971,
            20.65781
          ],
          [
            -103.37971,
            20.656370000000003
          ]
        ]
      }
    }
  ]
}