{
  "type": "FeatureCollection",
  "features": [
    {
      "type": "Feature",
      "properties": {
        "identifier": "611-a?o=2",
        "name": "Ruta 611 A"
      },
      "geometry": {
        "type": "LineString",
        "coordinates": [
          [
            -103.302,
            20.689970000000002
          ],
          [
            -103.30079,
            20.68974
          ],
          [
            -103.30053000000001,
            20.689680000000003
          ],
          [
            -103.29889000000001,
            20.68934
          ],
          [
            -103.29888000000001,
            20.68934
          ],
          [
            -103.2977,
            20.689120000000003
          ],
          [
            -103.29703,
            20.689
          ],
          [
            -103.29675,
            20.688930000000003
          ],
          [
            -103.29676,
            20.6889
          ],
          [
            -103.29633000000001,
            20.688830000000003
          ],
          [
            -103.2955,
            20.68868
          ],
          [
            -103.295,
            20.688280000000002
          ],
          [
            -103.29459000000001,
            20.687710000000003
          ],
          [
            -103.29454000000001,
            20.686860000000003
          ],
          [
            -103.29455000000002,
            20.68682
          ],
          [
            -103.2947,
            20.685450000000003
          ],
          [
            -103.29486000000001,
            20.683950000000003
          ],
          [
            -103.2947,
            20.683960000000003
          ],
          [
            -103.29475000000001,
            20.68371
          ],
          [
            -103.29487,
            20.682920000000003
          ],
          [
            -103.29501,
            20.68269
          ],
          [
            -103.29488,
            20.68205
          ],
          [
            -103.29481000000001,
            20.68177
          ],
          [
            -103.29444000000001,
            20.680100000000003
          ],
          [
            -103.29431000000001,
            20.679550000000003
          ],
          [
            -103.29443,
            20.679100000000002
          ],
          [
            -103.2947,
            20.678030000000003
          ],
          [
            -103.295,
            20.676830000000002
          ],
          [
            -103.29514,
            20.676250000000003
          ],
          [
            -103.29536,
            20.6752
          ],
          [
            -103.29566000000001,
            20.673710000000003
          ],
          [
            -103.29595,
            20.672250000000002
          ],
          [
            -103.29611000000001,
            20.67144
          ],
          [
            -103.29667,
            20.67038
          ],
          [
            -103.29685,
            20.67002
          ],
          [
            -103.29706,
            20.66966
          ],
          [
            -103.29718000000001,
            20.66919
          ],
          [
            -103.29722000000001,
            20.66899
          ],
          [
            -103.29734,
            20.66816
          ],
          [
            -103.29750000000001,
            20.667330000000003
          ],
          [
            -103.29766000000001,
            20.666500000000003
          ],
          [
            -103.29772000000001,
            20.66625
          ],
          [
            -103.29787,
            20.665560000000003
          ],
          [
            -103.29827,
            20.663760000000003
          ],
          [
            -103.29839000000001,
            20.663220000000003
          ],
          [
            -103.29851000000001,
            20.662550000000003
          ],
          [
            -103.29892000000001,
            20.66008
          ],
          [
            -103.29895,
            20.659840000000003
          ],
          [
            -103.29926,
            20.6578
          ],
          [
            -103.29942000000001,
            20.656760000000002
          ],
          [
            -103.29949,
            20.656280000000002
          ],
          [
            -103.29957,
            20.65574
          ],
          [
            -103.29965000000001,
            20.6552
          ],
          [
            -103.2998,
            20.65418
          ],
          [
            -103.29994,
            20.653280000000002
          ],
          [
            -103.30014000000001,
            20.65192
          ],
          [
            -103.30023000000001,
            20.65162
          ],
          [
            -103.30057000000001,
            20.65126
          ],
          [
            -103.30084000000001,
            20.65108
          ],
          [
            -103.30069,
            20.65079
          ],
          [
            -103.30043,
            20.65034
          ],
          [
            -103.30040000000001,
            20.65015
          ],
          [
            -103.30050000000001,
            20.64937
          ],
          [
            -103.30066000000001,
            20.648100000000003
          ],
          [
            -103.30096,
            20.64572
          ],
          [
            -103.30096,
            20.645650000000003
          ],
          [
            -103.30112000000001,
            20.64432
          ],
          [
            -103.30124,
            20.64327
          ],
          [
            -103.30126000000001,
            20.64329
          ],
          [
            -103.30117000000001,
            20.64318
          ],
          [
            -103.30121000000001,
            20.64279
          ],
          [
            -103.30122000000001,
            20.64264
          ],
          [
            -103.30126000000001,
            20.642290000000003
          ],
          [
            -103.30127,
            20.64225
          ],
          [
            -103.30131000000002,
            20.64177
          ],
          [
            -103.30103000000001,
            20.641750000000002
          ],
          [
            -103.30062000000001,
            20.641730000000003
          ],
          [
            -103.29988,
            20.64166
          ],
          [
            -103.29991000000001,
            20.64139
          ],
          [
            -103.29992000000001,
            20.641260000000003
          ],
          [
            -103.29993,
            20.64121
          ],
          [
            -103.29997,
            20.640780000000003
          ],
          [
            -103.2998,
            20.640770000000003
          ],
          [
            -103.29968000000001,
            20.64076
          ],
          [
            -103.2994,
            20.64075
          ],
          [
            -103.29891,
            20.64074
          ],
          [
            -103.29818,
            20.640700000000002
          ],
          [
            -103.29791,
            20.640700000000002
          ],
          [
            -103.29778,
            20.640700000000002
          ],
          [
            -103.29744000000001,
            20.640690000000003
          ],
          [
            -103.29714000000001,
            20.640680000000003
          ],
          [
            -103.29676,
            20.64067
          ],
          [
            -103.29650000000001,
            20.64066
          ],
          [
            -103.29582,
            20.64065
          ],
          [
            -103.29576,
            20.64066
          ],
          [
            -103.29563,
            20.640680000000003
          ],
          [
            -103.29554,
            20.640690000000003
          ],
          [
            -103.29535000000001,
            20.64067
          ],
          [
            -103.29521000000001,
            20.64066
          ],
          [
            -103.29475000000001,
            20.640600000000003
          ],
          [
            -103.29458000000001,
            20.640600000000003
          ],
          [
            -103.29431000000001,
            20.64058
          ],
          [
            -103.2943,
            20.64058
          ],
          [
            -103.29374000000001,
            20.64054
          ],
          [
            -103.29364000000001,
            20.64056
          ],
          [
            -103.29355000000001,
            20.64057
          ],
          [
            -103.29315000000001,
            20.64056
          ],
          [
            -103.29288000000001,
            20.640530000000002
          ],
          [
            -103.29266000000001,
            20.640510000000003
          ],
          [
            -103.29226000000001,
            20.640510000000003
          ],
          [
            -103.29232,
            20.63972
          ],
          [
            -103.29235000000001,
            20.63944
          ],
          [
            -103.29238000000001,
            20.63903
          ],
          [
            -103.29239000000001,
            20.63894
          ],
          [
            -103.29242,
            20.638630000000003
          ],
          [
            -103.29215,
            20.63859
          ],
          [
            -103.29216000000001,
            20.638560000000002
          ],
          [
            -103.29084,
            20.63838
          ],
          [
            -103.29005000000001,
            20.63828
          ],
          [
            -103.28982,
            20.638250000000003
          ],
          [
            -103.28982,
            20.6382
          ],
          [
            -103.28934000000001,
            20.63814
          ],
          [
            -103.28881000000001,
            20.638070000000003
          ],
          [
            -103.28854000000001,
            20.638050000000003
          ],
          [
            -103.28843,
            20.638050000000003
          ],
          [
            -103.28835000000001,
            20.63804
          ],
          [
            -103.28819000000001,
            20.63802
          ],
          [
            -103.28766,
            20.637960000000003
          ],
          [
            -103.28742000000001,
            20.63794
          ],
          [
            -103.28726,
            20.63792
          ],
          [
            -103.28710000000001,
            20.637880000000003
          ],
          [
            -103.28698000000001,
            20.637880000000003
          ],
          [
            -103.28675000000001,
            20.63783
          ],
          [
            -103.28638000000001,
            20.637690000000003
          ],
          [
            -103.28557,
            20.637310000000003
          ],
          [
            -103.28566000000001,
            20.637050000000002
          ],
          [
            -103.28573000000002,
            20.636850000000003
          ],
          [
            -103.28588,
            20.63643
          ],
          [
            -103.28596,
            20.636190000000003
          ],
          [
            -103.28602000000001,
            20.636010000000002
          ],
          [
            -103.28617000000001,
            20.635620000000003
          ],
          [
            -103.28631000000001,
            20.6352
          ],
          [
            -103.28635000000001,
            20.635070000000002
          ],
          [
            -103.28639000000001,
            20.63494
          ],
          [
            -103.28656000000001,
            20.634390000000003
          ],
          [
            -103.28662000000001,
            20.634130000000003
          ],
          [
            -103.28666000000001,
            20.63397
          ],
          [
            -103.28668,
            20.63388
          ],
          [
            -103.28671000000001,
            20.633730000000003
          ],
          [
            -103.28679000000001,
            20.633280000000003
          ],
          [
            -103.28688000000001,
            20.63286
          ],
          [
            -103.28694000000002,
            20.6326
          ],
          [
            -103.28698000000001,
            20.63237
          ],
          [
            -103.28670000000001,
            20.63232
          ],
          [
            -103.28532000000001,
            20.63175
          ],
          [
            -103.28522000000001,
            20.63171
          ],
          [
            -103.28490000000001,
            20.63157
          ],
          [
            -103.28325000000001,
            20.63091
          ],
          [
            -103.28298000000001,
            20.63081
          ],
          [
            -103.28285000000001,
            20.630750000000003
          ],
          [
            -103.2823,
            20.63053
          ],
          [
            -103.281,
            20.63003
          ],
          [
            -103.2809,
            20.629990000000003
          ],
          [
            -103.28099,
            20.629530000000003
          ],
          [
            -103.281,
            20.629520000000003
          ],
          [
            -103.28108,
            20.62931
          ],
          [
            -103.28115000000001,
            20.628950000000003
          ],
          [
            -103.28127,
            20.628590000000003
          ],
          [
            -103.28138000000001,
            20.628290000000003
          ],
          [
            -103.28146000000001,
            20.62796
          ],
          [
            -103.28146000000001,
            20.627740000000003
          ],
          [
            -103.28155000000001,
            20.627380000000002
          ],
          [
            -103.28158,
            20.62723
          ],
          [
            -103.28185,
            20.625690000000002
          ],
          [
            -103.28194,
            20.625410000000002
          ],
          [
            -103.28383000000001,
            20.626240000000003
          ],
          [
            -103.28403000000002,
            20.626340000000003
          ],
          [
            -103.28566000000001,
            20.62702
          ],
          [
            -103.28638000000001,
            20.62733
          ],
          [
            -103.28680000000001,
            20.626350000000002
          ],
          [
            -103.28702000000001,
            20.62564
          ],
          [
            -103.28701000000001,
            20.62564
          ],
          [
            -103.28712,
            20.62526
          ],
          [
            -103.28728000000001,
            20.624830000000003
          ],
          [
            -103.28735,
            20.62468
          ],
          [
            -103.28743000000001,
            20.62449
          ],
          [
            -103.28768000000001,
            20.624160000000003
          ],
          [
            -103.28787000000001,
            20.62403
          ],
          [
            -103.28788000000002,
            20.62404
          ],
          [
            -103.28805000000001,
            20.623910000000002
          ],
          [
            -103.28665000000001,
            20.623430000000003
          ],
          [
            -103.28682,
            20.623220000000003
          ],
          [
            -103.28691,
            20.62328
          ],
          [
            -103.28767,
            20.622210000000003
          ],
          [
            -103.28754,
            20.62199
          ],
          [
            -103.28754,
            20.62055
          ]
        ]
      }
    }
  ]
}