{
  "type": "FeatureCollection",
  "features": [
    {
      "type": "Feature",
      "properties": {
        "identifier": "612-via-las-palmas?o=2",
        "name": "Ruta 612 Vía Las Palmas"
      },
      "geometry": {
        "type": "LineString",
        "coordinates": [
          [
            -103.23207000000001,
            20.66175
          ],
          [
            -103.23269,
            20.661900000000003
          ],
          [
            -103.23363,
            20.66195
          ],
          [
            -103.23437000000001,
            20.662000000000003
          ],
          [
            -103.23585000000001,
            20.662080000000003
          ],
          [
            -103.23666000000001,
            20.66216
          ],
          [
            -103.23796000000002,
            20.662360000000003
          ],
          [
            -103.24159,
            20.66315
          ],
          [
            -103.24188000000001,
            20.66318
          ],
          [
            -103.24154000000001,
            20.656000000000002
          ],
          [
            -103.24148000000001,
            20.65408
          ],
          [
            -103.24143000000001,
            20.653450000000003
          ],
          [
            -103.24197000000001,
            20.653460000000003
          ],
          [
            -103.24209,
            20.65343
          ],
          [
            -103.24245,
            20.653440000000003
          ],
          [
            -103.24256000000001,
            20.6535
          ],
          [
            -103.24309000000001,
            20.65351
          ],
          [
            -103.24456,
            20.65358
          ],
          [
            -103.24471000000001,
            20.65352
          ],
          [
            -103.24717000000001,
            20.653630000000003
          ],
          [
            -103.24739000000001,
            20.651490000000003
          ],
          [
            -103.24822,
            20.65155
          ],
          [
            -103.24866000000002,
            20.65172
          ],
          [
            -103.24871,
            20.651760000000003
          ],
          [
            -103.24923000000001,
            20.651400000000002
          ],
          [
            -103.24935,
            20.65114
          ],
          [
            -103.24954000000001,
            20.64986
          ],
          [
            -103.24977000000001,
            20.649890000000003
          ],
          [
            -103.24993,
            20.64993
          ],
          [
            -103.25031000000001,
            20.650180000000002
          ],
          [
            -103.25045000000001,
            20.650250000000003
          ],
          [
            -103.25062000000001,
            20.6503
          ],
          [
            -103.25170000000001,
            20.65042
          ],
          [
            -103.25177000000001,
            20.650440000000003
          ],
          [
            -103.25145,
            20.653070000000003
          ],
          [
            -103.25146000000001,
            20.653190000000002
          ],
          [
            -103.25075000000001,
            20.658900000000003
          ],
          [
            -103.25068,
            20.66099
          ],
          [
            -103.25071000000001,
            20.66185
          ],
          [
            -103.25080000000001,
            20.66233
          ],
          [
            -103.25095,
            20.6627
          ],
          [
            -103.25144,
            20.66347
          ],
          [
            -103.25216,
            20.663020000000003
          ],
          [
            -103.25371000000001,
            20.66212
          ],
          [
            -103.2539,
            20.66207
          ],
          [
            -103.25408,
            20.66205
          ],
          [
            -103.25452000000001,
            20.66207
          ],
          [
            -103.25472,
            20.66007
          ],
          [
            -103.25477000000001,
            20.65987
          ],
          [
            -103.25502,
            20.658350000000002
          ],
          [
            -103.25501000000001,
            20.65827
          ],
          [
            -103.25584,
            20.658340000000003
          ],
          [
            -103.25646,
            20.65839
          ],
          [
            -103.25656000000001,
            20.658420000000003
          ],
          [
            -103.25726,
            20.658530000000003
          ],
          [
            -103.25739000000002,
            20.657780000000002
          ],
          [
            -103.25808,
            20.657850000000003
          ],
          [
            -103.2582,
            20.65688
          ],
          [
            -103.26018,
            20.656940000000002
          ],
          [
            -103.26480000000001,
            20.657220000000002
          ],
          [
            -103.26696000000001,
            20.65726
          ],
          [
            -103.26743,
            20.65724
          ],
          [
            -103.26763000000001,
            20.65718
          ],
          [
            -103.26864,
            20.657310000000003
          ],
          [
            -103.26989,
            20.657590000000003
          ],
          [
            -103.26969000000001,
            20.65906
          ],
          [
            -103.27765000000001,
            20.66
          ],
          [
            -103.27738000000001,
            20.660400000000003
          ],
          [
            -103.27736,
            20.660480000000003
          ],
          [
            -103.27685000000001,
            20.66409
          ],
          [
            -103.28623,
            20.66542
          ],
          [
            -103.28635000000001,
            20.66542
          ],
          [
            -103.28680000000001,
            20.66523
          ],
          [
            -103.29074000000001,
            20.665750000000003
          ],
          [
            -103.29211000000001,
            20.66589
          ],
          [
            -103.29670000000002,
            20.666410000000003
          ],
          [
            -103.29654000000001,
            20.66721
          ],
          [
            -103.29818,
            20.667430000000003
          ],
          [
            -103.29787,
            20.669600000000003
          ],
          [
            -103.30198000000001,
            20.66992
          ],
          [
            -103.30277000000001,
            20.67
          ],
          [
            -103.30435000000001,
            20.670450000000002
          ],
          [
            -103.30526,
            20.67075
          ],
          [
            -103.30755,
            20.67144
          ],
          [
            -103.30893,
            20.671840000000003
          ],
          [
            -103.31257000000001,
            20.672980000000003
          ],
          [
            -103.31349,
            20.673240000000003
          ],
          [
            -103.31713,
            20.67436
          ],
          [
            -103.3217,
            20.67574
          ],
          [
            -103.32262000000001,
            20.675990000000002
          ],
          [
            -103.32440000000001,
            20.670820000000003
          ],
          [
            -103.32662,
            20.671390000000002
          ],
          [
            -103.32922,
            20.672130000000003
          ],
          [
            -103.33054000000001,
            20.67248
          ],
          [
            -103.33242000000001,
            20.67302
          ],
          [
            -103.33506000000001,
            20.673730000000003
          ],
          [
            -103.33668000000002,
            20.674200000000003
          ],
          [
            -103.33632000000001,
            20.67535
          ],
          [
            -103.33632000000001,
            20.673910000000003
          ]
        ]
      }
    }
  ]
}