{
  "type": "FeatureCollection",
  "features": [
    {
      "type": "Feature",
      "properties": {
        "identifier": "615-a?o=2",
        "name": "Ruta 615 A"
      },
      "geometry": {
        "type": "LineString",
        "coordinates": [
          [
            -103.24719,
            20.62245
          ],
          [
            -103.24759,
            20.62111
          ],
          [
            -103.25058000000001,
            20.621570000000002
          ],
          [
            -103.25204000000001,
            20.621660000000002
          ],
          [
            -103.25248,
            20.622020000000003
          ],
          [
            -103.25335000000001,
            20.62178
          ],
          [
            -103.25389000000001,
            20.62234
          ],
          [
            -103.25574,
            20.62434
          ],
          [
            -103.25639000000001,
            20.624560000000002
          ],
          [
            -103.25724000000001,
            20.6247
          ],
          [
            -103.26203000000001,
            20.62537
          ],
          [
            -103.2622,
            20.628770000000003
          ],
          [
            -103.26585000000001,
            20.630770000000002
          ],
          [
            -103.26635,
            20.63079
          ],
          [
            -103.26663,
            20.631200000000003
          ],
          [
            -103.26880000000001,
            20.6323
          ],
          [
            -103.26733000000002,
            20.63306
          ],
          [
            -103.26634000000001,
            20.63407
          ],
          [
            -103.2656,
            20.63503
          ],
          [
            -103.26520000000001,
            20.63532
          ],
          [
            -103.26494000000001,
            20.63577
          ],
          [
            -103.26438,
            20.637410000000003
          ],
          [
            -103.26406000000001,
            20.63801
          ],
          [
            -103.26269,
            20.6398
          ],
          [
            -103.26243000000001,
            20.639750000000003
          ],
          [
            -103.26226000000001,
            20.639860000000002
          ],
          [
            -103.26149000000001,
            20.644160000000003
          ],
          [
            -103.26280000000001,
            20.64433
          ],
          [
            -103.26262000000001,
            20.64524
          ],
          [
            -103.26513000000001,
            20.64523
          ],
          [
            -103.26966,
            20.645190000000003
          ],
          [
            -103.27007,
            20.64506
          ],
          [
            -103.27032000000001,
            20.64505
          ],
          [
            -103.27298,
            20.64608
          ],
          [
            -103.27394000000001,
            20.64628
          ],
          [
            -103.27395000000001,
            20.64752
          ],
          [
            -103.27627000000001,
            20.647840000000002
          ],
          [
            -103.27941000000001,
            20.64834
          ],
          [
            -103.28155000000001,
            20.648860000000003
          ],
          [
            -103.28335000000001,
            20.64977
          ],
          [
            -103.28267000000001,
            20.653280000000002
          ],
          [
            -103.28205000000001,
            20.6568
          ],
          [
            -103.28153,
            20.66025
          ],
          [
            -103.2814,
            20.661890000000003
          ],
          [
            -103.2869,
            20.66272
          ],
          [
            -103.28838,
            20.66272
          ],
          [
            -103.29428000000001,
            20.663580000000003
          ],
          [
            -103.29284000000001,
            20.66338
          ],
          [
            -103.29338000000001,
            20.659660000000002
          ],
          [
            -103.29657,
            20.66009
          ],
          [
            -103.29707,
            20.66043
          ],
          [
            -103.29889000000001,
            20.66047
          ],
          [
            -103.30014000000001,
            20.66047
          ],
          [
            -103.30509,
            20.66131
          ],
          [
            -103.31024000000001,
            20.66272
          ],
          [
            -103.31623,
            20.6644
          ],
          [
            -103.31844000000001,
            20.66523
          ],
          [
            -103.32267,
            20.66653
          ],
          [
            -103.32651000000001,
            20.667800000000003
          ],
          [
            -103.32539000000001,
            20.67085
          ],
          [
            -103.32412000000001,
            20.674740000000003
          ],
          [
            -103.32784000000001,
            20.675410000000003
          ],
          [
            -103.33423,
            20.67639
          ],
          [
            -103.33380000000001,
            20.67755
          ],
          [
            -103.33279,
            20.68053
          ],
          [
            -103.33290000000001,
            20.68177
          ],
          [
            -103.33297,
            20.6844
          ],
          [
            -103.33468,
            20.686470000000003
          ],
          [
            -103.33462000000002,
            20.68675
          ],
          [
            -103.33415000000001,
            20.687150000000003
          ],
          [
            -103.33305000000001,
            20.687790000000003
          ],
          [
            -103.33236000000001,
            20.688560000000003
          ],
          [
            -103.33153000000001,
            20.68908
          ],
          [
            -103.32938000000001,
            20.68795
          ],
          [
            -103.32953,
            20.68749
          ],
          [
            -103.33258000000001,
            20.68486
          ],
          [
            -103.33258000000001,
            20.68342
          ]
        ]
      }
    }
  ]
}