{
  "type": "FeatureCollection",
  "features": [
    {
      "type": "Feature",
      "properties": {
        "identifier": "619-a-via-guadalupe-gallo",
        "name": "Ruta 619 A Vía Guadalupe Gallo"
      },
      "geometry": {
        "type": "LineString",
        "coordinates": [
          [
            -103.40474,
            20.646230000000003
          ],
          [
            -103.40069000000001,
            20.643420000000003
          ],
          [
            -103.40227,
            20.64075
          ],
          [
            -103.40429,
            20.63794
          ],
          [
            -103.40242,
            20.636550000000003
          ],
          [
            -103.40060000000001,
            20.635150000000003
          ],
          [
            -103.39968,
            20.634330000000002
          ],
          [
            -103.40099000000001,
            20.63342
          ],
          [
            -103.40577,
            20.63021
          ],
          [
            -103.40238000000001,
            20.62826
          ],
          [
            -103.39957000000001,
            20.62659
          ],
          [
            -103.39476,
            20.62384
          ],
          [
            -103.39032,
            20.621090000000002
          ],
          [
            -103.38946000000001,
            20.620530000000002
          ],
          [
            -103.39066000000001,
            20.618460000000002
          ],
          [
            -103.39212,
            20.61679
          ],
          [
            -103.39330000000001,
            20.614420000000003
          ],
          [
            -103.39500000000001,
            20.61475
          ],
          [
            -103.39682,
            20.61278
          ],
          [
            -103.40015000000001,
            20.60848
          ],
          [
            -103.40157,
            20.607090000000003
          ],
          [
            -103.403,
            20.60735
          ],
          [
            -103.41210000000001,
            20.609540000000003
          ],
          [
            -103.41598,
            20.610570000000003
          ],
          [
            -103.41995000000001,
            20.611490000000003
          ],
          [
            -103.4235,
            20.61252
          ],
          [
            -103.42510000000001,
            20.613480000000003
          ],
          [
            -103.4277,
            20.61539
          ],
          [
            -103.42744,
            20.61579
          ],
          [
            -103.42697000000001,
            20.61597
          ],
          [
            -103.42680000000001,
            20.61543
          ],
          [
            -103.42813000000001,
            20.613100000000003
          ],
          [
            -103.42998000000001,
            20.610370000000003
          ],
          [
            -103.4342,
            20.603920000000002
          ],
          [
            -103.43789000000001,
            20.59842
          ],
          [
            -103.44916,
            20.581220000000002
          ],
          [
            -103.44888,
            20.58106
          ],
          [
            -103.4453,
            20.58649
          ],
          [
            -103.43594,
            20.58321
          ],
          [
            -103.43549,
            20.58424
          ],
          [
            -103.43195000000001,
            20.58958
          ],
          [
            -103.4312,
            20.5894
          ],
          [
            -103.42577000000001,
            20.59024
          ],
          [
            -103.42577000000001,
            20.588800000000003
          ]
        ]
      }
    }
  ]
}