{
  "type": "FeatureCollection",
  "features": [
    {
      "type": "Feature",
      "properties": {
        "identifier": "619-verde-via-2?o=2",
        "name": "Ruta 619 (Verde) Vía 2"
      },
      "geometry": {
        "type": "LineString",
        "coordinates": [
          [
            -103.45266000000001,
            20.699060000000003
          ],
          [
            -103.45324000000001,
            20.69835
          ],
          [
            -103.45365000000001,
            20.6978
          ],
          [
            -103.45380000000002,
            20.69761
          ],
          [
            -103.45392000000001,
            20.697280000000003
          ],
          [
            -103.45457,
            20.69649
          ],
          [
            -103.45495000000001,
            20.69602
          ],
          [
            -103.45505000000001,
            20.695880000000002
          ],
          [
            -103.45517000000001,
            20.69574
          ],
          [
            -103.45531000000001,
            20.695490000000003
          ],
          [
            -103.45551,
            20.6951
          ],
          [
            -103.45559000000002,
            20.6949
          ],
          [
            -103.45566000000001,
            20.694640000000003
          ],
          [
            -103.45570000000001,
            20.694370000000003
          ],
          [
            -103.45572000000001,
            20.69397
          ],
          [
            -103.45568000000002,
            20.69329
          ],
          [
            -103.45561000000001,
            20.691920000000003
          ],
          [
            -103.45559000000002,
            20.69143
          ],
          [
            -103.45546,
            20.689400000000003
          ],
          [
            -103.45546,
            20.68905
          ],
          [
            -103.45543,
            20.688840000000003
          ],
          [
            -103.45534,
            20.687150000000003
          ],
          [
            -103.45530000000001,
            20.686200000000003
          ],
          [
            -103.45530000000001,
            20.685730000000003
          ],
          [
            -103.45531000000001,
            20.685730000000003
          ],
          [
            -103.45529,
            20.684320000000003
          ],
          [
            -103.45527000000001,
            20.68202
          ],
          [
            -103.45527000000001,
            20.68177
          ],
          [
            -103.45526000000001,
            20.67811
          ],
          [
            -103.45568000000002,
            20.67811
          ],
          [
            -103.45567000000001,
            20.67802
          ],
          [
            -103.45567000000001,
            20.6777
          ],
          [
            -103.45557000000001,
            20.677560000000003
          ],
          [
            -103.45533,
            20.67714
          ],
          [
            -103.45532000000001,
            20.67698
          ],
          [
            -103.45529,
            20.676920000000003
          ],
          [
            -103.45528,
            20.676900000000003
          ],
          [
            -103.45525,
            20.676830000000002
          ],
          [
            -103.45524,
            20.67558
          ],
          [
            -103.45522000000001,
            20.674760000000003
          ],
          [
            -103.45523000000001,
            20.674020000000002
          ],
          [
            -103.4552,
            20.673640000000002
          ],
          [
            -103.45513000000001,
            20.673260000000003
          ],
          [
            -103.45504000000001,
            20.67292
          ],
          [
            -103.45494000000001,
            20.672700000000003
          ],
          [
            -103.45465000000002,
            20.6722
          ],
          [
            -103.45311000000001,
            20.67029
          ],
          [
            -103.45311000000001,
            20.67029
          ],
          [
            -103.45243,
            20.66948
          ],
          [
            -103.45216,
            20.66908
          ],
          [
            -103.45186000000001,
            20.668560000000003
          ],
          [
            -103.45148,
            20.667710000000003
          ],
          [
            -103.45092000000001,
            20.666330000000002
          ],
          [
            -103.45094,
            20.666320000000002
          ],
          [
            -103.45093000000001,
            20.666320000000002
          ],
          [
            -103.44969,
            20.66337
          ],
          [
            -103.44913000000001,
            20.66204
          ],
          [
            -103.4491,
            20.66197
          ],
          [
            -103.44914000000001,
            20.66184
          ],
          [
            -103.44904000000001,
            20.6611
          ],
          [
            -103.44886000000001,
            20.66028
          ],
          [
            -103.44862,
            20.659650000000003
          ],
          [
            -103.44833000000001,
            20.659000000000002
          ],
          [
            -103.44831,
            20.65895
          ],
          [
            -103.44831,
            20.65895
          ],
          [
            -103.44814000000001,
            20.65859
          ],
          [
            -103.44778000000001,
            20.657680000000003
          ],
          [
            -103.44760000000001,
            20.657200000000003
          ],
          [
            -103.44720000000001,
            20.6563
          ],
          [
            -103.44707000000001,
            20.655980000000003
          ],
          [
            -103.44690000000001,
            20.655700000000003
          ],
          [
            -103.44690000000001,
            20.655530000000002
          ],
          [
            -103.4467,
            20.655060000000002
          ],
          [
            -103.44631000000001,
            20.654100000000003
          ],
          [
            -103.44626000000001,
            20.653910000000003
          ],
          [
            -103.44614000000001,
            20.65386
          ],
          [
            -103.44607,
            20.653820000000003
          ],
          [
            -103.44571,
            20.653470000000002
          ],
          [
            -103.44563000000001,
            20.65343
          ],
          [
            -103.44553,
            20.653370000000002
          ],
          [
            -103.44549,
            20.653270000000003
          ],
          [
            -103.44539,
            20.653070000000003
          ],
          [
            -103.44511000000001,
            20.65239
          ],
          [
            -103.44519000000001,
            20.65236
          ],
          [
            -103.44511000000001,
            20.65239
          ],
          [
            -103.44508,
            20.6523
          ],
          [
            -103.44508,
            20.6523
          ],
          [
            -103.44404000000002,
            20.649790000000003
          ],
          [
            -103.44362000000001,
            20.64882
          ],
          [
            -103.44364,
            20.64881
          ],
          [
            -103.44363000000001,
            20.64882
          ],
          [
            -103.44352,
            20.64861
          ],
          [
            -103.44323000000001,
            20.647810000000003
          ],
          [
            -103.44315,
            20.64732
          ],
          [
            -103.44298,
            20.64647
          ],
          [
            -103.44293,
            20.64618
          ],
          [
            -103.44294000000001,
            20.646050000000002
          ],
          [
            -103.44182,
            20.64346
          ],
          [
            -103.44182,
            20.64345
          ],
          [
            -103.44181,
            20.64345
          ],
          [
            -103.44147000000001,
            20.64262
          ],
          [
            -103.44124000000001,
            20.64207
          ],
          [
            -103.44080000000001,
            20.64092
          ],
          [
            -103.44080000000001,
            20.64091
          ],
          [
            -103.44030000000001,
            20.639680000000002
          ],
          [
            -103.44029,
            20.639670000000002
          ],
          [
            -103.43997,
            20.638910000000003
          ],
          [
            -103.43986000000001,
            20.63869
          ],
          [
            -103.43965000000001,
            20.638160000000003
          ],
          [
            -103.43944,
            20.63765
          ],
          [
            -103.43933000000001,
            20.63744
          ],
          [
            -103.43928000000001,
            20.63738
          ],
          [
            -103.43901000000001,
            20.63701
          ],
          [
            -103.43892000000001,
            20.63688
          ],
          [
            -103.43859,
            20.63607
          ],
          [
            -103.43832,
            20.635430000000003
          ],
          [
            -103.43830000000001,
            20.6354
          ],
          [
            -103.4381,
            20.63491
          ],
          [
            -103.43758000000001,
            20.63362
          ],
          [
            -103.43719000000002,
            20.63278
          ],
          [
            -103.43663000000001,
            20.631420000000002
          ],
          [
            -103.43663000000001,
            20.63143
          ],
          [
            -103.43662,
            20.63143
          ],
          [
            -103.43629000000001,
            20.630660000000002
          ],
          [
            -103.43610000000001,
            20.63015
          ],
          [
            -103.43609000000001,
            20.63015
          ],
          [
            -103.43605000000001,
            20.630070000000003
          ],
          [
            -103.43554,
            20.62883
          ],
          [
            -103.43554,
            20.62882
          ],
          [
            -103.43546,
            20.62864
          ],
          [
            -103.43546,
            20.628570000000003
          ],
          [
            -103.43533000000001,
            20.628300000000003
          ],
          [
            -103.43476000000001,
            20.62705
          ],
          [
            -103.43448000000001,
            20.626420000000003
          ],
          [
            -103.43440000000001,
            20.62627
          ],
          [
            -103.43421000000001,
            20.62608
          ],
          [
            -103.43409000000001,
            20.62601
          ],
          [
            -103.43399000000001,
            20.6258
          ],
          [
            -103.43386000000001,
            20.625570000000003
          ],
          [
            -103.43386000000001,
            20.625570000000003
          ],
          [
            -103.43363000000001,
            20.62515
          ],
          [
            -103.43319000000001,
            20.62431
          ],
          [
            -103.43279000000001,
            20.623620000000003
          ],
          [
            -103.43230000000001,
            20.62272
          ],
          [
            -103.43185000000001,
            20.62188
          ],
          [
            -103.43143,
            20.62112
          ],
          [
            -103.43163000000001,
            20.621000000000002
          ],
          [
            -103.43002000000001,
            20.61848
          ],
          [
            -103.42994,
            20.618350000000003
          ],
          [
            -103.43002000000001,
            20.6182
          ],
          [
            -103.43002000000001,
            20.6182
          ],
          [
            -103.42995,
            20.618350000000003
          ],
          [
            -103.42972,
            20.617890000000003
          ],
          [
            -103.42918,
            20.6169
          ],
          [
            -103.42894000000001,
            20.61646
          ],
          [
            -103.42894000000001,
            20.61646
          ],
          [
            -103.42893000000001,
            20.61646
          ],
          [
            -103.42874,
            20.61614
          ],
          [
            -103.42845000000001,
            20.615740000000002
          ],
          [
            -103.42817000000001,
            20.615450000000003
          ],
          [
            -103.42773000000001,
            20.6151
          ],
          [
            -103.42706000000001,
            20.614690000000003
          ],
          [
            -103.42672,
            20.61449
          ],
          [
            -103.42643000000001,
            20.6143
          ],
          [
            -103.42578,
            20.613950000000003
          ],
          [
            -103.42555000000002,
            20.61383
          ],
          [
            -103.42498,
            20.61352
          ],
          [
            -103.42462,
            20.61332
          ],
          [
            -103.42397000000001,
            20.61288
          ],
          [
            -103.42354,
            20.612630000000003
          ],
          [
            -103.42320000000001,
            20.612440000000003
          ],
          [
            -103.42264000000002,
            20.6122
          ],
          [
            -103.42263000000001,
            20.6122
          ],
          [
            -103.42194,
            20.611970000000003
          ],
          [
            -103.42123000000001,
            20.611790000000003
          ],
          [
            -103.41942,
            20.611330000000002
          ],
          [
            -103.41725000000001,
            20.61081
          ],
          [
            -103.41601000000001,
            20.61051
          ],
          [
            -103.41472,
            20.610200000000003
          ],
          [
            -103.41058000000001,
            20.609170000000002
          ],
          [
            -103.41034,
            20.60912
          ],
          [
            -103.41019000000001,
            20.609070000000003
          ],
          [
            -103.40945,
            20.608700000000002
          ],
          [
            -103.40790000000001,
            20.608330000000002
          ],
          [
            -103.40727000000001,
            20.60819
          ],
          [
            -103.40726000000001,
            20.60819
          ],
          [
            -103.40647000000001,
            20.60801
          ],
          [
            -103.40569,
            20.60779
          ],
          [
            -103.40544000000001,
            20.60772
          ],
          [
            -103.40500000000002,
            20.60762
          ],
          [
            -103.40332000000001,
            20.607180000000003
          ],
          [
            -103.40279000000001,
            20.607010000000002
          ],
          [
            -103.40261000000001,
            20.606910000000003
          ],
          [
            -103.40255,
            20.60688
          ],
          [
            -103.40206,
            20.606640000000002
          ],
          [
            -103.40204000000001,
            20.606630000000003
          ],
          [
            -103.40174,
            20.606430000000003
          ],
          [
            -103.40136000000001,
            20.606150000000003
          ],
          [
            -103.40056000000001,
            20.605510000000002
          ],
          [
            -103.40056000000001,
            20.605500000000003
          ],
          [
            -103.4,
            20.60498
          ],
          [
            -103.39972,
            20.60473
          ],
          [
            -103.39898000000001,
            20.604090000000003
          ],
          [
            -103.39853000000001,
            20.60369
          ],
          [
            -103.39840000000001,
            20.603540000000002
          ],
          [
            -103.39797000000002,
            20.60313
          ],
          [
            -103.39797000000002,
            20.60312
          ],
          [
            -103.39731,
            20.60253
          ],
          [
            -103.39723000000001,
            20.60247
          ],
          [
            -103.39687,
            20.602140000000002
          ],
          [
            -103.3965,
            20.601830000000003
          ],
          [
            -103.39632,
            20.601640000000003
          ],
          [
            -103.39544000000001,
            20.60078
          ],
          [
            -103.39441000000001,
            20.600070000000002
          ],
          [
            -103.39428000000001,
            20.600040000000003
          ],
          [
            -103.39420000000001,
            20.60003
          ],
          [
            -103.39409,
            20.59993
          ],
          [
            -103.39358000000001,
            20.59946
          ],
          [
            -103.39301,
            20.598940000000002
          ],
          [
            -103.39248,
            20.59841
          ],
          [
            -103.39214000000001,
            20.59806
          ],
          [
            -103.39214000000001,
            20.59805
          ],
          [
            -103.39214000000001,
            20.59805
          ],
          [
            -103.39145,
            20.59727
          ],
          [
            -103.38984,
            20.595360000000003
          ],
          [
            -103.38943,
            20.59485
          ],
          [
            -103.38816000000001,
            20.59333
          ],
          [
            -103.38733,
            20.59233
          ],
          [
            -103.38681000000001,
            20.591720000000002
          ],
          [
            -103.38625,
            20.591040000000003
          ],
          [
            -103.38622000000001,
            20.591
          ],
          [
            -103.38624000000002,
            20.590980000000002
          ],
          [
            -103.38393,
            20.5881
          ],
          [
            -103.38389000000001,
            20.588050000000003
          ],
          [
            -103.38395000000001,
            20.58772
          ],
          [
            -103.38452000000001,
            20.587300000000003
          ],
          [
            -103.38475000000001,
            20.586640000000003
          ],
          [
            -103.38499,
            20.585150000000002
          ],
          [
            -103.38508,
            20.58481
          ],
          [
            -103.38524000000001,
            20.584100000000003
          ],
          [
            -103.38559000000001,
            20.583150000000003
          ],
          [
            -103.38591000000001,
            20.582610000000003
          ],
          [
            -103.38587000000001,
            20.582590000000003
          ],
          [
            -103.38582000000001,
            20.58256
          ],
          [
            -103.38624000000002,
            20.58145
          ],
          [
            -103.38642000000002,
            20.58116
          ],
          [
            -103.38716000000001,
            20.58013
          ],
          [
            -103.38716000000001,
            20.58013
          ],
          [
            -103.38752000000001,
            20.579610000000002
          ],
          [
            -103.38770000000001,
            20.57935
          ],
          [
            -103.38785000000001,
            20.57897
          ],
          [
            -103.38809,
            20.578280000000003
          ],
          [
            -103.38839000000002,
            20.577450000000002
          ],
          [
            -103.38867,
            20.576590000000003
          ],
          [
            -103.38883000000001,
            20.576210000000003
          ],
          [
            -103.38915000000001,
            20.57553
          ],
          [
            -103.38918000000001,
            20.57545
          ],
          [
            -103.38925,
            20.57534
          ],
          [
            -103.38944000000001,
            20.575110000000002
          ],
          [
            -103.38979,
            20.57486
          ],
          [
            -103.39004000000001,
            20.57469
          ],
          [
            -103.39027000000002,
            20.57448
          ],
          [
            -103.39045000000002,
            20.574240000000003
          ],
          [
            -103.39056000000001,
            20.57402
          ],
          [
            -103.39068,
            20.573690000000003
          ],
          [
            -103.39080000000001,
            20.57338
          ],
          [
            -103.39107000000001,
            20.57241
          ],
          [
            -103.39119000000001,
            20.57195
          ],
          [
            -103.39120000000001,
            20.57194
          ],
          [
            -103.39141000000001,
            20.571140000000003
          ],
          [
            -103.39147000000001,
            20.570880000000002
          ],
          [
            -103.39149,
            20.570700000000002
          ],
          [
            -103.39147000000001,
            20.57018
          ],
          [
            -103.39152000000001,
            20.56925
          ],
          [
            -103.39160000000001,
            20.56865
          ],
          [
            -103.39181,
            20.56755
          ],
          [
            -103.3919,
            20.56719
          ],
          [
            -103.3919,
            20.56719
          ],
          [
            -103.39205000000001,
            20.56663
          ],
          [
            -103.39219000000001,
            20.565710000000003
          ],
          [
            -103.39233000000002,
            20.564570000000003
          ],
          [
            -103.39238,
            20.564030000000002
          ],
          [
            -103.39239,
            20.56362
          ],
          [
            -103.39235000000001,
            20.563000000000002
          ],
          [
            -103.39237000000001,
            20.56284
          ],
          [
            -103.39251,
            20.562430000000003
          ],
          [
            -103.39254000000001,
            20.56238
          ],
          [
            -103.39269,
            20.562050000000003
          ],
          [
            -103.39299000000001,
            20.56147
          ],
          [
            -103.39386,
            20.559970000000003
          ],
          [
            -103.39445,
            20.55883
          ],
          [
            -103.39491000000001,
            20.558010000000003
          ],
          [
            -103.39494,
            20.55796
          ],
          [
            -103.39559000000001,
            20.55676
          ],
          [
            -103.39673,
            20.55487
          ],
          [
            -103.39727,
            20.554080000000003
          ],
          [
            -103.39767,
            20.553400000000003
          ],
          [
            -103.39768000000001,
            20.55339
          ],
          [
            -103.39896,
            20.551440000000003
          ],
          [
            -103.40019000000001,
            20.549560000000003
          ],
          [
            -103.40033000000001,
            20.549290000000003
          ],
          [
            -103.40041000000001,
            20.549090000000003
          ],
          [
            -103.40042000000001,
            20.54908
          ],
          [
            -103.40068000000001,
            20.54833
          ],
          [
            -103.40082000000001,
            20.548060000000003
          ],
          [
            -103.40106000000002,
            20.54748
          ],
          [
            -103.40128000000001,
            20.546850000000003
          ],
          [
            -103.40142,
            20.54645
          ],
          [
            -103.4016,
            20.54594
          ],
          [
            -103.40229000000001,
            20.543850000000003
          ],
          [
            -103.40270000000001,
            20.542540000000002
          ],
          [
            -103.40270000000001,
            20.542540000000002
          ],
          [
            -103.40314000000001,
            20.540940000000003
          ],
          [
            -103.40367,
            20.539630000000002
          ],
          [
            -103.40433,
            20.537930000000003
          ],
          [
            -103.40424,
            20.537920000000003
          ],
          [
            -103.40395000000001,
            20.53789
          ],
          [
            -103.40395000000001,
            20.53788
          ],
          [
            -103.40372,
            20.537830000000003
          ],
          [
            -103.40357,
            20.537740000000003
          ],
          [
            -103.40349,
            20.53762
          ],
          [
            -103.40323000000001,
            20.537180000000003
          ],
          [
            -103.403,
            20.536710000000003
          ],
          [
            -103.40272,
            20.53574
          ],
          [
            -103.40242,
            20.53489
          ],
          [
            -103.40199000000001,
            20.53367
          ],
          [
            -103.40187,
            20.533430000000003
          ],
          [
            -103.4017,
            20.53318
          ],
          [
            -103.40082000000001,
            20.53207
          ],
          [
            -103.39959,
            20.53065
          ],
          [
            -103.39958000000001,
            20.530630000000002
          ],
          [
            -103.3995,
            20.53056
          ],
          [
            -103.39915,
            20.5302
          ],
          [
            -103.39822000000001,
            20.53012
          ],
          [
            -103.39725000000001,
            20.53003
          ],
          [
            -103.39628,
            20.529950000000003
          ],
          [
            -103.39542,
            20.529850000000003
          ],
          [
            -103.39534,
            20.529780000000002
          ],
          [
            -103.39499,
            20.52974
          ],
          [
            -103.39362000000001,
            20.52961
          ],
          [
            -103.39161000000001,
            20.52943
          ],
          [
            -103.39146000000001,
            20.529410000000002
          ],
          [
            -103.39141000000001,
            20.529310000000002
          ],
          [
            -103.39127,
            20.528740000000003
          ],
          [
            -103.39119000000001,
            20.52853
          ],
          [
            -103.39110000000001,
            20.528460000000003
          ],
          [
            -103.39074000000001,
            20.52832
          ],
          [
            -103.38977000000001,
            20.528090000000002
          ],
          [
            -103.3897,
            20.528070000000003
          ],
          [
            -103.38971000000001,
            20.52802
          ],
          [
            -103.3897,
            20.52803
          ],
          [
            -103.3897,
            20.528070000000003
          ],
          [
            -103.38850000000001,
            20.527790000000003
          ],
          [
            -103.38809,
            20.52775
          ],
          [
            -103.38738000000001,
            20.52759
          ],
          [
            -103.38657,
            20.52747
          ],
          [
            -103.38584,
            20.527320000000003
          ],
          [
            -103.38548000000002,
            20.52721
          ],
          [
            -103.38551000000001,
            20.527030000000003
          ],
          [
            -103.38554,
            20.526940000000003
          ],
          [
            -103.38566,
            20.526770000000003
          ],
          [
            -103.38597000000001,
            20.526480000000003
          ],
          [
            -103.38597000000001,
            20.526480000000003
          ],
          [
            -103.3863,
            20.52616
          ],
          [
            -103.38742,
            20.525160000000003
          ],
          [
            -103.3875,
            20.524980000000003
          ],
          [
            -103.38854,
            20.524040000000003
          ],
          [
            -103.38967000000001,
            20.523110000000003
          ],
          [
            -103.38990000000001,
            20.522910000000003
          ],
          [
            -103.38999000000001,
            20.522910000000003
          ],
          [
            -103.39008000000001,
            20.52288
          ],
          [
            -103.39027000000002,
            20.5227
          ],
          [
            -103.39033,
            20.522640000000003
          ],
          [
            -103.39046,
            20.522440000000003
          ],
          [
            -103.39046,
            20.522440000000003
          ],
          [
            -103.39062000000001,
            20.522170000000003
          ],
          [
            -103.39068,
            20.521900000000002
          ],
          [
            -103.39068,
            20.52183
          ],
          [
            -103.39082,
            20.521520000000002
          ],
          [
            -103.39104,
            20.52091
          ],
          [
            -103.39121000000002,
            20.51999
          ],
          [
            -103.39163,
            20.51706
          ],
          [
            -103.39185,
            20.515960000000003
          ],
          [
            -103.39193,
            20.51547
          ],
          [
            -103.39202,
            20.514850000000003
          ],
          [
            -103.39212,
            20.514290000000003
          ],
          [
            -103.39236000000001,
            20.51226
          ],
          [
            -103.39281000000001,
            20.50955
          ],
          [
            -103.39289000000001,
            20.509220000000003
          ],
          [
            -103.39305,
            20.50891
          ],
          [
            -103.39304000000001,
            20.508920000000003
          ],
          [
            -103.39362000000001,
            20.50793
          ],
          [
            -103.39376000000001,
            20.507820000000002
          ],
          [
            -103.39403000000001,
            20.507810000000003
          ],
          [
            -103.39466,
            20.507730000000002
          ],
          [
            -103.39553000000001,
            20.50765
          ],
          [
            -103.39722,
            20.50748
          ],
          [
            -103.39750000000001,
            20.5075
          ],
          [
            -103.39777000000001,
            20.507620000000003
          ],
          [
            -103.3995,
            20.5086
          ],
          [
            -103.40166,
            20.50983
          ],
          [
            -103.40165,
            20.50984
          ],
          [
            -103.40139,
            20.509690000000003
          ],
          [
            -103.3995,
            20.5086
          ],
          [
            -103.39928,
            20.508470000000003
          ],
          [
            -103.39929000000001,
            20.50841
          ],
          [
            -103.39927000000002,
            20.50832
          ],
          [
            -103.39927000000002,
            20.50834
          ],
          [
            -103.39926000000001,
            20.50833
          ],
          [
            -103.39928,
            20.508360000000003
          ],
          [
            -103.39928,
            20.508470000000003
          ],
          [
            -103.3978,
            20.507630000000002
          ],
          [
            -103.39769000000001,
            20.50758
          ],
          [
            -103.39741000000001,
            20.50748
          ],
          [
            -103.39714000000001,
            20.50749
          ],
          [
            -103.39470000000001,
            20.507730000000002
          ],
          [
            -103.39466,
            20.507730000000002
          ],
          [
            -103.39334000000001,
            20.50786
          ],
          [
            -103.39308000000001,
            20.50776
          ],
          [
            -103.39302,
            20.507630000000002
          ],
          [
            -103.39301,
            20.50756
          ],
          [
            -103.39316000000001,
            20.507260000000002
          ],
          [
            -103.39351,
            20.506780000000003
          ],
          [
            -103.39365000000001,
            20.50645
          ],
          [
            -103.39405000000001,
            20.505370000000003
          ],
          [
            -103.39456000000001,
            20.504060000000003
          ],
          [
            -103.39574,
            20.5008
          ],
          [
            -103.39680000000001,
            20.498340000000002
          ],
          [
            -103.39785,
            20.495780000000003
          ],
          [
            -103.39813000000001,
            20.494680000000002
          ],
          [
            -103.39836000000001,
            20.494000000000003
          ],
          [
            -103.39856,
            20.493560000000002
          ],
          [
            -103.39912000000001,
            20.492510000000003
          ],
          [
            -103.39955,
            20.49173
          ],
          [
            -103.39976000000001,
            20.491400000000002
          ],
          [
            -103.40013,
            20.490920000000003
          ],
          [
            -103.40051000000001,
            20.490450000000003
          ],
          [
            -103.40111,
            20.48977
          ],
          [
            -103.40176000000001,
            20.48909
          ],
          [
            -103.40245,
            20.48834
          ],
          [
            -103.40339,
            20.48723
          ],
          [
            -103.40359000000001,
            20.487000000000002
          ],
          [
            -103.40410000000001,
            20.48644
          ],
          [
            -103.40489000000001,
            20.485570000000003
          ],
          [
            -103.40464000000001,
            20.485380000000003
          ],
          [
            -103.40451,
            20.48536
          ],
          [
            -103.40438,
            20.48532
          ],
          [
            -103.40348,
            20.485110000000002
          ],
          [
            -103.40024000000001,
            20.484350000000003
          ],
          [
            -103.40026,
            20.48421
          ],
          [
            -103.39889000000001,
            20.483880000000003
          ],
          [
            -103.39889000000001,
            20.483880000000003
          ],
          [
            -103.39877000000001,
            20.48386
          ],
          [
            -103.39888,
            20.483510000000003
          ],
          [
            -103.39905,
            20.48282
          ],
          [
            -103.39925000000001,
            20.482100000000003
          ],
          [
            -103.39940000000001,
            20.48151
          ],
          [
            -103.39951,
            20.481070000000003
          ],
          [
            -103.39966000000001,
            20.48046
          ],
          [
            -103.39966000000001,
            20.479020000000002
          ]
        ]
      }
    }
  ]
}