{
  "type": "FeatureCollection",
  "features": [
    {
      "type": "Feature",
      "properties": {
        "identifier": "619-lomas-san-agustin-guadalupe",
        "name": "Ruta 619 Lomas San Agustín * Guadalupe (Azul)"
      },
      "geometry": {
        "type": "LineString",
        "coordinates": [
          [
            -103.28667000000002,
            20.623910000000002
          ],
          [
            -103.28728000000001,
            20.62412
          ],
          [
            -103.28789,
            20.62432
          ],
          [
            -103.28911000000001,
            20.624730000000003
          ],
          [
            -103.29082000000001,
            20.624740000000003
          ],
          [
            -103.29161,
            20.625860000000003
          ],
          [
            -103.29164000000002,
            20.62584
          ],
          [
            -103.29385,
            20.62941
          ],
          [
            -103.29818,
            20.62816
          ],
          [
            -103.30046000000002,
            20.627350000000003
          ],
          [
            -103.30099000000001,
            20.62716
          ],
          [
            -103.30453000000001,
            20.62591
          ],
          [
            -103.30469000000001,
            20.62584
          ],
          [
            -103.30746,
            20.624650000000003
          ],
          [
            -103.30857,
            20.624180000000003
          ],
          [
            -103.31472000000001,
            20.623980000000003
          ],
          [
            -103.31475,
            20.623980000000003
          ],
          [
            -103.31606000000001,
            20.62413
          ],
          [
            -103.31836000000001,
            20.6244
          ],
          [
            -103.32136000000001,
            20.624740000000003
          ],
          [
            -103.3217,
            20.621250000000003
          ],
          [
            -103.32175000000001,
            20.620160000000002
          ],
          [
            -103.32184000000001,
            20.620160000000002
          ],
          [
            -103.32197000000001,
            20.61831
          ],
          [
            -103.32192,
            20.6183
          ],
          [
            -103.32256000000001,
            20.615550000000002
          ],
          [
            -103.32319000000001,
            20.61411
          ],
          [
            -103.32355000000001,
            20.613300000000002
          ],
          [
            -103.32384,
            20.61295
          ],
          [
            -103.32372000000001,
            20.61286
          ],
          [
            -103.32541,
            20.61073
          ],
          [
            -103.32786000000002,
            20.60829
          ],
          [
            -103.32785000000001,
            20.60828
          ],
          [
            -103.32878000000001,
            20.60723
          ],
          [
            -103.32865000000001,
            20.604850000000003
          ],
          [
            -103.32646000000001,
            20.600240000000003
          ],
          [
            -103.32474,
            20.596870000000003
          ],
          [
            -103.32467000000001,
            20.5969
          ],
          [
            -103.32387000000001,
            20.595080000000003
          ],
          [
            -103.32268,
            20.592640000000003
          ],
          [
            -103.32249,
            20.592270000000003
          ],
          [
            -103.32359000000001,
            20.589460000000003
          ],
          [
            -103.32417000000001,
            20.589170000000003
          ],
          [
            -103.32416,
            20.589170000000003
          ],
          [
            -103.32519,
            20.588610000000003
          ],
          [
            -103.32893000000001,
            20.58659
          ],
          [
            -103.32910000000001,
            20.58661
          ],
          [
            -103.32918000000001,
            20.58659
          ],
          [
            -103.32990000000001,
            20.58622
          ],
          [
            -103.32989,
            20.58622
          ],
          [
            -103.33234,
            20.5849
          ],
          [
            -103.33298,
            20.58455
          ],
          [
            -103.33545000000001,
            20.5832
          ],
          [
            -103.33638,
            20.582700000000003
          ],
          [
            -103.34127000000001,
            20.58004
          ],
          [
            -103.34270000000001,
            20.579210000000003
          ],
          [
            -103.34406000000001,
            20.57843
          ],
          [
            -103.34805000000001,
            20.576330000000002
          ],
          [
            -103.35432000000002,
            20.57674
          ],
          [
            -103.35604000000001,
            20.57686
          ],
          [
            -103.35775000000001,
            20.576980000000002
          ],
          [
            -103.36025000000001,
            20.577440000000003
          ],
          [
            -103.36244,
            20.577840000000002
          ],
          [
            -103.36277000000001,
            20.577910000000003
          ],
          [
            -103.36921000000001,
            20.579600000000003
          ],
          [
            -103.37063,
            20.579970000000003
          ],
          [
            -103.37255,
            20.58048
          ],
          [
            -103.37268,
            20.580550000000002
          ],
          [
            -103.37568,
            20.58227
          ],
          [
            -103.37968000000001,
            20.584580000000003
          ],
          [
            -103.37977000000001,
            20.58463
          ],
          [
            -103.38161000000001,
            20.585780000000003
          ],
          [
            -103.38303,
            20.587310000000002
          ],
          [
            -103.38346000000001,
            20.587780000000002
          ],
          [
            -103.38421000000001,
            20.588710000000003
          ],
          [
            -103.38594,
            20.590870000000002
          ],
          [
            -103.38830000000002,
            20.593580000000003
          ],
          [
            -103.39178000000001,
            20.59795
          ],
          [
            -103.39188000000001,
            20.59803
          ],
          [
            -103.39191000000001,
            20.598010000000002
          ],
          [
            -103.39203,
            20.59815
          ],
          [
            -103.39212,
            20.59825
          ],
          [
            -103.39303000000001,
            20.599130000000002
          ],
          [
            -103.39485,
            20.60078
          ],
          [
            -103.39651,
            20.60229
          ],
          [
            -103.39788000000001,
            20.60356
          ],
          [
            -103.39810000000001,
            20.603730000000002
          ],
          [
            -103.39908000000001,
            20.60463
          ],
          [
            -103.39979000000001,
            20.60529
          ],
          [
            -103.39971000000001,
            20.60536
          ],
          [
            -103.40023000000001,
            20.605870000000003
          ],
          [
            -103.40125,
            20.606550000000002
          ],
          [
            -103.40116,
            20.6067
          ],
          [
            -103.40116,
            20.606710000000003
          ],
          [
            -103.40157,
            20.60698
          ],
          [
            -103.40199000000001,
            20.60723
          ],
          [
            -103.40243000000001,
            20.60743
          ],
          [
            -103.40329000000001,
            20.60779
          ],
          [
            -103.40336,
            20.60781
          ],
          [
            -103.40346000000001,
            20.60754
          ],
          [
            -103.40573,
            20.608320000000003
          ],
          [
            -103.40923000000001,
            20.609070000000003
          ],
          [
            -103.41276,
            20.609840000000002
          ],
          [
            -103.41444000000001,
            20.610200000000003
          ],
          [
            -103.41996,
            20.611700000000003
          ],
          [
            -103.42229,
            20.612340000000003
          ],
          [
            -103.4231,
            20.61277
          ],
          [
            -103.42701000000001,
            20.614900000000002
          ],
          [
            -103.42800000000001,
            20.61334
          ],
          [
            -103.42831000000001,
            20.61288
          ],
          [
            -103.42883,
            20.61211
          ],
          [
            -103.42983000000001,
            20.61063
          ],
          [
            -103.43145000000001,
            20.608230000000002
          ],
          [
            -103.43229000000001,
            20.606990000000003
          ],
          [
            -103.43238000000001,
            20.60685
          ],
          [
            -103.43301000000001,
            20.60591
          ],
          [
            -103.43363000000001,
            20.60497
          ],
          [
            -103.43418000000001,
            20.60414
          ],
          [
            -103.43495000000001,
            20.602970000000003
          ],
          [
            -103.43554,
            20.602110000000003
          ],
          [
            -103.43761,
            20.599030000000003
          ],
          [
            -103.43769,
            20.598930000000003
          ],
          [
            -103.44144000000001,
            20.59318
          ],
          [
            -103.44211000000001,
            20.59214
          ],
          [
            -103.44238000000001,
            20.591720000000002
          ],
          [
            -103.44294000000001,
            20.590870000000002
          ],
          [
            -103.44406000000001,
            20.589160000000003
          ],
          [
            -103.44549,
            20.58697
          ],
          [
            -103.44568000000001,
            20.58667
          ],
          [
            -103.44608000000001,
            20.585800000000003
          ],
          [
            -103.44677000000001,
            20.58474
          ],
          [
            -103.44701,
            20.58453
          ],
          [
            -103.44720000000001,
            20.58427
          ],
          [
            -103.44733000000001,
            20.58417
          ],
          [
            -103.44747000000001,
            20.583930000000002
          ],
          [
            -103.44817,
            20.58273
          ],
          [
            -103.44865000000001,
            20.58201
          ],
          [
            -103.44865000000001,
            20.58201
          ],
          [
            -103.44917000000001,
            20.58124
          ],
          [
            -103.44917000000001,
            20.58124
          ],
          [
            -103.44984000000001,
            20.580250000000003
          ],
          [
            -103.45074000000001,
            20.578860000000002
          ],
          [
            -103.45075000000001,
            20.578860000000002
          ],
          [
            -103.45104,
            20.57842
          ],
          [
            -103.45128000000001,
            20.577990000000003
          ],
          [
            -103.45128000000001,
            20.57797
          ],
          [
            -103.45127000000001,
            20.577910000000003
          ],
          [
            -103.45168000000001,
            20.57729
          ],
          [
            -103.45223000000001,
            20.57647
          ],
          [
            -103.45269,
            20.575760000000002
          ],
          [
            -103.45334000000001,
            20.57477
          ],
          [
            -103.45334000000001,
            20.57477
          ],
          [
            -103.4547,
            20.57273
          ],
          [
            -103.45595,
            20.57083
          ],
          [
            -103.45672,
            20.569660000000002
          ],
          [
            -103.45696000000001,
            20.56952
          ],
          [
            -103.45697000000001,
            20.56951
          ],
          [
            -103.45702000000001,
            20.569470000000003
          ],
          [
            -103.45741000000001,
            20.568900000000003
          ],
          [
            -103.45750000000001,
            20.568820000000002
          ],
          [
            -103.45756000000002,
            20.568720000000003
          ],
          [
            -103.45758000000001,
            20.568630000000002
          ],
          [
            -103.45775,
            20.56838
          ],
          [
            -103.45779,
            20.5683
          ],
          [
            -103.45782000000001,
            20.56801
          ],
          [
            -103.45828,
            20.567290000000003
          ],
          [
            -103.45920000000001,
            20.565910000000002
          ],
          [
            -103.46004,
            20.56463
          ],
          [
            -103.46139000000001,
            20.56255
          ],
          [
            -103.46153000000001,
            20.56237
          ],
          [
            -103.46164,
            20.56228
          ],
          [
            -103.46168000000002,
            20.562230000000003
          ],
          [
            -103.46191,
            20.561860000000003
          ],
          [
            -103.46202000000001,
            20.561700000000002
          ],
          [
            -103.46201,
            20.56171
          ],
          [
            -103.46208000000001,
            20.561590000000002
          ],
          [
            -103.46313,
            20.559990000000003
          ],
          [
            -103.46352,
            20.55939
          ],
          [
            -103.46393,
            20.55883
          ],
          [
            -103.46415,
            20.558490000000003
          ],
          [
            -103.46415,
            20.558490000000003
          ],
          [
            -103.46563,
            20.55621
          ],
          [
            -103.46568,
            20.55601
          ],
          [
            -103.46582000000001,
            20.555860000000003
          ],
          [
            -103.46624000000001,
            20.55524
          ],
          [
            -103.46692,
            20.554170000000003
          ],
          [
            -103.46692,
            20.554170000000003
          ],
          [
            -103.46765,
            20.55309
          ],
          [
            -103.468,
            20.55251
          ],
          [
            -103.46834000000001,
            20.55197
          ],
          [
            -103.46853000000002,
            20.55177
          ],
          [
            -103.46925,
            20.550680000000003
          ],
          [
            -103.46926,
            20.55067
          ],
          [
            -103.47089000000001,
            20.548170000000002
          ],
          [
            -103.47101,
            20.54813
          ],
          [
            -103.47101,
            20.54813
          ],
          [
            -103.47089000000001,
            20.548170000000002
          ],
          [
            -103.47102000000001,
            20.547960000000003
          ],
          [
            -103.47097000000001,
            20.547870000000003
          ],
          [
            -103.47090000000001,
            20.54783
          ],
          [
            -103.47080000000001,
            20.54783
          ],
          [
            -103.47053000000001,
            20.548250000000003
          ],
          [
            -103.47027000000001,
            20.54821
          ],
          [
            -103.46891000000001,
            20.54801
          ],
          [
            -103.46863,
            20.547960000000003
          ],
          [
            -103.46863,
            20.54795
          ],
          [
            -103.46688,
            20.547680000000003
          ],
          [
            -103.46688,
            20.54767
          ],
          [
            -103.46528,
            20.547420000000002
          ],
          [
            -103.46452000000001,
            20.547300000000003
          ],
          [
            -103.46467000000001,
            20.54633
          ],
          [
            -103.46498000000001,
            20.54419
          ],
          [
            -103.46501,
            20.54398
          ],
          [
            -103.46526000000001,
            20.543840000000003
          ],
          [
            -103.46526000000001,
            20.543840000000003
          ],
          [
            -103.46617,
            20.54334
          ],
          [
            -103.46634,
            20.54324
          ],
          [
            -103.46644,
            20.54315
          ],
          [
            -103.46784000000001,
            20.54128
          ],
          [
            -103.46788000000001,
            20.541220000000003
          ],
          [
            -103.46789000000001,
            20.541220000000003
          ],
          [
            -103.46814,
            20.54088
          ],
          [
            -103.46870000000001,
            20.540290000000002
          ],
          [
            -103.46896000000001,
            20.540080000000003
          ],
          [
            -103.46936000000001,
            20.539800000000003
          ],
          [
            -103.46943,
            20.539830000000002
          ],
          [
            -103.46942000000001,
            20.53984
          ],
          [
            -103.46936000000001,
            20.539800000000003
          ],
          [
            -103.46948,
            20.539720000000003
          ],
          [
            -103.47030000000001,
            20.539160000000003
          ],
          [
            -103.47123,
            20.53846
          ],
          [
            -103.4715,
            20.53818
          ],
          [
            -103.47177,
            20.53782
          ],
          [
            -103.47206000000001,
            20.537390000000002
          ],
          [
            -103.47206000000001,
            20.537380000000002
          ],
          [
            -103.47267000000001,
            20.53656
          ],
          [
            -103.47268000000001,
            20.536550000000002
          ],
          [
            -103.47356,
            20.53527
          ],
          [
            -103.47331000000001,
            20.53515
          ],
          [
            -103.47330000000001,
            20.53515
          ],
          [
            -103.47224000000001,
            20.53468
          ],
          [
            -103.47224000000001,
            20.534670000000002
          ],
          [
            -103.47121000000001,
            20.534280000000003
          ],
          [
            -103.47049000000001,
            20.534010000000002
          ],
          [
            -103.47048000000001,
            20.53402
          ],
          [
            -103.47025000000001,
            20.53397
          ],
          [
            -103.4701,
            20.53396
          ],
          [
            -103.46972000000001,
            20.534000000000002
          ],
          [
            -103.46953,
            20.534000000000002
          ],
          [
            -103.46952,
            20.533990000000003
          ],
          [
            -103.46901000000001,
            20.53396
          ],
          [
            -103.46888000000001,
            20.533900000000003
          ],
          [
            -103.46883000000001,
            20.53387
          ],
          [
            -103.46894,
            20.53308
          ],
          [
            -103.46910000000001,
            20.53149
          ],
          [
            -103.46913,
            20.53037
          ],
          [
            -103.46912,
            20.53038
          ],
          [
            -103.46910000000001,
            20.53011
          ],
          [
            -103.46907,
            20.529860000000003
          ],
          [
            -103.46910000000001,
            20.5298
          ],
          [
            -103.46908,
            20.527430000000003
          ],
          [
            -103.46908,
            20.52729
          ],
          [
            -103.46908,
            20.52728
          ],
          [
            -103.46897000000001,
            20.524800000000003
          ],
          [
            -103.46897000000001,
            20.524800000000003
          ],
          [
            -103.46887000000001,
            20.52335
          ],
          [
            -103.46888000000001,
            20.52326
          ],
          [
            -103.46902000000001,
            20.52298
          ],
          [
            -103.46902000000001,
            20.52298
          ],
          [
            -103.46920000000001,
            20.52249
          ],
          [
            -103.46929000000002,
            20.52194
          ],
          [
            -103.46939,
            20.52148
          ],
          [
            -103.46836,
            20.52137
          ],
          [
            -103.46835000000002,
            20.52137
          ],
          [
            -103.46726000000001,
            20.52121
          ],
          [
            -103.46725,
            20.52121
          ],
          [
            -103.46604,
            20.521030000000003
          ],
          [
            -103.46603,
            20.521030000000003
          ],
          [
            -103.46575000000001,
            20.52099
          ],
          [
            -103.46571,
            20.5211
          ],
          [
            -103.46546000000001,
            20.521600000000003
          ],
          [
            -103.46545,
            20.521610000000003
          ],
          [
            -103.46529000000001,
            20.521870000000003
          ],
          [
            -103.46518,
            20.522170000000003
          ],
          [
            -103.46511000000001,
            20.522170000000003
          ],
          [
            -103.4651,
            20.522170000000003
          ],
          [
            -103.46518,
            20.522170000000003
          ],
          [
            -103.46513,
            20.52224
          ],
          [
            -103.46472000000001,
            20.52288
          ],
          [
            -103.4646,
            20.523130000000002
          ],
          [
            -103.4646,
            20.521690000000003
          ]
        ]
      }
    }
  ]
}