{
  "type": "FeatureCollection",
  "features": [
    {
      "type": "Feature",
      "properties": {
        "identifier": "619-verde-via-1",
        "name": "Ruta 619 (Verde) Vía 1"
      },
      "geometry": {
        "type": "LineString",
        "coordinates": [
          [
            -103.39827000000001,
            20.480320000000003
          ],
          [
            -103.3978,
            20.48215
          ],
          [
            -103.39746000000001,
            20.48339
          ],
          [
            -103.39746000000001,
            20.48339
          ],
          [
            -103.39739,
            20.48366
          ],
          [
            -103.39862000000001,
            20.483960000000003
          ],
          [
            -103.40005000000001,
            20.48432
          ],
          [
            -103.40006000000001,
            20.48432
          ],
          [
            -103.40438,
            20.48532
          ],
          [
            -103.40438,
            20.48533
          ],
          [
            -103.40450000000001,
            20.485370000000003
          ],
          [
            -103.40454000000001,
            20.48541
          ],
          [
            -103.40461,
            20.485490000000002
          ],
          [
            -103.40464000000001,
            20.4856
          ],
          [
            -103.40464000000001,
            20.48573
          ],
          [
            -103.40463000000001,
            20.485860000000002
          ],
          [
            -103.40451,
            20.48599
          ],
          [
            -103.40451,
            20.486
          ],
          [
            -103.40410000000001,
            20.48644
          ],
          [
            -103.40319000000001,
            20.487460000000002
          ],
          [
            -103.40319000000001,
            20.487470000000002
          ],
          [
            -103.40245,
            20.48834
          ],
          [
            -103.40176000000001,
            20.48909
          ],
          [
            -103.40111,
            20.48977
          ],
          [
            -103.40051000000001,
            20.490450000000003
          ],
          [
            -103.40013,
            20.490920000000003
          ],
          [
            -103.39976000000001,
            20.491400000000002
          ],
          [
            -103.39955,
            20.49173
          ],
          [
            -103.39912000000001,
            20.492510000000003
          ],
          [
            -103.39856,
            20.493560000000002
          ],
          [
            -103.39836000000001,
            20.494000000000003
          ],
          [
            -103.39813000000001,
            20.494680000000002
          ],
          [
            -103.39785,
            20.495780000000003
          ],
          [
            -103.39761000000001,
            20.496370000000002
          ],
          [
            -103.39680000000001,
            20.498340000000002
          ],
          [
            -103.39680000000001,
            20.498340000000002
          ],
          [
            -103.39574,
            20.5008
          ],
          [
            -103.39456000000001,
            20.504060000000003
          ],
          [
            -103.39405000000001,
            20.505370000000003
          ],
          [
            -103.39365000000001,
            20.50645
          ],
          [
            -103.39351,
            20.506780000000003
          ],
          [
            -103.39316000000001,
            20.507260000000002
          ],
          [
            -103.39301,
            20.50756
          ],
          [
            -103.39304000000001,
            20.507710000000003
          ],
          [
            -103.39312000000001,
            20.50779
          ],
          [
            -103.39334000000001,
            20.50786
          ],
          [
            -103.39403000000001,
            20.507810000000003
          ],
          [
            -103.39552,
            20.50765
          ],
          [
            -103.39553000000001,
            20.507640000000002
          ],
          [
            -103.39553000000001,
            20.50765
          ],
          [
            -103.39722,
            20.50748
          ],
          [
            -103.39750000000001,
            20.5075
          ],
          [
            -103.39777000000001,
            20.507620000000003
          ],
          [
            -103.3995,
            20.5086
          ],
          [
            -103.40166,
            20.50983
          ],
          [
            -103.40165,
            20.50984
          ],
          [
            -103.40139,
            20.509690000000003
          ],
          [
            -103.3995,
            20.5086
          ],
          [
            -103.39928,
            20.508470000000003
          ],
          [
            -103.39929000000001,
            20.50841
          ],
          [
            -103.39927000000002,
            20.50832
          ],
          [
            -103.39927000000002,
            20.50834
          ],
          [
            -103.39926000000001,
            20.50833
          ],
          [
            -103.39928,
            20.508360000000003
          ],
          [
            -103.39928,
            20.508470000000003
          ],
          [
            -103.3978,
            20.507630000000002
          ],
          [
            -103.39769000000001,
            20.50758
          ],
          [
            -103.39741000000001,
            20.50748
          ],
          [
            -103.39714000000001,
            20.50749
          ],
          [
            -103.39470000000001,
            20.507730000000002
          ],
          [
            -103.39466,
            20.507730000000002
          ],
          [
            -103.39403000000001,
            20.507810000000003
          ],
          [
            -103.39376000000001,
            20.507820000000002
          ],
          [
            -103.39362000000001,
            20.50793
          ],
          [
            -103.39347000000001,
            20.508190000000003
          ],
          [
            -103.39305,
            20.50891
          ],
          [
            -103.39304000000001,
            20.508920000000003
          ],
          [
            -103.39289000000001,
            20.509220000000003
          ],
          [
            -103.39281000000001,
            20.50955
          ],
          [
            -103.39236000000001,
            20.51226
          ],
          [
            -103.39212,
            20.514290000000003
          ],
          [
            -103.39202,
            20.514850000000003
          ],
          [
            -103.39189,
            20.51572
          ],
          [
            -103.39181,
            20.5162
          ],
          [
            -103.39181,
            20.5162
          ],
          [
            -103.3918,
            20.51621
          ],
          [
            -103.39163,
            20.51706
          ],
          [
            -103.39121000000002,
            20.51999
          ],
          [
            -103.39104,
            20.52091
          ],
          [
            -103.39082,
            20.521520000000002
          ],
          [
            -103.39059,
            20.521980000000003
          ],
          [
            -103.39059,
            20.521980000000003
          ],
          [
            -103.39019,
            20.52259
          ],
          [
            -103.38990000000001,
            20.522910000000003
          ],
          [
            -103.38967000000001,
            20.523110000000003
          ],
          [
            -103.38854,
            20.524040000000003
          ],
          [
            -103.3875,
            20.524980000000003
          ],
          [
            -103.38733,
            20.525060000000003
          ],
          [
            -103.38622000000001,
            20.525920000000003
          ],
          [
            -103.38581,
            20.526300000000003
          ],
          [
            -103.38525000000001,
            20.52692
          ],
          [
            -103.38509,
            20.5271
          ],
          [
            -103.38584,
            20.527320000000003
          ],
          [
            -103.38657,
            20.52747
          ],
          [
            -103.38738000000001,
            20.52759
          ],
          [
            -103.38809,
            20.52775
          ],
          [
            -103.38848000000002,
            20.52787
          ],
          [
            -103.38968000000001,
            20.528160000000003
          ],
          [
            -103.38971000000001,
            20.52802
          ],
          [
            -103.3897,
            20.52803
          ],
          [
            -103.38968000000001,
            20.528160000000003
          ],
          [
            -103.39038000000001,
            20.52833
          ],
          [
            -103.39064,
            20.52841
          ],
          [
            -103.39082,
            20.52852
          ],
          [
            -103.39098000000001,
            20.528650000000003
          ],
          [
            -103.39109,
            20.52879
          ],
          [
            -103.39118,
            20.52899
          ],
          [
            -103.39125000000001,
            20.529300000000003
          ],
          [
            -103.39127,
            20.52943
          ],
          [
            -103.39126,
            20.52946
          ],
          [
            -103.39126,
            20.52952
          ],
          [
            -103.39128000000001,
            20.529590000000002
          ],
          [
            -103.39136,
            20.529660000000003
          ],
          [
            -103.39142000000001,
            20.529660000000003
          ],
          [
            -103.39147000000001,
            20.52962
          ],
          [
            -103.39149,
            20.529570000000003
          ],
          [
            -103.39150000000001,
            20.52955
          ],
          [
            -103.39159000000001,
            20.52952
          ],
          [
            -103.39174000000001,
            20.52952
          ],
          [
            -103.39201000000001,
            20.52955
          ],
          [
            -103.39338000000001,
            20.529680000000003
          ],
          [
            -103.3948,
            20.52982
          ],
          [
            -103.39534,
            20.529870000000003
          ],
          [
            -103.39542,
            20.529850000000003
          ],
          [
            -103.39615,
            20.52993
          ],
          [
            -103.39725000000001,
            20.53003
          ],
          [
            -103.39726,
            20.530040000000003
          ],
          [
            -103.39905,
            20.53019
          ],
          [
            -103.39915,
            20.5302
          ],
          [
            -103.39944000000001,
            20.5305
          ],
          [
            -103.39958000000001,
            20.530630000000002
          ],
          [
            -103.39959,
            20.53065
          ],
          [
            -103.40082000000001,
            20.53207
          ],
          [
            -103.4017,
            20.53318
          ],
          [
            -103.40187,
            20.533430000000003
          ],
          [
            -103.40199000000001,
            20.53367
          ],
          [
            -103.40215,
            20.534100000000002
          ],
          [
            -103.40242,
            20.53489
          ],
          [
            -103.40272,
            20.53574
          ],
          [
            -103.403,
            20.536710000000003
          ],
          [
            -103.40323000000001,
            20.537180000000003
          ],
          [
            -103.40349,
            20.53762
          ],
          [
            -103.40357,
            20.537740000000003
          ],
          [
            -103.40372,
            20.537830000000003
          ],
          [
            -103.40395000000001,
            20.53788
          ],
          [
            -103.40395000000001,
            20.53789
          ],
          [
            -103.40424,
            20.537920000000003
          ],
          [
            -103.40327,
            20.5404
          ],
          [
            -103.40307000000001,
            20.540930000000003
          ],
          [
            -103.40266000000001,
            20.54239
          ],
          [
            -103.40237,
            20.54333
          ],
          [
            -103.40204000000001,
            20.544410000000003
          ],
          [
            -103.40188,
            20.544860000000003
          ],
          [
            -103.40161,
            20.54561
          ],
          [
            -103.40133,
            20.54643
          ],
          [
            -103.40094,
            20.547520000000002
          ],
          [
            -103.40061000000001,
            20.548260000000003
          ],
          [
            -103.40048,
            20.548540000000003
          ],
          [
            -103.40033000000001,
            20.549010000000003
          ],
          [
            -103.40021000000002,
            20.549280000000003
          ],
          [
            -103.40004,
            20.549580000000002
          ],
          [
            -103.3987,
            20.5516
          ],
          [
            -103.39823000000001,
            20.552290000000003
          ],
          [
            -103.39761000000001,
            20.55327
          ],
          [
            -103.39743000000001,
            20.553590000000003
          ],
          [
            -103.39743000000001,
            20.553590000000003
          ],
          [
            -103.39743000000001,
            20.553590000000003
          ],
          [
            -103.39732000000001,
            20.55377
          ],
          [
            -103.39692000000001,
            20.5544
          ],
          [
            -103.39646,
            20.55515
          ],
          [
            -103.39519000000001,
            20.557280000000002
          ],
          [
            -103.39463,
            20.558290000000003
          ],
          [
            -103.39378,
            20.55993
          ],
          [
            -103.39348000000001,
            20.56042
          ],
          [
            -103.39296,
            20.56133
          ],
          [
            -103.3927,
            20.561780000000002
          ],
          [
            -103.39242000000002,
            20.562340000000003
          ],
          [
            -103.39233000000002,
            20.56255
          ],
          [
            -103.39224000000002,
            20.56285
          ],
          [
            -103.39224000000002,
            20.56286
          ],
          [
            -103.39219000000001,
            20.563180000000003
          ],
          [
            -103.39214000000001,
            20.563930000000003
          ],
          [
            -103.39198,
            20.565150000000003
          ],
          [
            -103.39179000000001,
            20.566450000000003
          ],
          [
            -103.39166,
            20.56699
          ],
          [
            -103.39162,
            20.567
          ],
          [
            -103.39159000000001,
            20.56708
          ],
          [
            -103.39159000000001,
            20.56708
          ],
          [
            -103.39131,
            20.568890000000003
          ],
          [
            -103.39131,
            20.568890000000003
          ],
          [
            -103.39128000000001,
            20.57055
          ],
          [
            -103.39128000000001,
            20.57055
          ],
          [
            -103.39114000000001,
            20.57113
          ],
          [
            -103.39091,
            20.572080000000003
          ],
          [
            -103.39091,
            20.572080000000003
          ],
          [
            -103.39051,
            20.573600000000003
          ],
          [
            -103.39051,
            20.573600000000003
          ],
          [
            -103.39011,
            20.574340000000003
          ],
          [
            -103.39011,
            20.574340000000003
          ],
          [
            -103.38949000000001,
            20.57475
          ],
          [
            -103.38949000000001,
            20.57475
          ],
          [
            -103.38892000000001,
            20.57543
          ],
          [
            -103.38888000000001,
            20.575480000000002
          ],
          [
            -103.38888000000001,
            20.575480000000002
          ],
          [
            -103.38787,
            20.578110000000002
          ],
          [
            -103.38787,
            20.578110000000002
          ],
          [
            -103.38725000000001,
            20.57954
          ],
          [
            -103.38721000000001,
            20.57963
          ],
          [
            -103.38721000000001,
            20.57963
          ],
          [
            -103.38597000000001,
            20.581370000000003
          ],
          [
            -103.38597000000001,
            20.581370000000003
          ],
          [
            -103.38560000000001,
            20.582220000000003
          ],
          [
            -103.38553,
            20.58238
          ],
          [
            -103.38553,
            20.58238
          ],
          [
            -103.38541000000001,
            20.582700000000003
          ],
          [
            -103.38541000000001,
            20.582700000000003
          ],
          [
            -103.38519000000001,
            20.5836
          ],
          [
            -103.38519000000001,
            20.5836
          ],
          [
            -103.38489000000001,
            20.58479
          ],
          [
            -103.3849,
            20.584780000000002
          ],
          [
            -103.38489000000001,
            20.58479
          ],
          [
            -103.38478,
            20.585320000000003
          ],
          [
            -103.38459,
            20.58649
          ],
          [
            -103.38445000000002,
            20.586820000000003
          ],
          [
            -103.38423,
            20.587100000000003
          ],
          [
            -103.38372000000001,
            20.587490000000003
          ],
          [
            -103.38346000000001,
            20.587670000000003
          ],
          [
            -103.38328000000001,
            20.587850000000003
          ],
          [
            -103.38311,
            20.58811
          ],
          [
            -103.38269000000001,
            20.58895
          ],
          [
            -103.38212000000001,
            20.590020000000003
          ],
          [
            -103.38194000000001,
            20.59043
          ],
          [
            -103.38175000000001,
            20.590850000000003
          ],
          [
            -103.38163000000002,
            20.591140000000003
          ],
          [
            -103.38162000000001,
            20.591150000000003
          ],
          [
            -103.38148000000001,
            20.59155
          ],
          [
            -103.38126000000001,
            20.59225
          ],
          [
            -103.38143000000001,
            20.592270000000003
          ],
          [
            -103.38148000000001,
            20.592260000000003
          ],
          [
            -103.38153000000001,
            20.592170000000003
          ],
          [
            -103.38166000000001,
            20.591600000000003
          ],
          [
            -103.38167000000001,
            20.591440000000002
          ],
          [
            -103.38201000000001,
            20.590590000000002
          ],
          [
            -103.38225000000001,
            20.59009
          ],
          [
            -103.38244,
            20.58988
          ],
          [
            -103.38262,
            20.589530000000003
          ],
          [
            -103.3832,
            20.588330000000003
          ],
          [
            -103.38325,
            20.588250000000002
          ],
          [
            -103.38337000000001,
            20.58819
          ],
          [
            -103.38353000000001,
            20.58817
          ],
          [
            -103.38363000000001,
            20.58819
          ],
          [
            -103.38364000000001,
            20.58819
          ],
          [
            -103.38364000000001,
            20.58819
          ],
          [
            -103.38371000000001,
            20.5882
          ],
          [
            -103.38566,
            20.59054
          ],
          [
            -103.38613000000001,
            20.591130000000003
          ],
          [
            -103.38603,
            20.591220000000003
          ],
          [
            -103.38601000000001,
            20.59128
          ],
          [
            -103.38599,
            20.591340000000002
          ],
          [
            -103.38635000000001,
            20.59174
          ],
          [
            -103.38653000000001,
            20.591600000000003
          ],
          [
            -103.38653000000001,
            20.591610000000003
          ],
          [
            -103.38958000000001,
            20.59524
          ],
          [
            -103.38984,
            20.595540000000003
          ],
          [
            -103.39139000000002,
            20.597420000000003
          ],
          [
            -103.39191000000001,
            20.598010000000002
          ],
          [
            -103.39191000000001,
            20.598010000000002
          ],
          [
            -103.39278,
            20.59891
          ],
          [
            -103.39434000000001,
            20.60032
          ],
          [
            -103.39501000000001,
            20.60094
          ],
          [
            -103.39788000000001,
            20.60356
          ],
          [
            -103.39867000000001,
            20.60426
          ],
          [
            -103.39891000000001,
            20.604460000000003
          ],
          [
            -103.39889000000001,
            20.604490000000002
          ],
          [
            -103.39992000000001,
            20.605410000000003
          ],
          [
            -103.39994000000002,
            20.605510000000002
          ],
          [
            -103.40001000000001,
            20.605690000000003
          ],
          [
            -103.40037000000001,
            20.60603
          ],
          [
            -103.40050000000001,
            20.60612
          ],
          [
            -103.40051000000001,
            20.60612
          ],
          [
            -103.40103,
            20.60657
          ],
          [
            -103.40116,
            20.6067
          ],
          [
            -103.40116,
            20.606710000000003
          ],
          [
            -103.40157,
            20.60698
          ],
          [
            -103.40199000000001,
            20.60723
          ],
          [
            -103.40243000000001,
            20.60743
          ],
          [
            -103.40329000000001,
            20.60779
          ],
          [
            -103.40336,
            20.60781
          ],
          [
            -103.40346000000001,
            20.60754
          ],
          [
            -103.40573,
            20.608320000000003
          ],
          [
            -103.40923000000001,
            20.609070000000003
          ],
          [
            -103.41276,
            20.609840000000002
          ],
          [
            -103.41272000000001,
            20.61006
          ],
          [
            -103.41274000000001,
            20.61007
          ],
          [
            -103.41308000000001,
            20.61015
          ],
          [
            -103.41362000000001,
            20.610280000000003
          ],
          [
            -103.41390000000001,
            20.61035
          ],
          [
            -103.41464,
            20.610570000000003
          ],
          [
            -103.41476000000002,
            20.610560000000003
          ],
          [
            -103.41495,
            20.610480000000003
          ],
          [
            -103.41506000000001,
            20.610480000000003
          ],
          [
            -103.41517,
            20.61054
          ],
          [
            -103.41586000000001,
            20.610750000000003
          ],
          [
            -103.41662000000001,
            20.610930000000003
          ],
          [
            -103.41801000000001,
            20.611320000000003
          ],
          [
            -103.41806000000001,
            20.611310000000003
          ],
          [
            -103.4184,
            20.611320000000003
          ],
          [
            -103.41866,
            20.61135
          ],
          [
            -103.41881000000001,
            20.611330000000002
          ],
          [
            -103.41938,
            20.61147
          ],
          [
            -103.41938,
            20.61147
          ],
          [
            -103.41938,
            20.61148
          ],
          [
            -103.42160000000001,
            20.611990000000002
          ],
          [
            -103.42203,
            20.61212
          ],
          [
            -103.42234,
            20.61223
          ],
          [
            -103.42248000000001,
            20.612270000000002
          ],
          [
            -103.42291,
            20.612460000000002
          ],
          [
            -103.42314,
            20.61258
          ],
          [
            -103.42345,
            20.612730000000003
          ],
          [
            -103.42401000000001,
            20.61308
          ],
          [
            -103.42479,
            20.61352
          ],
          [
            -103.42637,
            20.614420000000003
          ],
          [
            -103.42675000000001,
            20.614690000000003
          ],
          [
            -103.42697000000001,
            20.614800000000002
          ],
          [
            -103.42765000000001,
            20.61522
          ],
          [
            -103.42796000000001,
            20.61543
          ],
          [
            -103.42829,
            20.615740000000002
          ],
          [
            -103.42868000000001,
            20.616300000000003
          ],
          [
            -103.42904000000001,
            20.616960000000002
          ],
          [
            -103.42906,
            20.61698
          ],
          [
            -103.43003,
            20.61877
          ],
          [
            -103.43083000000001,
            20.620240000000003
          ],
          [
            -103.43129,
            20.62112
          ],
          [
            -103.43279000000001,
            20.62385
          ],
          [
            -103.43280000000001,
            20.62385
          ],
          [
            -103.43358,
            20.625290000000003
          ],
          [
            -103.43415,
            20.626430000000003
          ],
          [
            -103.43431000000001,
            20.626810000000003
          ],
          [
            -103.43432000000001,
            20.627000000000002
          ],
          [
            -103.43438,
            20.627450000000003
          ],
          [
            -103.43445000000001,
            20.627650000000003
          ],
          [
            -103.43467000000001,
            20.62817
          ],
          [
            -103.43477000000001,
            20.628410000000002
          ],
          [
            -103.43499000000001,
            20.62892
          ],
          [
            -103.43502000000001,
            20.62894
          ],
          [
            -103.43526000000001,
            20.629510000000003
          ],
          [
            -103.43554,
            20.630180000000003
          ],
          [
            -103.43562000000001,
            20.630370000000003
          ],
          [
            -103.43574000000001,
            20.63071
          ],
          [
            -103.43596000000001,
            20.631230000000002
          ],
          [
            -103.43707,
            20.63378
          ],
          [
            -103.43710000000002,
            20.63387
          ],
          [
            -103.4372,
            20.634210000000003
          ],
          [
            -103.43776000000001,
            20.635540000000002
          ],
          [
            -103.43798000000001,
            20.63597
          ],
          [
            -103.43812000000001,
            20.636190000000003
          ],
          [
            -103.43826000000001,
            20.636290000000002
          ],
          [
            -103.43843000000001,
            20.636660000000003
          ],
          [
            -103.43864,
            20.63719
          ],
          [
            -103.43883000000001,
            20.637680000000003
          ],
          [
            -103.43964000000001,
            20.6396
          ],
          [
            -103.44003000000001,
            20.64055
          ],
          [
            -103.44041000000001,
            20.641430000000003
          ],
          [
            -103.44079,
            20.64234
          ],
          [
            -103.44080000000001,
            20.64234
          ],
          [
            -103.44079,
            20.64235
          ],
          [
            -103.44118,
            20.64329
          ],
          [
            -103.44196000000001,
            20.64516
          ],
          [
            -103.44228000000001,
            20.6459
          ],
          [
            -103.44305000000001,
            20.647740000000002
          ],
          [
            -103.44393000000001,
            20.64987
          ],
          [
            -103.44455,
            20.65135
          ],
          [
            -103.44456000000001,
            20.65135
          ],
          [
            -103.44523000000001,
            20.65302
          ],
          [
            -103.44520000000001,
            20.65314
          ],
          [
            -103.44518000000001,
            20.65349
          ],
          [
            -103.44519000000001,
            20.6537
          ],
          [
            -103.44524000000001,
            20.6539
          ],
          [
            -103.44526,
            20.654020000000003
          ],
          [
            -103.44622000000001,
            20.65651
          ],
          [
            -103.44633,
            20.656740000000003
          ],
          [
            -103.44649000000001,
            20.65689
          ],
          [
            -103.44653000000001,
            20.657100000000003
          ],
          [
            -103.44684000000001,
            20.65792
          ],
          [
            -103.447,
            20.65828
          ],
          [
            -103.44702000000001,
            20.658340000000003
          ],
          [
            -103.44723,
            20.658530000000003
          ],
          [
            -103.44739000000001,
            20.65858
          ],
          [
            -103.44753000000001,
            20.65856
          ],
          [
            -103.44773,
            20.659000000000002
          ],
          [
            -103.44903000000001,
            20.662090000000003
          ],
          [
            -103.44999000000001,
            20.664440000000003
          ],
          [
            -103.45014,
            20.664800000000003
          ],
          [
            -103.45073000000001,
            20.666220000000003
          ],
          [
            -103.45167000000001,
            20.66844
          ],
          [
            -103.45194000000001,
            20.66897
          ],
          [
            -103.45250000000001,
            20.66975
          ],
          [
            -103.45299000000001,
            20.670330000000003
          ],
          [
            -103.45299000000001,
            20.670330000000003
          ],
          [
            -103.45299000000001,
            20.670340000000003
          ],
          [
            -103.45387000000001,
            20.671390000000002
          ],
          [
            -103.45435,
            20.67201
          ],
          [
            -103.4547,
            20.672510000000003
          ],
          [
            -103.45485000000001,
            20.67286
          ],
          [
            -103.45495000000001,
            20.673150000000003
          ],
          [
            -103.45507,
            20.67368
          ],
          [
            -103.45512000000001,
            20.67424
          ],
          [
            -103.45512000000001,
            20.67425
          ],
          [
            -103.45514000000001,
            20.678430000000002
          ],
          [
            -103.45515,
            20.678440000000002
          ],
          [
            -103.45515,
            20.678440000000002
          ],
          [
            -103.45515,
            20.679640000000003
          ],
          [
            -103.45516,
            20.682000000000002
          ],
          [
            -103.45517000000001,
            20.682170000000003
          ],
          [
            -103.45517000000001,
            20.682170000000003
          ],
          [
            -103.45517000000001,
            20.68364
          ],
          [
            -103.45518000000001,
            20.6843
          ],
          [
            -103.4552,
            20.685270000000003
          ],
          [
            -103.45521000000001,
            20.68643
          ],
          [
            -103.45528,
            20.68812
          ],
          [
            -103.45531000000001,
            20.68861
          ],
          [
            -103.45544000000001,
            20.69121
          ],
          [
            -103.45556,
            20.693
          ],
          [
            -103.45562000000001,
            20.69414
          ],
          [
            -103.45559000000002,
            20.694460000000003
          ],
          [
            -103.45555,
            20.69468
          ],
          [
            -103.45548000000001,
            20.694930000000003
          ],
          [
            -103.45540000000001,
            20.6951
          ],
          [
            -103.4552,
            20.69544
          ],
          [
            -103.45491000000001,
            20.695880000000002
          ],
          [
            -103.45456000000001,
            20.69632
          ],
          [
            -103.45368,
            20.69742
          ],
          [
            -103.45348000000001,
            20.697470000000003
          ],
          [
            -103.45347000000001,
            20.697480000000002
          ],
          [
            -103.45347000000001,
            20.697490000000002
          ],
          [
            -103.45332,
            20.697660000000003
          ],
          [
            -103.45243,
            20.69881
          ],
          [
            -103.45225,
            20.699
          ],
          [
            -103.45211,
            20.69919
          ],
          [
            -103.45193,
            20.69942
          ],
          [
            -103.45193,
            20.69798
          ]
        ]
      }
    }
  ]
}