{
  "type": "FeatureCollection",
  "features": [
    {
      "type": "Feature",
      "properties": {
        "identifier": "619-nueva-central-camionera",
        "name": "Ruta 619 Nueva Central Camionera (Amarilla)"
      },
      "geometry": {
        "type": "LineString",
        "coordinates": [
          [
            -103.35897000000001,
            20.49255
          ],
          [
            -103.35874000000001,
            20.49304
          ],
          [
            -103.35876,
            20.49315
          ],
          [
            -103.35876,
            20.493160000000003
          ],
          [
            -103.35889,
            20.493920000000003
          ],
          [
            -103.35910000000001,
            20.49492
          ],
          [
            -103.35912,
            20.495040000000003
          ],
          [
            -103.35918000000001,
            20.49508
          ],
          [
            -103.35931000000001,
            20.49519
          ],
          [
            -103.35932000000001,
            20.49519
          ],
          [
            -103.35964000000001,
            20.49548
          ],
          [
            -103.35981000000001,
            20.495720000000002
          ],
          [
            -103.35993,
            20.496070000000003
          ],
          [
            -103.35998000000001,
            20.496360000000003
          ],
          [
            -103.36015,
            20.49745
          ],
          [
            -103.36025000000001,
            20.49801
          ],
          [
            -103.36026000000001,
            20.49801
          ],
          [
            -103.36045000000001,
            20.49931
          ],
          [
            -103.36061000000001,
            20.500310000000002
          ],
          [
            -103.36062000000001,
            20.500310000000002
          ],
          [
            -103.36087,
            20.50194
          ],
          [
            -103.36097000000001,
            20.50253
          ],
          [
            -103.36118,
            20.503970000000002
          ],
          [
            -103.36119000000001,
            20.503970000000002
          ],
          [
            -103.36137000000001,
            20.505110000000002
          ],
          [
            -103.36149,
            20.50588
          ],
          [
            -103.36160000000001,
            20.50654
          ],
          [
            -103.36166000000001,
            20.50671
          ],
          [
            -103.36210000000001,
            20.50731
          ],
          [
            -103.36210000000001,
            20.50732
          ],
          [
            -103.36286000000001,
            20.50832
          ],
          [
            -103.36299000000001,
            20.508480000000002
          ],
          [
            -103.36354000000001,
            20.509210000000003
          ],
          [
            -103.36420000000001,
            20.5101
          ],
          [
            -103.36501000000001,
            20.511190000000003
          ],
          [
            -103.36501000000001,
            20.511190000000003
          ],
          [
            -103.36566,
            20.512040000000002
          ],
          [
            -103.36588,
            20.512320000000003
          ],
          [
            -103.36601,
            20.512310000000003
          ],
          [
            -103.36647,
            20.51226
          ],
          [
            -103.36647,
            20.51226
          ],
          [
            -103.36896000000002,
            20.512030000000003
          ],
          [
            -103.36927000000001,
            20.512
          ],
          [
            -103.36948000000001,
            20.512030000000003
          ],
          [
            -103.36977,
            20.512040000000002
          ],
          [
            -103.37126,
            20.512140000000002
          ],
          [
            -103.37194000000001,
            20.51217
          ],
          [
            -103.37307000000001,
            20.51219
          ],
          [
            -103.37385,
            20.51199
          ],
          [
            -103.37535000000001,
            20.51219
          ],
          [
            -103.37587,
            20.51227
          ],
          [
            -103.37669000000001,
            20.512320000000003
          ],
          [
            -103.3786,
            20.51263
          ],
          [
            -103.37867000000001,
            20.512690000000003
          ],
          [
            -103.37879000000001,
            20.51285
          ],
          [
            -103.37876000000001,
            20.513170000000002
          ],
          [
            -103.37874000000001,
            20.51328
          ],
          [
            -103.37870000000001,
            20.51357
          ],
          [
            -103.37857000000001,
            20.514670000000002
          ],
          [
            -103.37838,
            20.515990000000002
          ],
          [
            -103.37832,
            20.51649
          ],
          [
            -103.37827000000001,
            20.51677
          ],
          [
            -103.37863000000002,
            20.516810000000003
          ],
          [
            -103.37883000000001,
            20.516830000000002
          ],
          [
            -103.38069000000002,
            20.51708
          ],
          [
            -103.38119,
            20.51714
          ],
          [
            -103.38390000000001,
            20.51752
          ],
          [
            -103.38415,
            20.51755
          ],
          [
            -103.38475000000001,
            20.51763
          ],
          [
            -103.38728,
            20.5179
          ],
          [
            -103.38733,
            20.517950000000003
          ],
          [
            -103.38742,
            20.51808
          ],
          [
            -103.38745000000002,
            20.51818
          ],
          [
            -103.38744000000001,
            20.51838
          ],
          [
            -103.38743000000001,
            20.51839
          ],
          [
            -103.38727000000002,
            20.51968
          ],
          [
            -103.38724,
            20.519910000000003
          ],
          [
            -103.38703000000001,
            20.521520000000002
          ],
          [
            -103.38702,
            20.521520000000002
          ],
          [
            -103.38697,
            20.52183
          ],
          [
            -103.38691000000001,
            20.521970000000003
          ],
          [
            -103.38631000000001,
            20.52296
          ],
          [
            -103.38598,
            20.523480000000003
          ],
          [
            -103.38579000000001,
            20.5237
          ],
          [
            -103.38455,
            20.524220000000003
          ],
          [
            -103.38452000000001,
            20.524240000000002
          ],
          [
            -103.38449000000001,
            20.524340000000002
          ],
          [
            -103.38448000000001,
            20.52449
          ],
          [
            -103.38447000000001,
            20.524500000000003
          ],
          [
            -103.38440000000001,
            20.525080000000003
          ],
          [
            -103.38432,
            20.52642
          ],
          [
            -103.38431000000001,
            20.52643
          ],
          [
            -103.38429000000001,
            20.52645
          ],
          [
            -103.38428,
            20.526490000000003
          ],
          [
            -103.38429000000001,
            20.52652
          ],
          [
            -103.38427000000001,
            20.52674
          ],
          [
            -103.38426000000001,
            20.526750000000003
          ],
          [
            -103.38425000000001,
            20.526770000000003
          ],
          [
            -103.38424,
            20.5268
          ],
          [
            -103.38425000000001,
            20.52684
          ],
          [
            -103.38427000000001,
            20.526860000000003
          ],
          [
            -103.38425000000001,
            20.527
          ],
          [
            -103.38418000000001,
            20.52745
          ],
          [
            -103.38400000000001,
            20.52766
          ],
          [
            -103.38398000000001,
            20.52768
          ],
          [
            -103.38355000000001,
            20.52802
          ],
          [
            -103.38316,
            20.52823
          ],
          [
            -103.38265000000001,
            20.52841
          ],
          [
            -103.38204,
            20.528560000000002
          ],
          [
            -103.38132,
            20.528740000000003
          ],
          [
            -103.38001000000001,
            20.52897
          ],
          [
            -103.37961000000001,
            20.529010000000003
          ],
          [
            -103.37961000000001,
            20.529020000000003
          ],
          [
            -103.37788,
            20.52916
          ],
          [
            -103.37762000000001,
            20.52918
          ],
          [
            -103.37551,
            20.529380000000003
          ],
          [
            -103.37522000000001,
            20.529400000000003
          ],
          [
            -103.37381,
            20.529500000000002
          ],
          [
            -103.37279000000001,
            20.52964
          ],
          [
            -103.37227000000001,
            20.52973
          ],
          [
            -103.37227000000001,
            20.52973
          ],
          [
            -103.37128000000001,
            20.52991
          ],
          [
            -103.37073000000001,
            20.52992
          ],
          [
            -103.37007000000001,
            20.52992
          ],
          [
            -103.37006000000001,
            20.52993
          ],
          [
            -103.36976000000001,
            20.529960000000003
          ],
          [
            -103.36965000000001,
            20.529970000000002
          ],
          [
            -103.36933,
            20.5304
          ],
          [
            -103.36893,
            20.530900000000003
          ],
          [
            -103.36867000000001,
            20.531270000000003
          ],
          [
            -103.36866,
            20.531280000000002
          ],
          [
            -103.36815000000001,
            20.53198
          ],
          [
            -103.36801000000001,
            20.53216
          ],
          [
            -103.36800000000001,
            20.53217
          ],
          [
            -103.36662000000001,
            20.533920000000002
          ],
          [
            -103.36592,
            20.53481
          ],
          [
            -103.36552,
            20.53526
          ],
          [
            -103.36535,
            20.535410000000002
          ],
          [
            -103.36493000000002,
            20.535760000000003
          ],
          [
            -103.36470000000001,
            20.536
          ],
          [
            -103.36442000000001,
            20.536340000000003
          ],
          [
            -103.36441,
            20.536340000000003
          ],
          [
            -103.36343000000001,
            20.53761
          ],
          [
            -103.36318000000001,
            20.537940000000003
          ],
          [
            -103.36250000000001,
            20.53883
          ],
          [
            -103.36102000000001,
            20.5408
          ],
          [
            -103.36040000000001,
            20.54162
          ],
          [
            -103.35998000000001,
            20.5422
          ],
          [
            -103.35997,
            20.54221
          ],
          [
            -103.35910000000001,
            20.54332
          ],
          [
            -103.35881,
            20.54372
          ],
          [
            -103.3588,
            20.54373
          ],
          [
            -103.35845,
            20.54426
          ],
          [
            -103.35814,
            20.544870000000003
          ],
          [
            -103.35754000000001,
            20.545550000000002
          ],
          [
            -103.35739000000001,
            20.545900000000003
          ],
          [
            -103.35708000000001,
            20.54709
          ],
          [
            -103.35705000000002,
            20.54711
          ],
          [
            -103.35695000000001,
            20.547210000000003
          ],
          [
            -103.35681000000001,
            20.54728
          ],
          [
            -103.35663000000001,
            20.547320000000003
          ],
          [
            -103.35637000000001,
            20.54736
          ],
          [
            -103.35512000000001,
            20.547320000000003
          ],
          [
            -103.35318000000001,
            20.547220000000003
          ],
          [
            -103.35318000000001,
            20.547210000000003
          ],
          [
            -103.35295,
            20.547210000000003
          ],
          [
            -103.35274000000001,
            20.54736
          ],
          [
            -103.35292000000001,
            20.547790000000003
          ],
          [
            -103.35306000000001,
            20.54803
          ],
          [
            -103.35317,
            20.548170000000002
          ],
          [
            -103.35307,
            20.548260000000003
          ],
          [
            -103.35319000000001,
            20.54838
          ],
          [
            -103.35318000000001,
            20.54839
          ],
          [
            -103.35307,
            20.548260000000003
          ],
          [
            -103.35317,
            20.548170000000002
          ],
          [
            -103.35340000000001,
            20.548460000000002
          ],
          [
            -103.35361,
            20.548640000000002
          ],
          [
            -103.35404000000001,
            20.54895
          ],
          [
            -103.35548000000001,
            20.550030000000003
          ],
          [
            -103.35644,
            20.55075
          ],
          [
            -103.35645000000001,
            20.55075
          ],
          [
            -103.35873000000001,
            20.552480000000003
          ],
          [
            -103.36184000000002,
            20.554830000000003
          ],
          [
            -103.36290000000001,
            20.55562
          ],
          [
            -103.36367000000001,
            20.55621
          ],
          [
            -103.36430000000001,
            20.556690000000003
          ],
          [
            -103.36472,
            20.557070000000003
          ],
          [
            -103.36491000000001,
            20.557280000000002
          ],
          [
            -103.36497000000001,
            20.557360000000003
          ],
          [
            -103.36534,
            20.55787
          ],
          [
            -103.36596000000002,
            20.558670000000003
          ],
          [
            -103.36631000000001,
            20.55911
          ],
          [
            -103.36658000000001,
            20.55955
          ],
          [
            -103.36668,
            20.55993
          ],
          [
            -103.36670000000001,
            20.56015
          ],
          [
            -103.36668,
            20.560460000000003
          ],
          [
            -103.36647,
            20.561490000000003
          ],
          [
            -103.36606,
            20.56349
          ],
          [
            -103.36563000000001,
            20.56556
          ],
          [
            -103.36557,
            20.56593
          ],
          [
            -103.36545000000001,
            20.56653
          ],
          [
            -103.36502000000002,
            20.568610000000003
          ],
          [
            -103.36482000000001,
            20.569360000000003
          ],
          [
            -103.36466000000001,
            20.570130000000002
          ],
          [
            -103.36460000000001,
            20.57046
          ],
          [
            -103.36459,
            20.57047
          ],
          [
            -103.36443000000001,
            20.571160000000003
          ],
          [
            -103.36419000000001,
            20.572450000000003
          ],
          [
            -103.36370000000001,
            20.57393
          ],
          [
            -103.36364,
            20.574140000000003
          ],
          [
            -103.36328,
            20.575290000000003
          ],
          [
            -103.36321000000001,
            20.57551
          ],
          [
            -103.3632,
            20.57554
          ],
          [
            -103.36317000000001,
            20.575570000000003
          ],
          [
            -103.36312000000001,
            20.575670000000002
          ],
          [
            -103.36274,
            20.576890000000002
          ],
          [
            -103.36266,
            20.577170000000002
          ],
          [
            -103.36254000000001,
            20.57747
          ],
          [
            -103.36194,
            20.577350000000003
          ],
          [
            -103.36172,
            20.577340000000003
          ],
          [
            -103.36163,
            20.577350000000003
          ],
          [
            -103.36120000000001,
            20.577250000000003
          ],
          [
            -103.36119000000001,
            20.577250000000003
          ],
          [
            -103.36042,
            20.577050000000003
          ],
          [
            -103.36040000000001,
            20.57703
          ],
          [
            -103.36035000000001,
            20.576980000000002
          ],
          [
            -103.36015,
            20.57691
          ],
          [
            -103.35941000000001,
            20.576700000000002
          ],
          [
            -103.35876,
            20.576580000000003
          ],
          [
            -103.35804,
            20.576490000000003
          ],
          [
            -103.35722000000001,
            20.576420000000002
          ],
          [
            -103.35536,
            20.57627
          ],
          [
            -103.35514,
            20.57626
          ],
          [
            -103.35482,
            20.576230000000002
          ],
          [
            -103.35205,
            20.576040000000003
          ],
          [
            -103.35172000000001,
            20.576040000000003
          ],
          [
            -103.35151,
            20.57609
          ],
          [
            -103.35024000000001,
            20.57601
          ],
          [
            -103.34912000000001,
            20.575950000000002
          ],
          [
            -103.34871000000001,
            20.57599
          ],
          [
            -103.34823000000002,
            20.57608
          ],
          [
            -103.34766,
            20.57625
          ],
          [
            -103.34620000000001,
            20.57704
          ],
          [
            -103.34555,
            20.57741
          ],
          [
            -103.34445000000001,
            20.578000000000003
          ],
          [
            -103.34258000000001,
            20.57901
          ],
          [
            -103.34258000000001,
            20.57901
          ],
          [
            -103.33655,
            20.582310000000003
          ],
          [
            -103.33603000000001,
            20.582590000000003
          ],
          [
            -103.33557,
            20.582690000000003
          ],
          [
            -103.33508,
            20.58295
          ],
          [
            -103.33484000000001,
            20.583070000000003
          ],
          [
            -103.33484000000001,
            20.583070000000003
          ],
          [
            -103.33409,
            20.583450000000003
          ],
          [
            -103.33289,
            20.584110000000003
          ],
          [
            -103.33289,
            20.584120000000002
          ],
          [
            -103.33289,
            20.584110000000003
          ],
          [
            -103.33073,
            20.58529
          ],
          [
            -103.32915000000001,
            20.586170000000003
          ],
          [
            -103.32893000000001,
            20.5863
          ],
          [
            -103.32888000000001,
            20.586360000000003
          ],
          [
            -103.32886,
            20.58643
          ],
          [
            -103.32884000000001,
            20.5865
          ],
          [
            -103.32674000000002,
            20.58765
          ],
          [
            -103.32671,
            20.587670000000003
          ],
          [
            -103.32639,
            20.58783
          ],
          [
            -103.32395000000001,
            20.589160000000003
          ],
          [
            -103.32283000000001,
            20.589760000000002
          ],
          [
            -103.32283000000001,
            20.58977
          ],
          [
            -103.32263,
            20.58989
          ],
          [
            -103.32165,
            20.59052
          ],
          [
            -103.32128,
            20.590760000000003
          ],
          [
            -103.32104000000001,
            20.590860000000003
          ],
          [
            -103.32091000000001,
            20.5909
          ],
          [
            -103.3208,
            20.59089
          ],
          [
            -103.3207,
            20.590870000000002
          ],
          [
            -103.32057,
            20.5908
          ],
          [
            -103.32048,
            20.59072
          ],
          [
            -103.32044,
            20.590670000000003
          ],
          [
            -103.32039,
            20.59056
          ],
          [
            -103.32037000000001,
            20.59046
          ],
          [
            -103.32039,
            20.59035
          ],
          [
            -103.32043,
            20.59024
          ],
          [
            -103.32051000000001,
            20.59014
          ],
          [
            -103.32060000000001,
            20.59007
          ],
          [
            -103.32072000000001,
            20.590020000000003
          ],
          [
            -103.32084,
            20.590000000000003
          ],
          [
            -103.32098,
            20.590020000000003
          ],
          [
            -103.32111,
            20.59008
          ],
          [
            -103.32129,
            20.590200000000003
          ],
          [
            -103.32155,
            20.59074
          ],
          [
            -103.32227,
            20.59221
          ],
          [
            -103.32228,
            20.59221
          ],
          [
            -103.32228,
            20.59221
          ],
          [
            -103.32247000000001,
            20.59268
          ],
          [
            -103.32276,
            20.59324
          ],
          [
            -103.32366,
            20.595190000000002
          ],
          [
            -103.32373000000001,
            20.59533
          ],
          [
            -103.3241,
            20.596120000000003
          ],
          [
            -103.32437,
            20.596780000000003
          ],
          [
            -103.32445000000001,
            20.59713
          ],
          [
            -103.32446,
            20.597340000000003
          ],
          [
            -103.32443,
            20.59805
          ],
          [
            -103.32440000000001,
            20.598270000000003
          ],
          [
            -103.32435000000001,
            20.598480000000002
          ],
          [
            -103.32434,
            20.59849
          ],
          [
            -103.32427000000001,
            20.598740000000003
          ],
          [
            -103.3241,
            20.59908
          ],
          [
            -103.32393,
            20.59937
          ],
          [
            -103.32371,
            20.599690000000002
          ],
          [
            -103.32308,
            20.60049
          ],
          [
            -103.32291000000001,
            20.600720000000003
          ],
          [
            -103.32264,
            20.60103
          ],
          [
            -103.32218,
            20.60144
          ],
          [
            -103.32184000000001,
            20.60172
          ],
          [
            -103.32129,
            20.60208
          ],
          [
            -103.32027000000001,
            20.602600000000002
          ],
          [
            -103.32015000000001,
            20.602670000000003
          ],
          [
            -103.31969000000001,
            20.60291
          ],
          [
            -103.31711000000001,
            20.604290000000002
          ],
          [
            -103.31666000000001,
            20.60462
          ],
          [
            -103.31636,
            20.604930000000003
          ],
          [
            -103.31614,
            20.605210000000003
          ],
          [
            -103.31594000000001,
            20.605500000000003
          ],
          [
            -103.31579,
            20.605770000000003
          ],
          [
            -103.31579,
            20.60576
          ],
          [
            -103.31578,
            20.605780000000003
          ],
          [
            -103.3157,
            20.606
          ],
          [
            -103.31562000000001,
            20.606240000000003
          ],
          [
            -103.31555,
            20.606530000000003
          ],
          [
            -103.31551,
            20.606800000000003
          ],
          [
            -103.31543,
            20.60753
          ],
          [
            -103.31537,
            20.608400000000003
          ],
          [
            -103.31538,
            20.608880000000003
          ],
          [
            -103.31542,
            20.609150000000003
          ],
          [
            -103.31553000000001,
            20.60959
          ],
          [
            -103.31577000000001,
            20.61016
          ],
          [
            -103.31604000000002,
            20.61062
          ],
          [
            -103.31621000000001,
            20.610850000000003
          ],
          [
            -103.31638000000001,
            20.611040000000003
          ],
          [
            -103.31727000000001,
            20.611960000000003
          ],
          [
            -103.31944000000001,
            20.614140000000003
          ],
          [
            -103.31984000000001,
            20.61457
          ],
          [
            -103.32033000000001,
            20.6151
          ],
          [
            -103.32064000000001,
            20.61539
          ],
          [
            -103.32099000000001,
            20.615740000000002
          ],
          [
            -103.32130000000001,
            20.61615
          ],
          [
            -103.32145000000001,
            20.616400000000002
          ],
          [
            -103.32158000000001,
            20.616750000000003
          ],
          [
            -103.32167000000001,
            20.616960000000002
          ],
          [
            -103.32171000000001,
            20.617130000000003
          ],
          [
            -103.32175000000001,
            20.61756
          ],
          [
            -103.32168000000001,
            20.61852
          ],
          [
            -103.32168000000001,
            20.61852
          ],
          [
            -103.32161,
            20.619200000000003
          ],
          [
            -103.32159000000001,
            20.619510000000002
          ],
          [
            -103.32159000000001,
            20.619510000000002
          ],
          [
            -103.32156,
            20.61989
          ],
          [
            -103.32138,
            20.620970000000003
          ],
          [
            -103.32138,
            20.621180000000003
          ],
          [
            -103.32135000000001,
            20.621370000000002
          ],
          [
            -103.32118000000001,
            20.621720000000003
          ],
          [
            -103.32110000000002,
            20.62208
          ],
          [
            -103.32097,
            20.622390000000003
          ],
          [
            -103.32073000000001,
            20.62264
          ],
          [
            -103.32049,
            20.622760000000003
          ],
          [
            -103.32029000000001,
            20.62281
          ],
          [
            -103.31970000000001,
            20.622950000000003
          ],
          [
            -103.31898000000001,
            20.62318
          ],
          [
            -103.31836000000001,
            20.623430000000003
          ],
          [
            -103.31821000000001,
            20.62346
          ],
          [
            -103.31794000000001,
            20.623510000000003
          ],
          [
            -103.31758,
            20.623520000000003
          ],
          [
            -103.31735,
            20.62355
          ],
          [
            -103.31688000000001,
            20.62355
          ],
          [
            -103.31636,
            20.623510000000003
          ],
          [
            -103.31521000000001,
            20.623440000000002
          ],
          [
            -103.31278,
            20.6232
          ],
          [
            -103.31277000000001,
            20.62321
          ],
          [
            -103.31187000000001,
            20.62321
          ],
          [
            -103.31092000000001,
            20.623250000000002
          ],
          [
            -103.3096,
            20.62348
          ],
          [
            -103.30914000000001,
            20.62358
          ],
          [
            -103.30818000000001,
            20.62386
          ],
          [
            -103.30793000000001,
            20.62396
          ],
          [
            -103.30726000000001,
            20.62424
          ],
          [
            -103.30461000000001,
            20.62524
          ],
          [
            -103.30402000000001,
            20.62546
          ],
          [
            -103.30414,
            20.62573
          ],
          [
            -103.30069,
            20.62705
          ],
          [
            -103.30009000000001,
            20.627270000000003
          ],
          [
            -103.2994,
            20.62752
          ],
          [
            -103.29928000000001,
            20.62725
          ],
          [
            -103.29872,
            20.627470000000002
          ],
          [
            -103.29855,
            20.62761
          ],
          [
            -103.29818,
            20.6278
          ],
          [
            -103.29804000000001,
            20.62787
          ],
          [
            -103.29795000000001,
            20.62796
          ],
          [
            -103.29638000000001,
            20.62855
          ],
          [
            -103.29553000000001,
            20.62875
          ],
          [
            -103.29443,
            20.628850000000003
          ],
          [
            -103.29381000000001,
            20.62883
          ],
          [
            -103.29327,
            20.628770000000003
          ],
          [
            -103.29285,
            20.628690000000002
          ],
          [
            -103.29215,
            20.628480000000003
          ],
          [
            -103.29142,
            20.62817
          ],
          [
            -103.29035,
            20.6277
          ],
          [
            -103.28971000000001,
            20.6274
          ],
          [
            -103.28876000000001,
            20.627000000000002
          ],
          [
            -103.28859000000001,
            20.62683
          ],
          [
            -103.28714000000001,
            20.62619
          ],
          [
            -103.28585000000001,
            20.62563
          ],
          [
            -103.28593000000001,
            20.625030000000002
          ],
          [
            -103.28605,
            20.62458
          ],
          [
            -103.28619,
            20.62421
          ],
          [
            -103.28630000000001,
            20.624010000000002
          ],
          [
            -103.28630000000001,
            20.622570000000003
          ]
        ]
      }
    }
  ]
}