{
  "type": "FeatureCollection",
  "features": [
    {
      "type": "Feature",
      "properties": {
        "identifier": "619-nueva-central-camionera?o=2",
        "name": "Ruta 619 Nueva Central Camionera (Amarilla)"
      },
      "geometry": {
        "type": "LineString",
        "coordinates": [
          [
            -103.28631000000001,
            20.624010000000002
          ],
          [
            -103.28644000000001,
            20.62378
          ],
          [
            -103.28717,
            20.62405
          ],
          [
            -103.28719000000001,
            20.62404
          ],
          [
            -103.28790000000001,
            20.624270000000003
          ],
          [
            -103.28791000000001,
            20.624270000000003
          ],
          [
            -103.28789,
            20.62432
          ],
          [
            -103.28911000000001,
            20.624730000000003
          ],
          [
            -103.29082000000001,
            20.624740000000003
          ],
          [
            -103.29161,
            20.625860000000003
          ],
          [
            -103.29179,
            20.62575
          ],
          [
            -103.29322,
            20.6279
          ],
          [
            -103.29408000000001,
            20.62918
          ],
          [
            -103.29513000000001,
            20.62901
          ],
          [
            -103.29594,
            20.628780000000003
          ],
          [
            -103.29613,
            20.62875
          ],
          [
            -103.29642000000001,
            20.62864
          ],
          [
            -103.29719000000001,
            20.62835
          ],
          [
            -103.29780000000001,
            20.628120000000003
          ],
          [
            -103.30009000000001,
            20.627270000000003
          ],
          [
            -103.30038,
            20.62716
          ],
          [
            -103.30047,
            20.627370000000003
          ],
          [
            -103.30385000000001,
            20.626060000000003
          ],
          [
            -103.30465000000001,
            20.62575
          ],
          [
            -103.30466000000001,
            20.62574
          ],
          [
            -103.30469000000001,
            20.62584
          ],
          [
            -103.30746,
            20.624650000000003
          ],
          [
            -103.30749,
            20.62472
          ],
          [
            -103.30749,
            20.62472
          ],
          [
            -103.30812,
            20.624460000000003
          ],
          [
            -103.30902,
            20.624180000000003
          ],
          [
            -103.30942,
            20.624090000000002
          ],
          [
            -103.30996,
            20.62396
          ],
          [
            -103.31095,
            20.623800000000003
          ],
          [
            -103.31226000000001,
            20.62376
          ],
          [
            -103.31253000000001,
            20.62377
          ],
          [
            -103.31254000000001,
            20.62377
          ],
          [
            -103.31334000000001,
            20.623810000000002
          ],
          [
            -103.31448,
            20.62393
          ],
          [
            -103.31472000000001,
            20.62393
          ],
          [
            -103.31472000000001,
            20.62394
          ],
          [
            -103.31622000000002,
            20.62403
          ],
          [
            -103.31634000000001,
            20.62403
          ],
          [
            -103.31668,
            20.62402
          ],
          [
            -103.31749,
            20.624070000000003
          ],
          [
            -103.31846,
            20.624160000000003
          ],
          [
            -103.32067,
            20.624470000000002
          ],
          [
            -103.32137,
            20.62458
          ],
          [
            -103.3217,
            20.62461
          ],
          [
            -103.32183,
            20.6247
          ],
          [
            -103.32197000000001,
            20.62486
          ],
          [
            -103.32204000000002,
            20.62496
          ],
          [
            -103.32205,
            20.625030000000002
          ],
          [
            -103.32205,
            20.625110000000003
          ],
          [
            -103.32202000000001,
            20.62518
          ],
          [
            -103.32193000000001,
            20.62528
          ],
          [
            -103.32180000000001,
            20.62534
          ],
          [
            -103.32167000000001,
            20.62535
          ],
          [
            -103.32152,
            20.625290000000003
          ],
          [
            -103.32140000000001,
            20.62518
          ],
          [
            -103.32130000000001,
            20.625030000000002
          ],
          [
            -103.32123000000001,
            20.624830000000003
          ],
          [
            -103.32119,
            20.624730000000003
          ],
          [
            -103.32123000000001,
            20.624360000000003
          ],
          [
            -103.32128,
            20.623810000000002
          ],
          [
            -103.32141000000001,
            20.62264
          ],
          [
            -103.32149000000001,
            20.62198
          ],
          [
            -103.32156,
            20.62189
          ],
          [
            -103.32166000000001,
            20.62167
          ],
          [
            -103.32173,
            20.621540000000003
          ],
          [
            -103.32179000000001,
            20.62112
          ],
          [
            -103.32181000000001,
            20.62076
          ],
          [
            -103.32183,
            20.62017
          ],
          [
            -103.32183,
            20.62017
          ],
          [
            -103.32188000000001,
            20.61915
          ],
          [
            -103.32182,
            20.618640000000003
          ],
          [
            -103.32189000000001,
            20.617880000000003
          ],
          [
            -103.32191,
            20.617240000000002
          ],
          [
            -103.32195000000002,
            20.616840000000003
          ],
          [
            -103.32199000000001,
            20.61655
          ],
          [
            -103.32215000000001,
            20.61596
          ],
          [
            -103.3225,
            20.614800000000002
          ],
          [
            -103.32267,
            20.61436
          ],
          [
            -103.32318000000001,
            20.613380000000003
          ],
          [
            -103.32357,
            20.61277
          ],
          [
            -103.32358,
            20.61276
          ],
          [
            -103.32357,
            20.61276
          ],
          [
            -103.32364000000001,
            20.612640000000003
          ],
          [
            -103.32419,
            20.611890000000002
          ],
          [
            -103.32458000000001,
            20.61145
          ],
          [
            -103.32530000000001,
            20.61072
          ],
          [
            -103.32703000000001,
            20.60901
          ],
          [
            -103.32801,
            20.608040000000003
          ],
          [
            -103.32812000000001,
            20.60792
          ],
          [
            -103.32825000000001,
            20.607760000000003
          ],
          [
            -103.32842000000001,
            20.60754
          ],
          [
            -103.32865000000001,
            20.607100000000003
          ],
          [
            -103.32877,
            20.606630000000003
          ],
          [
            -103.32880000000002,
            20.606170000000002
          ],
          [
            -103.32875000000001,
            20.605690000000003
          ],
          [
            -103.32870000000001,
            20.605490000000003
          ],
          [
            -103.32852000000001,
            20.60509
          ],
          [
            -103.32845,
            20.604940000000003
          ],
          [
            -103.32792,
            20.603820000000002
          ],
          [
            -103.32730000000001,
            20.60255
          ],
          [
            -103.32553000000001,
            20.598830000000003
          ],
          [
            -103.32507000000001,
            20.59788
          ],
          [
            -103.32506000000001,
            20.59787
          ],
          [
            -103.32457000000001,
            20.59683
          ],
          [
            -103.3238,
            20.595100000000002
          ],
          [
            -103.32271000000001,
            20.592630000000003
          ],
          [
            -103.32268,
            20.592640000000003
          ],
          [
            -103.32249,
            20.592270000000003
          ],
          [
            -103.32359000000001,
            20.589460000000003
          ],
          [
            -103.32417000000001,
            20.589170000000003
          ],
          [
            -103.32416,
            20.589170000000003
          ],
          [
            -103.32519,
            20.588610000000003
          ],
          [
            -103.32893000000001,
            20.58659
          ],
          [
            -103.32910000000001,
            20.58661
          ],
          [
            -103.32918000000001,
            20.58659
          ],
          [
            -103.32990000000001,
            20.58622
          ],
          [
            -103.32989,
            20.58623
          ],
          [
            -103.33243,
            20.584870000000002
          ],
          [
            -103.33262,
            20.584770000000002
          ],
          [
            -103.33262,
            20.584780000000002
          ],
          [
            -103.33262,
            20.584770000000002
          ],
          [
            -103.33524000000001,
            20.583340000000003
          ],
          [
            -103.3354,
            20.58324
          ],
          [
            -103.33545000000001,
            20.583180000000002
          ],
          [
            -103.33545000000001,
            20.583170000000003
          ],
          [
            -103.3357,
            20.582890000000003
          ],
          [
            -103.3375,
            20.5819
          ],
          [
            -103.34155000000001,
            20.579700000000003
          ],
          [
            -103.34158000000001,
            20.579690000000003
          ],
          [
            -103.34719000000001,
            20.57663
          ],
          [
            -103.34764000000001,
            20.576410000000003
          ],
          [
            -103.34794000000001,
            20.57629
          ],
          [
            -103.34825000000001,
            20.576210000000003
          ],
          [
            -103.34866000000001,
            20.576120000000003
          ],
          [
            -103.34895,
            20.57609
          ],
          [
            -103.34938000000001,
            20.57609
          ],
          [
            -103.35066,
            20.57618
          ],
          [
            -103.35172000000001,
            20.57625
          ],
          [
            -103.35186,
            20.57635
          ],
          [
            -103.35221000000001,
            20.57638
          ],
          [
            -103.35241,
            20.57648
          ],
          [
            -103.35326,
            20.576580000000003
          ],
          [
            -103.35434000000001,
            20.576690000000003
          ],
          [
            -103.35434000000001,
            20.576700000000002
          ],
          [
            -103.35447,
            20.576700000000002
          ],
          [
            -103.35457000000001,
            20.57657
          ],
          [
            -103.35483,
            20.576600000000003
          ],
          [
            -103.35579000000001,
            20.57666
          ],
          [
            -103.35727000000001,
            20.57676
          ],
          [
            -103.35727000000001,
            20.576770000000003
          ],
          [
            -103.35865000000001,
            20.57691
          ],
          [
            -103.35945000000001,
            20.577050000000003
          ],
          [
            -103.35973000000001,
            20.57704
          ],
          [
            -103.36110000000001,
            20.57739
          ],
          [
            -103.36110000000001,
            20.5774
          ],
          [
            -103.36152000000001,
            20.5775
          ],
          [
            -103.36155000000001,
            20.577540000000003
          ],
          [
            -103.36163,
            20.577620000000003
          ],
          [
            -103.36231000000001,
            20.577820000000003
          ],
          [
            -103.36228000000001,
            20.57798
          ],
          [
            -103.36226,
            20.57807
          ],
          [
            -103.36191000000001,
            20.57936
          ],
          [
            -103.36188000000001,
            20.57956
          ],
          [
            -103.36189,
            20.57974
          ],
          [
            -103.36183000000001,
            20.580170000000003
          ],
          [
            -103.36171,
            20.581480000000003
          ],
          [
            -103.36165000000001,
            20.58172
          ],
          [
            -103.36144,
            20.582330000000002
          ],
          [
            -103.36131,
            20.58263
          ],
          [
            -103.36129000000001,
            20.58267
          ],
          [
            -103.36128000000001,
            20.58277
          ],
          [
            -103.36133000000001,
            20.58285
          ],
          [
            -103.36143000000001,
            20.582890000000003
          ],
          [
            -103.36153,
            20.582880000000003
          ],
          [
            -103.36161000000001,
            20.582800000000002
          ],
          [
            -103.36163,
            20.582710000000002
          ],
          [
            -103.36159,
            20.58263
          ],
          [
            -103.36155000000001,
            20.582590000000003
          ],
          [
            -103.36153,
            20.58258
          ],
          [
            -103.36151000000001,
            20.58257
          ],
          [
            -103.36151000000001,
            20.58248
          ],
          [
            -103.36153,
            20.58235
          ],
          [
            -103.36165000000001,
            20.582
          ],
          [
            -103.36181,
            20.58154
          ],
          [
            -103.36194,
            20.580360000000002
          ],
          [
            -103.36203,
            20.57963
          ],
          [
            -103.36213000000001,
            20.57917
          ],
          [
            -103.36237000000001,
            20.57822
          ],
          [
            -103.36249000000001,
            20.57787
          ],
          [
            -103.36267000000001,
            20.5775
          ],
          [
            -103.36276000000001,
            20.577250000000003
          ],
          [
            -103.36287000000002,
            20.57692
          ],
          [
            -103.36338,
            20.575290000000003
          ],
          [
            -103.36338,
            20.575290000000003
          ],
          [
            -103.36349000000001,
            20.57496
          ],
          [
            -103.36353000000001,
            20.574830000000002
          ],
          [
            -103.36392000000001,
            20.573670000000003
          ],
          [
            -103.36392000000001,
            20.573670000000003
          ],
          [
            -103.36426,
            20.572650000000003
          ],
          [
            -103.36449,
            20.57156
          ],
          [
            -103.36464000000001,
            20.57091
          ],
          [
            -103.36489,
            20.56972
          ],
          [
            -103.36498,
            20.56944
          ],
          [
            -103.36511,
            20.56912
          ],
          [
            -103.3652,
            20.56886
          ],
          [
            -103.3653,
            20.56839
          ],
          [
            -103.3653,
            20.56839
          ],
          [
            -103.36657000000001,
            20.562160000000002
          ],
          [
            -103.36658000000001,
            20.562160000000002
          ],
          [
            -103.36691,
            20.56053
          ],
          [
            -103.36694000000001,
            20.56005
          ],
          [
            -103.36686,
            20.559620000000002
          ],
          [
            -103.36668,
            20.55918
          ],
          [
            -103.3661,
            20.55843
          ],
          [
            -103.36578000000002,
            20.55805
          ],
          [
            -103.36577000000001,
            20.55805
          ],
          [
            -103.36522000000001,
            20.55733
          ],
          [
            -103.36479000000001,
            20.556810000000002
          ],
          [
            -103.36462,
            20.55666
          ],
          [
            -103.36415000000001,
            20.5563
          ],
          [
            -103.36282000000001,
            20.555290000000003
          ],
          [
            -103.36252,
            20.55508
          ],
          [
            -103.36249000000001,
            20.55505
          ],
          [
            -103.36069,
            20.55368
          ],
          [
            -103.36046,
            20.55348
          ],
          [
            -103.35873000000001,
            20.552180000000003
          ],
          [
            -103.35783,
            20.55152
          ],
          [
            -103.35649000000001,
            20.550510000000003
          ],
          [
            -103.35649000000001,
            20.550510000000003
          ],
          [
            -103.35629000000002,
            20.55038
          ],
          [
            -103.35640000000001,
            20.54989
          ],
          [
            -103.35660000000001,
            20.549110000000002
          ],
          [
            -103.3568,
            20.548170000000002
          ],
          [
            -103.35708000000001,
            20.54709
          ],
          [
            -103.35739000000001,
            20.545900000000003
          ],
          [
            -103.35754000000001,
            20.545550000000002
          ],
          [
            -103.35766000000001,
            20.54542
          ],
          [
            -103.358,
            20.54504
          ],
          [
            -103.358,
            20.54504
          ],
          [
            -103.358,
            20.54504
          ],
          [
            -103.35814,
            20.544870000000003
          ],
          [
            -103.35823,
            20.544700000000002
          ],
          [
            -103.3584,
            20.54435
          ],
          [
            -103.35871,
            20.543850000000003
          ],
          [
            -103.35910000000001,
            20.54332
          ],
          [
            -103.35912,
            20.543300000000002
          ],
          [
            -103.35912,
            20.543300000000002
          ],
          [
            -103.35996000000002,
            20.54222
          ],
          [
            -103.35996000000002,
            20.54222
          ],
          [
            -103.36040000000001,
            20.54162
          ],
          [
            -103.36102000000001,
            20.5408
          ],
          [
            -103.36250000000001,
            20.53883
          ],
          [
            -103.36330000000001,
            20.53778
          ],
          [
            -103.36336000000001,
            20.537760000000002
          ],
          [
            -103.36347,
            20.537730000000003
          ],
          [
            -103.36359,
            20.53763
          ],
          [
            -103.36399000000002,
            20.537090000000003
          ],
          [
            -103.36424000000001,
            20.53676
          ],
          [
            -103.36427,
            20.536720000000003
          ],
          [
            -103.36428000000001,
            20.536720000000003
          ],
          [
            -103.36427,
            20.536730000000002
          ],
          [
            -103.36427,
            20.536720000000003
          ],
          [
            -103.36457000000001,
            20.536350000000002
          ],
          [
            -103.36459,
            20.53629
          ],
          [
            -103.36459,
            20.53612
          ],
          [
            -103.36470000000001,
            20.536
          ],
          [
            -103.36482000000001,
            20.535860000000003
          ],
          [
            -103.36493000000002,
            20.535760000000003
          ],
          [
            -103.36535,
            20.535410000000002
          ],
          [
            -103.36546000000001,
            20.535320000000002
          ],
          [
            -103.36546000000001,
            20.535310000000003
          ],
          [
            -103.36573000000001,
            20.535030000000003
          ],
          [
            -103.36599000000001,
            20.53472
          ],
          [
            -103.36729000000001,
            20.533060000000003
          ],
          [
            -103.36796000000001,
            20.532230000000002
          ],
          [
            -103.36795000000001,
            20.53224
          ],
          [
            -103.36829,
            20.531750000000002
          ],
          [
            -103.36893,
            20.530900000000003
          ],
          [
            -103.36911,
            20.53068
          ],
          [
            -103.36912000000001,
            20.53067
          ],
          [
            -103.36961000000001,
            20.53003
          ],
          [
            -103.36965000000001,
            20.529970000000002
          ],
          [
            -103.36970000000001,
            20.529960000000003
          ],
          [
            -103.36986,
            20.529950000000003
          ],
          [
            -103.37052000000001,
            20.52992
          ],
          [
            -103.37060000000001,
            20.52992
          ],
          [
            -103.37061000000001,
            20.52991
          ],
          [
            -103.37140000000001,
            20.5299
          ],
          [
            -103.37281000000002,
            20.52963
          ],
          [
            -103.37282,
            20.52962
          ],
          [
            -103.37381,
            20.529500000000002
          ],
          [
            -103.37496,
            20.529410000000002
          ],
          [
            -103.37522000000001,
            20.529400000000003
          ],
          [
            -103.37522000000001,
            20.529400000000003
          ],
          [
            -103.37581000000002,
            20.52936
          ],
          [
            -103.37692000000001,
            20.52925
          ],
          [
            -103.37692000000001,
            20.52925
          ],
          [
            -103.37827000000001,
            20.529120000000002
          ],
          [
            -103.37827000000001,
            20.529120000000002
          ],
          [
            -103.37870000000001,
            20.52909
          ],
          [
            -103.37965000000001,
            20.529020000000003
          ],
          [
            -103.38001000000001,
            20.52897
          ],
          [
            -103.38085000000001,
            20.528830000000003
          ],
          [
            -103.38086000000001,
            20.528820000000003
          ],
          [
            -103.38179000000001,
            20.52862
          ],
          [
            -103.38216000000001,
            20.528540000000003
          ],
          [
            -103.38265000000001,
            20.52841
          ],
          [
            -103.38316,
            20.52823
          ],
          [
            -103.38355000000001,
            20.52802
          ],
          [
            -103.38375,
            20.52787
          ],
          [
            -103.38400000000001,
            20.52766
          ],
          [
            -103.38418000000001,
            20.52745
          ],
          [
            -103.38428,
            20.52738
          ],
          [
            -103.38428,
            20.52737
          ],
          [
            -103.38436000000002,
            20.527320000000003
          ],
          [
            -103.38440000000001,
            20.526860000000003
          ],
          [
            -103.38440000000001,
            20.526850000000003
          ],
          [
            -103.38441,
            20.52684
          ],
          [
            -103.38442,
            20.52682
          ],
          [
            -103.38441,
            20.526770000000003
          ],
          [
            -103.38446,
            20.526490000000003
          ],
          [
            -103.38446,
            20.52645
          ],
          [
            -103.38443000000001,
            20.52598
          ],
          [
            -103.38461000000001,
            20.524330000000003
          ],
          [
            -103.38467000000001,
            20.524240000000002
          ],
          [
            -103.3849,
            20.524150000000002
          ],
          [
            -103.3849,
            20.524140000000003
          ],
          [
            -103.38588000000001,
            20.52372
          ],
          [
            -103.38603,
            20.52355
          ],
          [
            -103.38650000000001,
            20.5228
          ],
          [
            -103.38650000000001,
            20.5228
          ],
          [
            -103.38706,
            20.52192
          ],
          [
            -103.38711,
            20.521790000000003
          ],
          [
            -103.38716000000001,
            20.521400000000003
          ],
          [
            -103.38717000000001,
            20.52119
          ],
          [
            -103.38724,
            20.520680000000002
          ],
          [
            -103.38725000000001,
            20.520680000000002
          ],
          [
            -103.38741,
            20.519350000000003
          ],
          [
            -103.38742,
            20.519340000000003
          ],
          [
            -103.38758000000001,
            20.517930000000003
          ],
          [
            -103.38759,
            20.517840000000003
          ],
          [
            -103.38749000000001,
            20.51783
          ],
          [
            -103.38691000000001,
            20.517770000000002
          ],
          [
            -103.38690000000001,
            20.517760000000003
          ],
          [
            -103.38469,
            20.51751
          ],
          [
            -103.38392,
            20.517390000000002
          ],
          [
            -103.38355000000001,
            20.51735
          ],
          [
            -103.38355000000001,
            20.51734
          ],
          [
            -103.38216000000001,
            20.51717
          ],
          [
            -103.3811,
            20.51704
          ],
          [
            -103.38058000000001,
            20.51697
          ],
          [
            -103.38058000000001,
            20.51696
          ],
          [
            -103.37863000000002,
            20.516710000000003
          ],
          [
            -103.37852000000001,
            20.516630000000003
          ],
          [
            -103.37846,
            20.516540000000003
          ],
          [
            -103.37843000000001,
            20.5165
          ],
          [
            -103.37844000000001,
            20.516430000000003
          ],
          [
            -103.37845000000002,
            20.51642
          ],
          [
            -103.37844000000001,
            20.51642
          ],
          [
            -103.37880000000001,
            20.5137
          ],
          [
            -103.37887,
            20.51312
          ],
          [
            -103.37888000000001,
            20.51311
          ],
          [
            -103.37891,
            20.51267
          ],
          [
            -103.37893000000001,
            20.51257
          ],
          [
            -103.37881,
            20.51255
          ],
          [
            -103.37808000000001,
            20.51244
          ],
          [
            -103.37668000000001,
            20.512220000000003
          ],
          [
            -103.37608,
            20.5122
          ],
          [
            -103.37530000000001,
            20.51208
          ],
          [
            -103.37413000000001,
            20.51192
          ],
          [
            -103.37386000000001,
            20.51191
          ],
          [
            -103.373,
            20.512110000000003
          ],
          [
            -103.37188,
            20.512040000000002
          ],
          [
            -103.37137000000001,
            20.512040000000002
          ],
          [
            -103.37135,
            20.511940000000003
          ],
          [
            -103.37109000000001,
            20.51105
          ],
          [
            -103.37107,
            20.510820000000002
          ],
          [
            -103.37111,
            20.51019
          ],
          [
            -103.37114000000001,
            20.509700000000002
          ],
          [
            -103.37114000000001,
            20.509690000000003
          ],
          [
            -103.37121,
            20.507980000000003
          ],
          [
            -103.37127000000001,
            20.50683
          ],
          [
            -103.37068000000001,
            20.50681
          ],
          [
            -103.37068000000001,
            20.506800000000002
          ],
          [
            -103.36932,
            20.50675
          ],
          [
            -103.36902,
            20.506690000000003
          ],
          [
            -103.36902,
            20.506690000000003
          ],
          [
            -103.36901,
            20.50666
          ],
          [
            -103.36900000000001,
            20.50663
          ],
          [
            -103.36896000000002,
            20.506590000000003
          ],
          [
            -103.36890000000001,
            20.50657
          ],
          [
            -103.36884,
            20.506580000000003
          ],
          [
            -103.36882000000001,
            20.506590000000003
          ],
          [
            -103.36862,
            20.50636
          ],
          [
            -103.36798,
            20.50551
          ],
          [
            -103.36798,
            20.5055
          ],
          [
            -103.36687,
            20.50403
          ],
          [
            -103.36686,
            20.50403
          ],
          [
            -103.36546000000001,
            20.50212
          ],
          [
            -103.36545000000001,
            20.50212
          ],
          [
            -103.36476,
            20.50122
          ],
          [
            -103.36396,
            20.500110000000003
          ],
          [
            -103.36380000000001,
            20.49989
          ],
          [
            -103.36380000000001,
            20.49988
          ],
          [
            -103.3627,
            20.498420000000003
          ],
          [
            -103.3627,
            20.498410000000003
          ],
          [
            -103.36261,
            20.4983
          ],
          [
            -103.36236000000001,
            20.49802
          ],
          [
            -103.36193000000002,
            20.49775
          ],
          [
            -103.36169000000001,
            20.497660000000003
          ],
          [
            -103.3615,
            20.49763
          ],
          [
            -103.36124000000001,
            20.49761
          ],
          [
            -103.36066000000001,
            20.49763
          ],
          [
            -103.36066000000001,
            20.49763
          ],
          [
            -103.36065,
            20.49764
          ],
          [
            -103.36049000000001,
            20.49765
          ],
          [
            -103.36033,
            20.49754
          ],
          [
            -103.36026000000001,
            20.497470000000003
          ],
          [
            -103.36014000000002,
            20.49671
          ],
          [
            -103.36007000000001,
            20.4962
          ],
          [
            -103.36005000000002,
            20.49604
          ],
          [
            -103.35998000000001,
            20.49583
          ],
          [
            -103.35988,
            20.495620000000002
          ],
          [
            -103.35975,
            20.495430000000002
          ],
          [
            -103.35974,
            20.495440000000002
          ],
          [
            -103.35959000000001,
            20.4953
          ],
          [
            -103.35937000000001,
            20.49512
          ],
          [
            -103.35910000000001,
            20.49492
          ],
          [
            -103.35907,
            20.494770000000003
          ],
          [
            -103.35907,
            20.494770000000003
          ],
          [
            -103.35889,
            20.493920000000003
          ],
          [
            -103.35876,
            20.493160000000003
          ],
          [
            -103.35876,
            20.49315
          ],
          [
            -103.35877,
            20.49342
          ],
          [
            -103.35877,
            20.49198
          ]
        ]
      }
    }
  ]
}