{
  "type": "FeatureCollection",
  "features": [
    {
      "type": "Feature",
      "properties": {
        "identifier": "62-tonalteca",
        "name": "Ruta 62 Tonalteca"
      },
      "geometry": {
        "type": "LineString",
        "coordinates": [
          [
            -103.34122,
            20.71516
          ],
          [
            -103.34104,
            20.715660000000003
          ],
          [
            -103.34084000000001,
            20.716810000000002
          ],
          [
            -103.34073000000001,
            20.717460000000003
          ],
          [
            -103.34073000000001,
            20.717470000000002
          ],
          [
            -103.34074000000001,
            20.717470000000002
          ],
          [
            -103.34069000000001,
            20.717720000000003
          ],
          [
            -103.34048000000001,
            20.718770000000003
          ],
          [
            -103.34047000000001,
            20.71882
          ],
          [
            -103.34047000000001,
            20.71882
          ],
          [
            -103.34031,
            20.7194
          ],
          [
            -103.34022,
            20.71966
          ],
          [
            -103.34006000000001,
            20.720090000000003
          ],
          [
            -103.34005,
            20.720090000000003
          ],
          [
            -103.33980000000001,
            20.7207
          ],
          [
            -103.33963000000001,
            20.72119
          ],
          [
            -103.33965,
            20.72124
          ],
          [
            -103.33959000000002,
            20.721400000000003
          ],
          [
            -103.33958000000001,
            20.721400000000003
          ],
          [
            -103.33940000000001,
            20.721780000000003
          ],
          [
            -103.33929,
            20.72201
          ],
          [
            -103.33929,
            20.72201
          ],
          [
            -103.33900000000001,
            20.722630000000002
          ],
          [
            -103.33878000000001,
            20.722620000000003
          ],
          [
            -103.33873000000001,
            20.722630000000002
          ],
          [
            -103.33771000000002,
            20.72267
          ],
          [
            -103.33745,
            20.72266
          ],
          [
            -103.33746000000001,
            20.72266
          ],
          [
            -103.33744000000002,
            20.72267
          ],
          [
            -103.33704,
            20.722620000000003
          ],
          [
            -103.33637,
            20.722530000000003
          ],
          [
            -103.3353,
            20.722440000000002
          ],
          [
            -103.33499,
            20.722440000000002
          ],
          [
            -103.33464000000001,
            20.722510000000003
          ],
          [
            -103.33419,
            20.722540000000002
          ],
          [
            -103.33392,
            20.722520000000003
          ],
          [
            -103.33348000000001,
            20.72248
          ],
          [
            -103.33266,
            20.722240000000003
          ],
          [
            -103.33238000000001,
            20.722140000000003
          ],
          [
            -103.33238000000001,
            20.722150000000003
          ],
          [
            -103.33237000000001,
            20.722150000000003
          ],
          [
            -103.33201000000001,
            20.722040000000003
          ],
          [
            -103.33078,
            20.721590000000003
          ],
          [
            -103.33052,
            20.721480000000003
          ],
          [
            -103.33051,
            20.721480000000003
          ],
          [
            -103.33016,
            20.721320000000002
          ],
          [
            -103.32978000000001,
            20.721110000000003
          ],
          [
            -103.32920000000001,
            20.720740000000003
          ],
          [
            -103.32892000000001,
            20.720560000000003
          ],
          [
            -103.32856000000001,
            20.720370000000003
          ],
          [
            -103.3281,
            20.720170000000003
          ],
          [
            -103.32809,
            20.720170000000003
          ],
          [
            -103.32570000000001,
            20.719150000000003
          ],
          [
            -103.32570000000001,
            20.719150000000003
          ],
          [
            -103.32357,
            20.71824
          ],
          [
            -103.32356000000001,
            20.71824
          ],
          [
            -103.32243000000001,
            20.71777
          ],
          [
            -103.32243000000001,
            20.717760000000002
          ],
          [
            -103.32135000000001,
            20.71732
          ],
          [
            -103.32141000000001,
            20.716900000000003
          ],
          [
            -103.32097,
            20.71676
          ],
          [
            -103.32043,
            20.71664
          ],
          [
            -103.32041000000001,
            20.716630000000002
          ],
          [
            -103.32002000000001,
            20.716520000000003
          ],
          [
            -103.31979000000001,
            20.716430000000003
          ],
          [
            -103.31968,
            20.71639
          ],
          [
            -103.31980000000001,
            20.71617
          ],
          [
            -103.31980000000001,
            20.71617
          ],
          [
            -103.32047000000001,
            20.71495
          ],
          [
            -103.32047000000001,
            20.71495
          ],
          [
            -103.32128,
            20.71345
          ],
          [
            -103.32128,
            20.71345
          ],
          [
            -103.32220000000001,
            20.711740000000002
          ],
          [
            -103.32223,
            20.7117
          ],
          [
            -103.32342000000001,
            20.709490000000002
          ],
          [
            -103.32400000000001,
            20.70841
          ],
          [
            -103.32400000000001,
            20.70841
          ],
          [
            -103.3254,
            20.705830000000002
          ],
          [
            -103.3254,
            20.705830000000002
          ],
          [
            -103.3254,
            20.705830000000002
          ],
          [
            -103.32582000000001,
            20.704980000000003
          ],
          [
            -103.32624000000001,
            20.704220000000003
          ],
          [
            -103.3267,
            20.703390000000002
          ],
          [
            -103.32767000000001,
            20.70163
          ],
          [
            -103.32823,
            20.700570000000003
          ],
          [
            -103.32828,
            20.700490000000002
          ],
          [
            -103.32919000000001,
            20.69885
          ],
          [
            -103.33000000000001,
            20.69731
          ],
          [
            -103.33000000000001,
            20.69731
          ],
          [
            -103.33175000000001,
            20.69407
          ],
          [
            -103.33176,
            20.69406
          ],
          [
            -103.33265000000002,
            20.69238
          ],
          [
            -103.33298,
            20.691740000000003
          ],
          [
            -103.33349000000001,
            20.69084
          ],
          [
            -103.33383,
            20.69022
          ],
          [
            -103.33385000000001,
            20.69019
          ],
          [
            -103.33452000000001,
            20.68898
          ],
          [
            -103.33481,
            20.68858
          ],
          [
            -103.33492000000001,
            20.68834
          ],
          [
            -103.33499,
            20.68812
          ],
          [
            -103.33542000000001,
            20.6873
          ],
          [
            -103.33542000000001,
            20.6873
          ],
          [
            -103.33605000000001,
            20.68614
          ],
          [
            -103.33659000000002,
            20.68512
          ],
          [
            -103.33665,
            20.68502
          ],
          [
            -103.33720000000001,
            20.68399
          ],
          [
            -103.33758,
            20.683310000000002
          ],
          [
            -103.33764000000001,
            20.68316
          ],
          [
            -103.33819000000001,
            20.682180000000002
          ],
          [
            -103.33819000000001,
            20.682180000000002
          ],
          [
            -103.33842000000001,
            20.68174
          ],
          [
            -103.33897,
            20.68074
          ],
          [
            -103.33923000000001,
            20.680300000000003
          ],
          [
            -103.33972000000001,
            20.67942
          ],
          [
            -103.33977,
            20.67933
          ],
          [
            -103.34057000000001,
            20.67773
          ],
          [
            -103.34057000000001,
            20.67773
          ],
          [
            -103.34070000000001,
            20.677480000000003
          ],
          [
            -103.34159000000001,
            20.675890000000003
          ],
          [
            -103.34183,
            20.67546
          ],
          [
            -103.34185000000001,
            20.675430000000002
          ],
          [
            -103.34245000000001,
            20.67432
          ],
          [
            -103.34246,
            20.674310000000002
          ],
          [
            -103.34301,
            20.6733
          ],
          [
            -103.34302000000001,
            20.67329
          ],
          [
            -103.34302000000001,
            20.67329
          ],
          [
            -103.34392000000001,
            20.67162
          ],
          [
            -103.34411000000001,
            20.671380000000003
          ],
          [
            -103.34412,
            20.671380000000003
          ],
          [
            -103.34418000000001,
            20.67114
          ],
          [
            -103.34434,
            20.670830000000002
          ],
          [
            -103.34437000000001,
            20.67078
          ],
          [
            -103.34437000000001,
            20.67078
          ],
          [
            -103.34479,
            20.669990000000002
          ],
          [
            -103.34482000000001,
            20.66992
          ],
          [
            -103.34594000000001,
            20.66788
          ],
          [
            -103.34608000000001,
            20.667650000000002
          ],
          [
            -103.34608000000001,
            20.667640000000002
          ],
          [
            -103.34621000000001,
            20.667440000000003
          ],
          [
            -103.34627,
            20.667260000000002
          ],
          [
            -103.34670000000001,
            20.66644
          ],
          [
            -103.34685,
            20.66617
          ],
          [
            -103.34704,
            20.66582
          ],
          [
            -103.3477,
            20.66465
          ],
          [
            -103.34823000000002,
            20.66364
          ],
          [
            -103.34825000000001,
            20.663600000000002
          ],
          [
            -103.34876000000001,
            20.662670000000002
          ],
          [
            -103.34876000000001,
            20.662660000000002
          ],
          [
            -103.34993000000001,
            20.660480000000003
          ],
          [
            -103.34997000000001,
            20.66045
          ],
          [
            -103.35005000000001,
            20.66044
          ],
          [
            -103.35018000000001,
            20.66045
          ],
          [
            -103.35057,
            20.66054
          ],
          [
            -103.35071,
            20.660210000000003
          ],
          [
            -103.35072000000001,
            20.660200000000003
          ],
          [
            -103.35130000000001,
            20.65884
          ],
          [
            -103.35149000000001,
            20.65841
          ],
          [
            -103.35149000000001,
            20.65841
          ],
          [
            -103.35186,
            20.657670000000003
          ],
          [
            -103.35193000000001,
            20.65753
          ],
          [
            -103.35175000000001,
            20.65746
          ],
          [
            -103.35154000000001,
            20.65737
          ],
          [
            -103.3515,
            20.657290000000003
          ],
          [
            -103.35146,
            20.65724
          ],
          [
            -103.35136000000001,
            20.657120000000003
          ],
          [
            -103.35135000000001,
            20.657030000000002
          ],
          [
            -103.35137,
            20.656920000000003
          ],
          [
            -103.35154000000001,
            20.656370000000003
          ],
          [
            -103.35164,
            20.65613
          ],
          [
            -103.35179000000001,
            20.65585
          ],
          [
            -103.35244,
            20.65508
          ],
          [
            -103.35257000000001,
            20.6549
          ],
          [
            -103.35275000000001,
            20.65452
          ],
          [
            -103.35291000000001,
            20.654200000000003
          ],
          [
            -103.35357,
            20.652710000000003
          ],
          [
            -103.35363000000001,
            20.65238
          ],
          [
            -103.35364000000001,
            20.65218
          ],
          [
            -103.35362,
            20.651960000000003
          ],
          [
            -103.35355000000001,
            20.65152
          ],
          [
            -103.35355000000001,
            20.651510000000002
          ],
          [
            -103.35333000000001,
            20.650080000000003
          ],
          [
            -103.35333000000001,
            20.650080000000003
          ],
          [
            -103.35296000000001,
            20.64767
          ],
          [
            -103.35296000000001,
            20.647660000000002
          ],
          [
            -103.35287000000001,
            20.64705
          ],
          [
            -103.35301000000001,
            20.64693
          ],
          [
            -103.35300000000001,
            20.64694
          ],
          [
            -103.35307,
            20.64682
          ],
          [
            -103.35314000000001,
            20.64667
          ],
          [
            -103.35315000000001,
            20.646520000000002
          ],
          [
            -103.35315000000001,
            20.646410000000003
          ],
          [
            -103.35312,
            20.646310000000003
          ],
          [
            -103.35308,
            20.646220000000003
          ],
          [
            -103.35307,
            20.646140000000003
          ],
          [
            -103.35306000000001,
            20.64602
          ],
          [
            -103.35294,
            20.64599
          ],
          [
            -103.35276,
            20.646050000000002
          ],
          [
            -103.35275000000001,
            20.64601
          ],
          [
            -103.35272,
            20.64574
          ],
          [
            -103.35271,
            20.64574
          ],
          [
            -103.35234000000001,
            20.643490000000003
          ],
          [
            -103.35234000000001,
            20.64348
          ],
          [
            -103.35214,
            20.642110000000002
          ],
          [
            -103.35212000000001,
            20.641920000000002
          ],
          [
            -103.35205,
            20.64141
          ],
          [
            -103.35219000000001,
            20.641070000000003
          ],
          [
            -103.35233000000001,
            20.640690000000003
          ],
          [
            -103.35234000000001,
            20.640680000000003
          ],
          [
            -103.35355000000001,
            20.637790000000003
          ],
          [
            -103.35337000000001,
            20.63772
          ],
          [
            -103.35336000000001,
            20.63772
          ],
          [
            -103.35143000000001,
            20.637030000000003
          ],
          [
            -103.35139000000001,
            20.637030000000003
          ],
          [
            -103.35133,
            20.636670000000002
          ],
          [
            -103.35133,
            20.636670000000002
          ],
          [
            -103.35109000000001,
            20.63512
          ],
          [
            -103.35109000000001,
            20.63511
          ],
          [
            -103.35088,
            20.63369
          ],
          [
            -103.35085000000001,
            20.63353
          ],
          [
            -103.35077000000001,
            20.63326
          ],
          [
            -103.35062,
            20.63285
          ],
          [
            -103.35031000000001,
            20.63213
          ],
          [
            -103.34945,
            20.63006
          ],
          [
            -103.34945,
            20.63006
          ],
          [
            -103.34898000000001,
            20.628950000000003
          ],
          [
            -103.34884000000001,
            20.628590000000003
          ],
          [
            -103.34880000000001,
            20.62843
          ],
          [
            -103.34878,
            20.628220000000002
          ],
          [
            -103.34852000000001,
            20.627370000000003
          ],
          [
            -103.34828,
            20.62674
          ],
          [
            -103.34799000000001,
            20.62583
          ],
          [
            -103.34798,
            20.62583
          ],
          [
            -103.34771,
            20.62505
          ],
          [
            -103.34747000000002,
            20.62442
          ],
          [
            -103.34709000000001,
            20.623320000000003
          ],
          [
            -103.34708,
            20.623320000000003
          ],
          [
            -103.34701000000001,
            20.623130000000003
          ],
          [
            -103.34816000000001,
            20.623250000000002
          ],
          [
            -103.34924000000001,
            20.623410000000003
          ],
          [
            -103.34926000000002,
            20.623410000000003
          ],
          [
            -103.34930000000001,
            20.623410000000003
          ],
          [
            -103.34941,
            20.62339
          ],
          [
            -103.34977,
            20.623520000000003
          ],
          [
            -103.35061,
            20.623880000000003
          ],
          [
            -103.35131000000001,
            20.624190000000002
          ],
          [
            -103.35131000000001,
            20.624200000000002
          ],
          [
            -103.35189000000001,
            20.624460000000003
          ],
          [
            -103.35313000000001,
            20.625020000000003
          ],
          [
            -103.35313000000001,
            20.625020000000003
          ],
          [
            -103.35313000000001,
            20.625030000000002
          ],
          [
            -103.35363000000001,
            20.62525
          ],
          [
            -103.35441,
            20.62563
          ],
          [
            -103.35534000000001,
            20.626060000000003
          ],
          [
            -103.35560000000001,
            20.626170000000002
          ],
          [
            -103.35577,
            20.626250000000002
          ],
          [
            -103.35619000000001,
            20.626440000000002
          ],
          [
            -103.35700000000001,
            20.626810000000003
          ],
          [
            -103.35758000000001,
            20.627000000000002
          ],
          [
            -103.35802000000001,
            20.62723
          ],
          [
            -103.35868,
            20.627560000000003
          ],
          [
            -103.35887000000001,
            20.62771
          ],
          [
            -103.35944,
            20.628120000000003
          ],
          [
            -103.35961,
            20.62824
          ],
          [
            -103.36001,
            20.62854
          ],
          [
            -103.36030000000001,
            20.62875
          ],
          [
            -103.36036000000001,
            20.628790000000002
          ],
          [
            -103.36048000000001,
            20.62854
          ],
          [
            -103.36049000000001,
            20.62853
          ],
          [
            -103.36069,
            20.62805
          ],
          [
            -103.36079000000001,
            20.627820000000003
          ],
          [
            -103.36080000000001,
            20.627820000000003
          ],
          [
            -103.36134000000001,
            20.62657
          ],
          [
            -103.36134000000001,
            20.62657
          ],
          [
            -103.36192000000001,
            20.625140000000002
          ],
          [
            -103.36192000000001,
            20.625130000000002
          ],
          [
            -103.36229,
            20.62423
          ],
          [
            -103.3623,
            20.62422
          ],
          [
            -103.36269000000001,
            20.623320000000003
          ],
          [
            -103.36272000000001,
            20.623260000000002
          ],
          [
            -103.36272000000001,
            20.623260000000002
          ],
          [
            -103.36281000000001,
            20.623040000000003
          ],
          [
            -103.36302,
            20.62252
          ],
          [
            -103.36314,
            20.62228
          ],
          [
            -103.36314,
            20.62228
          ],
          [
            -103.36338,
            20.621720000000003
          ],
          [
            -103.36348000000001,
            20.621460000000003
          ],
          [
            -103.36349000000001,
            20.621460000000003
          ],
          [
            -103.36349000000001,
            20.621460000000003
          ],
          [
            -103.36376000000001,
            20.620800000000003
          ],
          [
            -103.36388000000001,
            20.62055
          ],
          [
            -103.36388000000001,
            20.62055
          ],
          [
            -103.36393000000001,
            20.620430000000002
          ],
          [
            -103.36381000000002,
            20.620420000000003
          ],
          [
            -103.36337,
            20.620410000000003
          ],
          [
            -103.36267000000001,
            20.62039
          ],
          [
            -103.36269000000001,
            20.620320000000003
          ],
          [
            -103.36269000000001,
            20.620320000000003
          ],
          [
            -103.36286000000001,
            20.61937
          ],
          [
            -103.36197000000001,
            20.619290000000003
          ],
          [
            -103.36197000000001,
            20.619280000000003
          ],
          [
            -103.36147000000001,
            20.61924
          ],
          [
            -103.36074,
            20.61918
          ],
          [
            -103.36073,
            20.61918
          ],
          [
            -103.36017000000001,
            20.619100000000003
          ],
          [
            -103.36014000000002,
            20.61867
          ],
          [
            -103.36015,
            20.61839
          ],
          [
            -103.36014000000002,
            20.61839
          ],
          [
            -103.36012000000001,
            20.616500000000002
          ],
          [
            -103.36012000000001,
            20.615060000000003
          ]
        ]
      }
    }
  ]
}