{
  "type": "FeatureCollection",
  "features": [
    {
      "type": "Feature",
      "properties": {
        "identifier": "623-a-via-los-olivos",
        "name": "Ruta 623 A Vía Los Olivos"
      },
      "geometry": {
        "type": "LineString",
        "coordinates": [
          [
            -103.36693000000001,
            20.664620000000003
          ],
          [
            -103.36845000000001,
            20.665180000000003
          ],
          [
            -103.36843,
            20.66393
          ],
          [
            -103.36738000000001,
            20.663500000000003
          ],
          [
            -103.36639000000001,
            20.66315
          ],
          [
            -103.36702000000001,
            20.66203
          ],
          [
            -103.36823000000001,
            20.65869
          ],
          [
            -103.36938,
            20.655980000000003
          ],
          [
            -103.37225000000001,
            20.65706
          ],
          [
            -103.37322,
            20.657400000000003
          ],
          [
            -103.37512000000001,
            20.658140000000003
          ],
          [
            -103.37798000000001,
            20.659190000000002
          ],
          [
            -103.37863000000002,
            20.65763
          ],
          [
            -103.37899,
            20.656840000000003
          ],
          [
            -103.38012,
            20.65745
          ],
          [
            -103.3803,
            20.657120000000003
          ],
          [
            -103.38040000000001,
            20.656160000000003
          ],
          [
            -103.38065,
            20.65334
          ],
          [
            -103.38067000000001,
            20.6521
          ],
          [
            -103.38066,
            20.651030000000002
          ],
          [
            -103.38068000000001,
            20.649500000000003
          ],
          [
            -103.38067000000001,
            20.648670000000003
          ],
          [
            -103.38064000000001,
            20.648370000000003
          ],
          [
            -103.38059000000001,
            20.648090000000003
          ],
          [
            -103.38040000000001,
            20.647440000000003
          ],
          [
            -103.38019000000001,
            20.646970000000003
          ],
          [
            -103.37986000000001,
            20.646400000000003
          ],
          [
            -103.37972,
            20.64621
          ],
          [
            -103.37949,
            20.645950000000003
          ],
          [
            -103.37884000000001,
            20.64542
          ],
          [
            -103.37842,
            20.645110000000003
          ],
          [
            -103.37658,
            20.64366
          ],
          [
            -103.37619000000001,
            20.643420000000003
          ],
          [
            -103.37575000000001,
            20.643230000000003
          ],
          [
            -103.37527000000001,
            20.64311
          ],
          [
            -103.37491000000001,
            20.643050000000002
          ],
          [
            -103.37413000000001,
            20.643040000000003
          ],
          [
            -103.37394,
            20.64302
          ],
          [
            -103.37377000000001,
            20.642960000000002
          ],
          [
            -103.37364000000001,
            20.64291
          ],
          [
            -103.37324000000001,
            20.64262
          ],
          [
            -103.37196,
            20.64161
          ],
          [
            -103.37189000000001,
            20.641540000000003
          ],
          [
            -103.36986,
            20.640780000000003
          ],
          [
            -103.37093000000002,
            20.63822
          ],
          [
            -103.37152,
            20.63688
          ],
          [
            -103.37270000000001,
            20.63407
          ],
          [
            -103.37284000000001,
            20.633840000000003
          ],
          [
            -103.37305,
            20.63369
          ],
          [
            -103.37314,
            20.633650000000003
          ],
          [
            -103.37325000000001,
            20.63351
          ],
          [
            -103.37333000000001,
            20.63335
          ],
          [
            -103.37336,
            20.63313
          ],
          [
            -103.37378000000001,
            20.633190000000003
          ],
          [
            -103.37409000000001,
            20.63157
          ],
          [
            -103.37568,
            20.63182
          ],
          [
            -103.37880000000001,
            20.632350000000002
          ],
          [
            -103.38131000000001,
            20.6264
          ],
          [
            -103.38239000000002,
            20.626600000000003
          ],
          [
            -103.38350000000001,
            20.62404
          ],
          [
            -103.38306000000001,
            20.62375
          ],
          [
            -103.3832,
            20.623710000000003
          ],
          [
            -103.38505,
            20.617990000000002
          ],
          [
            -103.38568000000001,
            20.618360000000003
          ],
          [
            -103.38583000000001,
            20.618460000000002
          ],
          [
            -103.38634,
            20.618740000000003
          ],
          [
            -103.38697,
            20.619110000000003
          ],
          [
            -103.38889,
            20.620230000000003
          ],
          [
            -103.38998000000001,
            20.6185
          ],
          [
            -103.39005,
            20.61843
          ],
          [
            -103.39009000000001,
            20.6184
          ],
          [
            -103.39015,
            20.61839
          ],
          [
            -103.39048000000001,
            20.61841
          ],
          [
            -103.39064,
            20.6184
          ],
          [
            -103.39077,
            20.618360000000003
          ],
          [
            -103.39151000000001,
            20.61426
          ],
          [
            -103.39158,
            20.614240000000002
          ],
          [
            -103.39164000000001,
            20.614220000000003
          ],
          [
            -103.39168000000001,
            20.61417
          ],
          [
            -103.39170000000001,
            20.61411
          ],
          [
            -103.39324,
            20.61438
          ],
          [
            -103.39330000000001,
            20.61426
          ],
          [
            -103.39371000000001,
            20.613200000000003
          ],
          [
            -103.39449,
            20.611420000000003
          ],
          [
            -103.39458,
            20.61165
          ],
          [
            -103.39510000000001,
            20.61221
          ],
          [
            -103.39578,
            20.612740000000002
          ],
          [
            -103.39618000000002,
            20.613100000000003
          ],
          [
            -103.39900000000002,
            20.60976
          ],
          [
            -103.39969,
            20.60902
          ],
          [
            -103.40101000000001,
            20.607290000000003
          ],
          [
            -103.40132000000001,
            20.60707
          ],
          [
            -103.40175,
            20.607000000000003
          ],
          [
            -103.40196,
            20.606900000000003
          ],
          [
            -103.40200000000002,
            20.606800000000003
          ],
          [
            -103.40198000000001,
            20.60669
          ],
          [
            -103.40187,
            20.60659
          ],
          [
            -103.40146000000001,
            20.606330000000003
          ],
          [
            -103.40106000000002,
            20.606050000000003
          ],
          [
            -103.40072,
            20.605770000000003
          ],
          [
            -103.40060000000001,
            20.605700000000002
          ],
          [
            -103.40048,
            20.605700000000002
          ],
          [
            -103.40041000000001,
            20.60575
          ],
          [
            -103.39580000000001,
            20.6016
          ],
          [
            -103.39237000000001,
            20.598470000000002
          ],
          [
            -103.38669,
            20.59174
          ],
          [
            -103.38713000000001,
            20.591530000000002
          ],
          [
            -103.38742,
            20.591600000000003
          ],
          [
            -103.38965,
            20.591810000000002
          ],
          [
            -103.38973000000001,
            20.591060000000002
          ],
          [
            -103.38989000000001,
            20.58905
          ],
          [
            -103.38957,
            20.58883
          ],
          [
            -103.38742,
            20.588690000000003
          ],
          [
            -103.38638,
            20.58866
          ],
          [
            -103.38628000000001,
            20.588520000000003
          ],
          [
            -103.38555000000001,
            20.5878
          ],
          [
            -103.38474000000001,
            20.58695
          ],
          [
            -103.38468,
            20.586910000000003
          ],
          [
            -103.38467000000001,
            20.58639
          ],
          [
            -103.38483000000001,
            20.58555
          ],
          [
            -103.38483000000001,
            20.585410000000003
          ],
          [
            -103.38502000000001,
            20.584200000000003
          ],
          [
            -103.38569000000001,
            20.58249
          ],
          [
            -103.38552000000001,
            20.582400000000003
          ],
          [
            -103.38442,
            20.581930000000003
          ],
          [
            -103.38346000000001,
            20.58144
          ],
          [
            -103.38241000000001,
            20.58116
          ],
          [
            -103.38165000000001,
            20.581000000000003
          ],
          [
            -103.38144000000001,
            20.580920000000003
          ],
          [
            -103.38133,
            20.580830000000002
          ],
          [
            -103.38105,
            20.580340000000003
          ],
          [
            -103.38073000000001,
            20.58003
          ],
          [
            -103.38056,
            20.579890000000002
          ],
          [
            -103.38057,
            20.579800000000002
          ],
          [
            -103.38065,
            20.57963
          ],
          [
            -103.38091000000001,
            20.5789
          ],
          [
            -103.38104000000001,
            20.577620000000003
          ],
          [
            -103.3829,
            20.577900000000003
          ],
          [
            -103.38299,
            20.57794
          ],
          [
            -103.38336000000001,
            20.578010000000003
          ],
          [
            -103.38335000000001,
            20.57806
          ],
          [
            -103.38455,
            20.57822
          ],
          [
            -103.38461000000001,
            20.57778
          ],
          [
            -103.38345000000001,
            20.57757
          ],
          [
            -103.38345000000001,
            20.576130000000003
          ]
        ]
      }
    }
  ]
}