{
  "type": "FeatureCollection",
  "features": [
    {
      "type": "Feature",
      "properties": {
        "identifier": "623-via-directa",
        "name": "Ruta 623 Vía Directa"
      },
      "geometry": {
        "type": "LineString",
        "coordinates": [
          [
            -103.36693000000001,
            20.664620000000003
          ],
          [
            -103.36845000000001,
            20.665180000000003
          ],
          [
            -103.36843,
            20.66393
          ],
          [
            -103.36738000000001,
            20.663500000000003
          ],
          [
            -103.36639000000001,
            20.66315
          ],
          [
            -103.36702000000001,
            20.66203
          ],
          [
            -103.36823000000001,
            20.65869
          ],
          [
            -103.36938,
            20.655980000000003
          ],
          [
            -103.37225000000001,
            20.65706
          ],
          [
            -103.37322,
            20.657400000000003
          ],
          [
            -103.37512000000001,
            20.658140000000003
          ],
          [
            -103.37798000000001,
            20.659190000000002
          ],
          [
            -103.37863000000002,
            20.65763
          ],
          [
            -103.37899,
            20.656840000000003
          ],
          [
            -103.38012,
            20.65745
          ],
          [
            -103.3803,
            20.657120000000003
          ],
          [
            -103.38040000000001,
            20.656160000000003
          ],
          [
            -103.38065,
            20.65334
          ],
          [
            -103.38067000000001,
            20.6521
          ],
          [
            -103.38066,
            20.651030000000002
          ],
          [
            -103.38068000000001,
            20.649500000000003
          ],
          [
            -103.38067000000001,
            20.648670000000003
          ],
          [
            -103.38064000000001,
            20.648370000000003
          ],
          [
            -103.38059000000001,
            20.648090000000003
          ],
          [
            -103.38040000000001,
            20.647440000000003
          ],
          [
            -103.38019000000001,
            20.646970000000003
          ],
          [
            -103.38005000000001,
            20.646710000000002
          ],
          [
            -103.38114,
            20.64619
          ],
          [
            -103.38274000000001,
            20.64544
          ],
          [
            -103.38465000000001,
            20.64449
          ],
          [
            -103.38550000000001,
            20.64402
          ],
          [
            -103.38967000000001,
            20.64112
          ],
          [
            -103.39026000000001,
            20.64073
          ],
          [
            -103.39085000000001,
            20.640140000000002
          ],
          [
            -103.39143000000001,
            20.63973
          ],
          [
            -103.39494,
            20.63764
          ],
          [
            -103.39156000000001,
            20.63681
          ],
          [
            -103.39175,
            20.63613
          ],
          [
            -103.39176,
            20.63575
          ],
          [
            -103.39173000000001,
            20.63559
          ],
          [
            -103.39172,
            20.635250000000003
          ],
          [
            -103.39177000000001,
            20.634880000000003
          ],
          [
            -103.39242000000002,
            20.632520000000003
          ],
          [
            -103.39239,
            20.632450000000002
          ],
          [
            -103.39252,
            20.63201
          ],
          [
            -103.39251,
            20.63193
          ],
          [
            -103.39264000000001,
            20.631500000000003
          ],
          [
            -103.39292,
            20.630470000000003
          ],
          [
            -103.39296,
            20.630450000000003
          ],
          [
            -103.39308000000001,
            20.629990000000003
          ],
          [
            -103.39191000000001,
            20.629240000000003
          ],
          [
            -103.39088000000001,
            20.62863
          ],
          [
            -103.39110000000001,
            20.6277
          ],
          [
            -103.39225,
            20.62336
          ],
          [
            -103.39275,
            20.622580000000003
          ],
          [
            -103.38983,
            20.62092
          ],
          [
            -103.38941000000001,
            20.62055
          ],
          [
            -103.38889,
            20.620230000000003
          ],
          [
            -103.38792000000001,
            20.619670000000003
          ],
          [
            -103.38898,
            20.61783
          ],
          [
            -103.38909000000001,
            20.61749
          ],
          [
            -103.38933000000002,
            20.616580000000003
          ],
          [
            -103.38933000000002,
            20.61651
          ],
          [
            -103.38929,
            20.616300000000003
          ],
          [
            -103.38919000000001,
            20.616020000000002
          ],
          [
            -103.38904000000001,
            20.6158
          ],
          [
            -103.38889,
            20.615640000000003
          ],
          [
            -103.38878000000001,
            20.615460000000002
          ],
          [
            -103.38892000000001,
            20.61419
          ],
          [
            -103.38892000000001,
            20.61411
          ],
          [
            -103.38887000000001,
            20.614
          ],
          [
            -103.38881,
            20.613950000000003
          ],
          [
            -103.38806000000001,
            20.613840000000003
          ],
          [
            -103.38771000000001,
            20.61399
          ],
          [
            -103.38623000000001,
            20.61477
          ],
          [
            -103.38588000000001,
            20.61483
          ],
          [
            -103.38496,
            20.61485
          ],
          [
            -103.38478,
            20.614890000000003
          ],
          [
            -103.38465000000001,
            20.614970000000003
          ],
          [
            -103.38456000000001,
            20.61511
          ],
          [
            -103.38453000000001,
            20.61522
          ],
          [
            -103.38453000000001,
            20.615360000000003
          ],
          [
            -103.38457000000001,
            20.61551
          ],
          [
            -103.38531,
            20.61653
          ],
          [
            -103.38535,
            20.61662
          ],
          [
            -103.38536,
            20.6167
          ],
          [
            -103.38533000000001,
            20.616860000000003
          ],
          [
            -103.38528000000001,
            20.616960000000002
          ],
          [
            -103.38482,
            20.61767
          ],
          [
            -103.38459,
            20.61773
          ],
          [
            -103.38337000000001,
            20.61702
          ],
          [
            -103.38327000000001,
            20.6169
          ],
          [
            -103.38178,
            20.616020000000002
          ],
          [
            -103.3811,
            20.6157
          ],
          [
            -103.38157000000001,
            20.61401
          ],
          [
            -103.38085000000001,
            20.6138
          ],
          [
            -103.38016,
            20.61363
          ],
          [
            -103.38045000000001,
            20.6125
          ],
          [
            -103.38079,
            20.61145
          ],
          [
            -103.38091000000001,
            20.61088
          ],
          [
            -103.38103000000001,
            20.61041
          ],
          [
            -103.38121000000001,
            20.61004
          ],
          [
            -103.38081000000001,
            20.60986
          ],
          [
            -103.37997000000001,
            20.609800000000003
          ],
          [
            -103.37915000000001,
            20.609720000000003
          ],
          [
            -103.37643000000001,
            20.60864
          ],
          [
            -103.37744,
            20.60499
          ],
          [
            -103.37814,
            20.60262
          ],
          [
            -103.37853000000001,
            20.60122
          ],
          [
            -103.37981,
            20.596970000000002
          ],
          [
            -103.38156000000001,
            20.59137
          ],
          [
            -103.38164,
            20.591150000000003
          ],
          [
            -103.3833,
            20.587770000000003
          ],
          [
            -103.38360000000002,
            20.58793
          ],
          [
            -103.38375,
            20.58792
          ],
          [
            -103.38393,
            20.58783
          ],
          [
            -103.38429000000001,
            20.58752
          ],
          [
            -103.38462000000001,
            20.587030000000002
          ],
          [
            -103.38468,
            20.586910000000003
          ],
          [
            -103.38467000000001,
            20.58639
          ],
          [
            -103.38483000000001,
            20.58555
          ],
          [
            -103.38483000000001,
            20.585410000000003
          ],
          [
            -103.38502000000001,
            20.584200000000003
          ],
          [
            -103.38569000000001,
            20.58249
          ],
          [
            -103.38569000000001,
            20.58105
          ]
        ]
      }
    }
  ]
}