{
  "type": "FeatureCollection",
  "features": [
    {
      "type": "Feature",
      "properties": {
        "identifier": "624-2",
        "name": "Ruta 624"
      },
      "geometry": {
        "type": "LineString",
        "coordinates": [
          [
            -103.34995,
            20.66234
          ],
          [
            -103.35056,
            20.66044
          ],
          [
            -103.35067000000001,
            20.66019
          ],
          [
            -103.35067000000001,
            20.66019
          ],
          [
            -103.3515,
            20.65841
          ],
          [
            -103.3515,
            20.65841
          ],
          [
            -103.35195,
            20.65753
          ],
          [
            -103.35165,
            20.65743
          ],
          [
            -103.35164,
            20.657420000000002
          ],
          [
            -103.35113000000001,
            20.657220000000002
          ],
          [
            -103.35074,
            20.65708
          ],
          [
            -103.35010000000001,
            20.656840000000003
          ],
          [
            -103.34949,
            20.65662
          ],
          [
            -103.34931,
            20.656540000000003
          ],
          [
            -103.34909,
            20.656380000000002
          ],
          [
            -103.34723000000001,
            20.65501
          ],
          [
            -103.34659,
            20.65453
          ],
          [
            -103.34645,
            20.65444
          ],
          [
            -103.34632,
            20.654390000000003
          ],
          [
            -103.34631,
            20.65435
          ],
          [
            -103.34641,
            20.65426
          ],
          [
            -103.34648000000001,
            20.654200000000003
          ],
          [
            -103.34708,
            20.653830000000003
          ],
          [
            -103.34708,
            20.653830000000003
          ],
          [
            -103.3478,
            20.6534
          ],
          [
            -103.34838,
            20.653080000000003
          ],
          [
            -103.34839000000001,
            20.653070000000003
          ],
          [
            -103.34959,
            20.652420000000003
          ],
          [
            -103.34959,
            20.652420000000003
          ],
          [
            -103.35003,
            20.65219
          ],
          [
            -103.35004,
            20.65218
          ],
          [
            -103.35040000000001,
            20.652
          ],
          [
            -103.35048,
            20.65192
          ],
          [
            -103.35061,
            20.651750000000003
          ],
          [
            -103.35071,
            20.651490000000003
          ],
          [
            -103.35071,
            20.651490000000003
          ],
          [
            -103.35125000000001,
            20.6502
          ],
          [
            -103.35125000000001,
            20.6502
          ],
          [
            -103.35185000000001,
            20.64889
          ],
          [
            -103.35192,
            20.648690000000002
          ],
          [
            -103.35192,
            20.648680000000002
          ],
          [
            -103.35210000000001,
            20.648210000000002
          ],
          [
            -103.3524,
            20.647540000000003
          ],
          [
            -103.3525,
            20.64724
          ],
          [
            -103.35258,
            20.647160000000003
          ],
          [
            -103.35288000000001,
            20.64705
          ],
          [
            -103.35301000000001,
            20.64693
          ],
          [
            -103.35300000000001,
            20.64694
          ],
          [
            -103.35308,
            20.646800000000002
          ],
          [
            -103.35313000000001,
            20.64667
          ],
          [
            -103.35315000000001,
            20.646500000000003
          ],
          [
            -103.35312,
            20.646330000000003
          ],
          [
            -103.35299,
            20.64609
          ],
          [
            -103.35304000000001,
            20.64601
          ],
          [
            -103.3533,
            20.6461
          ],
          [
            -103.3533,
            20.64611
          ],
          [
            -103.35471000000001,
            20.646630000000002
          ],
          [
            -103.35472000000001,
            20.64664
          ],
          [
            -103.35611000000002,
            20.647150000000003
          ],
          [
            -103.35611000000002,
            20.647160000000003
          ],
          [
            -103.35754000000001,
            20.64767
          ],
          [
            -103.35754000000001,
            20.64768
          ],
          [
            -103.35913000000001,
            20.648280000000003
          ],
          [
            -103.35913000000001,
            20.648290000000003
          ],
          [
            -103.36037,
            20.648770000000003
          ],
          [
            -103.36055,
            20.64883
          ],
          [
            -103.3605,
            20.648950000000003
          ],
          [
            -103.36092000000001,
            20.6491
          ],
          [
            -103.36092000000001,
            20.64911
          ],
          [
            -103.36418,
            20.650290000000002
          ],
          [
            -103.36418,
            20.6503
          ],
          [
            -103.36448000000001,
            20.65041
          ],
          [
            -103.36457000000001,
            20.650180000000002
          ],
          [
            -103.36472,
            20.64983
          ],
          [
            -103.36472,
            20.64983
          ],
          [
            -103.36488000000001,
            20.64949
          ],
          [
            -103.36534,
            20.649710000000002
          ],
          [
            -103.3657,
            20.649890000000003
          ],
          [
            -103.3657,
            20.649890000000003
          ],
          [
            -103.36643000000001,
            20.65031
          ],
          [
            -103.36682,
            20.650540000000003
          ],
          [
            -103.36707000000001,
            20.65022
          ],
          [
            -103.36777000000001,
            20.64936
          ],
          [
            -103.36778000000001,
            20.649350000000002
          ],
          [
            -103.36874,
            20.648100000000003
          ],
          [
            -103.36892,
            20.64788
          ],
          [
            -103.36907000000001,
            20.64769
          ],
          [
            -103.36907000000001,
            20.64769
          ],
          [
            -103.36958000000001,
            20.64701
          ],
          [
            -103.37027,
            20.646160000000002
          ],
          [
            -103.37027,
            20.646150000000002
          ],
          [
            -103.3709,
            20.645390000000003
          ],
          [
            -103.37178000000002,
            20.644430000000003
          ],
          [
            -103.37189000000001,
            20.64431
          ],
          [
            -103.37190000000001,
            20.6443
          ],
          [
            -103.37357000000002,
            20.642390000000002
          ],
          [
            -103.37361000000001,
            20.64235
          ],
          [
            -103.37457,
            20.641240000000003
          ],
          [
            -103.37458000000001,
            20.64123
          ],
          [
            -103.37554000000002,
            20.64016
          ],
          [
            -103.37554000000002,
            20.64016
          ],
          [
            -103.37594000000001,
            20.63971
          ],
          [
            -103.37662,
            20.63885
          ],
          [
            -103.37719000000001,
            20.638930000000002
          ],
          [
            -103.37719000000001,
            20.63894
          ],
          [
            -103.37855,
            20.63917
          ],
          [
            -103.37855,
            20.639180000000003
          ],
          [
            -103.37991000000001,
            20.639400000000002
          ],
          [
            -103.37992000000001,
            20.63941
          ],
          [
            -103.3811,
            20.63963
          ],
          [
            -103.38130000000001,
            20.63868
          ],
          [
            -103.38131000000001,
            20.63867
          ],
          [
            -103.38168,
            20.63681
          ],
          [
            -103.38186,
            20.63615
          ],
          [
            -103.38186,
            20.63615
          ],
          [
            -103.38210000000001,
            20.635250000000003
          ],
          [
            -103.38211000000001,
            20.635240000000003
          ],
          [
            -103.3824,
            20.634110000000003
          ],
          [
            -103.38259000000001,
            20.6334
          ],
          [
            -103.38259000000001,
            20.6334
          ],
          [
            -103.38275,
            20.632720000000003
          ],
          [
            -103.38303,
            20.63277
          ],
          [
            -103.38303,
            20.63278
          ],
          [
            -103.38731000000001,
            20.633830000000003
          ],
          [
            -103.38732,
            20.633830000000003
          ],
          [
            -103.39020000000001,
            20.63453
          ],
          [
            -103.39181,
            20.634950000000003
          ],
          [
            -103.39207,
            20.63501
          ],
          [
            -103.39206000000001,
            20.63502
          ],
          [
            -103.39409,
            20.6355
          ],
          [
            -103.39409,
            20.63551
          ],
          [
            -103.39607000000001,
            20.636010000000002
          ],
          [
            -103.39620000000001,
            20.63607
          ],
          [
            -103.39627000000002,
            20.63613
          ],
          [
            -103.39652000000001,
            20.6365
          ],
          [
            -103.39667000000001,
            20.63671
          ],
          [
            -103.39697000000001,
            20.63644
          ],
          [
            -103.39696,
            20.63645
          ],
          [
            -103.39757,
            20.63586
          ],
          [
            -103.39804000000001,
            20.6355
          ],
          [
            -103.39997000000001,
            20.634200000000003
          ],
          [
            -103.39997000000001,
            20.634200000000003
          ],
          [
            -103.40097000000002,
            20.633560000000003
          ],
          [
            -103.40117000000001,
            20.63342
          ],
          [
            -103.40117000000001,
            20.63342
          ],
          [
            -103.40186000000001,
            20.632910000000003
          ],
          [
            -103.40186000000001,
            20.632910000000003
          ],
          [
            -103.40259,
            20.63241
          ],
          [
            -103.40259,
            20.63241
          ],
          [
            -103.4029,
            20.63222
          ],
          [
            -103.40374000000001,
            20.63165
          ],
          [
            -103.40403,
            20.63145
          ],
          [
            -103.40404000000001,
            20.63144
          ],
          [
            -103.40468000000001,
            20.631
          ],
          [
            -103.40497,
            20.630840000000003
          ],
          [
            -103.40497,
            20.630840000000003
          ],
          [
            -103.40601000000001,
            20.630190000000002
          ],
          [
            -103.40626,
            20.63006
          ],
          [
            -103.40626,
            20.63006
          ],
          [
            -103.40713000000001,
            20.62957
          ],
          [
            -103.40713000000001,
            20.62957
          ],
          [
            -103.40819,
            20.628980000000002
          ],
          [
            -103.40819,
            20.628970000000002
          ],
          [
            -103.40997000000002,
            20.62798
          ],
          [
            -103.41007,
            20.62791
          ],
          [
            -103.41004000000001,
            20.62781
          ],
          [
            -103.41002,
            20.627730000000003
          ],
          [
            -103.41001000000001,
            20.62741
          ],
          [
            -103.40998,
            20.62715
          ],
          [
            -103.40997000000002,
            20.62715
          ],
          [
            -103.40993,
            20.62669
          ],
          [
            -103.40992000000001,
            20.62669
          ],
          [
            -103.40984,
            20.62628
          ],
          [
            -103.40984,
            20.626240000000003
          ],
          [
            -103.40971,
            20.625310000000002
          ],
          [
            -103.40970000000002,
            20.625310000000002
          ],
          [
            -103.40963,
            20.62488
          ],
          [
            -103.40963,
            20.62487
          ],
          [
            -103.40954,
            20.62442
          ],
          [
            -103.40954,
            20.62441
          ],
          [
            -103.40947000000001,
            20.62395
          ],
          [
            -103.40947000000001,
            20.62394
          ],
          [
            -103.40932000000001,
            20.623040000000003
          ],
          [
            -103.40932000000001,
            20.62303
          ],
          [
            -103.40919000000001,
            20.62209
          ],
          [
            -103.40912,
            20.62161
          ],
          [
            -103.40918,
            20.621470000000002
          ],
          [
            -103.40929000000001,
            20.62139
          ],
          [
            -103.40963,
            20.62134
          ],
          [
            -103.40963,
            20.62134
          ],
          [
            -103.41101,
            20.62114
          ],
          [
            -103.41182,
            20.621000000000002
          ],
          [
            -103.41189000000001,
            20.620970000000003
          ],
          [
            -103.41191,
            20.62094
          ],
          [
            -103.41271,
            20.621370000000002
          ],
          [
            -103.41293,
            20.6215
          ],
          [
            -103.41293,
            20.62151
          ],
          [
            -103.41409,
            20.622190000000003
          ],
          [
            -103.41409,
            20.622200000000003
          ],
          [
            -103.41549,
            20.623060000000002
          ],
          [
            -103.41526,
            20.623410000000003
          ],
          [
            -103.41511000000001,
            20.62364
          ],
          [
            -103.41511000000001,
            20.62364
          ],
          [
            -103.41458000000002,
            20.624460000000003
          ],
          [
            -103.41458000000002,
            20.624460000000003
          ],
          [
            -103.41445,
            20.624650000000003
          ],
          [
            -103.41407000000001,
            20.62526
          ],
          [
            -103.41406,
            20.62527
          ],
          [
            -103.41399000000001,
            20.625390000000003
          ],
          [
            -103.41396,
            20.62537
          ],
          [
            -103.41384000000001,
            20.625380000000003
          ],
          [
            -103.41371000000001,
            20.62553
          ],
          [
            -103.41369,
            20.62561
          ],
          [
            -103.41372000000001,
            20.625680000000003
          ],
          [
            -103.41384000000001,
            20.625770000000003
          ],
          [
            -103.41393000000001,
            20.625780000000002
          ],
          [
            -103.41401,
            20.625760000000003
          ],
          [
            -103.41543000000001,
            20.626600000000003
          ],
          [
            -103.41592000000001,
            20.62687
          ],
          [
            -103.41592000000001,
            20.626880000000003
          ],
          [
            -103.41617000000001,
            20.627000000000002
          ],
          [
            -103.41661,
            20.6273
          ],
          [
            -103.41764,
            20.62787
          ],
          [
            -103.41783000000001,
            20.62799
          ],
          [
            -103.41783000000001,
            20.62806
          ],
          [
            -103.41786,
            20.628120000000003
          ],
          [
            -103.41788000000001,
            20.62815
          ],
          [
            -103.41804,
            20.62827
          ],
          [
            -103.41807000000001,
            20.62827
          ],
          [
            -103.41816000000001,
            20.628310000000003
          ],
          [
            -103.41822,
            20.628320000000002
          ],
          [
            -103.4183,
            20.628310000000003
          ],
          [
            -103.41836,
            20.62828
          ],
          [
            -103.41859000000001,
            20.62836
          ],
          [
            -103.41902,
            20.62854
          ],
          [
            -103.41924,
            20.62863
          ],
          [
            -103.42001,
            20.628950000000003
          ],
          [
            -103.42117,
            20.629250000000003
          ],
          [
            -103.42117,
            20.629250000000003
          ],
          [
            -103.42222000000001,
            20.62959
          ],
          [
            -103.42257000000001,
            20.62975
          ],
          [
            -103.42256,
            20.629790000000003
          ],
          [
            -103.42256,
            20.62987
          ],
          [
            -103.42259000000001,
            20.62995
          ],
          [
            -103.42264000000002,
            20.630010000000002
          ],
          [
            -103.42273,
            20.630090000000003
          ],
          [
            -103.42287,
            20.63012
          ],
          [
            -103.42302000000001,
            20.630090000000003
          ],
          [
            -103.42311000000001,
            20.630000000000003
          ],
          [
            -103.42316000000001,
            20.629910000000002
          ],
          [
            -103.42317000000001,
            20.62976
          ],
          [
            -103.42314,
            20.62968
          ],
          [
            -103.42308000000001,
            20.629610000000003
          ],
          [
            -103.42302000000001,
            20.629540000000002
          ],
          [
            -103.42317000000001,
            20.62937
          ],
          [
            -103.42322000000001,
            20.62931
          ],
          [
            -103.42337,
            20.62913
          ],
          [
            -103.42365000000001,
            20.628690000000002
          ],
          [
            -103.42381,
            20.62847
          ],
          [
            -103.42388000000001,
            20.62837
          ],
          [
            -103.42445000000001,
            20.627560000000003
          ],
          [
            -103.42462,
            20.62734
          ],
          [
            -103.42463000000001,
            20.62733
          ],
          [
            -103.42484,
            20.627070000000003
          ],
          [
            -103.42602000000001,
            20.62734
          ],
          [
            -103.42633000000001,
            20.62744
          ],
          [
            -103.42634000000001,
            20.62744
          ],
          [
            -103.42673,
            20.62762
          ],
          [
            -103.42712,
            20.627820000000003
          ],
          [
            -103.42752000000002,
            20.628120000000003
          ],
          [
            -103.42781000000001,
            20.62845
          ],
          [
            -103.4278,
            20.62846
          ],
          [
            -103.42792000000001,
            20.628580000000003
          ],
          [
            -103.42816,
            20.62893
          ],
          [
            -103.42845000000001,
            20.629620000000003
          ],
          [
            -103.42851,
            20.629810000000003
          ],
          [
            -103.42855000000002,
            20.630100000000002
          ],
          [
            -103.42856,
            20.63012
          ],
          [
            -103.4287,
            20.631220000000003
          ],
          [
            -103.42877000000001,
            20.631410000000002
          ],
          [
            -103.42889000000001,
            20.631590000000003
          ],
          [
            -103.42888,
            20.631590000000003
          ],
          [
            -103.42911000000001,
            20.63193
          ],
          [
            -103.42922000000002,
            20.632070000000002
          ],
          [
            -103.42932,
            20.63202
          ],
          [
            -103.42956000000001,
            20.631890000000002
          ],
          [
            -103.42956000000001,
            20.631880000000002
          ],
          [
            -103.43008,
            20.631590000000003
          ],
          [
            -103.43053,
            20.63136
          ],
          [
            -103.43078000000001,
            20.63127
          ],
          [
            -103.43126000000001,
            20.631130000000002
          ],
          [
            -103.43181000000001,
            20.631040000000002
          ],
          [
            -103.43214,
            20.63108
          ],
          [
            -103.43214,
            20.63109
          ],
          [
            -103.43238000000001,
            20.6311
          ],
          [
            -103.43325000000002,
            20.631030000000003
          ],
          [
            -103.43389,
            20.631010000000003
          ],
          [
            -103.43389,
            20.631010000000003
          ],
          [
            -103.43448000000001,
            20.63098
          ],
          [
            -103.43581,
            20.6309
          ],
          [
            -103.43683000000001,
            20.633170000000003
          ],
          [
            -103.43741000000001,
            20.634500000000003
          ],
          [
            -103.43773,
            20.63523
          ],
          [
            -103.43791,
            20.63529
          ],
          [
            -103.43813000000002,
            20.63521
          ],
          [
            -103.43816000000001,
            20.635
          ],
          [
            -103.43804000000002,
            20.63473
          ],
          [
            -103.43780000000001,
            20.634220000000003
          ],
          [
            -103.43728000000002,
            20.633010000000002
          ],
          [
            -103.43632000000001,
            20.630740000000003
          ],
          [
            -103.43609000000001,
            20.63015
          ],
          [
            -103.43608,
            20.63015
          ],
          [
            -103.43556000000001,
            20.62882
          ],
          [
            -103.43555,
            20.62882
          ],
          [
            -103.43546,
            20.628570000000003
          ],
          [
            -103.43576,
            20.62788
          ],
          [
            -103.43576,
            20.62788
          ],
          [
            -103.4364,
            20.626350000000002
          ],
          [
            -103.4364,
            20.626340000000003
          ],
          [
            -103.43674000000001,
            20.625490000000003
          ],
          [
            -103.43675,
            20.625490000000003
          ],
          [
            -103.43705000000001,
            20.624840000000003
          ],
          [
            -103.43729,
            20.62425
          ],
          [
            -103.43730000000001,
            20.62424
          ],
          [
            -103.43749000000001,
            20.62375
          ],
          [
            -103.43749000000001,
            20.622310000000002
          ]
        ]
      }
    }
  ]
}