{
  "type": "FeatureCollection",
  "features": [
    {
      "type": "Feature",
      "properties": {
        "identifier": "625-a",
        "name": "Ruta 625 A"
      },
      "geometry": {
        "type": "LineString",
        "coordinates": [
          [
            -103.35069000000001,
            20.673520000000003
          ],
          [
            -103.35245,
            20.67351
          ],
          [
            -103.35354000000001,
            20.673460000000002
          ],
          [
            -103.35484000000001,
            20.67348
          ],
          [
            -103.35483,
            20.671770000000002
          ],
          [
            -103.35485000000001,
            20.670250000000003
          ],
          [
            -103.35490000000001,
            20.66899
          ],
          [
            -103.35517000000002,
            20.66795
          ],
          [
            -103.35591000000001,
            20.665290000000002
          ],
          [
            -103.35605000000001,
            20.66487
          ],
          [
            -103.35667000000001,
            20.663200000000003
          ],
          [
            -103.35967000000001,
            20.66432
          ],
          [
            -103.36015,
            20.66326
          ],
          [
            -103.36045000000001,
            20.66252
          ],
          [
            -103.36052000000001,
            20.662540000000003
          ],
          [
            -103.36062000000001,
            20.662540000000003
          ],
          [
            -103.36077,
            20.66251
          ],
          [
            -103.36085000000001,
            20.66244
          ],
          [
            -103.36092000000001,
            20.66234
          ],
          [
            -103.36094000000001,
            20.662190000000002
          ],
          [
            -103.36091,
            20.662090000000003
          ],
          [
            -103.36086,
            20.662010000000002
          ],
          [
            -103.36073,
            20.66193
          ],
          [
            -103.36261,
            20.657490000000003
          ],
          [
            -103.36379000000001,
            20.65698
          ],
          [
            -103.36446000000001,
            20.65672
          ],
          [
            -103.36914,
            20.654770000000003
          ],
          [
            -103.37048000000001,
            20.654220000000002
          ],
          [
            -103.37165,
            20.653730000000003
          ],
          [
            -103.37191000000001,
            20.65353
          ],
          [
            -103.37200000000001,
            20.65341
          ],
          [
            -103.37217000000001,
            20.65313
          ],
          [
            -103.37429,
            20.65048
          ],
          [
            -103.37531000000001,
            20.649590000000003
          ],
          [
            -103.37617,
            20.648870000000002
          ],
          [
            -103.37662,
            20.648470000000003
          ],
          [
            -103.37712,
            20.64814
          ],
          [
            -103.38068000000001,
            20.646410000000003
          ],
          [
            -103.38274000000001,
            20.64544
          ],
          [
            -103.38465000000001,
            20.64449
          ],
          [
            -103.38550000000001,
            20.64402
          ],
          [
            -103.38967000000001,
            20.64112
          ],
          [
            -103.39026000000001,
            20.64073
          ],
          [
            -103.39085000000001,
            20.640140000000002
          ],
          [
            -103.39143000000001,
            20.63973
          ],
          [
            -103.39668,
            20.6366
          ],
          [
            -103.39752000000001,
            20.63595
          ],
          [
            -103.39818000000001,
            20.635330000000003
          ],
          [
            -103.40154000000001,
            20.63305
          ],
          [
            -103.4059,
            20.630190000000002
          ],
          [
            -103.40905000000001,
            20.62844
          ],
          [
            -103.41005000000001,
            20.627850000000002
          ],
          [
            -103.40918,
            20.62235
          ],
          [
            -103.40904,
            20.621360000000003
          ],
          [
            -103.40983000000001,
            20.621270000000003
          ],
          [
            -103.41123,
            20.621080000000003
          ],
          [
            -103.41166000000001,
            20.621000000000002
          ],
          [
            -103.41180000000001,
            20.620970000000003
          ],
          [
            -103.41193000000001,
            20.62087
          ],
          [
            -103.41343,
            20.6186
          ],
          [
            -103.41509,
            20.619570000000003
          ],
          [
            -103.41525000000001,
            20.619580000000003
          ],
          [
            -103.41542000000001,
            20.619560000000003
          ],
          [
            -103.41606,
            20.61936
          ],
          [
            -103.41632000000001,
            20.61934
          ],
          [
            -103.41654000000001,
            20.61937
          ],
          [
            -103.41674,
            20.61942
          ],
          [
            -103.41693000000001,
            20.619490000000003
          ],
          [
            -103.41712000000001,
            20.619580000000003
          ],
          [
            -103.41758000000002,
            20.620040000000003
          ],
          [
            -103.41762000000001,
            20.62
          ],
          [
            -103.41872000000001,
            20.619470000000003
          ],
          [
            -103.41964000000002,
            20.617620000000002
          ],
          [
            -103.42161000000002,
            20.618920000000003
          ],
          [
            -103.42228000000001,
            20.61925
          ],
          [
            -103.42251,
            20.62037
          ],
          [
            -103.42242,
            20.620410000000003
          ],
          [
            -103.42232000000001,
            20.620510000000003
          ],
          [
            -103.42225,
            20.62067
          ],
          [
            -103.42223000000001,
            20.62084
          ],
          [
            -103.42228000000001,
            20.620980000000003
          ],
          [
            -103.42245000000001,
            20.62113
          ],
          [
            -103.42263000000001,
            20.62123
          ],
          [
            -103.42410000000001,
            20.619010000000003
          ],
          [
            -103.42605,
            20.61618
          ],
          [
            -103.42693000000001,
            20.614690000000003
          ],
          [
            -103.42844000000001,
            20.6124
          ],
          [
            -103.43403,
            20.613670000000003
          ],
          [
            -103.43704000000001,
            20.61439
          ],
          [
            -103.43659000000001,
            20.61616
          ],
          [
            -103.43618000000001,
            20.61792
          ],
          [
            -103.43599,
            20.618630000000003
          ],
          [
            -103.43592000000001,
            20.619020000000003
          ],
          [
            -103.43576,
            20.6202
          ],
          [
            -103.43576,
            20.61876
          ]
        ]
      }
    }
  ]
}