{
  "type": "FeatureCollection",
  "features": [
    {
      "type": "Feature",
      "properties": {
        "identifier": "625-a?o=2",
        "name": "Ruta 625 A"
      },
      "geometry": {
        "type": "LineString",
        "coordinates": [
          [
            -103.43576,
            20.6202
          ],
          [
            -103.43592000000001,
            20.619020000000003
          ],
          [
            -103.43599,
            20.618630000000003
          ],
          [
            -103.43618000000001,
            20.61792
          ],
          [
            -103.43659000000001,
            20.61616
          ],
          [
            -103.43704000000001,
            20.61439
          ],
          [
            -103.43549,
            20.61401
          ],
          [
            -103.43041000000001,
            20.612830000000002
          ],
          [
            -103.42958,
            20.61486
          ],
          [
            -103.42987000000001,
            20.614900000000002
          ],
          [
            -103.42945,
            20.61662
          ],
          [
            -103.42916000000001,
            20.616560000000003
          ],
          [
            -103.42897,
            20.616670000000003
          ],
          [
            -103.42871000000001,
            20.61623
          ],
          [
            -103.42843,
            20.615830000000003
          ],
          [
            -103.42822000000001,
            20.6156
          ],
          [
            -103.42789,
            20.6153
          ],
          [
            -103.42693000000001,
            20.614690000000003
          ],
          [
            -103.42659,
            20.614510000000003
          ],
          [
            -103.42626000000001,
            20.61411
          ],
          [
            -103.42623,
            20.61389
          ],
          [
            -103.42624,
            20.6138
          ],
          [
            -103.42631000000002,
            20.61363
          ],
          [
            -103.42641,
            20.61353
          ],
          [
            -103.42659,
            20.61345
          ],
          [
            -103.42668,
            20.61343
          ],
          [
            -103.42678000000001,
            20.61344
          ],
          [
            -103.42692000000001,
            20.613480000000003
          ],
          [
            -103.42698000000001,
            20.61352
          ],
          [
            -103.42709,
            20.61363
          ],
          [
            -103.42713,
            20.6137
          ],
          [
            -103.42717,
            20.613850000000003
          ],
          [
            -103.42717,
            20.613930000000003
          ],
          [
            -103.42693000000001,
            20.614690000000003
          ],
          [
            -103.42605,
            20.61618
          ],
          [
            -103.42410000000001,
            20.619010000000003
          ],
          [
            -103.42106000000001,
            20.623600000000003
          ],
          [
            -103.42052000000001,
            20.6235
          ],
          [
            -103.42036,
            20.623520000000003
          ],
          [
            -103.41913000000001,
            20.62281
          ],
          [
            -103.41903,
            20.62272
          ],
          [
            -103.41758000000002,
            20.620040000000003
          ],
          [
            -103.41712000000001,
            20.619580000000003
          ],
          [
            -103.41693000000001,
            20.619490000000003
          ],
          [
            -103.41674,
            20.61942
          ],
          [
            -103.41654000000001,
            20.61937
          ],
          [
            -103.41632000000001,
            20.61934
          ],
          [
            -103.41606,
            20.61936
          ],
          [
            -103.41542000000001,
            20.619560000000003
          ],
          [
            -103.41525000000001,
            20.619580000000003
          ],
          [
            -103.41509,
            20.619570000000003
          ],
          [
            -103.41343,
            20.6186
          ],
          [
            -103.41193000000001,
            20.62087
          ],
          [
            -103.41180000000001,
            20.620970000000003
          ],
          [
            -103.41166000000001,
            20.621000000000002
          ],
          [
            -103.41123,
            20.621080000000003
          ],
          [
            -103.40983000000001,
            20.621270000000003
          ],
          [
            -103.40904,
            20.621360000000003
          ],
          [
            -103.40918,
            20.62235
          ],
          [
            -103.41005000000001,
            20.627850000000002
          ],
          [
            -103.40905000000001,
            20.62844
          ],
          [
            -103.4059,
            20.630190000000002
          ],
          [
            -103.40154000000001,
            20.63305
          ],
          [
            -103.39818000000001,
            20.635330000000003
          ],
          [
            -103.39752000000001,
            20.63595
          ],
          [
            -103.39668,
            20.6366
          ],
          [
            -103.39143000000001,
            20.63973
          ],
          [
            -103.39085000000001,
            20.640140000000002
          ],
          [
            -103.39026000000001,
            20.64073
          ],
          [
            -103.38967000000001,
            20.64112
          ],
          [
            -103.38550000000001,
            20.64402
          ],
          [
            -103.38465000000001,
            20.64449
          ],
          [
            -103.38274000000001,
            20.64544
          ],
          [
            -103.38068000000001,
            20.646410000000003
          ],
          [
            -103.37712,
            20.64814
          ],
          [
            -103.37662,
            20.648470000000003
          ],
          [
            -103.37617,
            20.648870000000002
          ],
          [
            -103.37531000000001,
            20.649590000000003
          ],
          [
            -103.37429,
            20.65048
          ],
          [
            -103.37217000000001,
            20.65313
          ],
          [
            -103.36907000000001,
            20.65146
          ],
          [
            -103.36852,
            20.65115
          ],
          [
            -103.36690000000002,
            20.650280000000002
          ],
          [
            -103.36711000000001,
            20.6504
          ],
          [
            -103.36579,
            20.65358
          ],
          [
            -103.36502000000002,
            20.65539
          ],
          [
            -103.36377,
            20.65492
          ],
          [
            -103.36368,
            20.65511
          ],
          [
            -103.3636,
            20.655150000000003
          ],
          [
            -103.36073,
            20.66193
          ],
          [
            -103.36064,
            20.661910000000002
          ],
          [
            -103.36043000000001,
            20.66193
          ],
          [
            -103.36032,
            20.662000000000003
          ],
          [
            -103.36027000000001,
            20.662090000000003
          ],
          [
            -103.36024,
            20.66224
          ],
          [
            -103.36028,
            20.66241
          ],
          [
            -103.36038,
            20.662480000000002
          ],
          [
            -103.36045000000001,
            20.66252
          ],
          [
            -103.36015,
            20.66326
          ],
          [
            -103.35967000000001,
            20.66432
          ],
          [
            -103.35651000000001,
            20.663140000000002
          ],
          [
            -103.35594,
            20.664550000000002
          ],
          [
            -103.35516000000001,
            20.66738
          ],
          [
            -103.35490000000001,
            20.66823
          ],
          [
            -103.35471000000001,
            20.669810000000002
          ],
          [
            -103.35471000000001,
            20.67151
          ],
          [
            -103.35466000000001,
            20.67348
          ],
          [
            -103.35466000000001,
            20.67388
          ],
          [
            -103.35469,
            20.67416
          ],
          [
            -103.35066,
            20.67425
          ],
          [
            -103.35069000000001,
            20.673520000000003
          ],
          [
            -103.35069000000001,
            20.67208
          ]
        ]
      }
    }
  ]
}