{
  "type": "FeatureCollection",
  "features": [
    {
      "type": "Feature",
      "properties": {
        "identifier": "626-via-4",
        "name": "Ruta 626 Vía 4"
      },
      "geometry": {
        "type": "LineString",
        "coordinates": [
          [
            -103.44814000000001,
            20.64234
          ],
          [
            -103.45218000000001,
            20.643030000000003
          ],
          [
            -103.45316000000001,
            20.638450000000002
          ],
          [
            -103.45338000000001,
            20.63735
          ],
          [
            -103.45353000000001,
            20.636760000000002
          ],
          [
            -103.45359,
            20.63643
          ],
          [
            -103.45439,
            20.632910000000003
          ],
          [
            -103.45088000000001,
            20.63222
          ],
          [
            -103.45039000000001,
            20.63213
          ],
          [
            -103.44988000000001,
            20.632060000000003
          ],
          [
            -103.44885000000001,
            20.631960000000003
          ],
          [
            -103.44834,
            20.63194
          ],
          [
            -103.44825,
            20.631960000000003
          ],
          [
            -103.44785,
            20.63193
          ],
          [
            -103.44423,
            20.631510000000002
          ],
          [
            -103.44374,
            20.63014
          ],
          [
            -103.43603,
            20.630750000000003
          ],
          [
            -103.43238000000001,
            20.631
          ],
          [
            -103.43244000000001,
            20.63173
          ],
          [
            -103.43253000000001,
            20.63172
          ],
          [
            -103.43273,
            20.633950000000002
          ],
          [
            -103.43277,
            20.634580000000003
          ],
          [
            -103.43270000000001,
            20.635060000000003
          ],
          [
            -103.43234000000001,
            20.636010000000002
          ],
          [
            -103.43107,
            20.63905
          ],
          [
            -103.43092000000001,
            20.639010000000003
          ],
          [
            -103.43079,
            20.63904
          ],
          [
            -103.43068000000001,
            20.639080000000003
          ],
          [
            -103.43052000000002,
            20.63925
          ],
          [
            -103.42962000000001,
            20.63869
          ],
          [
            -103.42921000000001,
            20.638350000000003
          ],
          [
            -103.42875000000001,
            20.63793
          ],
          [
            -103.42840000000001,
            20.63753
          ],
          [
            -103.42809000000001,
            20.637120000000003
          ],
          [
            -103.42735,
            20.63607
          ],
          [
            -103.42590000000001,
            20.63407
          ],
          [
            -103.41221,
            20.642850000000003
          ],
          [
            -103.4103,
            20.644060000000003
          ],
          [
            -103.40894000000002,
            20.64489
          ],
          [
            -103.40655000000001,
            20.646320000000003
          ],
          [
            -103.40648,
            20.64617
          ],
          [
            -103.40639,
            20.646050000000002
          ],
          [
            -103.40625000000001,
            20.645950000000003
          ],
          [
            -103.40567000000001,
            20.646800000000002
          ],
          [
            -103.40476000000001,
            20.6473
          ],
          [
            -103.40348,
            20.648020000000002
          ],
          [
            -103.40295,
            20.648390000000003
          ],
          [
            -103.39928,
            20.650550000000003
          ],
          [
            -103.39545000000001,
            20.652710000000003
          ],
          [
            -103.39517000000001,
            20.652900000000002
          ],
          [
            -103.39375000000001,
            20.653730000000003
          ],
          [
            -103.39330000000001,
            20.654020000000003
          ],
          [
            -103.39151000000001,
            20.65503
          ],
          [
            -103.38953000000001,
            20.656180000000003
          ],
          [
            -103.38831,
            20.656910000000003
          ],
          [
            -103.38668000000001,
            20.65782
          ],
          [
            -103.38439000000001,
            20.65913
          ],
          [
            -103.38428,
            20.659000000000002
          ],
          [
            -103.38403000000001,
            20.658880000000003
          ],
          [
            -103.38377000000001,
            20.65886
          ],
          [
            -103.38363000000001,
            20.658890000000003
          ],
          [
            -103.38353000000001,
            20.65895
          ],
          [
            -103.38341000000001,
            20.65905
          ],
          [
            -103.38332000000001,
            20.659170000000003
          ],
          [
            -103.38325,
            20.65932
          ],
          [
            -103.38322000000001,
            20.659460000000003
          ],
          [
            -103.38323000000001,
            20.65959
          ],
          [
            -103.38326,
            20.65968
          ],
          [
            -103.38332000000001,
            20.659750000000003
          ],
          [
            -103.38151,
            20.66082
          ],
          [
            -103.38002,
            20.66166
          ],
          [
            -103.37874000000001,
            20.662380000000002
          ],
          [
            -103.37374000000001,
            20.6646
          ],
          [
            -103.36887000000002,
            20.66672
          ],
          [
            -103.36884,
            20.66666
          ],
          [
            -103.36877000000001,
            20.666590000000003
          ],
          [
            -103.36860000000001,
            20.666500000000003
          ],
          [
            -103.36841000000001,
            20.66648
          ],
          [
            -103.36829,
            20.666500000000003
          ],
          [
            -103.36816,
            20.66656
          ],
          [
            -103.36804000000001,
            20.66674
          ],
          [
            -103.36803,
            20.66692
          ],
          [
            -103.36805000000001,
            20.66703
          ],
          [
            -103.36814000000001,
            20.667160000000003
          ],
          [
            -103.3682,
            20.66722
          ],
          [
            -103.3683,
            20.66728
          ],
          [
            -103.36849000000001,
            20.66731
          ],
          [
            -103.36849000000001,
            20.667640000000002
          ],
          [
            -103.36853,
            20.668380000000003
          ],
          [
            -103.36856,
            20.670530000000003
          ],
          [
            -103.36867000000001,
            20.675430000000002
          ],
          [
            -103.36616000000001,
            20.675500000000003
          ],
          [
            -103.36233000000001,
            20.67556
          ],
          [
            -103.36041,
            20.675610000000002
          ],
          [
            -103.35562,
            20.675690000000003
          ],
          [
            -103.35562,
            20.67425
          ]
        ]
      }
    }
  ]
}