{
  "type": "FeatureCollection",
  "features": [
    {
      "type": "Feature",
      "properties": {
        "identifier": "629-a-2?o=2",
        "name": "Ruta 629 A"
      },
      "geometry": {
        "type": "LineString",
        "coordinates": [
          [
            -103.35313000000001,
            20.67641
          ],
          [
            -103.35464,
            20.676350000000003
          ],
          [
            -103.35587000000001,
            20.67631
          ],
          [
            -103.35587000000001,
            20.67633
          ],
          [
            -103.35647,
            20.67632
          ],
          [
            -103.35771000000001,
            20.676270000000002
          ],
          [
            -103.35771000000001,
            20.67624
          ],
          [
            -103.35879000000001,
            20.67623
          ],
          [
            -103.35879000000001,
            20.67624
          ],
          [
            -103.35941000000001,
            20.67623
          ],
          [
            -103.36039000000001,
            20.6762
          ],
          [
            -103.36068,
            20.676190000000002
          ],
          [
            -103.36136,
            20.676170000000003
          ],
          [
            -103.36165000000001,
            20.676160000000003
          ],
          [
            -103.36231000000001,
            20.676150000000003
          ],
          [
            -103.36326000000001,
            20.67613
          ],
          [
            -103.36353000000001,
            20.67613
          ],
          [
            -103.36353000000001,
            20.67613
          ],
          [
            -103.36403000000001,
            20.67613
          ],
          [
            -103.36535,
            20.676080000000002
          ],
          [
            -103.36536000000001,
            20.676080000000002
          ],
          [
            -103.36536000000001,
            20.676090000000002
          ],
          [
            -103.36645000000001,
            20.676080000000002
          ],
          [
            -103.36754,
            20.676070000000003
          ],
          [
            -103.36754,
            20.67605
          ],
          [
            -103.36844,
            20.67603
          ],
          [
            -103.36859000000001,
            20.67601
          ],
          [
            -103.36893,
            20.67594
          ],
          [
            -103.36999,
            20.67592
          ],
          [
            -103.36999,
            20.67592
          ],
          [
            -103.37195000000001,
            20.675880000000003
          ],
          [
            -103.37196,
            20.675870000000003
          ],
          [
            -103.37196,
            20.675870000000003
          ],
          [
            -103.37292000000001,
            20.67582
          ],
          [
            -103.37346000000001,
            20.675790000000003
          ],
          [
            -103.37406000000001,
            20.675590000000003
          ],
          [
            -103.3751,
            20.675600000000003
          ],
          [
            -103.37706000000001,
            20.67563
          ],
          [
            -103.37768000000001,
            20.67563
          ],
          [
            -103.38025,
            20.67565
          ],
          [
            -103.38260000000001,
            20.67567
          ],
          [
            -103.38294,
            20.67567
          ],
          [
            -103.38479000000001,
            20.67567
          ],
          [
            -103.38543000000001,
            20.675420000000003
          ],
          [
            -103.38594,
            20.675140000000003
          ],
          [
            -103.38606000000001,
            20.675210000000003
          ],
          [
            -103.38680000000001,
            20.67567
          ],
          [
            -103.38770000000001,
            20.67567
          ],
          [
            -103.38843000000001,
            20.67539
          ],
          [
            -103.38882000000001,
            20.67462
          ],
          [
            -103.38981000000001,
            20.67462
          ],
          [
            -103.38981000000001,
            20.674570000000003
          ],
          [
            -103.39131,
            20.674570000000003
          ],
          [
            -103.39255000000001,
            20.674580000000002
          ],
          [
            -103.39280000000001,
            20.674580000000002
          ],
          [
            -103.3936,
            20.674580000000002
          ],
          [
            -103.39358000000001,
            20.674460000000003
          ],
          [
            -103.39477000000001,
            20.674460000000003
          ],
          [
            -103.39590000000001,
            20.674460000000003
          ],
          [
            -103.39708,
            20.674460000000003
          ],
          [
            -103.39736,
            20.67451
          ],
          [
            -103.39851,
            20.67452
          ],
          [
            -103.39912000000001,
            20.67451
          ],
          [
            -103.39929000000001,
            20.67451
          ],
          [
            -103.39966000000001,
            20.67451
          ],
          [
            -103.40042000000001,
            20.67451
          ],
          [
            -103.40082000000001,
            20.67455
          ],
          [
            -103.40126000000001,
            20.67462
          ],
          [
            -103.40263,
            20.67491
          ],
          [
            -103.40299,
            20.67498
          ],
          [
            -103.40307000000001,
            20.675040000000003
          ],
          [
            -103.40313,
            20.6751
          ],
          [
            -103.40324000000001,
            20.675130000000003
          ],
          [
            -103.40331,
            20.675140000000003
          ],
          [
            -103.40369000000001,
            20.675220000000003
          ],
          [
            -103.40477000000001,
            20.67547
          ],
          [
            -103.40490000000001,
            20.675500000000003
          ],
          [
            -103.40581,
            20.67567
          ],
          [
            -103.40593000000001,
            20.675690000000003
          ],
          [
            -103.40686000000001,
            20.675900000000002
          ],
          [
            -103.40701000000001,
            20.67593
          ],
          [
            -103.40782000000002,
            20.67611
          ],
          [
            -103.40916000000001,
            20.67641
          ],
          [
            -103.41075000000001,
            20.676640000000003
          ],
          [
            -103.4116,
            20.6768
          ],
          [
            -103.41161000000001,
            20.676810000000003
          ],
          [
            -103.41269000000001,
            20.677010000000003
          ],
          [
            -103.41367000000001,
            20.67727
          ],
          [
            -103.41391000000002,
            20.677300000000002
          ],
          [
            -103.41531,
            20.677580000000003
          ],
          [
            -103.41589,
            20.677680000000002
          ],
          [
            -103.41619000000001,
            20.677760000000003
          ],
          [
            -103.41635000000001,
            20.677770000000002
          ],
          [
            -103.41802000000001,
            20.67829
          ],
          [
            -103.41939,
            20.67858
          ],
          [
            -103.41938,
            20.67864
          ],
          [
            -103.42068,
            20.67893
          ],
          [
            -103.42070000000001,
            20.678880000000003
          ],
          [
            -103.42122,
            20.678990000000002
          ],
          [
            -103.42321000000001,
            20.67942
          ],
          [
            -103.42489,
            20.67977
          ],
          [
            -103.42514000000001,
            20.679830000000003
          ],
          [
            -103.42608000000001,
            20.680010000000003
          ],
          [
            -103.42609,
            20.680000000000003
          ],
          [
            -103.42679000000001,
            20.68016
          ],
          [
            -103.42767,
            20.68035
          ],
          [
            -103.42767,
            20.68035
          ],
          [
            -103.42791000000001,
            20.680400000000002
          ],
          [
            -103.42856,
            20.68055
          ],
          [
            -103.42979000000001,
            20.6808
          ],
          [
            -103.42979000000001,
            20.6808
          ],
          [
            -103.43017,
            20.68089
          ],
          [
            -103.43257000000001,
            20.68139
          ],
          [
            -103.43305000000001,
            20.681500000000003
          ],
          [
            -103.43362,
            20.681620000000002
          ],
          [
            -103.43362,
            20.681620000000002
          ],
          [
            -103.43396000000001,
            20.681690000000003
          ],
          [
            -103.43454000000001,
            20.681810000000002
          ],
          [
            -103.43509,
            20.68194
          ],
          [
            -103.43532,
            20.681980000000003
          ],
          [
            -103.43559,
            20.68203
          ],
          [
            -103.43570000000001,
            20.682060000000003
          ],
          [
            -103.43609000000001,
            20.68215
          ],
          [
            -103.43821000000001,
            20.6826
          ],
          [
            -103.43862000000001,
            20.682730000000003
          ],
          [
            -103.43896000000001,
            20.682830000000003
          ],
          [
            -103.43938000000001,
            20.68308
          ],
          [
            -103.43983000000001,
            20.683390000000003
          ],
          [
            -103.44014000000001,
            20.68363
          ],
          [
            -103.44013000000001,
            20.68363
          ],
          [
            -103.44171000000001,
            20.68485
          ],
          [
            -103.44243,
            20.68541
          ],
          [
            -103.44290000000001,
            20.68532
          ],
          [
            -103.44304000000001,
            20.685250000000003
          ],
          [
            -103.44420000000001,
            20.68468
          ],
          [
            -103.44447000000001,
            20.684430000000003
          ],
          [
            -103.44462000000001,
            20.68418
          ],
          [
            -103.44475000000001,
            20.68382
          ],
          [
            -103.44486,
            20.68344
          ],
          [
            -103.44496000000001,
            20.682260000000003
          ],
          [
            -103.44506000000001,
            20.68211
          ],
          [
            -103.44525,
            20.68202
          ],
          [
            -103.44544,
            20.682170000000003
          ],
          [
            -103.44684000000001,
            20.683320000000002
          ],
          [
            -103.44682,
            20.68336
          ],
          [
            -103.44682,
            20.683380000000003
          ],
          [
            -103.44704000000002,
            20.68354
          ],
          [
            -103.44713,
            20.68361
          ],
          [
            -103.44715000000001,
            20.683580000000003
          ],
          [
            -103.44719,
            20.68355
          ],
          [
            -103.44831,
            20.684430000000003
          ],
          [
            -103.44827000000001,
            20.68456
          ],
          [
            -103.44829000000001,
            20.68467
          ],
          [
            -103.44835,
            20.684790000000003
          ],
          [
            -103.44839,
            20.68483
          ],
          [
            -103.44851000000001,
            20.684890000000003
          ],
          [
            -103.44864000000001,
            20.684890000000003
          ],
          [
            -103.44877000000001,
            20.68484
          ],
          [
            -103.44879,
            20.68483
          ],
          [
            -103.44898,
            20.684980000000003
          ],
          [
            -103.44899000000001,
            20.684980000000003
          ],
          [
            -103.44984000000001,
            20.685640000000003
          ],
          [
            -103.45,
            20.685750000000002
          ],
          [
            -103.45035000000001,
            20.68559
          ],
          [
            -103.45036,
            20.68558
          ],
          [
            -103.4513,
            20.68515
          ],
          [
            -103.45157,
            20.68503
          ],
          [
            -103.45234,
            20.684700000000003
          ],
          [
            -103.45348000000001,
            20.684150000000002
          ],
          [
            -103.45331,
            20.68383
          ],
          [
            -103.45330000000001,
            20.68383
          ],
          [
            -103.45275000000001,
            20.682730000000003
          ],
          [
            -103.45298000000001,
            20.68262
          ],
          [
            -103.45419000000001,
            20.682080000000003
          ],
          [
            -103.45429000000001,
            20.68203
          ],
          [
            -103.45425,
            20.68194
          ],
          [
            -103.45412,
            20.68167
          ],
          [
            -103.45374000000001,
            20.680940000000003
          ],
          [
            -103.4534,
            20.68026
          ],
          [
            -103.45339000000001,
            20.68026
          ],
          [
            -103.45258000000001,
            20.67868
          ],
          [
            -103.45242,
            20.67837
          ],
          [
            -103.45236000000001,
            20.67828
          ],
          [
            -103.45245000000001,
            20.6782
          ],
          [
            -103.45278,
            20.67783
          ],
          [
            -103.45293000000001,
            20.677580000000003
          ],
          [
            -103.45303000000001,
            20.677380000000003
          ],
          [
            -103.45349,
            20.6763
          ],
          [
            -103.45370000000001,
            20.675790000000003
          ],
          [
            -103.45375000000001,
            20.67567
          ],
          [
            -103.45365000000001,
            20.67563
          ],
          [
            -103.45337,
            20.675520000000002
          ],
          [
            -103.45289000000001,
            20.67536
          ],
          [
            -103.45268000000002,
            20.67528
          ],
          [
            -103.45153,
            20.674840000000003
          ],
          [
            -103.45153,
            20.6748
          ],
          [
            -103.45152,
            20.67473
          ],
          [
            -103.45151000000001,
            20.674660000000003
          ],
          [
            -103.45149,
            20.674580000000002
          ],
          [
            -103.45144,
            20.674490000000002
          ],
          [
            -103.45131,
            20.67441
          ],
          [
            -103.45112,
            20.67436
          ],
          [
            -103.45108,
            20.67408
          ],
          [
            -103.45109000000001,
            20.67408
          ],
          [
            -103.45073000000001,
            20.671870000000002
          ],
          [
            -103.45073000000001,
            20.671870000000002
          ],
          [
            -103.45055,
            20.670730000000002
          ],
          [
            -103.45057000000001,
            20.670730000000002
          ],
          [
            -103.45062000000001,
            20.6707
          ],
          [
            -103.45069000000001,
            20.670630000000003
          ],
          [
            -103.45072,
            20.670530000000003
          ],
          [
            -103.45072,
            20.67051
          ],
          [
            -103.45105000000001,
            20.6704
          ],
          [
            -103.4514,
            20.67029
          ],
          [
            -103.45189,
            20.6701
          ],
          [
            -103.45201000000002,
            20.669980000000002
          ],
          [
            -103.45250000000001,
            20.66975
          ],
          [
            -103.45299000000001,
            20.670330000000003
          ],
          [
            -103.45299000000001,
            20.670330000000003
          ],
          [
            -103.45299000000001,
            20.670340000000003
          ],
          [
            -103.45387000000001,
            20.671390000000002
          ],
          [
            -103.45435,
            20.67201
          ],
          [
            -103.4547,
            20.672510000000003
          ],
          [
            -103.45485000000001,
            20.67286
          ],
          [
            -103.45495000000001,
            20.673150000000003
          ],
          [
            -103.45507,
            20.67368
          ],
          [
            -103.45512000000001,
            20.67424
          ],
          [
            -103.45512000000001,
            20.67425
          ],
          [
            -103.45514000000001,
            20.678430000000002
          ],
          [
            -103.45515,
            20.678440000000002
          ],
          [
            -103.45497,
            20.678440000000002
          ],
          [
            -103.45491000000001,
            20.67959
          ],
          [
            -103.45491000000001,
            20.6813
          ],
          [
            -103.45499000000001,
            20.681540000000002
          ],
          [
            -103.45499000000001,
            20.680100000000003
          ]
        ]
      }
    }
  ]
}