{
  "type": "FeatureCollection",
  "features": [
    {
      "type": "Feature",
      "properties": {
        "identifier": "632-2",
        "name": "Ruta 632"
      },
      "geometry": {
        "type": "LineString",
        "coordinates": [
          [
            -103.43836,
            20.762240000000002
          ],
          [
            -103.43953,
            20.760810000000003
          ],
          [
            -103.43965000000001,
            20.76066
          ],
          [
            -103.44046,
            20.759680000000003
          ],
          [
            -103.44048000000001,
            20.759690000000003
          ],
          [
            -103.44072000000001,
            20.75938
          ],
          [
            -103.4411,
            20.75889
          ],
          [
            -103.44120000000001,
            20.75861
          ],
          [
            -103.44146,
            20.757530000000003
          ],
          [
            -103.44193000000001,
            20.75581
          ],
          [
            -103.4419,
            20.7558
          ],
          [
            -103.4423,
            20.75429
          ],
          [
            -103.44211000000001,
            20.75421
          ],
          [
            -103.44175000000001,
            20.754060000000003
          ],
          [
            -103.44117000000001,
            20.753850000000003
          ],
          [
            -103.44050000000001,
            20.753580000000003
          ],
          [
            -103.43988,
            20.75334
          ],
          [
            -103.43975,
            20.753300000000003
          ],
          [
            -103.43981000000001,
            20.753110000000003
          ],
          [
            -103.44010000000002,
            20.752090000000003
          ],
          [
            -103.43963000000001,
            20.751900000000003
          ],
          [
            -103.43951000000001,
            20.75186
          ],
          [
            -103.43906000000001,
            20.75169
          ],
          [
            -103.43853000000001,
            20.7515
          ],
          [
            -103.4381,
            20.751340000000003
          ],
          [
            -103.43775000000001,
            20.75122
          ],
          [
            -103.43787,
            20.75092
          ],
          [
            -103.43756,
            20.75084
          ],
          [
            -103.43745000000001,
            20.75082
          ],
          [
            -103.43736000000001,
            20.751040000000003
          ],
          [
            -103.43730000000001,
            20.75122
          ],
          [
            -103.43723000000001,
            20.751450000000002
          ],
          [
            -103.43726000000001,
            20.75146
          ],
          [
            -103.43716,
            20.75175
          ],
          [
            -103.43692000000001,
            20.75244
          ],
          [
            -103.43666,
            20.753220000000002
          ],
          [
            -103.43604,
            20.7529
          ],
          [
            -103.43588000000001,
            20.75281
          ],
          [
            -103.43476000000001,
            20.75223
          ],
          [
            -103.43387000000001,
            20.75177
          ],
          [
            -103.43349,
            20.75157
          ],
          [
            -103.43321,
            20.751430000000003
          ],
          [
            -103.43308,
            20.751340000000003
          ],
          [
            -103.43224000000001,
            20.75091
          ],
          [
            -103.43196,
            20.750760000000003
          ],
          [
            -103.43195000000001,
            20.750780000000002
          ],
          [
            -103.43004,
            20.749750000000002
          ],
          [
            -103.43007000000001,
            20.7497
          ],
          [
            -103.42856,
            20.748900000000003
          ],
          [
            -103.42825,
            20.74874
          ],
          [
            -103.42668,
            20.74789
          ],
          [
            -103.42640000000002,
            20.74771
          ],
          [
            -103.42640000000002,
            20.747700000000002
          ],
          [
            -103.42629000000001,
            20.747590000000002
          ],
          [
            -103.42621000000001,
            20.74725
          ],
          [
            -103.42603000000001,
            20.746180000000003
          ],
          [
            -103.42583,
            20.744870000000002
          ],
          [
            -103.42577000000001,
            20.744880000000002
          ],
          [
            -103.42573,
            20.74464
          ],
          [
            -103.42562000000001,
            20.74463
          ],
          [
            -103.42514000000001,
            20.744680000000002
          ],
          [
            -103.42441000000001,
            20.744660000000003
          ],
          [
            -103.42329000000001,
            20.74462
          ],
          [
            -103.42293000000001,
            20.74461
          ],
          [
            -103.42255000000002,
            20.744580000000003
          ],
          [
            -103.42216,
            20.744580000000003
          ],
          [
            -103.42179,
            20.744570000000003
          ],
          [
            -103.42155000000001,
            20.744560000000003
          ],
          [
            -103.42141000000001,
            20.744560000000003
          ],
          [
            -103.42108,
            20.74455
          ],
          [
            -103.42057000000001,
            20.74415
          ],
          [
            -103.42037,
            20.74399
          ],
          [
            -103.41947,
            20.74333
          ],
          [
            -103.41925,
            20.743160000000003
          ],
          [
            -103.41858,
            20.742710000000002
          ],
          [
            -103.41836,
            20.74254
          ],
          [
            -103.41798000000001,
            20.74229
          ],
          [
            -103.41747000000001,
            20.741940000000003
          ],
          [
            -103.41677000000001,
            20.74146
          ],
          [
            -103.41676000000001,
            20.74146
          ],
          [
            -103.41574000000001,
            20.74068
          ],
          [
            -103.41482,
            20.739980000000003
          ],
          [
            -103.41454,
            20.73985
          ],
          [
            -103.41415,
            20.73966
          ],
          [
            -103.41397,
            20.739700000000003
          ],
          [
            -103.41351,
            20.73946
          ],
          [
            -103.41350000000001,
            20.73945
          ],
          [
            -103.4132,
            20.73935
          ],
          [
            -103.41302,
            20.739220000000003
          ],
          [
            -103.41276,
            20.738950000000003
          ],
          [
            -103.41258,
            20.738770000000002
          ],
          [
            -103.41257,
            20.738760000000003
          ],
          [
            -103.412,
            20.738200000000003
          ],
          [
            -103.41166000000001,
            20.73789
          ],
          [
            -103.41155,
            20.73778
          ],
          [
            -103.4115,
            20.73776
          ],
          [
            -103.41125000000001,
            20.73767
          ],
          [
            -103.41099000000001,
            20.73757
          ],
          [
            -103.41077000000001,
            20.73748
          ],
          [
            -103.41056,
            20.7374
          ],
          [
            -103.41029,
            20.73729
          ],
          [
            -103.41017000000001,
            20.7372
          ],
          [
            -103.40996000000001,
            20.73703
          ],
          [
            -103.40987000000001,
            20.736980000000003
          ],
          [
            -103.40965000000001,
            20.73682
          ],
          [
            -103.40957,
            20.73676
          ],
          [
            -103.40903000000002,
            20.73635
          ],
          [
            -103.40866000000001,
            20.73607
          ],
          [
            -103.40862000000001,
            20.736040000000003
          ],
          [
            -103.40836,
            20.735840000000003
          ],
          [
            -103.40805,
            20.73561
          ],
          [
            -103.40778,
            20.735400000000002
          ],
          [
            -103.40758000000001,
            20.73526
          ],
          [
            -103.40857000000001,
            20.734350000000003
          ],
          [
            -103.40877,
            20.734160000000003
          ],
          [
            -103.40908,
            20.733870000000003
          ],
          [
            -103.40971,
            20.733300000000003
          ],
          [
            -103.41081000000001,
            20.73233
          ],
          [
            -103.41215000000001,
            20.7311
          ],
          [
            -103.41226,
            20.731
          ],
          [
            -103.41289,
            20.73044
          ],
          [
            -103.41305000000001,
            20.730300000000003
          ],
          [
            -103.41363000000001,
            20.729760000000002
          ],
          [
            -103.41389000000001,
            20.72954
          ],
          [
            -103.41434000000001,
            20.72914
          ],
          [
            -103.41460000000001,
            20.728910000000003
          ],
          [
            -103.41504,
            20.72851
          ],
          [
            -103.41547000000001,
            20.72811
          ],
          [
            -103.41576,
            20.72785
          ],
          [
            -103.41545,
            20.727880000000003
          ],
          [
            -103.41565000000001,
            20.727690000000003
          ],
          [
            -103.41598,
            20.727410000000003
          ],
          [
            -103.4162,
            20.727210000000003
          ],
          [
            -103.41666000000001,
            20.72679
          ],
          [
            -103.41679,
            20.726660000000003
          ],
          [
            -103.41737,
            20.72614
          ],
          [
            -103.41781,
            20.72575
          ],
          [
            -103.41797000000001,
            20.725610000000003
          ],
          [
            -103.41847000000001,
            20.725140000000003
          ],
          [
            -103.41893,
            20.72472
          ],
          [
            -103.41915,
            20.724680000000003
          ],
          [
            -103.41986000000001,
            20.724030000000003
          ],
          [
            -103.41995000000001,
            20.724010000000003
          ],
          [
            -103.42005,
            20.724010000000003
          ],
          [
            -103.42015,
            20.724030000000003
          ],
          [
            -103.42022000000001,
            20.72407
          ],
          [
            -103.42028,
            20.724120000000003
          ],
          [
            -103.42030000000001,
            20.72418
          ],
          [
            -103.42032,
            20.724220000000003
          ],
          [
            -103.42034000000001,
            20.724310000000003
          ],
          [
            -103.42032,
            20.724410000000002
          ],
          [
            -103.42027,
            20.724490000000003
          ],
          [
            -103.42021000000001,
            20.72454
          ],
          [
            -103.42016000000001,
            20.724580000000003
          ],
          [
            -103.42011000000001,
            20.72462
          ],
          [
            -103.42003000000001,
            20.72465
          ],
          [
            -103.41996,
            20.724680000000003
          ],
          [
            -103.41985000000001,
            20.72471
          ],
          [
            -103.41973000000002,
            20.72472
          ],
          [
            -103.41963000000001,
            20.72472
          ],
          [
            -103.41949000000001,
            20.72474
          ],
          [
            -103.41934,
            20.72475
          ],
          [
            -103.41924,
            20.72475
          ],
          [
            -103.41912,
            20.724760000000003
          ],
          [
            -103.41893,
            20.72472
          ],
          [
            -103.41884,
            20.724690000000002
          ],
          [
            -103.41875,
            20.72464
          ],
          [
            -103.41866,
            20.72457
          ],
          [
            -103.41857,
            20.724490000000003
          ],
          [
            -103.41839,
            20.72427
          ],
          [
            -103.41831,
            20.72418
          ],
          [
            -103.41818,
            20.72406
          ],
          [
            -103.41714,
            20.722700000000003
          ],
          [
            -103.41709,
            20.722630000000002
          ],
          [
            -103.41713000000001,
            20.72259
          ],
          [
            -103.41609000000001,
            20.72124
          ],
          [
            -103.41608000000001,
            20.72124
          ],
          [
            -103.4158,
            20.72088
          ],
          [
            -103.41399000000001,
            20.718570000000003
          ],
          [
            -103.41258,
            20.71675
          ],
          [
            -103.41246000000001,
            20.716610000000003
          ],
          [
            -103.41246000000001,
            20.716600000000003
          ],
          [
            -103.41129000000001,
            20.71509
          ],
          [
            -103.41014000000001,
            20.713610000000003
          ],
          [
            -103.40983000000001,
            20.71321
          ],
          [
            -103.40941000000001,
            20.712680000000002
          ],
          [
            -103.40822000000001,
            20.71115
          ],
          [
            -103.40754000000001,
            20.710230000000003
          ],
          [
            -103.40756,
            20.71021
          ],
          [
            -103.40754000000001,
            20.7102
          ],
          [
            -103.40752,
            20.710140000000003
          ],
          [
            -103.40751,
            20.7101
          ],
          [
            -103.40751,
            20.710040000000003
          ],
          [
            -103.40752,
            20.709950000000003
          ],
          [
            -103.40755000000001,
            20.709860000000003
          ],
          [
            -103.40759000000001,
            20.70981
          ],
          [
            -103.40764000000001,
            20.709760000000003
          ],
          [
            -103.40774,
            20.7097
          ],
          [
            -103.40786000000001,
            20.709670000000003
          ],
          [
            -103.40828,
            20.70952
          ],
          [
            -103.40846,
            20.70946
          ],
          [
            -103.4086,
            20.709280000000003
          ],
          [
            -103.40893000000001,
            20.70915
          ],
          [
            -103.40912,
            20.70905
          ],
          [
            -103.4093,
            20.708920000000003
          ],
          [
            -103.40999000000001,
            20.708540000000003
          ],
          [
            -103.41023000000001,
            20.70841
          ],
          [
            -103.41111000000001,
            20.707870000000003
          ],
          [
            -103.41165000000001,
            20.70754
          ],
          [
            -103.41184000000001,
            20.707420000000003
          ],
          [
            -103.4119,
            20.707510000000003
          ],
          [
            -103.41218,
            20.707330000000002
          ],
          [
            -103.41243000000001,
            20.70711
          ],
          [
            -103.41273000000001,
            20.706760000000003
          ],
          [
            -103.41289,
            20.706560000000003
          ],
          [
            -103.41328000000001,
            20.705920000000003
          ],
          [
            -103.41353000000001,
            20.70552
          ],
          [
            -103.41367000000001,
            20.705240000000003
          ],
          [
            -103.41376000000001,
            20.705270000000002
          ],
          [
            -103.41475000000001,
            20.70317
          ],
          [
            -103.41524000000001,
            20.702150000000003
          ],
          [
            -103.41524000000001,
            20.70214
          ],
          [
            -103.41523000000001,
            20.702150000000003
          ],
          [
            -103.4154,
            20.701770000000003
          ],
          [
            -103.41555000000001,
            20.701320000000003
          ],
          [
            -103.41569000000001,
            20.70088
          ],
          [
            -103.41585,
            20.700100000000003
          ],
          [
            -103.41610000000001,
            20.69863
          ],
          [
            -103.41612,
            20.698320000000002
          ],
          [
            -103.41613000000001,
            20.69818
          ],
          [
            -103.41612,
            20.698130000000003
          ],
          [
            -103.41605000000001,
            20.69771
          ],
          [
            -103.4158,
            20.696530000000003
          ],
          [
            -103.41563000000001,
            20.696060000000003
          ],
          [
            -103.41542000000001,
            20.695490000000003
          ],
          [
            -103.41539,
            20.69534
          ],
          [
            -103.41538000000001,
            20.69463
          ],
          [
            -103.41537000000001,
            20.69453
          ],
          [
            -103.41532000000001,
            20.69265
          ],
          [
            -103.41531,
            20.69217
          ],
          [
            -103.41529000000001,
            20.691840000000003
          ],
          [
            -103.41533000000001,
            20.691000000000003
          ],
          [
            -103.4154,
            20.69077
          ],
          [
            -103.41557,
            20.690530000000003
          ],
          [
            -103.41579000000002,
            20.690340000000003
          ],
          [
            -103.41605000000001,
            20.690250000000002
          ],
          [
            -103.4167,
            20.690150000000003
          ],
          [
            -103.41731000000001,
            20.690050000000003
          ],
          [
            -103.41731000000001,
            20.690050000000003
          ],
          [
            -103.41774000000001,
            20.689970000000002
          ],
          [
            -103.41791,
            20.68993
          ],
          [
            -103.41846000000001,
            20.689770000000003
          ],
          [
            -103.41876,
            20.68963
          ],
          [
            -103.41921,
            20.689300000000003
          ],
          [
            -103.41947,
            20.689030000000002
          ],
          [
            -103.41971000000001,
            20.68869
          ],
          [
            -103.41981000000001,
            20.68852
          ],
          [
            -103.41990000000001,
            20.688280000000002
          ],
          [
            -103.41998000000001,
            20.688070000000003
          ],
          [
            -103.41988,
            20.68804
          ],
          [
            -103.41994000000001,
            20.68787
          ],
          [
            -103.42009,
            20.686960000000003
          ],
          [
            -103.42024,
            20.68615
          ],
          [
            -103.42037,
            20.685470000000002
          ],
          [
            -103.42051000000001,
            20.68549
          ],
          [
            -103.42109,
            20.68261
          ],
          [
            -103.42159000000001,
            20.679920000000003
          ],
          [
            -103.42142000000001,
            20.67989
          ],
          [
            -103.42145000000001,
            20.679720000000003
          ],
          [
            -103.42161000000002,
            20.67892
          ],
          [
            -103.42174000000001,
            20.678330000000003
          ],
          [
            -103.4218,
            20.67802
          ],
          [
            -103.42186000000001,
            20.677770000000002
          ],
          [
            -103.42194,
            20.677390000000003
          ],
          [
            -103.42207,
            20.6768
          ],
          [
            -103.42210000000001,
            20.676640000000003
          ],
          [
            -103.42224,
            20.675810000000002
          ],
          [
            -103.42232000000001,
            20.67529
          ],
          [
            -103.42251,
            20.67406
          ],
          [
            -103.42257000000001,
            20.673750000000002
          ],
          [
            -103.42281000000001,
            20.67244
          ],
          [
            -103.42301,
            20.67188
          ],
          [
            -103.42363,
            20.67085
          ],
          [
            -103.42408,
            20.670150000000003
          ],
          [
            -103.42426,
            20.669780000000003
          ],
          [
            -103.42433000000001,
            20.66954
          ],
          [
            -103.42436000000001,
            20.669410000000003
          ],
          [
            -103.42445000000001,
            20.668850000000003
          ],
          [
            -103.42448,
            20.66851
          ],
          [
            -103.42442000000001,
            20.66807
          ],
          [
            -103.42435,
            20.66749
          ],
          [
            -103.42428000000001,
            20.66684
          ],
          [
            -103.42403,
            20.664620000000003
          ],
          [
            -103.42376,
            20.66225
          ],
          [
            -103.42353000000001,
            20.66036
          ],
          [
            -103.42325000000001,
            20.65794
          ],
          [
            -103.42298000000001,
            20.655600000000003
          ],
          [
            -103.42293000000001,
            20.655240000000003
          ],
          [
            -103.42288,
            20.654870000000003
          ],
          [
            -103.42287,
            20.654760000000003
          ],
          [
            -103.42281000000001,
            20.65428
          ],
          [
            -103.42275000000001,
            20.65381
          ],
          [
            -103.42269,
            20.65333
          ],
          [
            -103.42263000000001,
            20.65283
          ],
          [
            -103.42253000000001,
            20.65192
          ],
          [
            -103.42251,
            20.65174
          ],
          [
            -103.42246000000002,
            20.65125
          ],
          [
            -103.42251,
            20.65077
          ],
          [
            -103.42254000000001,
            20.65048
          ],
          [
            -103.42252,
            20.650080000000003
          ],
          [
            -103.42234,
            20.648760000000003
          ],
          [
            -103.42215,
            20.647640000000003
          ],
          [
            -103.42202,
            20.64724
          ],
          [
            -103.42175,
            20.646800000000002
          ],
          [
            -103.42155000000001,
            20.64654
          ],
          [
            -103.42139,
            20.6463
          ],
          [
            -103.4213,
            20.64608
          ],
          [
            -103.42122,
            20.64581
          ],
          [
            -103.42114000000001,
            20.645370000000003
          ],
          [
            -103.42112,
            20.64515
          ],
          [
            -103.42109,
            20.64499
          ],
          [
            -103.42094,
            20.6442
          ],
          [
            -103.42063,
            20.64336
          ],
          [
            -103.42032,
            20.64252
          ],
          [
            -103.42003000000001,
            20.641710000000003
          ],
          [
            -103.41979,
            20.640870000000003
          ],
          [
            -103.41969,
            20.640040000000003
          ],
          [
            -103.4196,
            20.639480000000002
          ],
          [
            -103.41949000000001,
            20.639200000000002
          ],
          [
            -103.41947,
            20.63916
          ],
          [
            -103.41922000000001,
            20.63876
          ],
          [
            -103.41903,
            20.63847
          ],
          [
            -103.41993000000001,
            20.637880000000003
          ],
          [
            -103.42007000000001,
            20.63781
          ],
          [
            -103.42128000000001,
            20.637030000000003
          ],
          [
            -103.42165000000001,
            20.6368
          ],
          [
            -103.42182000000001,
            20.636680000000002
          ],
          [
            -103.42196000000001,
            20.63659
          ],
          [
            -103.42326000000001,
            20.63576
          ],
          [
            -103.42420000000001,
            20.635150000000003
          ],
          [
            -103.42590000000001,
            20.63407
          ],
          [
            -103.42573,
            20.63378
          ],
          [
            -103.42547,
            20.633360000000003
          ],
          [
            -103.42447000000001,
            20.631690000000003
          ],
          [
            -103.42434000000002,
            20.63144
          ],
          [
            -103.42410000000001,
            20.631030000000003
          ],
          [
            -103.42366000000001,
            20.63049
          ],
          [
            -103.42309,
            20.629980000000003
          ],
          [
            -103.42312000000001,
            20.62993
          ],
          [
            -103.42314,
            20.629790000000003
          ],
          [
            -103.42311000000001,
            20.62966
          ],
          [
            -103.42308000000001,
            20.629530000000003
          ],
          [
            -103.42293000000001,
            20.629530000000003
          ],
          [
            -103.42276000000001,
            20.62956
          ],
          [
            -103.42264000000002,
            20.629620000000003
          ],
          [
            -103.42261,
            20.62968
          ],
          [
            -103.42218000000001,
            20.62947
          ],
          [
            -103.42169000000001,
            20.6293
          ],
          [
            -103.42096000000001,
            20.62913
          ],
          [
            -103.42071000000001,
            20.629060000000003
          ],
          [
            -103.42075000000001,
            20.62894
          ],
          [
            -103.41999000000001,
            20.62873
          ],
          [
            -103.41886000000001,
            20.62824
          ],
          [
            -103.41881000000001,
            20.62834
          ],
          [
            -103.41845,
            20.628200000000003
          ],
          [
            -103.41849,
            20.62808
          ],
          [
            -103.41848,
            20.62796
          ],
          [
            -103.41845,
            20.62787
          ],
          [
            -103.41838000000001,
            20.627650000000003
          ],
          [
            -103.41927000000001,
            20.62629
          ],
          [
            -103.41980000000001,
            20.625490000000003
          ],
          [
            -103.42,
            20.62519
          ],
          [
            -103.42011000000001,
            20.62526
          ],
          [
            -103.42055,
            20.62459
          ],
          [
            -103.42082,
            20.624190000000002
          ],
          [
            -103.42099,
            20.62393
          ],
          [
            -103.42166,
            20.62292
          ],
          [
            -103.42259000000001,
            20.6215
          ],
          [
            -103.42278,
            20.62121
          ],
          [
            -103.42339000000001,
            20.62028
          ],
          [
            -103.42423000000001,
            20.619010000000003
          ],
          [
            -103.42442000000001,
            20.618740000000003
          ],
          [
            -103.42448,
            20.618640000000003
          ],
          [
            -103.42538,
            20.61729
          ],
          [
            -103.42539000000001,
            20.61728
          ],
          [
            -103.42538,
            20.61728
          ],
          [
            -103.42615,
            20.616090000000003
          ],
          [
            -103.42631000000002,
            20.61577
          ],
          [
            -103.42652000000001,
            20.615460000000002
          ],
          [
            -103.42735,
            20.614230000000003
          ],
          [
            -103.42822000000001,
            20.612910000000003
          ],
          [
            -103.42834,
            20.61286
          ],
          [
            -103.42833,
            20.61287
          ],
          [
            -103.42882,
            20.6121
          ],
          [
            -103.42923,
            20.61144
          ],
          [
            -103.42978000000001,
            20.61061
          ],
          [
            -103.42967,
            20.61054
          ],
          [
            -103.42986,
            20.61025
          ],
          [
            -103.43108000000001,
            20.608410000000003
          ],
          [
            -103.43110000000001,
            20.60837
          ],
          [
            -103.43203000000001,
            20.60696
          ],
          [
            -103.43247000000001,
            20.60629
          ],
          [
            -103.43264,
            20.60603
          ],
          [
            -103.43326,
            20.6051
          ],
          [
            -103.4338,
            20.604280000000003
          ],
          [
            -103.43406,
            20.60388
          ],
          [
            -103.4346,
            20.603060000000003
          ],
          [
            -103.43465,
            20.602990000000002
          ],
          [
            -103.43472000000001,
            20.602880000000003
          ],
          [
            -103.43522000000002,
            20.602130000000002
          ],
          [
            -103.43545,
            20.60178
          ],
          [
            -103.43557000000001,
            20.6016
          ],
          [
            -103.43618000000001,
            20.60068
          ],
          [
            -103.43728000000002,
            20.599010000000003
          ],
          [
            -103.43744000000001,
            20.59878
          ],
          [
            -103.43752,
            20.598830000000003
          ],
          [
            -103.43753000000001,
            20.598820000000003
          ],
          [
            -103.43950000000001,
            20.595740000000003
          ],
          [
            -103.44126000000001,
            20.59308
          ],
          [
            -103.44122000000002,
            20.59305
          ],
          [
            -103.44139000000001,
            20.59279
          ],
          [
            -103.44192000000001,
            20.591970000000003
          ],
          [
            -103.44209000000001,
            20.591710000000003
          ],
          [
            -103.44227000000001,
            20.591430000000003
          ],
          [
            -103.44272000000001,
            20.59074
          ],
          [
            -103.44278000000001,
            20.590780000000002
          ],
          [
            -103.44390000000001,
            20.589070000000003
          ],
          [
            -103.44408000000001,
            20.588800000000003
          ],
          [
            -103.44498000000002,
            20.58742
          ],
          [
            -103.44581000000001,
            20.586160000000003
          ],
          [
            -103.44627000000001,
            20.58546
          ],
          [
            -103.44663000000001,
            20.5849
          ],
          [
            -103.44732,
            20.583840000000002
          ],
          [
            -103.44770000000001,
            20.583270000000002
          ],
          [
            -103.44775000000001,
            20.5833
          ],
          [
            -103.44860000000001,
            20.58198
          ],
          [
            -103.44865000000001,
            20.58201
          ],
          [
            -103.44865000000001,
            20.58201
          ],
          [
            -103.44917000000001,
            20.58124
          ],
          [
            -103.44916,
            20.58123
          ],
          [
            -103.44883000000002,
            20.58141
          ],
          [
            -103.44805000000001,
            20.582510000000003
          ],
          [
            -103.44781,
            20.58292
          ],
          [
            -103.44685000000001,
            20.584380000000003
          ],
          [
            -103.44635000000001,
            20.585120000000003
          ],
          [
            -103.44634,
            20.58511
          ],
          [
            -103.44584,
            20.585870000000003
          ],
          [
            -103.44484000000001,
            20.587390000000003
          ],
          [
            -103.44469000000001,
            20.587400000000002
          ],
          [
            -103.44462000000001,
            20.587470000000003
          ],
          [
            -103.44437,
            20.587860000000003
          ],
          [
            -103.44437,
            20.587860000000003
          ],
          [
            -103.44437,
            20.58642
          ]
        ]
      }
    }
  ]
}