{
  "type": "FeatureCollection",
  "features": [
    {
      "type": "Feature",
      "properties": {
        "identifier": "633-via-villas-de-la-loma?o=2",
        "name": "Ruta 633 Vía Villas de la Loma"
      },
      "geometry": {
        "type": "LineString",
        "coordinates": [
          [
            -103.35232,
            20.680290000000003
          ],
          [
            -103.35229000000001,
            20.68081
          ],
          [
            -103.35227,
            20.68192
          ],
          [
            -103.35223,
            20.68317
          ],
          [
            -103.35221000000001,
            20.684410000000003
          ],
          [
            -103.35012,
            20.68439
          ],
          [
            -103.34789,
            20.684500000000003
          ],
          [
            -103.34819,
            20.689780000000003
          ],
          [
            -103.34829,
            20.691270000000003
          ],
          [
            -103.34831000000001,
            20.692010000000003
          ],
          [
            -103.34837,
            20.692960000000003
          ],
          [
            -103.34836000000001,
            20.693510000000003
          ],
          [
            -103.34842,
            20.694480000000002
          ],
          [
            -103.34861000000001,
            20.694930000000003
          ],
          [
            -103.34876000000001,
            20.695210000000003
          ],
          [
            -103.34895,
            20.69546
          ],
          [
            -103.34917000000002,
            20.69565
          ],
          [
            -103.34958,
            20.69593
          ],
          [
            -103.35220000000001,
            20.697640000000003
          ],
          [
            -103.35405000000002,
            20.698790000000002
          ],
          [
            -103.35578000000001,
            20.699920000000002
          ],
          [
            -103.35699000000001,
            20.700670000000002
          ],
          [
            -103.35763000000001,
            20.7011
          ],
          [
            -103.35905000000001,
            20.701980000000002
          ],
          [
            -103.36435,
            20.70541
          ],
          [
            -103.3666,
            20.70683
          ],
          [
            -103.37501,
            20.71223
          ],
          [
            -103.37549000000001,
            20.71251
          ],
          [
            -103.37665000000001,
            20.71328
          ],
          [
            -103.38698000000001,
            20.719880000000003
          ],
          [
            -103.38709000000001,
            20.71997
          ],
          [
            -103.38728,
            20.720180000000003
          ],
          [
            -103.38740000000001,
            20.72043
          ],
          [
            -103.38742,
            20.72053
          ],
          [
            -103.38732,
            20.72109
          ],
          [
            -103.38732,
            20.721290000000003
          ],
          [
            -103.38762000000001,
            20.722240000000003
          ],
          [
            -103.38765000000001,
            20.72237
          ],
          [
            -103.38766000000001,
            20.722530000000003
          ],
          [
            -103.38765000000001,
            20.722720000000002
          ],
          [
            -103.38761000000001,
            20.722890000000003
          ],
          [
            -103.38672000000001,
            20.72606
          ],
          [
            -103.38634,
            20.727490000000003
          ],
          [
            -103.38632000000001,
            20.72764
          ],
          [
            -103.38636000000001,
            20.72792
          ],
          [
            -103.38646000000001,
            20.728150000000003
          ],
          [
            -103.38654000000001,
            20.728260000000002
          ],
          [
            -103.38663000000001,
            20.728350000000002
          ],
          [
            -103.38677000000001,
            20.72848
          ],
          [
            -103.38684,
            20.728520000000003
          ],
          [
            -103.38697,
            20.72858
          ],
          [
            -103.38719,
            20.728640000000002
          ],
          [
            -103.38902,
            20.72879
          ],
          [
            -103.39031000000001,
            20.728910000000003
          ],
          [
            -103.39063,
            20.72903
          ],
          [
            -103.39084000000001,
            20.72913
          ],
          [
            -103.39540000000001,
            20.73245
          ],
          [
            -103.39737000000001,
            20.73386
          ],
          [
            -103.40139,
            20.736800000000002
          ],
          [
            -103.40368000000001,
            20.73853
          ],
          [
            -103.41115,
            20.743930000000002
          ],
          [
            -103.41526,
            20.746940000000002
          ],
          [
            -103.41911,
            20.74969
          ],
          [
            -103.43186000000001,
            20.758950000000002
          ],
          [
            -103.43412000000001,
            20.76058
          ],
          [
            -103.44120000000001,
            20.76574
          ],
          [
            -103.44264000000001,
            20.76677
          ],
          [
            -103.45343000000001,
            20.774620000000002
          ],
          [
            -103.45639000000001,
            20.776760000000003
          ],
          [
            -103.4543,
            20.778550000000003
          ],
          [
            -103.45405000000001,
            20.77858
          ],
          [
            -103.45404,
            20.778640000000003
          ],
          [
            -103.45337,
            20.778640000000003
          ],
          [
            -103.45337,
            20.7772
          ]
        ]
      }
    }
  ]
}