{
  "type": "FeatureCollection",
  "features": [
    {
      "type": "Feature",
      "properties": {
        "identifier": "633-a",
        "name": "Ruta 633 Parques de Tesistán"
      },
      "geometry": {
        "type": "LineString",
        "coordinates": [
          [
            -103.34917000000002,
            20.68033
          ],
          [
            -103.3477,
            20.680410000000002
          ],
          [
            -103.34839000000001,
            20.6931
          ],
          [
            -103.34847,
            20.694380000000002
          ],
          [
            -103.34917000000002,
            20.694860000000002
          ],
          [
            -103.34976,
            20.696070000000002
          ],
          [
            -103.36144,
            20.70313
          ],
          [
            -103.38564000000001,
            20.71903
          ],
          [
            -103.38771000000001,
            20.721120000000003
          ],
          [
            -103.38634,
            20.726090000000003
          ],
          [
            -103.38649000000001,
            20.727860000000003
          ],
          [
            -103.38804,
            20.728820000000002
          ],
          [
            -103.39096,
            20.72914
          ],
          [
            -103.40316000000001,
            20.738460000000003
          ],
          [
            -103.43044,
            20.758200000000002
          ],
          [
            -103.43773,
            20.76329
          ],
          [
            -103.4727,
            20.788680000000003
          ],
          [
            -103.47243,
            20.78885
          ],
          [
            -103.47234,
            20.788880000000002
          ],
          [
            -103.47222000000001,
            20.78885
          ],
          [
            -103.47194,
            20.788760000000003
          ],
          [
            -103.4684,
            20.78881
          ],
          [
            -103.46855000000001,
            20.7971
          ],
          [
            -103.47015,
            20.798280000000002
          ],
          [
            -103.47021000000001,
            20.798440000000003
          ],
          [
            -103.47028,
            20.801000000000002
          ],
          [
            -103.46925,
            20.80093
          ],
          [
            -103.46903,
            20.80092
          ],
          [
            -103.46819,
            20.80104
          ],
          [
            -103.46295,
            20.80178
          ],
          [
            -103.46048,
            20.810910000000003
          ],
          [
            -103.46052,
            20.811040000000002
          ],
          [
            -103.46088,
            20.81106
          ],
          [
            -103.46116,
            20.81161
          ],
          [
            -103.46155,
            20.81266
          ],
          [
            -103.46182,
            20.81351
          ],
          [
            -103.46231,
            20.814760000000003
          ],
          [
            -103.46222,
            20.8148
          ],
          [
            -103.46258,
            20.81549
          ],
          [
            -103.46299,
            20.816740000000003
          ],
          [
            -103.46048,
            20.817
          ],
          [
            -103.46048,
            20.81556
          ]
        ]
      }
    }
  ]
}